<?xml version="1.0" encoding="iso-8859-1"?>
<!-- Generator: Adobe Illustrator 15.1.0, SVG Export Plug-In . SVG Version: 6.00 Build 0)  -->
<!DOCTYPE svg PUBLIC "-//W3C//DTD SVG 1.1//EN" "http://www.w3.org/Graphics/SVG/1.1/DTD/svg11.dtd">
<svg version="1.1" xmlns="http://www.w3.org/2000/svg" xmlns:xlink="http://www.w3.org/1999/xlink" x="0px" y="0px"
	 width="109.45px" height="171.55px" viewBox="0 0 109.45 171.55" style="enable-background:new 0 0 109.45 171.55;"
	 xml:space="preserve">
<symbol  id="flash2.ai_x5F_0_x2F_Layer_1_x2F__x3C_Clip_Group_0_x3E_" viewBox="0 -169.103 109.45 169.103">
	<g id="Layer_1_68_">
	</g>
	<g>
		<defs>
			<path id="SVGID_1_" d="M39-1.6C25.6-1.7,12.6-1.783,0-1.85c0.767-1.566,1.867-3.9,3.3-7c1.3-2.5,2.65-4.267,4.05-5.3
				c5.367-4,9.233-8.417,11.6-13.25c2.466-5,5.983-8.983,10.55-11.95c0.833-0.533,2.283-1.417,4.35-2.65
				c1.733-1.167,2.816-2.367,3.25-3.6c0.333-0.933,0.433-2.417,0.3-4.45c-0.1-2,0.05-3.534,0.45-4.6c0.733-2,2.633-6.417,5.7-13.25
				c2.367-5.367,4.05-9.817,5.05-13.35c-1.434-6.033-1.283-13.95,0.45-23.75c0.4-2.3,0.267-5.35-0.4-9.15
				c-0.767-4.3-1.1-7.35-1-9.15c0.067-1.5,0.217-3.534,0.45-6.1c0.1-2.233-0.167-4.25-0.8-6.05c-0.06-0.024-0.102-0.024-0.125,0
				c-0.369-3.949-0.928-7.516-1.675-10.7c-0.833-3.567-2.017-7.1-3.55-10.6c-0.233-0.567-0.967-2.1-2.2-4.6
				c-0.933-2.333-0.917-3.85,0.05-4.55c3.967-2.2,9.467-3.267,16.5-3.2c11.267,0.133,17.133,1.783,17.6,4.95
				c0.1,0.833-0.367,2.1-1.4,3.8c-1.2,2-1.867,3.267-2,3.8c-0.233,0.833-0.417,2.066-0.55,3.7c-0.167,1.7-0.333,2.934-0.5,3.7
				l-0.05,0.3c-0.167,0.767-1.233,4.167-3.2,10.2c-1.333,4.2-2.017,7.65-2.05,10.35c-0.066,2.466-0.183,4.383-0.35,5.75
				c-0.3,2.267-0.4,4.233-0.3,5.9c0.1,1.967,0.483,3.917,1.15,5.85c0.833,2.433,1.367,4.75,1.6,6.95c0.267,2.167,0.267,4.567,0,7.2
				c-0.1,1.767-0.2,3.1-0.3,4c-0.167,1.566-0.383,2.883-0.65,3.95c-0.1,0.367-0.433,1.267-1,2.7c-0.433,1.1-0.683,2.017-0.75,2.75
				c-0.2,3.033,0.717,6.817,2.75,11.35c2.3,5.133,3.567,8.867,3.8,11.2c0.1,1,0.133,2.917,0.1,5.75
				c-0.034,2.467,0.066,4.35,0.3,5.65c0.267,1.466,1.05,2.966,2.35,4.5c0.767,0.867,1.967,2.133,3.6,3.8
				c4.633,6.533,7.95,11.767,9.95,15.7c1.434,2.767,4,6.183,7.7,10.25C97.2-10.917,98.933-5.9,99.3,0C86-0.9,65.9-1.433,39-1.6z"/>
		</defs>
		<clipPath id="SVGID_2_">
			<use xlink:href="#SVGID_1_"  style="overflow:visible;"/>
		</clipPath>
		<g id="Layer_3_1_" style="clip-path:url(#SVGID_2_);">
			
				<linearGradient id="SVGID_3_" gradientUnits="userSpaceOnUse" x1="15974.8633" y1="-16325.8984" x2="16055.2129" y2="-16325.8984" gradientTransform="matrix(-0.9997 -0.0249 0.0249 -0.9997 16475.2461 -16006.9248)">
				<stop  offset="0" style="stop-color:#4096A9"/>
				<stop  offset="0.0157" style="stop-color:#3E91A4"/>
				<stop  offset="0.1647" style="stop-color:#326C80"/>
				<stop  offset="0.302" style="stop-color:#295166"/>
				<stop  offset="0.4235" style="stop-color:#234156"/>
				<stop  offset="0.5137" style="stop-color:#213B50"/>
				<stop  offset="0.8588" style="stop-color:#1D3A55"/>
				<stop  offset="1" style="stop-color:#193A59"/>
			</linearGradient>
			<path style="fill-rule:evenodd;clip-rule:evenodd;fill:url(#SVGID_3_);" d="M99.3,0c-0.367-5.9-2.1-10.917-5.2-15.05
				c-3.7-4.067-6.267-7.483-7.7-10.25c-2-3.934-5.316-9.167-9.95-15.7c-1.633-1.667-2.833-2.933-3.6-3.8
				c-1.3-1.534-2.083-3.034-2.35-4.5c-0.233-1.3-0.333-3.184-0.3-5.65c0.033-2.833,0-4.75-0.1-5.75c-0.233-2.333-1.5-6.066-3.8-11.2
				c-2.033-4.533-2.95-8.317-2.75-11.35c0.067-0.733,0.317-1.65,0.75-2.75c0.567-1.433,0.9-2.333,1-2.7
				c0.267-1.066,0.483-2.383,0.65-3.95c0.1-0.9,0.2-2.233,0.3-4c0.267-2.633,0.267-5.033,0-7.2c-0.233-2.2-0.767-4.517-1.6-6.95
				c-0.667-1.934-1.05-3.883-1.15-5.85c-0.1-1.667,0-3.633,0.3-5.9c0.167-1.367,0.284-3.284,0.35-5.75
				c0.033-2.7,0.717-6.15,2.05-10.35c1.966-6.033,3.033-9.434,3.2-10.2l0.05-0.3c0.167-0.767,0.333-2,0.5-3.7
				c0.133-1.633,0.316-2.867,0.55-3.7c0.133-0.534,0.8-1.8,2-3.8c1.033-1.7,1.5-2.967,1.4-3.8c-0.467-3.167-6.333-4.817-17.6-4.95
				c-7.033-0.066-12.533,1-16.5,3.2c-0.966,0.7-0.983,2.217-0.05,4.55c1.233,2.5,1.967,4.033,2.2,4.6
				c1.533,3.5,2.716,7.033,3.55,10.6c0.747,3.184,1.306,6.751,1.675,10.7c0.023-0.024,0.065-0.024,0.125,0
				c0.633,1.8,0.9,3.817,0.8,6.05c-0.233,2.566-0.383,4.6-0.45,6.1c-0.1,1.8,0.233,4.85,1,9.15c0.667,3.8,0.8,6.85,0.4,9.15
				c-1.733,9.8-1.883,17.717-0.45,23.75c-1,3.533-2.684,7.983-5.05,13.35c-3.066,6.833-4.966,11.25-5.7,13.25
				c-0.4,1.066-0.55,2.6-0.45,4.6c0.133,2.033,0.033,3.517-0.3,4.45c-0.434,1.233-1.517,2.434-3.25,3.6
				c-2.067,1.233-3.517,2.117-4.35,2.65c-4.567,2.967-8.083,6.95-10.55,11.95c-2.367,4.833-6.233,9.25-11.6,13.25
				c-1.4,1.033-2.75,2.8-4.05,5.3c-1.433,3.1-2.533,5.434-3.3,7C12.6-1.783,25.6-1.7,39-1.6C65.9-1.433,86-0.9,99.3,0z"/>
			
				<linearGradient id="SVGID_4_" gradientUnits="userSpaceOnUse" x1="-205.625" y1="-15937.5" x2="-129.5129" y2="-15937.5" gradientTransform="matrix(0.0312 -0.9995 0.9995 0.0312 15986.1143 280.9766)">
				<stop  offset="0.2667" style="stop-color:#052233"/>
				<stop  offset="0.549" style="stop-color:#294355;stop-opacity:0.6431"/>
				<stop  offset="1" style="stop-color:#6B8093;stop-opacity:0"/>
			</linearGradient>
			<path style="fill-rule:evenodd;clip-rule:evenodd;fill:url(#SVGID_4_);" d="M99.3,0c-0.367-5.9-2.1-10.917-5.2-15.05
				c-3.7-4.067-6.267-7.483-7.7-10.25c-2-3.934-5.316-9.167-9.95-15.7c-1.633-1.667-2.833-2.933-3.6-3.8
				c-1.3-1.534-2.083-3.034-2.35-4.5c-0.233-1.3-0.333-3.184-0.3-5.65c0.033-2.833,0-4.75-0.1-5.75c-0.2-1.867-0.8-4.033-1.8-6.5
				c-0.566-1.367-1.45-3.433-2.65-6.2c-0.6-1.533-1.5-3.817-2.7-6.85C61.883-82.917,60.9-85.2,60-87.1c-0.833-1.7-1.667-2.6-2.5-2.7
				c-1.167-0.133-2.383,1.267-3.65,4.2c-1.233,3.367-2.05,5.45-2.45,6.25c-0.6,1.233-1.633,2.633-3.1,4.2
				c-1.767,1.9-2.917,3.233-3.45,4c-1.5,2.1-2.85,4.767-4.05,8c-1.233,3.767-2.216,6.6-2.95,8.5c-0.4,1.066-0.55,2.6-0.45,4.6
				c0.133,2.033,0.033,3.517-0.3,4.45c-0.434,1.233-1.517,2.434-3.25,3.6c-2.067,1.233-3.517,2.117-4.35,2.65
				c-4.567,2.967-8.083,6.95-10.55,11.95c-2.367,4.833-6.233,9.25-11.6,13.25c-1.4,1.033-2.75,2.8-4.05,5.3
				c-1.433,3.1-2.533,5.434-3.3,7C12.6-1.783,25.6-1.7,39-1.6C65.9-1.433,86-0.9,99.3,0z"/>
			<g>
				<g>
					<g>
						<g>
							
								<use xlink:href="#flash2.ai_x5F_0_x2F_Layer_1_x2F__x3C_Group_x3E_"  width="107.102" height="154.055" x="-0.002" y="-154.061" transform="matrix(1 0 0 1 2.3501 -9.1499)" style="overflow:visible;opacity:0.25;enable-background:new    ;"/>
						</g>
					</g>
				</g>
			</g>
		</g>
	</g>
	<g id="Layer_4_1_">
	</g>
</symbol>
<symbol  id="flash2.ai_x5F_0_x2F_Layer_1_x2F__x3C_Group_x3E_" viewBox="-0.002 -154.061 107.102 154.055">
	<g id="Layer_1_63_">
		<g>
			
				<use xlink:href="#flash2.ai_x5F_0_x2F_Layer_1_x2F__x3C_Path_x3E__x5F_6"  width="107.102" height="34.711" x="-0.002" y="-34.717" style="overflow:visible;opacity:0.4492;enable-background:new    ;"/>
			
				<use xlink:href="#flash2.ai_x5F_0_x2F_Layer_1_x2F__x3C_Path_x3E__x5F_5"  width="71.494" height="29.478" x="0.006" y="-29.478" transform="matrix(1 0 0 1 18.6001 -35.7998)" style="overflow:visible;enable-background:new    ;"/>
			
				<use xlink:href="#flash2.ai_x5F_0_x2F_Layer_1_x2F__x3C_Path_x3E__x5F_4"  width="36.087" height="9.211" x="-0.011" y="-9.211" transform="matrix(1 0 0 1 36.2998 -144.8496)" style="overflow:visible;enable-background:new    ;"/>
			
				<use xlink:href="#flash2.ai_x5F_0_x2F_Layer_1_x2F__x3C_Path_x3E__x5F_3"  width="34.15" height="13.772" y="-13.821" transform="matrix(1 0 0 1 34.0498 -81.9502)" style="overflow:visible;enable-background:new    ;"/>
			
				<use xlink:href="#flash2.ai_x5F_0_x2F_Layer_1_x2F__x3C_Path_x3E__x5F_2"  width="28.141" height="17.565" x="0.011" y="-17.565" transform="matrix(1 0 0 1 41.75 -95.9502)" style="overflow:visible;opacity:0.4492;enable-background:new    ;"/>
			
				<use xlink:href="#flash2.ai_x5F_0_x2F_Layer_1_x2F__x3C_Path_x3E__x5F_1"  width="22.542" height="6.153" x="0.011" y="-6.153" transform="matrix(1 0 0 1 41.75 -69.2002)" style="overflow:visible;opacity:0.4492;enable-background:new    ;"/>
			
				<use xlink:href="#flash2.ai_x5F_0_x2F_Layer_1_x2F__x3C_Path_x3E_"  width="29.703" height="29.008" x="0" y="-29.008" transform="matrix(1 0 0 1 39.3501 -115.3496)" style="overflow:visible;enable-background:new    ;"/>
		</g>
	</g>
</symbol>
<symbol  id="flash2.ai_x5F_0_x2F_Layer_1_x2F__x3C_Group_x3E__x5F_0" viewBox="-0.039 -34.95 19.562 34.955">
	<g id="Layer_1_67_">
		<g>
			
				<use xlink:href="#flash2.ai_x5F_0_x2F_Layer_1_x2F__x3C_Path_x3E__x5F_13_x5F_0"  width="2.107" height="1.948" x="-0.067" y="-1.95" transform="matrix(1 0 0 1 4.9502 -22.8501)" style="overflow:visible;opacity:0.4805;enable-background:new    ;"/>
			
				<use xlink:href="#flash2.ai_x5F_0_x2F_Layer_1_x2F__x3C_Path_x3E__x5F_12_x5F_0"  width="2.495" height="2.504" x="-0.038" y="-2.491" transform="matrix(1 0 0 1 1.8501 -29.8999)" style="overflow:visible;opacity:0.4805;enable-background:new    ;"/>
			
				<use xlink:href="#flash2.ai_x5F_0_x2F_Layer_1_x2F__x3C_Path_x3E__x5F_11_x5F_0"  width="0.729" height="1.095" x="0.044" y="-1.111" transform="matrix(1 0 0 1 3.6001 -23.8999)" style="overflow:visible;opacity:0.4805;enable-background:new    ;"/>
			
				<use xlink:href="#flash2.ai_x5F_0_x2F_Layer_1_x2F__x3C_Path_x3E__x5F_10_x5F_0"  width="1.605" height="1.62" x="-0.038" y="-1.61" transform="matrix(1 0 0 1 5.7002 -19.75)" style="overflow:visible;opacity:0.4805;enable-background:new    ;"/>
			
				<use xlink:href="#flash2.ai_x5F_0_x2F_Layer_1_x2F__x3C_Path_x3E__x5F_9_x5F_0"  width="0.81" height="1.037" x="-0.022" y="-1.032" transform="matrix(1 0 0 1 0.75 -31.2998)" style="overflow:visible;opacity:0.4805;enable-background:new    ;"/>
			
				<use xlink:href="#flash2.ai_x5F_0_x2F_Layer_1_x2F__x3C_Path_x3E__x5F_8_x5F_1"  width="0.81" height="0.987" x="-0.022" y="-0.982" transform="matrix(1 0 0 1 13.4502 0)" style="overflow:visible;opacity:0.4805;enable-background:new    ;"/>
			
				<use xlink:href="#flash2.ai_x5F_0_x2F_Layer_1_x2F__x3C_Path_x3E__x5F_7_x5F_1"  width="1.347" height="1.786" x="0.006" y="-1.783" transform="matrix(1 0 0 1 4.7002 -27.6001)" style="overflow:visible;opacity:0.4805;enable-background:new    ;"/>
			
				<use xlink:href="#flash2.ai_x5F_0_x2F_Layer_1_x2F__x3C_Path_x3E__x5F_6_x5F_3"  width="1.389" height="1.8" x="-0.036" y="-1.798" transform="matrix(1 0 0 1 12.4502 -1.75)" style="overflow:visible;opacity:0.4805;enable-background:new    ;"/>
			
				<use xlink:href="#flash2.ai_x5F_0_x2F_Layer_1_x2F__x3C_Path_x3E__x5F_5_x5F_3"  width="1.367" height="1.833" x="-0.044" y="-1.833" transform="matrix(1 0 0 1 18.2002 -8.6001)" style="overflow:visible;opacity:0.4805;enable-background:new    ;"/>
			
				<use xlink:href="#flash2.ai_x5F_0_x2F_Layer_1_x2F__x3C_Path_x3E__x5F_4_x5F_3"  width="3.389" height="3.816" x="-0.076" y="-3.799" transform="matrix(1 0 0 1 1 -26.5498)" style="overflow:visible;opacity:0.4805;enable-background:new    ;"/>
			
				<use xlink:href="#flash2.ai_x5F_0_x2F_Layer_1_x2F__x3C_Path_x3E__x5F_3_x5F_3"  width="0.76" height="0.756" x="-0.03" y="-0.75" transform="matrix(1 0 0 1 8.7998 -19.7002)" style="overflow:visible;opacity:0.4805;enable-background:new    ;"/>
			
				<use xlink:href="#flash2.ai_x5F_0_x2F_Layer_1_x2F__x3C_Path_x3E__x5F_2_x5F_3"  width="0.794" height="0.725" x="-0.064" y="-0.755" transform="matrix(1 0 0 1 12.7998 -10.1499)" style="overflow:visible;opacity:0.4805;enable-background:new    ;"/>
			
				<use xlink:href="#flash2.ai_x5F_0_x2F_Layer_1_x2F__x3C_Path_x3E__x5F_1_x5F_3"  width="0.769" height="0.711" x="0.011" y="-0.706" transform="matrix(1 0 0 1 1.4502 -25.3999)" style="overflow:visible;opacity:0.4805;enable-background:new    ;"/>
			
				<use xlink:href="#flash2.ai_x5F_0_x2F_Layer_1_x2F__x3C_Path_x3E__x5F_16"  width="0.769" height="0.756" x="-0.039" y="-0.75" transform="matrix(1 0 0 1 0 -34.2002)" style="overflow:visible;opacity:0.4805;enable-background:new    ;"/>
		</g>
	</g>
</symbol>
<symbol  id="flash2.ai_x5F_0_x2F_Layer_1_x2F__x3C_Group_x3E__x5F_1">
	<g id="Layer_1_66_">
		<g>
			
				<use xlink:href="#flash2.ai_x5F_0_x2F_Layer_1_x2F__x3C_Path_x3E__x5F_14"  width="-32766" height="-32766" x="16383" y="16383" style="overflow:visible;opacity:0.4805;enable-background:new    ;"/>
		</g>
	</g>
</symbol>
<symbol  id="flash2.ai_x5F_0_x2F_Layer_1_x2F__x3C_Group_x3E__x5F_2" viewBox="-0.004 -38.833 17.064 38.821">
	<g id="Layer_1_65_">
		<g>
			
				<use xlink:href="#flash2.ai_x5F_0_x2F_Layer_1_x2F__x3C_Path_x3E__x5F_12"  width="1.617" height="2.817" x="-0.039" y="-2.789" transform="matrix(1 0 0 1 11.8999 -23.9502)" style="overflow:visible;opacity:0.4805;enable-background:new    ;"/>
			
				<use xlink:href="#flash2.ai_x5F_0_x2F_Layer_1_x2F__x3C_Path_x3E__x5F_11"  width="1.632" height="3.679" x="-0.024" y="-3.628" transform="matrix(1 0 0 1 15.4502 -31.6001)" style="overflow:visible;opacity:0.4805;enable-background:new    ;"/>
			
				<use xlink:href="#flash2.ai_x5F_0_x2F_Layer_1_x2F__x3C_Path_x3E__x5F_10"  width="0.935" height="1.256" y="-1.236" transform="matrix(1 0 0 1 11.25 -26.8501)" style="overflow:visible;opacity:0.4805;enable-background:new    ;"/>
			
				<use xlink:href="#flash2.ai_x5F_0_x2F_Layer_1_x2F__x3C_Path_x3E__x5F_9"  width="1.061" height="2.346" x="-0.02" y="-2.328" transform="matrix(1 0 0 1 10 -21.2002)" style="overflow:visible;opacity:0.4805;enable-background:new    ;"/>
			
				<use xlink:href="#flash2.ai_x5F_0_x2F_Layer_1_x2F__x3C_Path_x3E__x5F_8_x5F_0"  width="0.768" height="1.266" x="-0.004" y="-1.278" transform="matrix(1 0 0 1 14.7998 -34.8999)" style="overflow:visible;opacity:0.4805;enable-background:new    ;"/>
			
				<use xlink:href="#flash2.ai_x5F_0_x2F_Layer_1_x2F__x3C_Path_x3E__x5F_7_x5F_0"  width="0.768" height="1.301" x="-0.004" y="-1.313" style="overflow:visible;opacity:0.4805;enable-background:new    ;"/>
			
				<use xlink:href="#flash2.ai_x5F_0_x2F_Layer_1_x2F__x3C_Path_x3E__x5F_6_x5F_2"  width="1.192" height="2.303" x="-0.028" y="-2.318" transform="matrix(1 0 0 1 15.25 -28.1499)" style="overflow:visible;opacity:0.4805;enable-background:new    ;"/>
			
				<use xlink:href="#flash2.ai_x5F_0_x2F_Layer_1_x2F__x3C_Path_x3E__x5F_5_x5F_2"  width="1.166" height="2.327" x="-0.028" y="-2.275" transform="matrix(1 0 0 1 0.9502 -1.7998)" style="overflow:visible;opacity:0.4805;enable-background:new    ;"/>
			
				<use xlink:href="#flash2.ai_x5F_0_x2F_Layer_1_x2F__x3C_Path_x3E__x5F_4_x5F_2"  width="1.166" height="2.327" x="-0.028" y="-2.268" transform="matrix(1 0 0 1 10.75 -2)" style="overflow:visible;opacity:0.4805;enable-background:new    ;"/>
			
				<use xlink:href="#flash2.ai_x5F_0_x2F_Layer_1_x2F__x3C_Path_x3E__x5F_3_x5F_2"  width="2.124" height="5.456" x="-0.052" y="-5.419" transform="matrix(1 0 0 1 12.6499 -29.1001)" style="overflow:visible;opacity:0.4805;enable-background:new    ;"/>
			
				<use xlink:href="#flash2.ai_x5F_0_x2F_Layer_1_x2F__x3C_Path_x3E__x5F_2_x5F_1"  width="0.543" height="1.074" x="0.017" y="-1.083" transform="matrix(1 0 0 1 11.8999 -19.0498)" style="overflow:visible;opacity:0.4805;enable-background:new    ;"/>
			
				<use xlink:href="#flash2.ai_x5F_0_x2F_Layer_1_x2F__x3C_Path_x3E__x5F_1_x5F_1"  width="0.564" height="1.095" x="-0.006" y="-1.083" transform="matrix(1 0 0 1 10.75 -29.7998)" style="overflow:visible;opacity:0.4805;enable-background:new    ;"/>
			
				<use xlink:href="#flash2.ai_x5F_0_x2F_Layer_1_x2F__x3C_Path_x3E__x5F_13"  width="0.566" height="1.045" x="-0.006" y="-1.033" transform="matrix(1 0 0 1 16.5 -37.7998)" style="overflow:visible;opacity:0.4805;enable-background:new    ;"/>
		</g>
	</g>
</symbol>
<symbol  id="flash2.ai_x5F_0_x2F_Layer_1_x2F__x3C_Group_x3E__x5F_3" viewBox="-0.006 -26.143 16.815 26.177">
	<g id="Layer_1_64_">
		<g>
			
				<use xlink:href="#flash2.ai_x5F_0_x2F_Layer_1_x2F__x3C_Path_x3E__x5F_8"  width="2.515" height="4.297" x="-0.05" y="-4.193" transform="matrix(1 0 0 1 10.3999 -15.2998)" style="overflow:visible;opacity:0.4805;enable-background:new    ;"/>
			
				<use xlink:href="#flash2.ai_x5F_0_x2F_Layer_1_x2F__x3C_Path_x3E__x5F_7"  width="2.586" height="5.332" x="-0.002" y="-5.241" transform="matrix(1 0 0 1 0.0498 -6.3501)" style="overflow:visible;opacity:0.4805;enable-background:new    ;"/>
			
				<use xlink:href="#flash2.ai_x5F_0_x2F_Layer_1_x2F__x3C_Path_x3E__x5F_6_x5F_0"  width="1.525" height="1.667" x="-0.003" y="-1.645" transform="matrix(1 0 0 1 11.2998 -12.8999)" style="overflow:visible;opacity:0.4805;enable-background:new    ;"/>
			
				<use xlink:href="#flash2.ai_x5F_0_x2F_Layer_1_x2F__x3C_Path_x3E__x5F_5_x5F_0"  width="1.859" height="3.437" x="0" y="-3.368" transform="matrix(1 0 0 1 14.9502 -18.8501)" style="overflow:visible;opacity:0.4805;enable-background:new    ;"/>
			
				<use xlink:href="#flash2.ai_x5F_0_x2F_Layer_1_x2F__x3C_Path_x3E__x5F_4_x5F_0"  width="1.344" height="1.802" y="-1.75" transform="matrix(1 0 0 1 3.1499 -3.1001)" style="overflow:visible;opacity:0.4805;enable-background:new    ;"/>
			
				<use xlink:href="#flash2.ai_x5F_0_x2F_Layer_1_x2F__x3C_Path_x3E__x5F_3_x5F_0"  width="2.164" height="3.246" x="-0.011" y="-3.151" transform="matrix(1 0 0 1 2.8501 -13.2998)" style="overflow:visible;opacity:0.4805;enable-background:new    ;"/>
			
				<use xlink:href="#flash2.ai_x5F_0_x2F_Layer_1_x2F__x3C_Path_x3E__x5F_2_x5F_0"  width="4.085" height="7.793" x="-0.039" y="-7.606" transform="matrix(1 0 0 1 4.25 -7.25)" style="overflow:visible;opacity:0.4805;enable-background:new    ;"/>
			
				<use xlink:href="#flash2.ai_x5F_0_x2F_Layer_1_x2F__x3C_Path_x3E__x5F_1_x5F_0"  width="0.917" height="1.61" x="-0.014" y="-1.593" transform="matrix(1 0 0 1 14.1001 -24.5498)" style="overflow:visible;opacity:0.4805;enable-background:new    ;"/>
			
				<use xlink:href="#flash2.ai_x5F_0_x2F_Layer_1_x2F__x3C_Path_x3E__x5F_0"  width="0.926" height="1.577" x="-0.006" y="-1.543" style="overflow:visible;opacity:0.4805;enable-background:new    ;"/>
		</g>
	</g>
</symbol>
<symbol  id="flash2.ai_x5F_0_x2F_Layer_1_x2F__x3C_Path_x3E_" viewBox="0 -29.008 29.703 29.008">
	<g id="Layer_1_8_">
		
			<linearGradient id="SVGID_5_" gradientUnits="userSpaceOnUse" x1="16246.2979" y1="-16197.4961" x2="16276" y2="-16197.4961" gradientTransform="matrix(-1 0 0 -1 16276 -16212)">
			<stop  offset="0" style="stop-color:#355861"/>
			<stop  offset="0.0078" style="stop-color:#345760"/>
			<stop  offset="0.1961" style="stop-color:#19414B"/>
			<stop  offset="0.3686" style="stop-color:#09343E"/>
			<stop  offset="0.498" style="stop-color:#032F3A"/>
			<stop  offset="0.6314" style="stop-color:#08333E"/>
			<stop  offset="0.7882" style="stop-color:#163F49"/>
			<stop  offset="0.9608" style="stop-color:#2E535C"/>
			<stop  offset="1" style="stop-color:#355861"/>
		</linearGradient>
		<path style="fill-rule:evenodd;clip-rule:evenodd;fill:url(#SVGID_5_);" d="M22.15-0.7c2.367,0.767,4.067,0.017,5.1-2.25
			c0.733-1.6,1.25-3.767,1.55-6.5c0.133-1.533,0.333-3.75,0.6-6.65c0.367-2.3,0.4-4.167,0.1-5.6c-0.433-1.9-1.467-3.4-3.1-4.5
			c-2.6-1.767-5.467-2.7-8.6-2.8c-2.066-0.067-5.117,0.283-9.15,1.05L3.7-27.1c-1.934,0.567-3.083,1.5-3.45,2.8
			c-0.333,1.2-0.333,2.75,0,4.65c0.467,2.066,0.733,3.6,0.8,4.6c0.067,0.9-0.017,2.033-0.25,3.4c-0.267,1.6-0.417,2.7-0.45,3.3
			C0.317-7.283,0.517-5.833,0.95-4c0.466,1.8,0.767,3.133,0.9,4C3.55-0.6,5.8-1.5,8.6-2.7c2.433-0.833,4.85-1.017,7.25-0.55
			C17.217-2.983,19.317-2.133,22.15-0.7z"/>
	</g>
</symbol>
<symbol  id="flash2.ai_x5F_0_x2F_Layer_1_x2F__x3C_Path_x3E__x5F_0" viewBox="-0.006 -1.543 0.926 1.577">
	<g id="Layer_1_17_">
		<path style="fill-rule:evenodd;clip-rule:evenodd;fill:#79A3A7;" d="M0.8-1.35C0.533-1.65,0.317-1.6,0.15-1.2
			c-0.167,0.367-0.2,0.717-0.1,1.05c0.133,0.3,0.333,0.233,0.6-0.2C0.95-0.783,1-1.117,0.8-1.35z"/>
	</g>
</symbol>
<symbol  id="flash2.ai_x5F_0_x2F_Layer_1_x2F__x3C_Path_x3E__x5F_1" viewBox="0.011 -6.153 22.542 6.153">
	<g id="Layer_1_7_">
		
			<linearGradient id="SVGID_6_" gradientUnits="userSpaceOnUse" x1="16253.4473" y1="-16208.9238" x2="16275.9893" y2="-16208.9238" gradientTransform="matrix(-1 0 0 -1 16276 -16212)">
			<stop  offset="0" style="stop-color:#809399"/>
			<stop  offset="0.1216" style="stop-color:#648B90"/>
			<stop  offset="0.2667" style="stop-color:#498488"/>
			<stop  offset="0.3961" style="stop-color:#398083"/>
			<stop  offset="0.498" style="stop-color:#337E81"/>
			<stop  offset="1" style="stop-color:#337E81"/>
		</linearGradient>
		<path style="fill-rule:evenodd;clip-rule:evenodd;fill:url(#SVGID_6_);" d="M22.3-1.9c-0.4-0.5-0.65-0.833-0.75-1
			c-0.6-1.067-1.733-1.883-3.4-2.45c-1.667-0.566-3.667-0.833-6-0.8C8.817-6.083,6.267-5.883,4.5-5.55C1.9-5.05,0.45-4.2,0.15-3
			C-0.017-2.4-0.033-1.85,0.1-1.35C0.233-0.683,0.583-0.233,1.15,0c3.434-0.933,7.367-1.367,11.8-1.3c1.8,0.033,4,0.25,6.6,0.65
			c1.5,0.233,2.45,0.167,2.85-0.2C22.633-1.05,22.6-1.4,22.3-1.9z"/>
	</g>
</symbol>
<symbol  id="flash2.ai_x5F_0_x2F_Layer_1_x2F__x3C_Path_x3E__x5F_10" viewBox="0 -1.236 0.935 1.256">
	<g id="Layer_1_24_">
		<path style="fill-rule:evenodd;clip-rule:evenodd;fill:#79A3A7;" d="M0.9-0.9C0.767-1.267,0.583-1.333,0.35-1.1
			C0.117-0.9,0-0.617,0-0.25C0.033,0.05,0.217,0.1,0.55-0.1C0.883-0.333,1-0.6,0.9-0.9z"/>
	</g>
</symbol>
<symbol  id="flash2.ai_x5F_0_x2F_Layer_1_x2F__x3C_Path_x3E__x5F_10_x5F_0" viewBox="-0.038 -1.61 1.605 1.62">
	<g id="Layer_1_42_">
		<path style="fill-rule:evenodd;clip-rule:evenodd;fill:#79A3A7;" d="M1.2,0c0.433-0.133,0.483-0.417,0.15-0.85
			c-0.333-0.433-0.7-0.683-1.1-0.75C-0.117-1.667-0.133-1.4,0.2-0.8C0.533-0.2,0.867,0.067,1.2,0z"/>
	</g>
</symbol>
<symbol  id="flash2.ai_x5F_0_x2F_Layer_1_x2F__x3C_Path_x3E__x5F_11" viewBox="-0.024 -3.628 1.632 3.679">
	<g id="Layer_1_23_">
		<path style="fill-rule:evenodd;clip-rule:evenodd;fill:#79A3A7;" d="M0.4-3.35C0-2.717-0.117-1.917,0.05-0.95
			c0.133,0.967,0.517,1.233,1.15,0.8c0.466-0.367,0.533-1.133,0.2-2.3C1.1-3.617,0.767-3.917,0.4-3.35z"/>
	</g>
</symbol>
<symbol  id="flash2.ai_x5F_0_x2F_Layer_1_x2F__x3C_Path_x3E__x5F_11_x5F_0" viewBox="0.044 -1.111 0.729 1.095">
	<g id="Layer_1_41_">
		<path style="fill-rule:evenodd;clip-rule:evenodd;fill:#79A3A7;" d="M0.5-1.05C0.2-1.183,0.05-1.1,0.05-0.8
			c-0.033,0.267,0.067,0.5,0.3,0.7c0.2,0.167,0.333,0.083,0.4-0.25C0.817-0.717,0.733-0.95,0.5-1.05z"/>
	</g>
</symbol>
<symbol  id="flash2.ai_x5F_0_x2F_Layer_1_x2F__x3C_Path_x3E__x5F_12" viewBox="-0.039 -2.789 1.617 2.817">
	<g id="Layer_1_22_">
		<path style="fill-rule:evenodd;clip-rule:evenodd;fill:#79A3A7;" d="M1.55-0.75c0.1-0.733-0.066-1.333-0.5-1.8
			C0.65-3.017,0.333-2.8,0.1-1.9c-0.267,0.867-0.15,1.45,0.35,1.75C1.083,0.217,1.45,0.017,1.55-0.75z"/>
	</g>
</symbol>
<symbol  id="flash2.ai_x5F_0_x2F_Layer_1_x2F__x3C_Path_x3E__x5F_12_x5F_0" viewBox="-0.038 -2.491 2.495 2.504">
	<g id="Layer_1_40_">
		<path style="fill-rule:evenodd;clip-rule:evenodd;fill:#79A3A7;" d="M1.25-0.3c0.7,0.5,1.1,0.4,1.2-0.3
			c0.066-0.533-0.367-1.05-1.3-1.55C0.217-2.65-0.167-2.6,0-2C0.167-1.333,0.583-0.767,1.25-0.3z"/>
	</g>
</symbol>
<symbol  id="flash2.ai_x5F_0_x2F_Layer_1_x2F__x3C_Path_x3E__x5F_13" viewBox="-0.006 -1.033 0.566 1.045">
	<g id="Layer_1_34_">
		<path style="fill-rule:evenodd;clip-rule:evenodd;fill:#79A3A7;" d="M0.55-0.3C0.583-0.567,0.533-0.783,0.4-0.95
			C0.267-1.117,0.15-1.033,0.05-0.7c-0.1,0.333-0.066,0.55,0.1,0.65C0.383,0.083,0.517,0,0.55-0.3z"/>
	</g>
</symbol>
<symbol  id="flash2.ai_x5F_0_x2F_Layer_1_x2F__x3C_Path_x3E__x5F_13_x5F_0" viewBox="-0.067 -1.95 2.107 1.948">
	<g id="Layer_1_39_">
		<path style="fill-rule:evenodd;clip-rule:evenodd;fill:#79A3A7;" d="M1.5-0.05C2.1-0.283,2.2-0.667,1.8-1.2
			C1.4-1.7,0.917-1.95,0.35-1.95c-0.5,0-0.55,0.367-0.15,1.1C0.6-0.15,1.033,0.117,1.5-0.05z"/>
	</g>
</symbol>
<symbol  id="flash2.ai_x5F_0_x2F_Layer_1_x2F__x3C_Path_x3E__x5F_14">
	<g id="Layer_1_35_">
	</g>
</symbol>
<symbol  id="flash2.ai_x5F_0_x2F_Layer_1_x2F__x3C_Path_x3E__x5F_15" viewBox="-0.036 -3.259 2.241 3.349">
	<g id="Layer_1_38_">
		<path style="fill-rule:evenodd;clip-rule:evenodd;fill:#79A3A7;" d="M2-2.5c-0.5-0.9-1-1-1.5-0.3C0-2.133-0.15-1.383,0.05-0.55
			c0.167,0.8,0.633,0.85,1.4,0.15C2.217-1.1,2.4-1.8,2-2.5z"/>
	</g>
</symbol>
<symbol  id="flash2.ai_x5F_0_x2F_Layer_1_x2F__x3C_Path_x3E__x5F_16" viewBox="-0.039 -0.75 0.769 0.756">
	<g id="Layer_1_52_">
		<path style="fill-rule:evenodd;clip-rule:evenodd;fill:#79A3A7;" d="M0.55,0c0.2-0.067,0.233-0.2,0.1-0.4
			C0.517-0.6,0.333-0.717,0.1-0.75c-0.167,0-0.184,0.133-0.05,0.4C0.217-0.083,0.383,0.033,0.55,0z"/>
	</g>
</symbol>
<symbol  id="flash2.ai_x5F_0_x2F_Layer_1_x2F__x3C_Path_x3E__x5F_17" viewBox="0.011 -1.375 1.117 1.378">
	<g id="Layer_1_62_">
		<path style="fill-rule:evenodd;clip-rule:evenodd;fill:#79A3A7;" d="M0.75,0c0.367-0.033,0.467-0.233,0.3-0.6
			C0.85-1,0.6-1.25,0.3-1.35c-0.3-0.1-0.367,0.1-0.2,0.6C0.233-0.217,0.45,0.033,0.75,0z"/>
	</g>
</symbol>
<symbol  id="flash2.ai_x5F_0_x2F_Layer_1_x2F__x3C_Path_x3E__x5F_1_x5F_0" viewBox="-0.014 -1.593 0.917 1.61">
	<g id="Layer_1_16_">
		<path style="fill-rule:evenodd;clip-rule:evenodd;fill:#79A3A7;" d="M0.75-1.4C0.483-1.7,0.267-1.65,0.1-1.25
			C-0.033-0.883-0.05-0.533,0.05-0.2c0.133,0.333,0.333,0.284,0.6-0.15C0.95-0.817,0.983-1.167,0.75-1.4z"/>
	</g>
</symbol>
<symbol  id="flash2.ai_x5F_0_x2F_Layer_1_x2F__x3C_Path_x3E__x5F_1_x5F_1" viewBox="-0.006 -1.083 0.564 1.095">
	<g id="Layer_1_33_">
		<path style="fill-rule:evenodd;clip-rule:evenodd;fill:#79A3A7;" d="M0.55-0.3C0.583-0.567,0.517-0.8,0.35-1
			c-0.133-0.167-0.233-0.083-0.3,0.25c-0.1,0.333-0.066,0.567,0.1,0.7C0.35,0.083,0.483,0,0.55-0.3z"/>
	</g>
</symbol>
<symbol  id="flash2.ai_x5F_0_x2F_Layer_1_x2F__x3C_Path_x3E__x5F_1_x5F_2" viewBox="-0.024 -2.938 1.632 2.986">
	<g id="Layer_1_37_">
		<path style="fill-rule:evenodd;clip-rule:evenodd;fill:#79A3A7;" d="M1.2-2.65C0.6-3.15,0.217-3,0.05-2.2
			C-0.117-1.467,0-0.817,0.4-0.25c0.333,0.533,0.667,0.35,1-0.55C1.733-1.667,1.667-2.283,1.2-2.65z"/>
	</g>
</symbol>
<symbol  id="flash2.ai_x5F_0_x2F_Layer_1_x2F__x3C_Path_x3E__x5F_1_x5F_3" viewBox="0.011 -0.706 0.769 0.711">
	<g id="Layer_1_51_">
		<path style="fill-rule:evenodd;clip-rule:evenodd;fill:#79A3A7;" d="M0.6,0c0.2-0.067,0.233-0.2,0.1-0.4
			C0.533-0.6,0.35-0.7,0.15-0.7C-0.017-0.733-0.033-0.617,0.1-0.35C0.267-0.083,0.433,0.033,0.6,0z"/>
	</g>
</symbol>
<symbol  id="flash2.ai_x5F_0_x2F_Layer_1_x2F__x3C_Path_x3E__x5F_1_x5F_4" viewBox="0.011 -1.375 1.117 1.378">
	<g id="Layer_1_61_">
		<path style="fill-rule:evenodd;clip-rule:evenodd;fill:#79A3A7;" d="M0.75,0c0.367-0.033,0.467-0.233,0.3-0.6
			C0.85-1,0.6-1.25,0.3-1.35c-0.3-0.1-0.367,0.1-0.2,0.6C0.233-0.217,0.45,0.033,0.75,0z"/>
	</g>
</symbol>
<symbol  id="flash2.ai_x5F_0_x2F_Layer_1_x2F__x3C_Path_x3E__x5F_2" viewBox="0.011 -17.565 28.141 17.565">
	<g id="Layer_1_6_">
		
			<linearGradient id="SVGID_7_" gradientUnits="userSpaceOnUse" x1="16247.8477" y1="-16203.2168" x2="16275.9893" y2="-16203.2168" gradientTransform="matrix(-1 0 0 -1 16276 -16212)">
			<stop  offset="0" style="stop-color:#809399"/>
			<stop  offset="0.1216" style="stop-color:#648B90"/>
			<stop  offset="0.2667" style="stop-color:#498488"/>
			<stop  offset="0.3961" style="stop-color:#398083"/>
			<stop  offset="0.498" style="stop-color:#337E81"/>
			<stop  offset="1" style="stop-color:#337E81"/>
		</linearGradient>
		<path style="fill-rule:evenodd;clip-rule:evenodd;fill:url(#SVGID_7_);" d="M27.95-2.4c0.3-0.633,0.267-1.633-0.1-3
			c-0.2-0.733-0.517-1.717-0.95-2.95c-0.733-3.033-2.15-5.367-4.25-7c-2.066-1.6-4.55-2.333-7.45-2.2
			c-4.133,0.133-7.317,0.683-9.55,1.65c-3.3,1.433-5.133,3.867-5.5,7.3C-0.017-6.833-0.033-5.233,0.1-3.8
			C0.267-1.933,0.717-0.667,1.45,0c2.1-1.233,4.466-2.167,7.1-2.8c2.6-0.633,5.133-0.9,7.6-0.8c2.267,0.1,5.017,0.7,8.25,1.8
			C26.267-1.133,27.45-1.333,27.95-2.4z"/>
	</g>
</symbol>
<symbol  id="flash2.ai_x5F_0_x2F_Layer_1_x2F__x3C_Path_x3E__x5F_2_x5F_0" viewBox="-0.039 -7.606 4.085 7.793">
	<g id="Layer_1_15_">
		<path style="fill-rule:evenodd;clip-rule:evenodd;fill:#79A3A7;" d="M3.75-6.9c-0.8-1.233-1.7-0.85-2.7,1.15
			c-0.933,1.933-1.267,3.65-1,5.15C0.317,0.8,1.167,0.333,2.6-2C4-4.3,4.383-5.933,3.75-6.9z"/>
	</g>
</symbol>
<symbol  id="flash2.ai_x5F_0_x2F_Layer_1_x2F__x3C_Path_x3E__x5F_2_x5F_1" viewBox="0.017 -1.083 0.543 1.074">
	<g id="Layer_1_32_">
		<path style="fill-rule:evenodd;clip-rule:evenodd;fill:#79A3A7;" d="M0.15-0.05c0.233,0.1,0.367,0.017,0.4-0.25
			C0.583-0.567,0.533-0.8,0.4-1C0.267-1.167,0.15-1.083,0.05-0.75C-0.017-0.417,0.017-0.183,0.15-0.05z"/>
	</g>
</symbol>
<symbol  id="flash2.ai_x5F_0_x2F_Layer_1_x2F__x3C_Path_x3E__x5F_2_x5F_2" viewBox="0.005 -1.667 1.101 1.695">
	<g id="Layer_1_36_">
		<path style="fill-rule:evenodd;clip-rule:evenodd;fill:#79A3A7;" d="M1-1.3C0.733-1.733,0.483-1.783,0.25-1.45
			c-0.233,0.333-0.3,0.717-0.2,1.15c0.067,0.4,0.3,0.433,0.7,0.1C1.117-0.567,1.2-0.933,1-1.3z"/>
	</g>
</symbol>
<symbol  id="flash2.ai_x5F_0_x2F_Layer_1_x2F__x3C_Path_x3E__x5F_2_x5F_3" viewBox="-0.064 -0.755 0.794 0.725">
	<g id="Layer_1_50_">
		<path style="fill-rule:evenodd;clip-rule:evenodd;fill:#79A3A7;" d="M0.55-0.05c0.2-0.067,0.233-0.2,0.1-0.4
			c-0.167-0.2-0.35-0.3-0.55-0.3c-0.2-0.033-0.217,0.1-0.05,0.4C0.217-0.083,0.383,0.017,0.55-0.05z"/>
	</g>
</symbol>
<symbol  id="flash2.ai_x5F_0_x2F_Layer_1_x2F__x3C_Path_x3E__x5F_2_x5F_4" viewBox="-0.039 -1.375 1.117 1.378">
	<g id="Layer_1_60_">
		<path style="fill-rule:evenodd;clip-rule:evenodd;fill:#79A3A7;" d="M0.7,0C1.067,0,1.167-0.2,1-0.6S0.583-1.25,0.25-1.35
			c-0.3-0.1-0.367,0.1-0.2,0.6C0.183-0.217,0.4,0.033,0.7,0z"/>
	</g>
</symbol>
<symbol  id="flash2.ai_x5F_0_x2F_Layer_1_x2F__x3C_Path_x3E__x5F_3" viewBox="0 -13.821 34.15 13.772">
	<g id="Layer_1_5_">
		
			<linearGradient id="SVGID_8_" gradientUnits="userSpaceOnUse" x1="16255.0469" y1="-16191.7715" x2="16289.1885" y2="-16191.7715" gradientTransform="matrix(-1 0.0016 -0.0016 -1 16262.7451 -16225.3066)">
			<stop  offset="0" style="stop-color:#355861"/>
			<stop  offset="0.0078" style="stop-color:#345760"/>
			<stop  offset="0.1961" style="stop-color:#19414B"/>
			<stop  offset="0.3686" style="stop-color:#09343E"/>
			<stop  offset="0.498" style="stop-color:#032F3A"/>
			<stop  offset="0.6314" style="stop-color:#08333E"/>
			<stop  offset="0.7882" style="stop-color:#163F49"/>
			<stop  offset="0.9608" style="stop-color:#2E535C"/>
			<stop  offset="1" style="stop-color:#355861"/>
		</linearGradient>
		<path style="fill-rule:evenodd;clip-rule:evenodd;fill:url(#SVGID_8_);" d="M26-6.15c2.951,1.326,5.667,3.359,8.15,6.1
			c-0.801-0.947-1.251-2.88-1.35-5.8c-0.066-2.667-0.833-4.45-2.3-5.35c-1.867-1.167-4.3-1.7-7.3-1.6
			c-3.367,0.333-5.883,0.466-7.55,0.4c-0.066,0-1.917-0.367-5.55-1.1c-2.467-0.5-4.3-0.417-5.5,0.25l-0.5,0.3
			c-0.667,0.467-1.45,1.684-2.35,3.65C1.083-7.867,0.5-6.433,0-5c2.1-0.767,4.817-1.783,8.15-3.05c2.767-0.833,5.55-1.034,8.35-0.6
			C20.433-8.083,23.6-7.25,26-6.15z"/>
	</g>
</symbol>
<symbol  id="flash2.ai_x5F_0_x2F_Layer_1_x2F__x3C_Path_x3E__x5F_3_x5F_0" viewBox="-0.011 -3.151 2.164 3.246">
	<g id="Layer_1_14_">
		<path style="fill-rule:evenodd;clip-rule:evenodd;fill:#79A3A7;" d="M2.05-2.65c-0.333-0.7-0.767-0.667-1.3,0.1
			C0.183-1.817-0.067-1.083,0-0.35C0.067,0.317,0.5,0.233,1.3-0.6C2.067-1.433,2.317-2.117,2.05-2.65z"/>
	</g>
</symbol>
<symbol  id="flash2.ai_x5F_0_x2F_Layer_1_x2F__x3C_Path_x3E__x5F_3_x5F_1" viewBox="-0.013 -1.104 1.083 1.118">
	<g id="Layer_1_21_">
		<path style="fill-rule:evenodd;clip-rule:evenodd;fill:#79A3A7;" d="M0.8,0c0.3-0.1,0.35-0.3,0.15-0.6C0.75-0.9,0.5-1.067,0.2-1.1
			c-0.267-0.033-0.284,0.167-0.05,0.6C0.35-0.1,0.567,0.067,0.8,0z"/>
	</g>
</symbol>
<symbol  id="flash2.ai_x5F_0_x2F_Layer_1_x2F__x3C_Path_x3E__x5F_3_x5F_2" viewBox="-0.052 -5.419 2.124 5.456">
	<g id="Layer_1_31_">
		<path style="fill-rule:evenodd;clip-rule:evenodd;fill:#79A3A7;" d="M1.95-1.55c0.233-1.434,0.133-2.6-0.3-3.5
			c-0.4-0.8-0.85-0.3-1.35,1.5C-0.2-1.783-0.167-0.667,0.4-0.2C1.133,0.367,1.65-0.083,1.95-1.55z"/>
	</g>
</symbol>
<symbol  id="flash2.ai_x5F_0_x2F_Layer_1_x2F__x3C_Path_x3E__x5F_3_x5F_3" viewBox="-0.03 -0.75 0.76 0.756">
	<g id="Layer_1_49_">
		<path style="fill-rule:evenodd;clip-rule:evenodd;fill:#79A3A7;" d="M0.55,0c0.2-0.067,0.233-0.2,0.1-0.4
			c-0.133-0.2-0.3-0.317-0.5-0.35c-0.2,0-0.233,0.133-0.1,0.4C0.217-0.083,0.383,0.033,0.55,0z"/>
	</g>
</symbol>
<symbol  id="flash2.ai_x5F_0_x2F_Layer_1_x2F__x3C_Path_x3E__x5F_3_x5F_4" viewBox="-0.097 -7.3 4.52 7.257">
	<g id="Layer_1_59_">
		<path style="fill-rule:evenodd;clip-rule:evenodd;fill:#79A3A7;" d="M3.15-0.05C4.517,0.05,4.783-0.933,3.95-3
			C3.15-5,2.133-6.367,0.9-7.1c-1.133-0.667-1.3,0.333-0.5,3C1.167-1.467,2.083-0.117,3.15-0.05z"/>
	</g>
</symbol>
<symbol  id="flash2.ai_x5F_0_x2F_Layer_1_x2F__x3C_Path_x3E__x5F_4" viewBox="-0.011 -9.211 36.087 9.211">
	<g id="Layer_1_4_">
		
			<linearGradient id="SVGID_9_" gradientUnits="userSpaceOnUse" x1="16239.9238" y1="-16207.3945" x2="16276.0107" y2="-16207.3945" gradientTransform="matrix(-1 0 0 -1 16276 -16212)">
			<stop  offset="0" style="stop-color:#355861"/>
			<stop  offset="0.0078" style="stop-color:#345760"/>
			<stop  offset="0.1961" style="stop-color:#19414B"/>
			<stop  offset="0.3686" style="stop-color:#09343E"/>
			<stop  offset="0.498" style="stop-color:#032F3A"/>
			<stop  offset="0.6314" style="stop-color:#08333E"/>
			<stop  offset="0.7882" style="stop-color:#163F49"/>
			<stop  offset="0.9608" style="stop-color:#2E535C"/>
			<stop  offset="1" style="stop-color:#355861"/>
		</linearGradient>
		<path style="fill-rule:evenodd;clip-rule:evenodd;fill:url(#SVGID_9_);" d="M34.65-5.6C31.483-7.633,26.9-8.817,20.9-9.15
			c-3.033-0.133-6.017-0.05-8.95,0.25C8.283-8.5,5.4-7.817,3.3-6.85C0.967-5.717-0.133-4.633,0-3.6c0.233,1.5,1.2,2.184,2.9,2.05
			c0.667-0.067,1.717-0.267,3.15-0.6c1.4-0.367,2.434-0.667,3.1-0.9C11.817-3.95,15-4.367,18.7-4.3
			c3.267,0.066,6.433,0.483,9.5,1.25c1.066,0.267,2.333,0.733,3.8,1.4c2.033,0.967,3.233,1.517,3.6,1.65
			c-0.133-0.067-0.017-0.783,0.35-2.15C36.317-3.617,35.883-4.767,34.65-5.6z"/>
	</g>
</symbol>
<symbol  id="flash2.ai_x5F_0_x2F_Layer_1_x2F__x3C_Path_x3E__x5F_4_x5F_0" viewBox="0 -1.75 1.344 1.802">
	<g id="Layer_1_13_">
		<path style="fill-rule:evenodd;clip-rule:evenodd;fill:#79A3A7;" d="M1.3-1.3C1.1-1.8,0.833-1.883,0.5-1.55
			C0.167-1.183,0-0.767,0-0.3c0.033,0.433,0.3,0.466,0.8,0.1C1.267-0.533,1.433-0.9,1.3-1.3z"/>
	</g>
</symbol>
<symbol  id="flash2.ai_x5F_0_x2F_Layer_1_x2F__x3C_Path_x3E__x5F_4_x5F_1" viewBox="-0.039 -2.716 1.884 2.716">
	<g id="Layer_1_20_">
		<path style="fill-rule:evenodd;clip-rule:evenodd;fill:#79A3A7;" d="M1.2,0C1.833,0,2-0.383,1.7-1.15
			c-0.3-0.733-0.717-1.233-1.25-1.5C-0.05-2.883-0.167-2.5,0.1-1.5S0.733,0,1.2,0z"/>
	</g>
</symbol>
<symbol  id="flash2.ai_x5F_0_x2F_Layer_1_x2F__x3C_Path_x3E__x5F_4_x5F_2" viewBox="-0.028 -2.268 1.166 2.327">
	<g id="Layer_1_30_">
		<path style="fill-rule:evenodd;clip-rule:evenodd;fill:#79A3A7;" d="M0.95-0.5C1.183-1.1,1.2-1.617,1-2.05
			C0.833-2.45,0.583-2.3,0.25-1.6c-0.333,0.7-0.367,1.184-0.1,1.45C0.483,0.217,0.75,0.1,0.95-0.5z"/>
	</g>
</symbol>
<symbol  id="flash2.ai_x5F_0_x2F_Layer_1_x2F__x3C_Path_x3E__x5F_4_x5F_3" viewBox="-0.076 -3.799 3.389 3.816">
	<g id="Layer_1_48_">
		<path style="fill-rule:evenodd;clip-rule:evenodd;fill:#79A3A7;" d="M2.7,0c0.8-0.167,0.816-0.783,0.05-1.85
			c-0.733-1.033-1.5-1.667-2.3-1.9c-0.733-0.233-0.7,0.367,0.1,1.8C1.35-0.517,2.067,0.133,2.7,0z"/>
	</g>
</symbol>
<symbol  id="flash2.ai_x5F_0_x2F_Layer_1_x2F__x3C_Path_x3E__x5F_4_x5F_4" viewBox="-0.025 -3.332 1.842 3.32">
	<g id="Layer_1_58_">
		<path style="fill-rule:evenodd;clip-rule:evenodd;fill:#79A3A7;" d="M1-0.05C1.7,0.117,1.95-0.267,1.75-1.2
			c-0.2-0.9-0.583-1.566-1.15-2C0.1-3.567-0.1-3.167,0-2C0.133-0.833,0.467-0.183,1-0.05z"/>
	</g>
</symbol>
<symbol  id="flash2.ai_x5F_0_x2F_Layer_1_x2F__x3C_Path_x3E__x5F_5" viewBox="0.006 -29.478 71.494 29.478">
	<g id="Layer_1_3_">
		
			<linearGradient id="SVGID_10_" gradientUnits="userSpaceOnUse" x1="16204.5" y1="-16197.2607" x2="16275.9941" y2="-16197.2607" gradientTransform="matrix(-1 0 0 -1 16276 -16212)">
			<stop  offset="0" style="stop-color:#355861"/>
			<stop  offset="0.0078" style="stop-color:#345760"/>
			<stop  offset="0.1961" style="stop-color:#19414B"/>
			<stop  offset="0.3686" style="stop-color:#09343E"/>
			<stop  offset="0.498" style="stop-color:#032F3A"/>
			<stop  offset="0.6314" style="stop-color:#08333E"/>
			<stop  offset="0.7882" style="stop-color:#163F49"/>
			<stop  offset="0.9608" style="stop-color:#2E535C"/>
			<stop  offset="1" style="stop-color:#355861"/>
		</linearGradient>
		<path style="fill-rule:evenodd;clip-rule:evenodd;fill:url(#SVGID_10_);" d="M46.7-7.3c1.2,0.2,3.233,0.316,6.1,0.35
			c2.534,0.067,4.55,0.284,6.05,0.65c1.5,0.4,3.617,1.433,6.35,3.1c2.833,1.733,4.933,2.8,6.3,3.2c-0.4-1.267-1.867-4.217-4.4-8.85
			c-1.934-3.5-2.917-6.633-2.95-9.4c-0.467-0.2-4.617-2.217-12.45-6.05c-5.1-2.5-9.35-4.05-12.75-4.65
			c-5.067-0.867-10.1-0.667-15.1,0.6c-4.533,1.167-9.217,3.267-14.05,6.3c-2.833,1.767-4.917,3.367-6.25,4.8
			C1.55-15.117,0.4-12.7,0.1-10c-0.434,3.6,0.633,5.517,3.2,5.75C4.8-4.117,7.267-4.7,10.7-6c1.233-0.5,2.167-0.817,2.8-0.95
			c1.9-0.4,4.583-1.1,8.05-2.1c3.1-0.8,5.833-1.05,8.2-0.75C35.55-9.067,41.2-8.233,46.7-7.3z"/>
	</g>
</symbol>
<symbol  id="flash2.ai_x5F_0_x2F_Layer_1_x2F__x3C_Path_x3E__x5F_5_x5F_0" viewBox="0 -3.368 1.859 3.437">
	<g id="Layer_1_12_">
		<path style="fill-rule:evenodd;clip-rule:evenodd;fill:#79A3A7;" d="M1.65-3C1.217-3.6,0.8-3.467,0.4-2.6C0-1.767-0.1-1,0.1-0.3
			c0.167,0.633,0.566,0.45,1.2-0.55C1.9-1.817,2.017-2.533,1.65-3z"/>
	</g>
</symbol>
<symbol  id="flash2.ai_x5F_0_x2F_Layer_1_x2F__x3C_Path_x3E__x5F_5_x5F_1" viewBox="-0.038 -5.841 2.238 5.826">
	<g id="Layer_1_19_">
		<path style="fill-rule:evenodd;clip-rule:evenodd;fill:#79A3A7;" d="M0.75-0.15C1.683,0.283,2.167-0.333,2.2-2
			c0-1.6-0.317-2.783-0.95-3.55C0.683-6.283,0.283-5.633,0.05-3.6C-0.183-1.6,0.05-0.45,0.75-0.15z"/>
	</g>
</symbol>
<symbol  id="flash2.ai_x5F_0_x2F_Layer_1_x2F__x3C_Path_x3E__x5F_5_x5F_2" viewBox="-0.028 -2.275 1.166 2.327">
	<g id="Layer_1_29_">
		<path style="fill-rule:evenodd;clip-rule:evenodd;fill:#79A3A7;" d="M0.95-0.55C1.183-1.15,1.2-1.65,1-2.05
			c-0.167-0.4-0.417-0.267-0.75,0.4c-0.333,0.7-0.367,1.2-0.1,1.5C0.483,0.217,0.75,0.083,0.95-0.55z"/>
	</g>
</symbol>
<symbol  id="flash2.ai_x5F_0_x2F_Layer_1_x2F__x3C_Path_x3E__x5F_5_x5F_3" viewBox="-0.044 -1.833 1.367 1.833">
	<g id="Layer_1_47_">
		<path style="fill-rule:evenodd;clip-rule:evenodd;fill:#79A3A7;" d="M0.9,0c0.434-0.033,0.533-0.3,0.3-0.8
			c-0.233-0.5-0.55-0.833-0.95-1C-0.083-1.933-0.133-1.667,0.1-1C0.3-0.333,0.567,0,0.9,0z"/>
	</g>
</symbol>
<symbol  id="flash2.ai_x5F_0_x2F_Layer_1_x2F__x3C_Path_x3E__x5F_5_x5F_4" viewBox="0.035 -1.819 1.127 1.831">
	<g id="Layer_1_57_">
		<path style="fill-rule:evenodd;clip-rule:evenodd;fill:#79A3A7;" d="M1.15-0.55C1.117-1.05,0.933-1.433,0.6-1.7
			C0.267-1.967,0.083-1.783,0.05-1.15c-0.066,0.6,0.083,0.967,0.45,1.1C1,0.117,1.217-0.05,1.15-0.55z"/>
	</g>
</symbol>
<symbol  id="flash2.ai_x5F_0_x2F_Layer_1_x2F__x3C_Path_x3E__x5F_6" viewBox="-0.002 -34.717 107.102 34.711">
	<g id="Layer_1_2_">
		
			<linearGradient id="SVGID_11_" gradientUnits="userSpaceOnUse" x1="16168.9004" y1="-16194.6387" x2="16276.002" y2="-16194.6387" gradientTransform="matrix(-1 0 0 -1 16276 -16212)">
			<stop  offset="0" style="stop-color:#809399"/>
			<stop  offset="0.1216" style="stop-color:#648B90"/>
			<stop  offset="0.2667" style="stop-color:#498488"/>
			<stop  offset="0.3961" style="stop-color:#398083"/>
			<stop  offset="0.498" style="stop-color:#337E81"/>
			<stop  offset="1" style="stop-color:#337E81"/>
		</linearGradient>
		<path style="fill-rule:evenodd;clip-rule:evenodd;fill:url(#SVGID_11_);" d="M107.1-6.35c-0.467-1.767-1.434-3.733-2.9-5.9
			c-1.733-2.367-3-4.133-3.8-5.3c-0.433-0.633-1.316-2.817-2.65-6.55c-1.067-3-2.233-4.867-3.5-5.6c-1.333-0.8-3.783-0.933-7.35-0.4
			c-4.167,0.6-6.783,0.8-7.85,0.6c-6.8-1.633-11.95-2.85-15.45-3.65c-6.3-1.434-11.517-1.883-15.65-1.35L30.3-32.15
			c-4.433,0.267-7.816,0.5-10.15,0.7c-4.2,0.434-7.383,1.383-9.55,2.85c-3.733,2.533-6.85,7.533-9.35,15L0.6-11.55
			C0.033-9.717-0.133-8.5,0.1-7.9c0.3,0.8,1.333,1.316,3.1,1.55c1.933,0.233,4.966,0.317,9.1,0.25c4.034-0.1,7.083,0,9.15,0.3
			c2.933,0.4,8.433,1.433,16.5,3.1c6.9,1.4,12.45,2.267,16.65,2.6c3.3,0.267,7.15-0.033,11.55-0.9
			c6.967-1.367,10.717-2.083,11.25-2.15c6.833-0.867,13.65-0.3,20.45,1.7c-1.233-1.733-3-2.867-5.3-3.4
			c-0.167-0.066-2.333-0.35-6.5-0.85c-3.2-0.466-5.566-0.783-7.1-0.95c-2.7-0.3-5.083-0.267-7.15,0.1C58.7-4.35,45.767-5.033,33-8.6
			c-1.533-0.3-2.783-0.566-3.75-0.8c-1.767-0.434-2.867-0.934-3.3-1.5c-2.034-2.7,1.667-4.767,11.1-6.2
			c7.067-1.033,12.717-1.45,16.95-1.25c5.3,0.267,11.117,1.017,17.45,2.25c4.566,0.9,10.3,2.233,17.2,4
			c2.2,0.567,5.283,1.517,9.25,2.85C102.1-7.85,105.167-6.883,107.1-6.35z"/>
	</g>
</symbol>
<symbol  id="flash2.ai_x5F_0_x2F_Layer_1_x2F__x3C_Path_x3E__x5F_6_x5F_0" viewBox="-0.003 -1.645 1.525 1.667">
	<g id="Layer_1_11_">
		<path style="fill-rule:evenodd;clip-rule:evenodd;fill:#79A3A7;" d="M0.7-0.05C1.133-0.25,1.4-0.6,1.5-1.1
			c0.1-0.467-0.133-0.633-0.7-0.5C0.233-1.467-0.033-1.167,0-0.7C0.033-0.067,0.267,0.15,0.7-0.05z"/>
	</g>
</symbol>
<symbol  id="flash2.ai_x5F_0_x2F_Layer_1_x2F__x3C_Path_x3E__x5F_6_x5F_1" viewBox="-0.054 -2.901 3.002 2.914">
	<g id="Layer_1_18_">
		<path style="fill-rule:evenodd;clip-rule:evenodd;fill:#79A3A7;" d="M2.1-0.05c0.9-0.267,1.083-0.8,0.55-1.6
			C2.117-2.417,1.433-2.833,0.6-2.9c-0.733-0.033-0.85,0.5-0.35,1.6C0.783-0.233,1.4,0.183,2.1-0.05z"/>
	</g>
</symbol>
<symbol  id="flash2.ai_x5F_0_x2F_Layer_1_x2F__x3C_Path_x3E__x5F_6_x5F_2" viewBox="-0.028 -2.318 1.192 2.303">
	<g id="Layer_1_28_">
		<path style="fill-rule:evenodd;clip-rule:evenodd;fill:#79A3A7;" d="M0.15-0.2C0.483,0.133,0.767,0.017,1-0.55
			c0.2-0.6,0.217-1.117,0.05-1.55c-0.167-0.4-0.433-0.25-0.8,0.45C-0.083-0.95-0.117-0.467,0.15-0.2z"/>
	</g>
</symbol>
<symbol  id="flash2.ai_x5F_0_x2F_Layer_1_x2F__x3C_Path_x3E__x5F_6_x5F_3" viewBox="-0.036 -1.798 1.389 1.8">
	<g id="Layer_1_46_">
		<path style="fill-rule:evenodd;clip-rule:evenodd;fill:#79A3A7;" d="M0.95,0C1.383-0.033,1.467-0.3,1.2-0.8
			C0.967-1.3,0.667-1.617,0.3-1.75c-0.367-0.167-0.433,0.1-0.2,0.8C0.333-0.283,0.617,0.033,0.95,0z"/>
	</g>
</symbol>
<symbol  id="flash2.ai_x5F_0_x2F_Layer_1_x2F__x3C_Path_x3E__x5F_6_x5F_4" viewBox="-0.035 -3.076 2.197 3.076">
	<g id="Layer_1_56_">
		<path style="fill-rule:evenodd;clip-rule:evenodd;fill:#79A3A7;" d="M1.45,0c0.733,0,0.9-0.433,0.5-1.3
			C1.617-2.167,1.133-2.733,0.5-3c-0.567-0.267-0.683,0.167-0.35,1.3C0.483-0.567,0.917,0,1.45,0z"/>
	</g>
</symbol>
<symbol  id="flash2.ai_x5F_0_x2F_Layer_1_x2F__x3C_Path_x3E__x5F_7" viewBox="-0.002 -5.241 2.586 5.332">
	<g id="Layer_1_10_">
		<path style="fill-rule:evenodd;clip-rule:evenodd;fill:#79A3A7;" d="M1.2-5.15C0.4-4.917,0-3.867,0-2
			c-0.033,1.867,0.317,2.483,1.05,1.85c0.8-0.733,1.3-1.817,1.5-3.25C2.717-4.9,2.267-5.483,1.2-5.15z"/>
	</g>
</symbol>
<symbol  id="flash2.ai_x5F_0_x2F_Layer_1_x2F__x3C_Path_x3E__x5F_7_x5F_0" viewBox="-0.004 -1.313 0.768 1.301">
	<g id="Layer_1_27_">
		<path style="fill-rule:evenodd;clip-rule:evenodd;fill:#79A3A7;" d="M0.1-0.2c0.2,0.267,0.383,0.25,0.55-0.05
			C0.783-0.55,0.8-0.833,0.7-1.1C0.633-1.4,0.467-1.383,0.2-1.05C-0.033-0.717-0.067-0.433,0.1-0.2z"/>
	</g>
</symbol>
<symbol  id="flash2.ai_x5F_0_x2F_Layer_1_x2F__x3C_Path_x3E__x5F_7_x5F_1" viewBox="0.006 -1.783 1.347 1.786">
	<g id="Layer_1_45_">
		<path style="fill-rule:evenodd;clip-rule:evenodd;fill:#79A3A7;" d="M0.95,0C1.383,0,1.467-0.267,1.2-0.8
			C0.967-1.3,0.667-1.617,0.3-1.75c-0.333-0.133-0.383,0.133-0.15,0.8C0.383-0.283,0.65,0.033,0.95,0z"/>
	</g>
</symbol>
<symbol  id="flash2.ai_x5F_0_x2F_Layer_1_x2F__x3C_Path_x3E__x5F_7_x5F_2" viewBox="-0.038 -1.933 1.232 1.981">
	<g id="Layer_1_55_">
		<path style="fill-rule:evenodd;clip-rule:evenodd;fill:#79A3A7;" d="M0.9-1.7C0.433-2.067,0.133-2,0-1.5c-0.1,0.467,0,0.9,0.3,1.3
			c0.267,0.4,0.517,0.317,0.75-0.25C1.283-0.983,1.233-1.4,0.9-1.7z"/>
	</g>
</symbol>
<symbol  id="flash2.ai_x5F_0_x2F_Layer_1_x2F__x3C_Path_x3E__x5F_8" viewBox="-0.05 -4.193 2.515 4.297">
	<g id="Layer_1_9_">
		<path style="fill-rule:evenodd;clip-rule:evenodd;fill:#79A3A7;" d="M2.05-3.6c-0.733-0.867-1.333-0.783-1.8,0.25
			c-0.4,1.033-0.4,2,0,2.9C0.617,0.417,1.167,0.267,1.9-0.9C2.6-2.033,2.65-2.933,2.05-3.6z"/>
	</g>
</symbol>
<symbol  id="flash2.ai_x5F_0_x2F_Layer_1_x2F__x3C_Path_x3E__x5F_8_x5F_0" viewBox="-0.004 -1.278 0.768 1.266">
	<g id="Layer_1_26_">
		<path style="fill-rule:evenodd;clip-rule:evenodd;fill:#79A3A7;" d="M0.1-0.2c0.2,0.267,0.383,0.25,0.55-0.05
			C0.783-0.55,0.8-0.833,0.7-1.1C0.633-1.367,0.467-1.333,0.2-1C-0.033-0.7-0.067-0.433,0.1-0.2z"/>
	</g>
</symbol>
<symbol  id="flash2.ai_x5F_0_x2F_Layer_1_x2F__x3C_Path_x3E__x5F_8_x5F_1" viewBox="-0.022 -0.982 0.81 0.987">
	<g id="Layer_1_44_">
		<path style="fill-rule:evenodd;clip-rule:evenodd;fill:#79A3A7;" d="M0.75-0.4c-0.1-0.3-0.267-0.483-0.5-0.55
			C0.017-1.05-0.067-0.917,0-0.55S0.217,0,0.45,0C0.75,0.033,0.85-0.1,0.75-0.4z"/>
	</g>
</symbol>
<symbol  id="flash2.ai_x5F_0_x2F_Layer_1_x2F__x3C_Path_x3E__x5F_8_x5F_2" viewBox="-0.001 -4.767 3.551 4.805">
	<g id="Layer_1_54_">
		<path style="fill-rule:evenodd;clip-rule:evenodd;fill:#79A3A7;" d="M1.4-0.8c0.967,1.1,1.65,1.117,2.05,0.05
			c0.333-0.867-0.167-1.883-1.5-3.05C0.617-5-0.033-5.083,0-4.05C0-2.95,0.467-1.867,1.4-0.8z"/>
	</g>
</symbol>
<symbol  id="flash2.ai_x5F_0_x2F_Layer_1_x2F__x3C_Path_x3E__x5F_9" viewBox="-0.02 -2.328 1.061 2.346">
	<g id="Layer_1_25_">
		<path style="fill-rule:evenodd;clip-rule:evenodd;fill:#79A3A7;" d="M1-0.65c0.1-0.6,0.017-1.1-0.25-1.5
			C0.517-2.517,0.3-2.317,0.1-1.55C-0.1-0.817-0.05-0.333,0.25-0.1C0.65,0.167,0.9-0.017,1-0.65z"/>
	</g>
</symbol>
<symbol  id="flash2.ai_x5F_0_x2F_Layer_1_x2F__x3C_Path_x3E__x5F_9_x5F_0" viewBox="-0.022 -1.032 0.81 1.037">
	<g id="Layer_1_43_">
		<path style="fill-rule:evenodd;clip-rule:evenodd;fill:#79A3A7;" d="M0.75-0.4C0.683-0.7,0.517-0.9,0.25-1
			C0.017-1.1-0.067-0.967,0-0.6S0.217-0.033,0.45,0C0.75,0.033,0.85-0.1,0.75-0.4z"/>
	</g>
</symbol>
<symbol  id="flash2.ai_x5F_0_x2F_Layer_1_x2F__x3C_Path_x3E__x5F_9_x5F_1" viewBox="-0.089 -3.617 3.153 3.572">
	<g id="Layer_1_53_">
		<path style="fill-rule:evenodd;clip-rule:evenodd;fill:#79A3A7;" d="M1.95-0.05c1.066-0.067,1.367-0.617,0.9-1.65
			C2.383-2.7,1.7-3.317,0.8-3.55c-0.867-0.267-1.1,0.267-0.7,1.6C0.467-0.617,1.083,0.017,1.95-0.05z"/>
	</g>
</symbol>
<g id="Layer_1">
</g>
<g id="Layer_1_1_">
	<g>
		<path style="fill-rule:evenodd;clip-rule:evenodd;fill:#83A8AB;" d="M39.1,167.35c-1.167-0.366-1.917-0.916-2.25-1.649
			c-0.767-1.733,0.75-3,4.55-3.8c3.333-0.733,7.067-1.051,11.2-0.95c1.1,0.033,3.3,0,6.6-0.101c2.733-0.1,4.916-0.066,6.55,0.101
			c1.434,0.133,3.134,0.434,5.1,0.899c5.034,1.167,6.784,2.467,5.25,3.9c-0.6,0.6-1.566,1.184-2.899,1.75
			c-1.634,0.7-2.65,1.184-3.05,1.45c-1,0.633-1.934,1.083-2.801,1.35c-0.733,0.233-1.75,0.417-3.05,0.55
			c-3.566,0.434-5.883,0.667-6.95,0.7c-2.6,0.101-4.933-0.149-7-0.75c-0.733-0.2-2.133-0.733-4.2-1.6
			c-1.667-0.667-3.1-1.101-4.3-1.3C40.317,167.634,39.4,167.45,39.1,167.35z"/>
		<g>
			<g>
				
					<use xlink:href="#flash2.ai_x5F_0_x2F_Layer_1_x2F__x3C_Clip_Group_0_x3E_"  width="109.45" height="169.103" y="-169.103" transform="matrix(1 0 0 -1 0 0)" style="overflow:visible;"/>
			</g>
			
				<use xlink:href="#flash2.ai_x5F_0_x2F_Layer_1_x2F__x3C_Group_x3E__x5F_3"  width="16.815" height="26.177" x="-0.006" y="-26.143" transform="matrix(1 0 0 -1 16.5498 9.75)" style="overflow:visible;opacity:0.4883;enable-background:new    ;"/>
			
				<use xlink:href="#flash2.ai_x5F_0_x2F_Layer_1_x2F__x3C_Path_x3E__x5F_6_x5F_1"  width="3.002" height="2.914" x="-0.054" y="-2.901" transform="matrix(1 0 0 -1 83.2002 20.5498)" style="overflow:visible;opacity:0.1914;enable-background:new    ;"/>
			
				<use xlink:href="#flash2.ai_x5F_0_x2F_Layer_1_x2F__x3C_Path_x3E__x5F_5_x5F_1"  width="2.238" height="5.826" x="-0.038" y="-5.841" transform="matrix(1 0 0 -1 63.7998 95.6504)" style="overflow:visible;opacity:0.1914;enable-background:new    ;"/>
			
				<use xlink:href="#flash2.ai_x5F_0_x2F_Layer_1_x2F__x3C_Path_x3E__x5F_4_x5F_1"  width="1.884" height="2.716" x="-0.039" y="-2.716" transform="matrix(1 0 0 -1 63.1504 104.0996)" style="overflow:visible;opacity:0.1914;enable-background:new    ;"/>
			
				<use xlink:href="#flash2.ai_x5F_0_x2F_Layer_1_x2F__x3C_Path_x3E__x5F_3_x5F_1"  width="1.083" height="1.118" x="-0.013" y="-1.104" transform="matrix(1 0 0 -1 74.2998 33.3501)" style="overflow:visible;opacity:0.1914;enable-background:new    ;"/>
			
				<use xlink:href="#flash2.ai_x5F_0_x2F_Layer_1_x2F__x3C_Group_x3E__x5F_2"  width="17.064" height="38.821" x="-0.004" y="-38.833" transform="matrix(1 0 0 -1 49.7998 117.7002)" style="overflow:visible;opacity:0.4883;enable-background:new    ;"/>
			
				<use xlink:href="#flash2.ai_x5F_0_x2F_Layer_1_x2F__x3C_Group_x3E__x5F_1"  width="-32766" height="-32766" x="16383" y="16383" transform="matrix(1 0 0 -1 57.5 118.4004)" style="overflow:visible;opacity:0.4883;enable-background:new    ;"/>
			
				<use xlink:href="#flash2.ai_x5F_0_x2F_Layer_1_x2F__x3C_Path_x3E__x5F_2_x5F_2"  width="1.101" height="1.695" x="0.005" y="-1.667" transform="matrix(1 0 0 -1 48.2998 75.0498)" style="overflow:visible;opacity:0.1914;enable-background:new    ;"/>
			
				<use xlink:href="#flash2.ai_x5F_0_x2F_Layer_1_x2F__x3C_Path_x3E__x5F_1_x5F_2"  width="1.632" height="2.986" x="-0.024" y="-2.938" transform="matrix(1 0 0 -1 48.7002 93.25)" style="overflow:visible;opacity:0.1914;enable-background:new    ;"/>
			
				<use xlink:href="#flash2.ai_x5F_0_x2F_Layer_1_x2F__x3C_Path_x3E__x5F_15"  width="2.241" height="3.349" x="-0.036" y="-3.259" transform="matrix(1 0 0 -1 46.8501 69.1001)" style="overflow:visible;opacity:0.1914;enable-background:new    ;"/>
			<g>
				
					<use xlink:href="#flash2.ai_x5F_0_x2F_Layer_1_x2F__x3C_Group_x3E__x5F_0"  width="19.562" height="34.955" x="-0.039" y="-34.95" transform="matrix(1 0 0 -1 67.1504 7.0498)" style="overflow:visible;opacity:0.4883;enable-background:new    ;"/>
				
					<use xlink:href="#flash2.ai_x5F_0_x2F_Layer_1_x2F__x3C_Path_x3E__x5F_9_x5F_1"  width="3.153" height="3.572" x="-0.089" y="-3.617" transform="matrix(1 0 0 -1 63.2002 55.5498)" style="overflow:visible;opacity:0.1914;enable-background:new    ;"/>
				
					<use xlink:href="#flash2.ai_x5F_0_x2F_Layer_1_x2F__x3C_Path_x3E__x5F_8_x5F_2"  width="3.551" height="4.805" x="-0.001" y="-4.767" transform="matrix(1 0 0 -1 61 68)" style="overflow:visible;opacity:0.1914;enable-background:new    ;"/>
				
					<use xlink:href="#flash2.ai_x5F_0_x2F_Layer_1_x2F__x3C_Path_x3E__x5F_7_x5F_2"  width="1.232" height="1.981" x="-0.038" y="-1.933" transform="matrix(1 0 0 -1 61.1504 58.25)" style="overflow:visible;opacity:0.1914;enable-background:new    ;"/>
				
					<use xlink:href="#flash2.ai_x5F_0_x2F_Layer_1_x2F__x3C_Path_x3E__x5F_6_x5F_4"  width="2.197" height="3.076" x="-0.035" y="-3.076" transform="matrix(1 0 0 -1 63.25 50.2998)" style="overflow:visible;opacity:0.1914;enable-background:new    ;"/>
				
					<use xlink:href="#flash2.ai_x5F_0_x2F_Layer_1_x2F__x3C_Path_x3E__x5F_5_x5F_4"  width="1.127" height="1.831" x="0.035" y="-1.819" transform="matrix(1 0 0 -1 59.1504 71.3999)" style="overflow:visible;opacity:0.1914;enable-background:new    ;"/>
				
					<use xlink:href="#flash2.ai_x5F_0_x2F_Layer_1_x2F__x3C_Path_x3E__x5F_4_x5F_4"  width="1.842" height="3.32" x="-0.025" y="-3.332" transform="matrix(1 0 0 -1 64.5996 63.3999)" style="overflow:visible;opacity:0.1914;enable-background:new    ;"/>
				
					<use xlink:href="#flash2.ai_x5F_0_x2F_Layer_1_x2F__x3C_Path_x3E__x5F_3_x5F_4"  width="4.52" height="7.257" x="-0.097" y="-7.3" transform="matrix(1 0 0 -1 58.7998 62.6499)" style="overflow:visible;opacity:0.1914;enable-background:new    ;"/>
				
					<use xlink:href="#flash2.ai_x5F_0_x2F_Layer_1_x2F__x3C_Path_x3E__x5F_2_x5F_4"  width="1.117" height="1.378" x="-0.039" y="-1.375" transform="matrix(1 0 0 -1 68 49.1499)" style="overflow:visible;opacity:0.1914;enable-background:new    ;"/>
				
					<use xlink:href="#flash2.ai_x5F_0_x2F_Layer_1_x2F__x3C_Path_x3E__x5F_1_x5F_4"  width="1.117" height="1.378" x="0.011" y="-1.375" transform="matrix(1 0 0 -1 58.0996 61.5498)" style="overflow:visible;opacity:0.1914;enable-background:new    ;"/>
				
					<use xlink:href="#flash2.ai_x5F_0_x2F_Layer_1_x2F__x3C_Path_x3E__x5F_17"  width="1.117" height="1.378" x="0.011" y="-1.375" transform="matrix(1 0 0 -1 59 76.3999)" style="overflow:visible;opacity:0.1914;enable-background:new    ;"/>
			</g>
		</g>
	</g>
</g>
</svg>
