<?xml version="1.0" encoding="iso-8859-1"?>
<!-- Generator: Adobe Illustrator 15.1.0, SVG Export Plug-In . SVG Version: 6.00 Build 0)  -->
<!DOCTYPE svg PUBLIC "-//W3C//DTD SVG 1.1//EN" "http://www.w3.org/Graphics/SVG/1.1/DTD/svg11.dtd">
<svg version="1.1" id="Layer_1" xmlns="http://www.w3.org/2000/svg" xmlns:xlink="http://www.w3.org/1999/xlink" x="0px" y="0px"
	 width="178.3px" height="242.95px" viewBox="0 0 178.3 242.95" style="enable-background:new 0 0 178.3 242.95;"
	 xml:space="preserve">
<g>
	<path style="fill-rule:evenodd;clip-rule:evenodd;fill:#646D80;" d="M87.7,90.45c7.1-23.133,12.416-35.233,15.95-36.3
		c1.933-0.6,4.466,2.467,7.6,9.2c4.967,10.633,8.85,18.033,11.65,22.2c4.6,6.833,7.85,13.233,9.75,19.2
		c1.199,3.767,2.8,10.25,4.8,19.45c3.066,12.2,5.5,21.517,7.3,27.95c3.033,10.866,5.333,17.483,6.9,19.85
		c1.267,1.967,3.05,1.134,5.35-2.5c2.434-3.866,4.1-5.434,5-4.7c3.233,2.634,6.3,14.217,9.2,34.75
		c0.8,5.434,1.934,13.55,3.399,24.351c1.301,8.8,2.534,15.149,3.7,19.05c-13.633-2.134-46.684-2.9-99.15-2.3
		c-26.2,0.3-51.05,0.8-74.55,1.5c0-3.467,0.117-7.334,0.35-11.601c0.466-8.5,1.25-14.767,2.35-18.8c0.9-3.5,1.883-8.134,2.95-13.9
		c0.8-4.5,1.2-6.767,1.2-6.8c0.533-2.533,1.233-4.717,2.1-6.55c0.333-0.733,1.083-2.217,2.25-4.45
		c0.967-1.833,1.684-3.316,2.15-4.45c1.233-2.866,2.25-5.449,3.05-7.75c2.167-5.833,3.55-10.783,4.15-14.85
		c0.333-2.1,0.417-4.583,0.25-7.45c-0.233-3.267-0.383-5.7-0.45-7.3c-0.267-5.866,0.733-10.65,3-14.35
		c5.367-8.634,9.333-17.55,11.9-26.75c2.7-9.733,3.733-19.45,3.1-29.15c-0.3-2.867-0.5-5.017-0.6-6.45
		c-0.133-2.466,0.117-4.566,0.75-6.3c1.2-0.933,2.333-2.1,3.4-3.5c1.233-1.567,2.817-4.033,4.75-7.4
		c1.8-3.067,6.317-11.817,13.55-26.25C70.867,6,74.067,0.083,74.4,0.35c0.867,0.667,1.133,2.617,0.8,5.85
		c-0.7,6.367-1.083,11.2-1.15,14.5c-0.033,2.3-0.566,8.05-1.6,17.25c-0.7,6.5-0.684,12.633,0.05,18.4c1,7.833,2.4,16.4,4.2,25.7
		c2.1,10.633,3.683,16.35,4.75,17.15c1.233,0.9,2.216,0.85,2.95-0.15C85.167,97.983,86.267,95.117,87.7,90.45z"/>
	
		<radialGradient id="SVGID_1_" cx="81.5498" cy="93.8999" r="31.949" gradientTransform="matrix(-0.9957 -0.0925 0.0938 -1.0098 153.9451 196.2626)" gradientUnits="userSpaceOnUse">
		<stop  offset="0" style="stop-color:#859698"/>
		<stop  offset="0.2824" style="stop-color:#6C7988"/>
		<stop  offset="0.549" style="stop-color:#5A657D"/>
		<stop  offset="0.7255" style="stop-color:#545E79"/>
		<stop  offset="0.7882" style="stop-color:#4F5872"/>
		<stop  offset="0.8745" style="stop-color:#42465E"/>
		<stop  offset="0.9765" style="stop-color:#2C283E"/>
		<stop  offset="1" style="stop-color:#262136"/>
	</radialGradient>
	<path style="fill-rule:evenodd;clip-rule:evenodd;fill:url(#SVGID_1_);" d="M102.6,84.7l3.15,11.8l-8.05,21.6
		c-3.5-0.267-5.283-0.817-5.351-1.65c-0.1-0.767-0.583-2.317-1.449-4.65c-0.967-2.566-1.834-4.433-2.601-5.6
		c-1.733-2.567-2.783-4.083-3.15-4.55c-0.467-0.633-1.017-1.267-1.65-1.9c0.367-0.333,1.133-2.117,2.3-5.35c1.1-3,2.05-5.9,2.85-8.7
		c0.633-2.2,1.55-4.917,2.75-8.15l1.649-4.2l0.3,0.8c0.301,0.7,0.784,1.5,1.45,2.4c0.634,0.934,1.95,2.4,3.95,4.4
		C99.816,81.983,101.1,83.233,102.6,84.7z"/>
	
		<radialGradient id="SVGID_2_" cx="97.5996" cy="122.9502" r="25.9114" gradientTransform="matrix(-0.9957 -0.0925 0.1073 -1.1554 181.5904 274.0264)" gradientUnits="userSpaceOnUse">
		<stop  offset="0" style="stop-color:#859698"/>
		<stop  offset="0.2824" style="stop-color:#6C7988"/>
		<stop  offset="0.549" style="stop-color:#5A657D"/>
		<stop  offset="0.7255" style="stop-color:#545E79"/>
		<stop  offset="0.7882" style="stop-color:#4F5872"/>
		<stop  offset="0.8745" style="stop-color:#42465E"/>
		<stop  offset="0.9765" style="stop-color:#2C283E"/>
		<stop  offset="1" style="stop-color:#262136"/>
	</radialGradient>
	<path style="fill-rule:evenodd;clip-rule:evenodd;fill:url(#SVGID_2_);" d="M77.875,99.175L77.7,99.1
		c0.767-1.833,1.333-3.184,1.7-4.05C80.144,93.368,79.636,94.743,77.875,99.175l8.575,4.575l9.45,20.15L94,135
		c-1.833,7.434-4.217,11.333-7.15,11.7c-3.067,0.399-6.434-2.75-10.1-9.45c-2.9-5.233-4.867-10.033-5.9-14.4
		c0.4-1.966,0.967-4.417,1.7-7.35c1.534-5.833,3.25-11.133,5.15-15.9C77.756,99.459,77.814,99.318,77.875,99.175z"/>
	
		<radialGradient id="SVGID_3_" cx="128.5498" cy="71.3501" r="37.9504" gradientTransform="matrix(-0.9957 -0.0925 0.0764 -0.8225 251.0946 141.9275)" gradientUnits="userSpaceOnUse">
		<stop  offset="0" style="stop-color:#859698"/>
		<stop  offset="0.2824" style="stop-color:#6C7988"/>
		<stop  offset="0.549" style="stop-color:#5A657D"/>
		<stop  offset="0.7255" style="stop-color:#545E79"/>
		<stop  offset="0.7882" style="stop-color:#4F5872"/>
		<stop  offset="0.8745" style="stop-color:#42465E"/>
		<stop  offset="0.9765" style="stop-color:#2C283E"/>
		<stop  offset="1" style="stop-color:#262136"/>
	</radialGradient>
	<path style="fill-rule:evenodd;clip-rule:evenodd;fill:url(#SVGID_3_);" d="M104.05,52.5c1.066,0.1,2.517,1.583,4.351,4.45
		c1.633,2.533,2.966,5.15,4,7.85c0.733,1.967,2.116,4.684,4.149,8.15c1.134,1.966,2.867,4.9,5.2,8.8c2.167,3.767,5.5,8.55,10,14.35
		c-1.434,0-3.3-0.217-5.6-0.65c-4.601-0.9-9-2.417-13.2-4.55c-5.2-2.633-9.783-5.683-13.75-9.15c-4.101-3.533-6.15-6.333-6.15-8.4
		c0.033-2.033,1.684-6.05,4.95-12.05C101.233,55.367,103.25,52.433,104.05,52.5z"/>
	
		<radialGradient id="SVGID_4_" cx="173.75" cy="113.2998" r="57.9651" gradientTransform="matrix(-0.9905 0.1377 -0.1732 -1.2453 365.4634 230.4565)" gradientUnits="userSpaceOnUse">
		<stop  offset="0" style="stop-color:#859698"/>
		<stop  offset="0.2824" style="stop-color:#6C7988"/>
		<stop  offset="0.549" style="stop-color:#5A657D"/>
		<stop  offset="0.7255" style="stop-color:#545E79"/>
		<stop  offset="0.7882" style="stop-color:#4F5872"/>
		<stop  offset="0.8745" style="stop-color:#42465E"/>
		<stop  offset="0.9765" style="stop-color:#2C283E"/>
		<stop  offset="1" style="stop-color:#262136"/>
	</radialGradient>
	<path style="fill-rule:evenodd;clip-rule:evenodd;fill:url(#SVGID_4_);" d="M121.4,93.35c5.833,1.633,9.3,2.417,10.399,2.35
		c0.167,3.033,2.384,13.367,6.65,31c0.133,5.3,0.333,9.684,0.6,13.149c0.233,3.334,0.617,7.267,1.15,11.801
		c0.833,7.1,1.3,11.216,1.399,12.35c0.301,3.533,0.117,4.434-0.55,2.7c-0.133-0.367-2.35-5.15-6.649-14.351
		c-4.2-8.866-7.184-15.816-8.95-20.85c-1.867-5.267-4.517-13.617-7.95-25.05l-4.55-15.55L121.4,93.35z"/>
	
		<radialGradient id="SVGID_5_" cx="128.7998" cy="154.7998" r="59.9189" gradientTransform="matrix(-0.9957 -0.0924 0.0937 -1.0097 242.5453 323.0009)" gradientUnits="userSpaceOnUse">
		<stop  offset="0" style="stop-color:#859698"/>
		<stop  offset="0.2824" style="stop-color:#6C7988"/>
		<stop  offset="0.549" style="stop-color:#5A657D"/>
		<stop  offset="0.7255" style="stop-color:#545E79"/>
		<stop  offset="0.7882" style="stop-color:#4F5872"/>
		<stop  offset="0.8745" style="stop-color:#42465E"/>
		<stop  offset="0.9765" style="stop-color:#2C283E"/>
		<stop  offset="1" style="stop-color:#262136"/>
	</radialGradient>
	<path style="fill-rule:evenodd;clip-rule:evenodd;fill:url(#SVGID_5_);" d="M119.85,120c2.2,3.634,3.351,5.75,3.45,6.35
		c0.033,0.334-1.8,2.784-5.5,7.351c-4.1,5.066-6.684,9.483-7.75,13.25c-2.434,8.434-3.684,12.767-3.75,13
		c-1.166,3.533-1.916,4.383-2.25,2.55l-6.5-35.85c-0.6-3.301-0.666-6.167-0.2-8.601c0.367-1.966,1.334-4.65,2.9-8.05
		c1.833-4.7,3.134-8.05,3.9-10.05c1.366-3.5,2.416-5.067,3.149-4.7c0.634,0.333,1.601,2.3,2.9,5.9c1.6,4.467,2.916,7.6,3.95,9.4
		C114.45,111.083,116.35,114.233,119.85,120z"/>
	
		<radialGradient id="SVGID_6_" cx="141.9502" cy="199.7998" r="81.9259" gradientTransform="matrix(-0.9957 -0.0924 0.0937 -1.0097 264.567 414.6667)" gradientUnits="userSpaceOnUse">
		<stop  offset="0" style="stop-color:#859698"/>
		<stop  offset="0.2824" style="stop-color:#6C7988"/>
		<stop  offset="0.549" style="stop-color:#5A657D"/>
		<stop  offset="0.7255" style="stop-color:#545E79"/>
		<stop  offset="0.7882" style="stop-color:#4F5872"/>
		<stop  offset="0.8745" style="stop-color:#42465E"/>
		<stop  offset="0.9765" style="stop-color:#2C283E"/>
		<stop  offset="1" style="stop-color:#262136"/>
	</radialGradient>
	<path style="fill-rule:evenodd;clip-rule:evenodd;fill:url(#SVGID_6_);" d="M119.75,130.8c1.634-1.267,3.134-2.217,4.5-2.85
		c1.4,4.6,4.634,12.184,9.7,22.75c2.8,5.934,4.583,9.767,5.35,11.5c1.601,3.8,2.134,5.934,1.601,6.399c-0.567,0.5-1.351,2.5-2.351,6
		c-0.733,2.733-1.816,7.2-3.25,13.4c-0.566,2.4-1.767,6.566-3.6,12.5c-1.267,4-2.066,7.816-2.4,11.45
		c-0.7,7.434-1.267,12.7-1.7,15.8c-0.8,5.7-1.6,8.35-2.399,7.95c-0.767-0.4-1.983-3.217-3.65-8.45
		c-0.467-1.533-2.017-6.884-4.649-16.05c-2-7.033-4.334-16.033-7-27c-3.067-12.7-4.517-19.9-4.351-21.601
		c0.167-1.767,1.084-5.216,2.75-10.35c1.5-4.667,3.066-9.017,4.7-13.05C114.233,136.134,116.483,133.333,119.75,130.8z"/>
	
		<radialGradient id="SVGID_7_" cx="159.0996" cy="221.4004" r="57.5967" gradientTransform="matrix(-0.9957 -0.0924 0.0938 -1.0098 296.7596 459.6844)" gradientUnits="userSpaceOnUse">
		<stop  offset="0" style="stop-color:#859698"/>
		<stop  offset="0.2824" style="stop-color:#6C7988"/>
		<stop  offset="0.549" style="stop-color:#5A657D"/>
		<stop  offset="0.7255" style="stop-color:#545E79"/>
		<stop  offset="0.7882" style="stop-color:#4F5872"/>
		<stop  offset="0.8745" style="stop-color:#42465E"/>
		<stop  offset="0.9765" style="stop-color:#2C283E"/>
		<stop  offset="1" style="stop-color:#262136"/>
	</radialGradient>
	<path style="fill-rule:evenodd;clip-rule:evenodd;fill:url(#SVGID_7_);" d="M138.05,177.15c0.066,0.199,0.233,1.267,0.5,3.199
		c0.334,2.634,0.783,5.584,1.351,8.851c0.666,3.833,1.583,7.399,2.75,10.7c0.933,2.6,2.483,6.199,4.649,10.8
		c2.367,5,5.2,9.783,8.5,14.35c-1.033,1.934-4.983,7.267-11.85,16L126.85,241c0.7-14.934,1.534-25.684,2.5-32.25
		c0.601-4.066,2.233-10.55,4.9-19.45L138.05,177.15z"/>
	
		<radialGradient id="SVGID_8_" cx="176.2002" cy="147.6504" r="40.0874" gradientTransform="matrix(-0.9994 0.0334 -0.0373 -1.1166 357.8095 306.6274)" gradientUnits="userSpaceOnUse">
		<stop  offset="0" style="stop-color:#859698"/>
		<stop  offset="0.2824" style="stop-color:#6C7988"/>
		<stop  offset="0.549" style="stop-color:#5A657D"/>
		<stop  offset="0.7255" style="stop-color:#545E79"/>
		<stop  offset="0.7882" style="stop-color:#4F5872"/>
		<stop  offset="0.8745" style="stop-color:#42465E"/>
		<stop  offset="0.9765" style="stop-color:#2C283E"/>
		<stop  offset="1" style="stop-color:#262136"/>
	</radialGradient>
	<path style="fill-rule:evenodd;clip-rule:evenodd;fill:url(#SVGID_8_);" d="M143.05,142.65c3.5,12.699,6.084,21.616,7.75,26.75
		c0.3,0.933,0.816,2.033,1.55,3.3c0.834,1.533,1.334,2.483,1.5,2.85c-0.966,1.267-2.066,2.467-3.3,3.601
		c-1.866,1.666-3.017,2.05-3.45,1.149c-1.267-1.833-2.35-3.666-3.25-5.5c-1.699-3.467-2.767-7.467-3.199-12
		c-0.5-5.566-1-12.416-1.5-20.55c-0.5-8.366-0.717-13.65-0.65-15.85C138.5,126.267,140.017,131.684,143.05,142.65z"/>
	
		<radialGradient id="SVGID_9_" cx="140.8496" cy="117.5" r="49.1735" gradientTransform="matrix(-0.9957 -0.0925 0.0938 -1.0097 270.0719 249.1694)" gradientUnits="userSpaceOnUse">
		<stop  offset="0" style="stop-color:#859698"/>
		<stop  offset="0.2824" style="stop-color:#6C7988"/>
		<stop  offset="0.549" style="stop-color:#5A657D"/>
		<stop  offset="0.7255" style="stop-color:#545E79"/>
		<stop  offset="0.7882" style="stop-color:#4F5872"/>
		<stop  offset="0.8745" style="stop-color:#42465E"/>
		<stop  offset="0.9765" style="stop-color:#2C283E"/>
		<stop  offset="1" style="stop-color:#262136"/>
	</radialGradient>
	<path style="fill-rule:evenodd;clip-rule:evenodd;fill:url(#SVGID_9_);" d="M104.8,95.3c-1.366-3.267-2.05-5.6-2.05-7
		c0.033-1.033-0.217-2.233-0.75-3.6c-0.134-0.367-0.184-0.567-0.15-0.6c0.067,0,0.317,0.2,0.75,0.6c0.634,0.6,2.434,1.683,5.4,3.25
		c2.9,1.533,4.55,2.517,4.95,2.95l11.3,37.05c-6.033-8.867-11.3-17.233-15.8-25.1C107.184,100.617,105.967,98.1,104.8,95.3z"/>
	<path style="fill-rule:evenodd;clip-rule:evenodd;fill:#859698;" d="M163.75,171.35c-2.533,1.4-4.2,2.733-5,4
		c-1.1-0.199-2.184-0.216-3.25-0.05c-0.866,0.134-1.517,0.334-1.95,0.601c-0.2-1.034-0.467-1.851-0.8-2.45l-0.4-0.601
		c1.101-1.399,2.284-2.833,3.551-4.3c2.6-2.934,4.383-4.583,5.35-4.95c0.134,0.134,1.5,1.117,4.1,2.95
		c1.967,1.367,2.784,2.233,2.45,2.601C166.4,169.884,165.05,170.616,163.75,171.35z"/>
	
		<radialGradient id="SVGID_10_" cx="171.3496" cy="201.8496" r="42.871" gradientTransform="matrix(-0.9957 -0.0924 0.0854 -0.9205 324.7202 403.487)" gradientUnits="userSpaceOnUse">
		<stop  offset="0" style="stop-color:#859698"/>
		<stop  offset="0.2824" style="stop-color:#6C7988"/>
		<stop  offset="0.549" style="stop-color:#5A657D"/>
		<stop  offset="0.7255" style="stop-color:#545E79"/>
		<stop  offset="0.7882" style="stop-color:#4F5872"/>
		<stop  offset="0.8745" style="stop-color:#42465E"/>
		<stop  offset="0.9765" style="stop-color:#2C283E"/>
		<stop  offset="1" style="stop-color:#262136"/>
	</radialGradient>
	<path style="fill-rule:evenodd;clip-rule:evenodd;fill:url(#SVGID_10_);" d="M170.65,195.25l2.1,15.5
		c-1.134-1.533-2.417-3.4-3.85-5.6c-2.834-4.434-4.917-8.367-6.25-11.801c-2.2-5.633-3.517-10.383-3.95-14.25v-4.149l9.149-6.55
		c0.2,0.166,0.45,2.517,0.75,7.05C169.066,182.15,169.75,188.75,170.65,195.25z"/>
	
		<radialGradient id="SVGID_11_" cx="95.7002" cy="65.5498" r="28.0582" gradientTransform="matrix(-0.9957 -0.0925 0.1147 -1.2345 183.4722 155.3219)" gradientUnits="userSpaceOnUse">
		<stop  offset="0" style="stop-color:#859698"/>
		<stop  offset="0.2824" style="stop-color:#6C7988"/>
		<stop  offset="0.549" style="stop-color:#5A657D"/>
		<stop  offset="0.7255" style="stop-color:#545E79"/>
		<stop  offset="0.7882" style="stop-color:#4F5872"/>
		<stop  offset="0.8745" style="stop-color:#42465E"/>
		<stop  offset="0.9765" style="stop-color:#2C283E"/>
		<stop  offset="1" style="stop-color:#262136"/>
	</radialGradient>
	<path style="fill-rule:evenodd;clip-rule:evenodd;fill:url(#SVGID_11_);" d="M76.55,75.75c1.167,7.333,2.267,13.883,3.3,19.65
		c-1.434-1.533-2.95-3.65-4.55-6.35c-3.2-5.4-5.216-10.95-6.05-16.65c-0.833-5.733-0.6-12.566,0.7-20.5l2.15-10.2
		C72.733,49.667,74.217,61.017,76.55,75.75z"/>
	
		<radialGradient id="SVGID_12_" cx="81.1001" cy="45.1499" r="26.0495" gradientTransform="matrix(-0.9957 -0.0926 0.1147 -1.2342 156.6715 108.3806)" gradientUnits="userSpaceOnUse">
		<stop  offset="0" style="stop-color:#859698"/>
		<stop  offset="0.2" style="stop-color:#6C7988"/>
		<stop  offset="0.3882" style="stop-color:#5A657D"/>
		<stop  offset="0.5176" style="stop-color:#545E79"/>
		<stop  offset="0.6196" style="stop-color:#4F5872"/>
		<stop  offset="0.7765" style="stop-color:#42465E"/>
		<stop  offset="0.9608" style="stop-color:#2C283E"/>
		<stop  offset="1" style="stop-color:#262136"/>
	</radialGradient>
	<path style="fill-rule:evenodd;clip-rule:evenodd;fill:url(#SVGID_12_);" d="M72.1,41.7L70.85,48c-0.9,4.567-1.483,7.8-1.75,9.7
		c-0.7-1.2-1.4-2.75-2.1-4.65c-1.467-3.833-2.283-7.533-2.45-11.1c-0.2-3.9,0.35-8,1.65-12.3c1.066-3.533,2.35-6.417,3.85-8.65
		l2.55-3.7l-0.35,4.25c-0.2,3.067-0.2,5.25,0,6.55c0.267,1.9,0.417,4.05,0.45,6.45C72.733,37.483,72.533,39.867,72.1,41.7z"/>
	
		<radialGradient id="SVGID_13_" cx="82.5" cy="22.8501" r="13.2069" gradientTransform="matrix(-0.9957 -0.0926 0.1147 -1.2342 162.0237 58.6886)" gradientUnits="userSpaceOnUse">
		<stop  offset="0" style="stop-color:#859698"/>
		<stop  offset="0.2" style="stop-color:#6C7988"/>
		<stop  offset="0.3882" style="stop-color:#5A657D"/>
		<stop  offset="0.5176" style="stop-color:#545E79"/>
		<stop  offset="0.6196" style="stop-color:#4F5872"/>
		<stop  offset="0.7765" style="stop-color:#42465E"/>
		<stop  offset="0.9608" style="stop-color:#2C283E"/>
		<stop  offset="1" style="stop-color:#262136"/>
	</radialGradient>
	<path style="fill-rule:evenodd;clip-rule:evenodd;fill:url(#SVGID_13_);" d="M74.35,15.35L74.3,18.6
		c-0.033,2.267-0.017,3.667,0.05,4.2c0.1,0.567-0.1,2.767-0.6,6.6c-0.4,3.1-0.733,5.434-1,7c-0.167-3.833-0.367-6.2-0.6-7.1
		c-0.133-0.633-0.217-1.716-0.25-3.25c-0.066-1.4-0.066-2.5,0-3.3c0.1-2.567,0.467-5.367,1.1-8.4c0.433-2.167,1.1-4.267,2-6.3
		C74.667,11.217,74.45,13.65,74.35,15.35z"/>
	
		<radialGradient id="SVGID_14_" cx="49.3999" cy="70.8501" r="28.4973" gradientTransform="matrix(-0.9957 -0.0924 0.0966 -1.0413 91.7411 149.1924)" gradientUnits="userSpaceOnUse">
		<stop  offset="0" style="stop-color:#859698"/>
		<stop  offset="0.2824" style="stop-color:#6C7988"/>
		<stop  offset="0.549" style="stop-color:#5A657D"/>
		<stop  offset="0.7255" style="stop-color:#545E79"/>
		<stop  offset="0.7882" style="stop-color:#4F5872"/>
		<stop  offset="0.8745" style="stop-color:#42465E"/>
		<stop  offset="0.9765" style="stop-color:#2C283E"/>
		<stop  offset="1" style="stop-color:#262136"/>
	</radialGradient>
	<path style="fill-rule:evenodd;clip-rule:evenodd;fill:url(#SVGID_14_);" d="M61.65,41.35L69.1,57.7l-0.15,4.25
		c-0.067,3.033-0.083,5.017-0.05,5.95c0.067,1.6,0.233,3.317,0.5,5.15c0.067,0.333-0.35,1.767-1.25,4.3
		c-0.933,2.5-1.683,4.283-2.25,5.35c-0.4,0.7-1.217,1.95-2.45,3.75c-1.2,1.8-2.083,3.417-2.65,4.85
		c-0.466,1.167-0.816,2.25-1.05,3.25c-0.067,0.367-0.183,0.45-0.35,0.25c-0.066-0.1-0.816-1.816-2.25-5.15
		c-1.5-3.433-2.566-5.617-3.2-6.55c-0.7-1-1.434-2.117-2.2-3.35l-0.9-1.55c0.066-3.633,0.033-6.383-0.1-8.25
		c-0.1-1.3-0.1-2.617,0-3.95c0.067-1.233,0.167-1.9,0.3-2c0.167-0.167,1-1.667,2.5-4.5c1.7-3.167,3.034-5.833,4-8
		c0.934-2.033,1.9-4.333,2.9-6.9L61.65,41.35z"/>
	<path style="fill-rule:evenodd;clip-rule:evenodd;fill:#859698;" d="M97.6,117.25l-0.25,3.15c-0.133,2.333-0.1,4.083,0.101,5.25
		c-2.334-2.567-3.75-4.2-4.25-4.9c-0.3-0.4-0.517-1.183-0.65-2.35l-0.1-1.65C95.15,117.317,96.866,117.483,97.6,117.25z"/>
	
		<radialGradient id="SVGID_15_" cx="30.6001" cy="62.2002" r="44.0514" gradientTransform="matrix(-0.9957 -0.0924 0.0937 -1.0099 55.2391 127.8436)" gradientUnits="userSpaceOnUse">
		<stop  offset="0" style="stop-color:#859698"/>
		<stop  offset="0.2824" style="stop-color:#6C7988"/>
		<stop  offset="0.549" style="stop-color:#5A657D"/>
		<stop  offset="0.7255" style="stop-color:#545E79"/>
		<stop  offset="0.7882" style="stop-color:#4F5872"/>
		<stop  offset="0.8745" style="stop-color:#42465E"/>
		<stop  offset="0.9765" style="stop-color:#2C283E"/>
		<stop  offset="1" style="stop-color:#262136"/>
	</radialGradient>
	<path style="fill-rule:evenodd;clip-rule:evenodd;fill:url(#SVGID_15_);" d="M44,97.2c-2.033,2.333-4.05,4.167-6.05,5.5
		c0.667-2.1,1.383-4.9,2.15-8.4c1.467-7.033,2.383-14.05,2.75-21.05c0.066-1.167-0.05-3.617-0.35-7.35
		c-0.267-3.566-0.367-5.733-0.3-6.5l1.5,0.8c1.167,0.833,2.233,1.95,3.2,3.35c3,4.434,4.25,10.85,3.75,19.25
		C50.35,87.733,48.133,92.533,44,97.2z"/>
	<path style="fill-rule:evenodd;clip-rule:evenodd;fill:#859698;" d="M43.6,53.85l0.6,2.2c0.867,1.867,2.417,3.85,4.65,5.95
		c1.033,1,1.767,1.667,2.2,2L50.8,78.3c0-2.466-0.367-5.117-1.1-7.95c-1.434-5.6-3.934-9.25-7.5-10.95
		C42.5,57.333,42.967,55.483,43.6,53.85z"/>
	
		<radialGradient id="SVGID_16_" cx="46.7002" cy="60.1499" r="20.1612" gradientTransform="matrix(-0.9957 -0.0924 0.1848 -1.9927 82.084 184.3224)" gradientUnits="userSpaceOnUse">
		<stop  offset="0" style="stop-color:#859698"/>
		<stop  offset="0.2824" style="stop-color:#6C7988"/>
		<stop  offset="0.549" style="stop-color:#5A657D"/>
		<stop  offset="0.7255" style="stop-color:#545E79"/>
		<stop  offset="0.7882" style="stop-color:#4F5872"/>
		<stop  offset="0.8745" style="stop-color:#42465E"/>
		<stop  offset="0.9765" style="stop-color:#2C283E"/>
		<stop  offset="1" style="stop-color:#262136"/>
	</radialGradient>
	<path style="fill-rule:evenodd;clip-rule:evenodd;fill:url(#SVGID_16_);" d="M60.2,24.75l1.6,6.95c0.7,5.533,0.167,10.533-1.6,15
		c-1.733,4.466-3.784,8.7-6.15,12.7c-1.167,1.967-2.167,3.5-3,4.6c-1.1-0.767-2.233-1.767-3.4-3c-2.333-2.467-3.683-4.85-4.05-7.15
		c1.8-2.2,3.85-5.067,6.15-8.6C54.317,38.183,57.8,31.35,60.2,24.75z"/>
	
		<radialGradient id="SVGID_17_" cx="61.9502" cy="40.8501" r="41.7416" gradientTransform="matrix(-0.9957 -0.0925 0.065 -0.6992 120.98 75.1468)" gradientUnits="userSpaceOnUse">
		<stop  offset="0" style="stop-color:#859698"/>
		<stop  offset="0.2824" style="stop-color:#6C7988"/>
		<stop  offset="0.549" style="stop-color:#5A657D"/>
		<stop  offset="0.7255" style="stop-color:#545E79"/>
		<stop  offset="0.7882" style="stop-color:#4F5872"/>
		<stop  offset="0.8745" style="stop-color:#42465E"/>
		<stop  offset="0.9765" style="stop-color:#2C283E"/>
		<stop  offset="1" style="stop-color:#262136"/>
	</radialGradient>
	<path style="fill-rule:evenodd;clip-rule:evenodd;fill:url(#SVGID_17_);" d="M65.55,16.15l1.8,10.3l-1.25,3.7
		c-0.833,2.833-1.317,5.233-1.45,7.2c-0.2,3.333,0.117,6.883,0.95,10.65c0.433,1.9,0.867,3.45,1.3,4.65l-5.25-11.3
		c0.2-1.333,0.283-3.017,0.25-5.05c-0.033-4.1-0.65-7.9-1.85-11.4l1.05-1.05c0.8-0.9,1.467-1.783,2-2.65
		C64.3,19.067,65.117,17.383,65.55,16.15z"/>
	<path style="fill-rule:evenodd;clip-rule:evenodd;fill:#859698;" d="M75.5,5.5C75.167,7.4,75,8.25,75,8.05
		c-0.4,0.9-0.8,1.967-1.2,3.2c-0.8,2.533-1.25,4.7-1.35,6.5c-0.633,0.8-1.317,1.767-2.05,2.9c-1.5,2.233-2.517,4.167-3.05,5.8
		l-1.8-10.3c1.133-2.767,2.35-5.517,3.65-8.25c2.6-5.467,4.3-8.1,5.1-7.9c0.467,0.133,0.833,0.733,1.1,1.8
		C75.667,2.933,75.7,4.167,75.5,5.5z"/>
	
		<radialGradient id="SVGID_18_" cx="27.3999" cy="119.6499" r="34.2208" gradientTransform="matrix(-0.9442 -0.3293 0.4115 -1.1796 4.0399 269.8141)" gradientUnits="userSpaceOnUse">
		<stop  offset="0" style="stop-color:#859698"/>
		<stop  offset="0.1765" style="stop-color:#74838D"/>
		<stop  offset="0.5529" style="stop-color:#545E79"/>
		<stop  offset="0.6157" style="stop-color:#4C546E"/>
		<stop  offset="0.8667" style="stop-color:#312F46"/>
		<stop  offset="1" style="stop-color:#262136"/>
	</radialGradient>
	<path style="fill-rule:evenodd;clip-rule:evenodd;fill:url(#SVGID_18_);" d="M44.85,130.7c-3.5,2.666-7.233,5.116-11.2,7.35
		c-4.367,2.367-7.117,3.95-8.25,4.75c0.1-0.066-0.017-1.616-0.35-4.649c-0.333-3.267-0.5-4.983-0.5-5.15
		c0.233-4.4,1.233-7.934,3-10.6c1.2-1.8,3.3-5.617,6.3-11.45l4.1-8.25l1.3-0.65c4-1.966,8.017-2.367,12.05-1.2
		c4.467,1.3,6.767,4.2,6.9,8.7c0.1,3.767-1.35,7.767-4.35,12C51.483,124.884,48.483,127.934,44.85,130.7z"/>
	<path style="fill-rule:evenodd;clip-rule:evenodd;fill:#859698;" d="M52.15,80l3.4,6.9c2.367,4.733,3.784,7.434,4.25,8.1
		c0.633,0.9,1.034,1.65,1.2,2.25c0.167,0.633,0.017,0.933-0.45,0.9c-0.6-0.066-1.367,0.633-2.3,2.1c-1,1.6-1.467,3.217-1.4,4.85
		c-0.333,0.033-1.283-0.617-2.85-1.95c-3.633-3.167-8.983-3.316-16.05-0.45c2.167-1.3,4.333-3.284,6.5-5.95
		c4.333-5.367,6.45-11.517,6.35-18.45L52.15,80z"/>
	<path style="fill-rule:evenodd;clip-rule:evenodd;fill:#859698;" d="M24.75,151.45l0.9-4.3c0.9,11.833,1.383,17.883,1.45,18.149
		c0.066,0.2-0.417,0.884-1.45,2.05c-1.066,1.233-2.233,2.4-3.5,3.5c-1.733,1.534-4.066,5.067-7,10.601
		c-0.066,0.1,0.517-1.983,1.75-6.25c1.133-4,1.967-6.9,2.5-8.7c0.267-0.866,0.817-1.983,1.65-3.35
		c0.767-1.301,1.383-2.717,1.85-4.25C23.433,157.167,24.05,154.684,24.75,151.45z"/>
	<path style="fill-rule:evenodd;clip-rule:evenodd;fill:#859698;" d="M106.05,53.65c-1.5,1.7-3.1,3.567-4.8,5.6
		c-3.4,4.1-5.583,7.05-6.55,8.85c0.399-1.333,1.1-2.983,2.1-4.95c1.967-3.933,4.384-7.483,7.25-10.65L106.05,53.65z"/>
	<path style="fill-rule:evenodd;clip-rule:evenodd;fill:#859698;" d="M85.9,101.9l0.6,0.35c0.567,0.5,1.283,1.317,2.15,2.45l1.3,3
		c0.866,2.066,1.35,3.3,1.45,3.7c0.199,0.667,0.517,2.35,0.949,5.05l-5.45-7.3l-0.85-3.9L85.9,101.9z"/>
	
		<radialGradient id="SVGID_19_" cx="89.2998" cy="91.8999" r="16.2693" gradientTransform="matrix(-0.9957 -0.0921 0.0899 -0.9719 169.9539 189.4479)" gradientUnits="userSpaceOnUse">
		<stop  offset="0" style="stop-color:#545E79"/>
		<stop  offset="0.2157" style="stop-color:#4F5872"/>
		<stop  offset="0.5373" style="stop-color:#42465E"/>
		<stop  offset="0.9176" style="stop-color:#2C283E"/>
		<stop  offset="1" style="stop-color:#262136"/>
	</radialGradient>
	<path style="fill-rule:evenodd;clip-rule:evenodd;fill:url(#SVGID_19_);" d="M80.5,97.1c0.667,1.267,1.65,2.183,2.95,2.75
		l2.45,2.05l0.15,3.35c-0.733,0.1-1.583,0.05-2.55-0.15c-1.933-0.367-3.417-1.267-4.45-2.7c-1.066-1.4-1.9-3.917-2.5-7.55l-0.6-5
		l3.9,5.55L80.5,97.1z"/>
	
		<radialGradient id="SVGID_20_" cx="76.7998" cy="103.1499" r="21.6924" gradientTransform="matrix(-0.9957 -0.0923 0.1071 -1.1548 142.2291 229.356)" gradientUnits="userSpaceOnUse">
		<stop  offset="0" style="stop-color:#859698"/>
		<stop  offset="0.2824" style="stop-color:#6C7988"/>
		<stop  offset="0.549" style="stop-color:#5A657D"/>
		<stop  offset="0.7255" style="stop-color:#545E79"/>
		<stop  offset="0.7882" style="stop-color:#4F5872"/>
		<stop  offset="0.8745" style="stop-color:#42465E"/>
		<stop  offset="0.9765" style="stop-color:#2C283E"/>
		<stop  offset="1" style="stop-color:#262136"/>
	</radialGradient>
	<path style="fill-rule:evenodd;clip-rule:evenodd;fill:url(#SVGID_20_);" d="M76,90.35l0.55,3.8c0.467,2.733,0.85,4.55,1.15,5.45
		l-2.65,8.05c-1.833,6.2-2.917,11.467-3.25,15.8l-2.85-5.15c-0.967-2.767-2-5.683-3.1-8.75c-2.2-6.1-3.833-9.966-4.9-11.6
		c0.133-0.034,0.183-0.2,0.15-0.5c-0.067-0.534-0.5-1.35-1.3-2.45c-0.033-0.567,0.067-1.333,0.3-2.3c0.5-2,1.45-4.083,2.85-6.25
		c3.233-4.967,5.433-9.267,6.6-12.9l1.6,5.3C72.583,83.05,74.2,86.883,76,90.35z"/>
	
		<radialGradient id="SVGID_21_" cx="51.0498" cy="177.4502" r="69.561" gradientTransform="matrix(-0.9957 -0.0925 0.103 -1.108 83.6076 378.7924)" gradientUnits="userSpaceOnUse">
		<stop  offset="0" style="stop-color:#859698"/>
		<stop  offset="0.2118" style="stop-color:#6C7988"/>
		<stop  offset="0.4157" style="stop-color:#5A657D"/>
		<stop  offset="0.5529" style="stop-color:#545E79"/>
		<stop  offset="0.6667" style="stop-color:#515B75"/>
		<stop  offset="0.7725" style="stop-color:#4A506A"/>
		<stop  offset="0.8784" style="stop-color:#3C3F57"/>
		<stop  offset="0.9804" style="stop-color:#2A263C"/>
		<stop  offset="1" style="stop-color:#262136"/>
	</radialGradient>
	<path style="fill-rule:evenodd;clip-rule:evenodd;fill:url(#SVGID_21_);" d="M70.2,118c0.267,0.7,0.933,2.683,2,5.95
		c0.8,2.399,1.517,4.35,2.15,5.85c1.033,2.434,1.717,4.267,2.05,5.5c0.6,2.267,0.667,4.184,0.2,5.75c-0.4,1.4-1.783,6.134-4.15,14.2
		c-1.7,5.8-3.017,10.583-3.95,14.35c-0.267,1.2-0.6,3.051-1,5.551c-0.433,2.267-0.983,4.066-1.65,5.399
		c-0.967-0.533-2.133-0.283-3.5,0.75c-0.767,0.566-1.817,1.434-3.15,2.601c0.267-4.267,0.45-7.467,0.55-9.601
		c0.2-3.733,0.167-6.916-0.1-9.55c-0.2-2.267-0.683-4.866-1.45-7.8c-0.967-3.367-1.684-5.9-2.15-7.601
		c-0.633-2.333-0.65-5.166-0.05-8.5c0.933-3.767,1.567-6.566,1.9-8.399c0.733-3.834,1.184-6.783,1.35-8.851
		c0.3-3.333,0.183-6.3-0.35-8.899c-1.066-5.167-1.8-8.3-2.2-9.4c-0.117-0.32-0.191-0.461-0.225-0.425
		c0.256-1.076,0.614-2.15,1.075-3.225c1.034-2.367,2.167-3.6,3.4-3.7c0.433-0.034,2,3,4.7,9.1C67.917,112.25,69.433,115.9,70.2,118z
		"/>
	
		<radialGradient id="SVGID_22_" cx="94.7002" cy="198.9502" r="65.9203" gradientTransform="matrix(-0.9957 -0.0925 0.0721 -0.7754 174.6582 361.9728)" gradientUnits="userSpaceOnUse">
		<stop  offset="0" style="stop-color:#859698"/>
		<stop  offset="0.2118" style="stop-color:#6C7988"/>
		<stop  offset="0.4157" style="stop-color:#5A657D"/>
		<stop  offset="0.5529" style="stop-color:#545E79"/>
		<stop  offset="0.6667" style="stop-color:#515B75"/>
		<stop  offset="0.7725" style="stop-color:#4A506A"/>
		<stop  offset="0.8784" style="stop-color:#3C3F57"/>
		<stop  offset="0.9804" style="stop-color:#2A263C"/>
		<stop  offset="1" style="stop-color:#262136"/>
	</radialGradient>
	<path style="fill-rule:evenodd;clip-rule:evenodd;fill:url(#SVGID_22_);" d="M58.05,156.15L65.8,181l-0.7,14.2
		c-0.533,10-1,16.316-1.4,18.95c-0.267,1.933-0.617,6.25-1.05,12.949c-0.367,5.334-0.65,7.851-0.85,7.551
		c-3.167-3.134-6.367-6.867-9.6-11.2c-6.4-8.566-10.367-16.601-11.9-24.101c-1.533-7.466,0.967-16.916,7.5-28.35
		c2.034-3.566,4.35-7.1,6.95-10.6L58.05,156.15z"/>
	
		<radialGradient id="SVGID_23_" cx="39.4502" cy="142.5" r="29.4513" gradientTransform="matrix(-0.9957 -0.0925 0.1205 -1.2966 61.558 330.9211)" gradientUnits="userSpaceOnUse">
		<stop  offset="0" style="stop-color:#859698"/>
		<stop  offset="0.2118" style="stop-color:#6C7988"/>
		<stop  offset="0.4157" style="stop-color:#5A657D"/>
		<stop  offset="0.5529" style="stop-color:#545E79"/>
		<stop  offset="0.6667" style="stop-color:#515B75"/>
		<stop  offset="0.7725" style="stop-color:#4A506A"/>
		<stop  offset="0.8784" style="stop-color:#3C3F57"/>
		<stop  offset="0.9804" style="stop-color:#2A263C"/>
		<stop  offset="1" style="stop-color:#262136"/>
	</radialGradient>
	<path style="fill-rule:evenodd;clip-rule:evenodd;fill:url(#SVGID_23_);" d="M57.65,108.85c1.667,7.333,2.467,11.45,2.4,12.35
		c-0.066,0.733-0.5,3.383-1.3,7.95c-0.833,4.666-1.4,7.716-1.7,9.149c-0.433,2-0.9,4.816-1.4,8.45c-1.733,4-2.917,5.884-3.55,5.65
		c-0.5-0.167-0.883-2-1.15-5.5c-0.267-3.4-0.333-7.101-0.2-11.101c0.1-3.233,0.5-6.783,1.2-10.649l1-4.851L57.65,108.85z"/>
	
		<radialGradient id="SVGID_24_" cx="24" cy="161.0996" r="35.9552" gradientTransform="matrix(-0.949 -0.3153 0.3939 -1.1857 -16.6876 359.6872)" gradientUnits="userSpaceOnUse">
		<stop  offset="0" style="stop-color:#859698"/>
		<stop  offset="0.1765" style="stop-color:#74838D"/>
		<stop  offset="0.5529" style="stop-color:#545E79"/>
		<stop  offset="0.6157" style="stop-color:#4C546E"/>
		<stop  offset="0.8667" style="stop-color:#312F46"/>
		<stop  offset="1" style="stop-color:#262136"/>
	</radialGradient>
	<path style="fill-rule:evenodd;clip-rule:evenodd;fill:url(#SVGID_24_);" d="M51.6,136.1c-0.3,8.567-0.133,14,0.5,16.301
		l-3.5,6.699c-2.2,5.334-2.95,10.233-2.25,14.7L43.6,180c-1.833,4.566-2.817,8-2.95,10.3c-6.467-13.233-10.983-21.566-13.55-25
		l-1.7-22.5c2.667-1.399,5.783-3.233,9.35-5.5c7.133-4.533,12.983-8.983,17.55-13.35L51.6,136.1z"/>
	<path style="fill-rule:evenodd;clip-rule:evenodd;fill:#859698;" d="M52.1,152.4l3.55-5.65l2.4,9.4l-5.25,7.5
		c-3.667,5.3-5.816,8.683-6.45,10.149c-0.3-0.467-0.5-1.283-0.6-2.45c-0.167-2.333,0.233-5.183,1.2-8.55
		c1-3.366,2.167-6.116,3.5-8.25L52.1,152.4z"/>
	
		<radialGradient id="SVGID_25_" cx="-5.0498" cy="214.4502" r="54.1065" gradientTransform="matrix(-0.9957 -0.0924 0.1028 -1.108 -32.1274 451.5941)" gradientUnits="userSpaceOnUse">
		<stop  offset="0" style="stop-color:#859698"/>
		<stop  offset="0.2118" style="stop-color:#6C7988"/>
		<stop  offset="0.4157" style="stop-color:#5A657D"/>
		<stop  offset="0.5529" style="stop-color:#545E79"/>
		<stop  offset="0.6667" style="stop-color:#515B75"/>
		<stop  offset="0.7725" style="stop-color:#4A506A"/>
		<stop  offset="0.8784" style="stop-color:#3C3F57"/>
		<stop  offset="0.9804" style="stop-color:#2A263C"/>
		<stop  offset="1" style="stop-color:#262136"/>
	</radialGradient>
	<path style="fill-rule:evenodd;clip-rule:evenodd;fill:url(#SVGID_25_);" d="M32.15,172.65c3.767,6.066,6.6,11.949,8.5,17.649
		l-0.15,6.351c0.367,5.166,1.7,9.983,4,14.449l-0.4,10.45c-0.467,7.967-1.25,14.517-2.35,19.65L0,242.5
		c1.633-6.533,3.3-13.733,5-21.6c3.433-15.7,5.4-26.817,5.9-33.351c1.5-2.8,3.283-5.833,5.35-9.1c4.2-6.5,7.817-10.884,10.85-13.15
		L32.15,172.65z"/>
	
		<radialGradient id="SVGID_26_" cx="83" cy="259.0996" r="49.2866" gradientTransform="matrix(-0.9957 -0.0925 0.103 -1.1081 138.9585 553.8784)" gradientUnits="userSpaceOnUse">
		<stop  offset="0" style="stop-color:#859698"/>
		<stop  offset="0.2118" style="stop-color:#6C7988"/>
		<stop  offset="0.4157" style="stop-color:#5A657D"/>
		<stop  offset="0.5529" style="stop-color:#545E79"/>
		<stop  offset="0.6667" style="stop-color:#515B75"/>
		<stop  offset="0.7725" style="stop-color:#4A506A"/>
		<stop  offset="0.8784" style="stop-color:#3C3F57"/>
		<stop  offset="0.9804" style="stop-color:#2A263C"/>
		<stop  offset="1" style="stop-color:#262136"/>
	</radialGradient>
	<path style="fill-rule:evenodd;clip-rule:evenodd;fill:url(#SVGID_26_);" d="M66.75,240.85l-25.3,0.101
		c0.733-3.2,1.466-9.134,2.2-17.8L44.5,211.1c1.467,3.134,4.8,8,10,14.601c2.567,3.3,5,6.283,7.3,8.95L66.75,240.85z"/>
	<path style="fill-rule:evenodd;clip-rule:evenodd;fill:#859698;" d="M39.85,187.45c0.4,0.5,0.733,0.816,1,0.95l-0.4,3.5l-1.1-5.2
		L39.85,187.45z"/>
	
		<radialGradient id="SVGID_27_" cx="67.7998" cy="156.1504" r="35.3894" gradientTransform="matrix(-0.9957 -0.0925 0.1241 -1.3362 115.9337 371.0671)" gradientUnits="userSpaceOnUse">
		<stop  offset="0" style="stop-color:#859698"/>
		<stop  offset="0.2824" style="stop-color:#6C7988"/>
		<stop  offset="0.549" style="stop-color:#5A657D"/>
		<stop  offset="0.7255" style="stop-color:#545E79"/>
		<stop  offset="0.7882" style="stop-color:#4F5872"/>
		<stop  offset="0.8745" style="stop-color:#42465E"/>
		<stop  offset="0.9765" style="stop-color:#2C283E"/>
		<stop  offset="1" style="stop-color:#262136"/>
	</radialGradient>
	<path style="fill-rule:evenodd;clip-rule:evenodd;fill:url(#SVGID_27_);" d="M79.4,141.55c2.133,2.934,4.383,4.634,6.75,5.101
		c2.367,0.466,4.7-3.15,7-10.851l2.75-11.7l1.75,1.5c0.833,3.134,1.366,8.167,1.6,15.101c0.1,2.833,0.15,7.75,0.15,14.75
		c0,6.366,0.083,10.533,0.25,12.5L92.85,175c-4.899,5.333-8.25,9.533-10.05,12.6c-2.867,4.934-4.4,7.967-4.6,9.101l-11.15-21.2
		l9.85-38.15L79.4,141.55z"/>
	
		<radialGradient id="SVGID_28_" cx="62.0498" cy="221.6504" r="31.1455" gradientTransform="matrix(-0.9957 -0.0923 0.128 -1.3798 95.4694 533.2183)" gradientUnits="userSpaceOnUse">
		<stop  offset="0" style="stop-color:#859698"/>
		<stop  offset="0.2824" style="stop-color:#6C7988"/>
		<stop  offset="0.549" style="stop-color:#5A657D"/>
		<stop  offset="0.7255" style="stop-color:#545E79"/>
		<stop  offset="0.7882" style="stop-color:#4F5872"/>
		<stop  offset="0.8745" style="stop-color:#42465E"/>
		<stop  offset="0.9765" style="stop-color:#2C283E"/>
		<stop  offset="1" style="stop-color:#262136"/>
	</radialGradient>
	<path style="fill-rule:evenodd;clip-rule:evenodd;fill:url(#SVGID_28_);" d="M67.05,175.5l11.15,21.2l3.9,16.7
		c3.367,12.3,6.95,21.3,10.75,27l-26.1,0.449c-0.067-2.899-0.217-5.966-0.45-9.199c-0.433-6.434-1.017-10.4-1.75-11.9
		c1.1-22.167,1.534-35.233,1.3-39.2L67.05,175.5z"/>
	
		<radialGradient id="SVGID_29_" cx="72.6001" cy="232.7002" r="9.9431" gradientTransform="matrix(-0.9957 -0.0928 0.1286 -1.3803 114.9624 560.6349)" gradientUnits="userSpaceOnUse">
		<stop  offset="0" style="stop-color:#859698"/>
		<stop  offset="0.2824" style="stop-color:#6C7988"/>
		<stop  offset="0.549" style="stop-color:#5A657D"/>
		<stop  offset="0.7255" style="stop-color:#545E79"/>
		<stop  offset="0.7882" style="stop-color:#4F5872"/>
		<stop  offset="0.8745" style="stop-color:#42465E"/>
		<stop  offset="0.9765" style="stop-color:#2C283E"/>
		<stop  offset="1" style="stop-color:#262136"/>
	</radialGradient>
	<path style="fill-rule:evenodd;clip-rule:evenodd;fill:url(#SVGID_29_);" d="M64.55,219.75l1.4,8.05
		c0.867,5.934,1.133,10.283,0.8,13.05l-4.95-6.199l1.15-14.101L64.55,219.75z"/>
	
		<radialGradient id="SVGID_30_" cx="101.5" cy="151.5498" r="11.8761" gradientTransform="matrix(-0.9957 -0.0925 0.1717 -1.8482 176.5365 441.0416)" gradientUnits="userSpaceOnUse">
		<stop  offset="0" style="stop-color:#859698"/>
		<stop  offset="0.2824" style="stop-color:#6C7988"/>
		<stop  offset="0.549" style="stop-color:#5A657D"/>
		<stop  offset="0.7255" style="stop-color:#545E79"/>
		<stop  offset="0.7882" style="stop-color:#4F5872"/>
		<stop  offset="0.8745" style="stop-color:#42465E"/>
		<stop  offset="0.9765" style="stop-color:#2C283E"/>
		<stop  offset="1" style="stop-color:#262136"/>
	</radialGradient>
	<path style="fill-rule:evenodd;clip-rule:evenodd;fill:url(#SVGID_30_);" d="M99.35,135.6l2.2,12.45
		c1.566,8.667,2.55,13.867,2.95,15.601l-4.85,4.3L98.9,134.7L99.35,135.6z"/>
	
		<radialGradient id="SVGID_31_" cx="77.2998" cy="213.75" r="47.8426" gradientTransform="matrix(-0.9957 -0.0925 0.1212 -1.3048 128.3581 499.8017)" gradientUnits="userSpaceOnUse">
		<stop  offset="0" style="stop-color:#859698"/>
		<stop  offset="0.2824" style="stop-color:#6C7988"/>
		<stop  offset="0.549" style="stop-color:#5A657D"/>
		<stop  offset="0.7255" style="stop-color:#545E79"/>
		<stop  offset="0.7882" style="stop-color:#4F5872"/>
		<stop  offset="0.8745" style="stop-color:#42465E"/>
		<stop  offset="0.9765" style="stop-color:#2C283E"/>
		<stop  offset="1" style="stop-color:#262136"/>
	</radialGradient>
	<path style="fill-rule:evenodd;clip-rule:evenodd;fill:url(#SVGID_31_);" d="M95.2,171.05c2.366-2.333,4.8-4.45,7.3-6.35
		l3.05-2.101c1.367,7.367,5.316,22.65,11.851,45.851c3.3,11.6,6.449,22.45,9.449,32.55l-34-0.6c-4.399-6.9-8.167-16.25-11.3-28.051
		L78.2,196.7C81.867,187.167,87.533,178.616,95.2,171.05z"/>
	
		<radialGradient id="SVGID_32_" cx="184.7998" cy="196.9502" r="49.6125" gradientTransform="matrix(-0.9957 -0.0924 0.0938 -1.0098 350.344 412.9182)" gradientUnits="userSpaceOnUse">
		<stop  offset="0" style="stop-color:#859698"/>
		<stop  offset="0.2824" style="stop-color:#6C7988"/>
		<stop  offset="0.549" style="stop-color:#5A657D"/>
		<stop  offset="0.7255" style="stop-color:#545E79"/>
		<stop  offset="0.7882" style="stop-color:#4F5872"/>
		<stop  offset="0.8745" style="stop-color:#42465E"/>
		<stop  offset="0.9765" style="stop-color:#2C283E"/>
		<stop  offset="1" style="stop-color:#262136"/>
	</radialGradient>
	<path style="fill-rule:evenodd;clip-rule:evenodd;fill:url(#SVGID_32_);" d="M141.25,167.2l1.8,4.2
		c1.601,3.533,3.45,7.1,5.55,10.699c6.801,11.434,14.851,20.983,24.15,28.65l0.95,7.3c0.767,5.533,1.45,9.917,2.05,13.15
		c-2.434-0.267-5.083-0.717-7.95-1.351c-5.767-1.3-9.767-2.899-12-4.8c-2.866-4.066-5.767-9.1-8.7-15.1
		c-5.833-12.066-8.85-23-9.05-32.8c0.066-0.601,0.25-1.45,0.55-2.551C139.167,172.333,140.05,169.866,141.25,167.2z"/>
	
		<radialGradient id="SVGID_33_" cx="206.5498" cy="204.4502" r="61.715" gradientTransform="matrix(-0.9957 -0.0925 0.0855 -0.9206 394.7283 411.7659)" gradientUnits="userSpaceOnUse">
		<stop  offset="0" style="stop-color:#859698"/>
		<stop  offset="0.2824" style="stop-color:#6C7988"/>
		<stop  offset="0.549" style="stop-color:#5A657D"/>
		<stop  offset="0.7255" style="stop-color:#545E79"/>
		<stop  offset="0.7882" style="stop-color:#4F5872"/>
		<stop  offset="0.8745" style="stop-color:#42465E"/>
		<stop  offset="0.9765" style="stop-color:#2C283E"/>
		<stop  offset="1" style="stop-color:#262136"/>
	</radialGradient>
	<path style="fill-rule:evenodd;clip-rule:evenodd;fill:url(#SVGID_33_);" d="M154.5,191.25l-6.8-10.8l5.399-4.3
		c0.132-0.074,0.281-0.157,0.45-0.25c0.834-0.467,1.95-0.767,3.351-0.9c0.666-0.066,1.267-0.083,1.8-0.05
		c1.3,5.133,4.017,12.566,8.149,22.3c2.067,4.9,4,9.267,5.801,13.1C166.35,205.717,160.3,199.35,154.5,191.25z"/>
	
		<radialGradient id="SVGID_34_" cx="219.8496" cy="243.5498" r="76.2018" gradientTransform="matrix(-0.9957 -0.0925 0.0855 -0.9206 417.9336 488.0878)" gradientUnits="userSpaceOnUse">
		<stop  offset="0" style="stop-color:#859698"/>
		<stop  offset="0.1961" style="stop-color:#6C7988"/>
		<stop  offset="0.3804" style="stop-color:#5A657D"/>
		<stop  offset="0.5059" style="stop-color:#545E79"/>
		<stop  offset="0.6157" style="stop-color:#4F5872"/>
		<stop  offset="0.7725" style="stop-color:#42465E"/>
		<stop  offset="0.9608" style="stop-color:#2C283E"/>
		<stop  offset="1" style="stop-color:#262136"/>
	</radialGradient>
	<path style="fill-rule:evenodd;clip-rule:evenodd;fill:url(#SVGID_34_);" d="M155.8,225.05l6.25,2.4c5,1.733,9.566,2.983,13.7,3.75
		l2.55,11.75c-18.6-1.3-30.05-1.934-34.35-1.9C150.583,232.583,154.533,227.25,155.8,225.05z"/>
</g>
</svg>
