<?xml version="1.0" encoding="iso-8859-1"?>
<!-- Generator: Adobe Illustrator 15.1.0, SVG Export Plug-In . SVG Version: 6.00 Build 0)  -->
<!DOCTYPE svg PUBLIC "-//W3C//DTD SVG 1.1//EN" "http://www.w3.org/Graphics/SVG/1.1/DTD/svg11.dtd">
<svg version="1.1" id="Layer_3" xmlns="http://www.w3.org/2000/svg" xmlns:xlink="http://www.w3.org/1999/xlink" x="0px" y="0px"
	 width="162.1px" height="61.3px" viewBox="0 0 162.1 61.3" style="enable-background:new 0 0 162.1 61.3;" xml:space="preserve">
<path style="fill-rule:evenodd;clip-rule:evenodd;fill:#CECAC4;" d="M153.15,47.35c6.433,0.801,9.399,1.45,8.899,1.95
	c-0.233,0.233-1.116,0.384-2.649,0.45c-5.301-0.566-11.134-0.934-17.5-1.1c-12.733-0.367-21.717,0.399-26.95,2.3
	c-10.834,4-19.867,6.75-27.101,8.25c-13.366,2.733-24.95,2.767-34.75,0.1c-24.133-6.633-40.184-9.816-48.15-9.55
	c-3.934,0.1-5.534-0.316-4.8-1.25c0.567-0.767,2.8-2,6.7-3.7c1.9-0.833,4.367-1.566,7.4-2.2c1.667-0.333,4.167-0.833,7.5-1.5
	c8.867-2.166,16.233-5.133,22.1-8.899c3.967-2.5,6.383-5.65,7.25-9.45c0.3-1.233,0.467-3.483,0.5-6.75c0.033-2.9,0.333-5.1,0.9-6.6
	c0.467-1.267,1.183-2,2.15-2.2c1-0.233,1.717,0.35,2.15,1.75c0.3,1,0.167,2.283-0.4,3.85c-0.333,0.833-0.8,2.067-1.4,3.7
	c-0.267,1.167-0.35,2.517-0.25,4.05c0.133,2,0.65,3.017,1.55,3.05c0.833,0,1.467-0.783,1.9-2.35c0.167-0.533,0.35-1.617,0.55-3.25
	c0.4-2.667,0.633-4.283,0.7-4.85c0.233-1.8,0.3-3.417,0.2-4.85c-0.1-2.033-0.05-3.55,0.15-4.55c0.4-2,1.383-2.817,2.95-2.45
	c1.6,0.333,2.283,1.65,2.05,3.95c-0.066,0.7-0.466,2.333-1.2,4.9c-0.5,1.8-0.833,3.7-1,5.7c-0.267,3.1,0.167,4.783,1.3,5.05
	s1.7-0.4,1.7-2c0-0.467-0.167-1.533-0.5-3.2c-0.233-1.1-0.283-2.083-0.15-2.95c0.167-1.3,0.783-1.7,1.85-1.2
	c0.833,0.4,1.2,1.333,1.1,2.8c-0.066,0.8-0.167,1.883-0.3,3.25c0.233,1.2,0.65,1.75,1.25,1.65c0.533-0.1,0.933-0.717,1.2-1.85
	c0.2-0.833,0.233-1.867,0.1-3.1c-0.2-1.4-0.35-2.433-0.45-3.1c-1.133-8.233-0.067-11.934,3.2-11.1c1.7,0.433,2.233,2.117,1.6,5.05
	c-0.333,1.533-0.8,3.55-1.4,6.05l0.1,1.55c0.533-0.167,0.966-1.017,1.3-2.55c0.267-1.3,0.867-1.8,1.8-1.5
	c0.867,0.3,1.167,1.15,0.9,2.55c-0.133,0.767-0.4,1.783-0.8,3.05c-0.133,1.4,0.1,2.167,0.7,2.3c0.633,0.133,1.083-0.5,1.35-1.9
	c0.267-1.5,0.5-2.434,0.7-2.8c0.5-1,1.233-0.95,2.2,0.15c0.167,0.2,0.551,1.5,1.15,3.9c0.7,1.9,1.483,1.917,2.35,0.05
	c0.267-0.6,0.4-1.617,0.4-3.05c0-1.534,0.083-2.6,0.25-3.2c0.866-2.633,1.833-3.4,2.9-2.3c0.5,0.5,0.583,1.283,0.25,2.35
	c-0.2,0.567-0.534,1.35-1,2.35c-0.4,1.733-0.334,3.417,0.199,5.05c0.267,0.833,0.634,1.466,1.101,1.9c0.566,0.5,1,0.283,1.3-0.65
	c0.167-0.534,0.017-1.383-0.45-2.55c-0.467-1.233-0.616-2.15-0.45-2.75c0.301-0.933,0.75-1.417,1.351-1.45
	c0.6-0.067,1.184,0.316,1.75,1.15c0.133,0.2,0.7,2.35,1.7,6.45c1.199,3.6,2.433,4.434,3.699,2.5c0.534-0.8,0.551-2.133,0.051-4
	c-0.7-2-1.134-3.35-1.301-4.05c-0.366-1.4-0.466-2.633-0.3-3.7c0.267-1.5,1.117-1.983,2.55-1.45c1.134,0.433,1.834,1.45,2.101,3.05
	c0.166,0.8,0.2,2.083,0.1,3.85c-0.033,0.7-0.133,1.967-0.3,3.8c-0.066,1.667,0.134,2.9,0.6,3.7c0.233,0.467,0.5,0.75,0.801,0.85
	c0.966-1.667,1.033-4.4,0.199-8.2c-0.866-3.967-0.949-6.783-0.25-8.45c0.7-1.633,1.567-1.967,2.601-1
	c0.866,0.867,1.434,2.017,1.7,3.45c0.267,1.5,0.316,3.317,0.149,5.45c-0.066,1.2-0.25,3-0.55,5.4c-0.066,0.8-0.217,2.117-0.45,3.95
	c-0.033,1.6,0.316,2.833,1.05,3.7c1.167,1.367,2.051,1.35,2.65-0.05c0.434-1.067,0.616-2.317,0.55-3.75
	c-0.233-1.733-0.316-3.117-0.25-4.15c0.134-1.934,0.9-2.7,2.3-2.3c1.034,0.333,1.584,1.333,1.65,3c0.033,0.7-0.083,1.95-0.35,3.75
	c-0.134,0.767-0.434,2.05-0.9,3.85c-0.2,1.567,0.15,2.733,1.05,3.5c0.667,0.3,1.033-0.8,1.101-3.3c0.066-2.567,0.649-3.7,1.75-3.4
	c1.033,0.3,1.583,1.434,1.649,3.4c0.066,2.434,0.233,3.883,0.5,4.35c0.7,1.101,1.767,2.05,3.2,2.851c0.4,0.233,1.717,0.833,3.95,1.8
	c4.467,1.934,7.733,3.25,9.8,3.95c1.3,0.433,4.267,1.483,8.9,3.149C148.483,46.3,151.483,47.15,153.15,47.35z"/>
</svg>
