<?xml version="1.0" encoding="iso-8859-1"?>
<!-- Generator: Adobe Illustrator 15.1.0, SVG Export Plug-In . SVG Version: 6.00 Build 0)  -->
<!DOCTYPE svg PUBLIC "-//W3C//DTD SVG 1.1//EN" "http://www.w3.org/Graphics/SVG/1.1/DTD/svg11.dtd">
<svg version="1.1" id="Layer_3" xmlns="http://www.w3.org/2000/svg" xmlns:xlink="http://www.w3.org/1999/xlink" x="0px" y="0px"
	 width="25.5px" height="48.45px" viewBox="0 0 25.5 48.45" style="enable-background:new 0 0 25.5 48.45;" xml:space="preserve">
<g>
	<linearGradient id="SVGID_1_" gradientUnits="userSpaceOnUse" x1="8.0493" y1="5.2876" x2="8.0493" y2="52.4126">
		<stop  offset="0" style="stop-color:#3B998C"/>
		<stop  offset="0.2667" style="stop-color:#367D74"/>
		<stop  offset="0.8471" style="stop-color:#283636"/>
		<stop  offset="1" style="stop-color:#242224"/>
	</linearGradient>
	<path style="fill-rule:evenodd;clip-rule:evenodd;fill:url(#SVGID_1_);" d="M16.1,47.7c-0.533,0.233-1.233,0.434-2.1,0.6
		c-1.767,0.267-3.533,0.15-5.3-0.35c0.4-5.066,0.35-10.884-0.15-17.45C7.483,17.433,4.633,7.267,0,0c2.467,3.2,5,7.583,7.6,13.15
		C12.733,24.283,15.566,35.8,16.1,47.7z"/>
	
		<linearGradient id="SVGID_2_" gradientUnits="userSpaceOnUse" x1="-46.4829" y1="20.3018" x2="-22.9579" y2="20.3018" gradientTransform="matrix(4.250797e-005 -1 1 -0.001 5.897965e-005 -8.200412e-006)">
		<stop  offset="0" style="stop-color:#242224"/>
		<stop  offset="0.1529" style="stop-color:#283636"/>
		<stop  offset="0.7333" style="stop-color:#367D74"/>
		<stop  offset="1" style="stop-color:#3B998C"/>
	</linearGradient>
	<path style="fill-rule:evenodd;clip-rule:evenodd;fill:url(#SVGID_2_);" d="M15.1,47.95c0.334-8.367,2.167-16.434,5.5-24.2
		c1.667-3.9,3.301-6.967,4.9-9.2c-3,5.1-4.833,12.217-5.5,21.351c-0.333,4.566-0.366,8.633-0.1,12.199
		C18.066,48.634,16.467,48.583,15.1,47.95z"/>
</g>
</svg>
