<?xml version="1.0" encoding="iso-8859-1"?>
<!-- Generator: Adobe Illustrator 15.1.0, SVG Export Plug-In . SVG Version: 6.00 Build 0)  -->
<!DOCTYPE svg PUBLIC "-//W3C//DTD SVG 1.1//EN" "http://www.w3.org/Graphics/SVG/1.1/DTD/svg11.dtd">
<svg version="1.1" id="Layer_4" xmlns="http://www.w3.org/2000/svg" xmlns:xlink="http://www.w3.org/1999/xlink" x="0px" y="0px"
	 width="277.9px" height="225.1px" viewBox="0 0 277.9 225.1" style="enable-background:new 0 0 277.9 225.1;" xml:space="preserve"
	>
<symbol  id="flash2.ai_x2F_Layer_4_x2F__x3C_Path_x3E_" viewBox="-0.024 -2.448 3.254 2.467">
	<g id="Layer_1_5_">
		<path style="fill-rule:evenodd;clip-rule:evenodd;fill:#006B73;" d="M0.05-1.6C0.25-0.9,0.9-0.4,2-0.1
			c1.133,0.3,1.483,0.033,1.05-0.8C2.617-1.733,1.933-2.233,1-2.4C0.133-2.567-0.183-2.3,0.05-1.6z"/>
	</g>
</symbol>
<symbol  id="flash2.ai_x2F_Layer_4_x2F__x3C_Path_x3E__x5F_0" viewBox="-0.023 -6.411 3.415 6.553">
	<g id="Layer_1_10_">
		<path style="fill-rule:evenodd;clip-rule:evenodd;fill:#006B73;" d="M3.3-4.9C3.033-6.433,2.383-6.8,1.35-6
			C0.317-5.233-0.133-3.833,0-1.8c0.167,2.066,0.833,2.483,2,1.25C3.167-1.783,3.6-3.233,3.3-4.9z"/>
	</g>
</symbol>
<symbol  id="flash2.ai_x2F_Layer_4_x2F__x3C_Path_x3E__x5F_1" viewBox="-0.006 -3.778 3.477 3.865">
	<g id="Layer_1_4_">
		<path style="fill-rule:evenodd;clip-rule:evenodd;fill:#006B73;" d="M0-2.8C0.067-1.833,0.717-1,1.95-0.3
			C3.183,0.4,3.667,0.15,3.4-1.05c-0.267-1.167-0.933-2-2-2.5C0.4-4.017-0.067-3.767,0-2.8z"/>
	</g>
</symbol>
<symbol  id="flash2.ai_x2F_Layer_4_x2F__x3C_Path_x3E__x5F_10" viewBox="-0.066 -4.425 2.472 4.538">
	<g id="Layer_1_36_">
		<path style="fill-rule:evenodd;clip-rule:evenodd;fill:#006B73;" d="M1.9-3.8c-0.566-0.833-1.1-0.833-1.6,0
			c-0.533,0.833-0.483,1.833,0.15,3C1.083,0.4,1.633,0.417,2.1-0.75C2.567-1.883,2.5-2.9,1.9-3.8z"/>
	</g>
</symbol>
<symbol  id="flash2.ai_x2F_Layer_4_x2F__x3C_Path_x3E__x5F_10_x5F_0" viewBox="-0.049 -6.341 4.489 6.475">
	<g id="Layer_1_70_">
		
			<linearGradient id="SVGID_1_" gradientUnits="userSpaceOnUse" x1="-640.168" y1="-15462.7822" x2="-634.826" y2="-15462.7822" gradientTransform="matrix(0.0796 -0.9968 0.9968 0.0796 15466.6201 592.2295)">
			<stop  offset="0" style="stop-color:#A48058"/>
			<stop  offset="0.6549" style="stop-color:#504333"/>
			<stop  offset="1" style="stop-color:#292621"/>
		</linearGradient>
		<path style="fill-rule:evenodd;clip-rule:evenodd;fill:url(#SVGID_1_);" d="M4.4-1.4C4.2-3,3.283-4.417,1.65-5.65
			C0.083-6.883-0.4-6.467,0.2-4.4C0.833-2.367,1.683-1,2.75-0.3C4.05,0.533,4.6,0.167,4.4-1.4z"/>
	</g>
</symbol>
<symbol  id="flash2.ai_x2F_Layer_4_x2F__x3C_Path_x3E__x5F_11" viewBox="0.032 -5.239 3.828 5.334">
	<g id="Layer_1_40_">
		<path style="fill-rule:evenodd;clip-rule:evenodd;fill:#006B73;" d="M1.9-4.7C0.767-5.533,0.15-5.4,0.05-4.3
			C-0.083-3.167,0.533-1.983,1.9-0.75C3.3,0.483,3.95,0.367,3.85-1.1C3.783-2.567,3.133-3.767,1.9-4.7z"/>
	</g>
</symbol>
<symbol  id="flash2.ai_x2F_Layer_4_x2F__x3C_Path_x3E__x5F_11_x5F_0" viewBox="-0.083 -2.4 4.773 2.407">
	<g id="Layer_1_69_">
		
			<linearGradient id="SVGID_2_" gradientUnits="userSpaceOnUse" x1="4668.2383" y1="-18971.0977" x2="4673.9194" y2="-18971.0977" gradientTransform="matrix(-0.467 -0.8843 0.8843 -0.467 18959.1777 -4730.2319)">
			<stop  offset="0" style="stop-color:#A48058"/>
			<stop  offset="0.6549" style="stop-color:#504333"/>
			<stop  offset="1" style="stop-color:#292621"/>
		</linearGradient>
		<path style="fill-rule:evenodd;clip-rule:evenodd;fill:url(#SVGID_2_);" d="M3.6,0c1.133-0.067,1.383-0.483,0.75-1.25
			C3.683-2.017,2.617-2.4,1.15-2.4c-1.433,0-1.617,0.417-0.55,1.25C1.667-0.317,2.667,0.067,3.6,0z"/>
	</g>
</symbol>
<symbol  id="flash2.ai_x2F_Layer_4_x2F__x3C_Path_x3E__x5F_12" viewBox="-0.038 -1.862 2.099 1.881">
	<g id="Layer_1_43_">
		<path style="fill-rule:evenodd;clip-rule:evenodd;fill:#006B73;" d="M0-1.2c0.167,0.567,0.6,0.95,1.3,1.15
			c0.7,0.2,0.917-0.034,0.65-0.7c-0.267-0.633-0.7-1-1.3-1.1C0.083-1.917-0.133-1.7,0-1.2z"/>
	</g>
</symbol>
<symbol  id="flash2.ai_x2F_Layer_4_x2F__x3C_Path_x3E__x5F_12_x5F_0" viewBox="-0.131 -9.259 8.295 9.35">
	<g id="Layer_1_68_">
		
			<linearGradient id="SVGID_3_" gradientUnits="userSpaceOnUse" x1="2728.5532" y1="-18510.7305" x2="2808.7332" y2="-18510.7305" gradientTransform="matrix(-0.9329 -0.3601 1.2467 -0.5906 25639.9121 -9950.3848)">
			<stop  offset="0" style="stop-color:#A48058"/>
			<stop  offset="0.6549" style="stop-color:#504333"/>
			<stop  offset="1" style="stop-color:#292621"/>
		</linearGradient>
		<path style="fill-rule:evenodd;clip-rule:evenodd;fill:url(#SVGID_3_);" d="M7.05-5.2C8.583-8.033,8.533-9.383,6.9-9.25
			c-1.667,0.1-3.533,1.9-5.6,5.4c-2.033,3.4-1.9,4.6,0.4,3.6C4.033-1.217,5.817-2.867,7.05-5.2z"/>
	</g>
</symbol>
<symbol  id="flash2.ai_x2F_Layer_4_x2F__x3C_Path_x3E__x5F_13" viewBox="-0.013 -1.55 1.218 1.561">
	<g id="Layer_1_46_">
		<path style="fill-rule:evenodd;clip-rule:evenodd;fill:#006B73;" d="M1.2-1.1c0.033-0.4-0.133-0.533-0.5-0.4
			C0.333-1.333,0.1-1,0-0.5C-0.067,0,0.117,0.133,0.55-0.1C0.95-0.367,1.167-0.7,1.2-1.1z"/>
	</g>
</symbol>
<symbol  id="flash2.ai_x2F_Layer_4_x2F__x3C_Path_x3E__x5F_13_x5F_0" viewBox="-0.038 -7.123 3.935 7.28">
	<g id="Layer_1_67_">
		
			<linearGradient id="SVGID_4_" gradientUnits="userSpaceOnUse" x1="-4164.0752" y1="-9668.8027" x2="-4112.4902" y2="-9668.8027" gradientTransform="matrix(0.6005 -0.7997 0.4537 1.0612 6883.168 6934.7871)">
			<stop  offset="0" style="stop-color:#A48058"/>
			<stop  offset="0.5608" style="stop-color:#6C4D2C"/>
			<stop  offset="1" style="stop-color:#45290D"/>
		</linearGradient>
		<path style="fill-rule:evenodd;clip-rule:evenodd;fill:url(#SVGID_4_);" d="M3.8-0.55C4.133-1.683,3.617-3.3,2.25-5.4
			C0.983-7.367,0.233-7.65,0-6.25c-0.2,1.4,0.4,3.117,1.8,5.15C2.833,0.367,3.5,0.55,3.8-0.55z"/>
	</g>
</symbol>
<symbol  id="flash2.ai_x2F_Layer_4_x2F__x3C_Path_x3E__x5F_14" viewBox="-0.013 -1.504 1.214 1.565">
	<g id="Layer_1_49_">
		<path style="fill-rule:evenodd;clip-rule:evenodd;fill:#006B73;" d="M1.2-1.1c0-0.367-0.184-0.483-0.55-0.35S0.067-0.983,0-0.45
			c-0.067,0.5,0.117,0.633,0.55,0.4C0.95-0.317,1.167-0.667,1.2-1.1z"/>
	</g>
</symbol>
<symbol  id="flash2.ai_x2F_Layer_4_x2F__x3C_Path_x3E__x5F_14_x5F_0" viewBox="-0.062 -5.319 3.109 5.404">
	<g id="Layer_1_66_">
		
			<linearGradient id="SVGID_5_" gradientUnits="userSpaceOnUse" x1="12502.2168" y1="-15467.4805" x2="12541.5244" y2="-15467.4805" gradientTransform="matrix(-0.9966 0.082 0.4889 -1.0436 20030.5254 -17171.2715)">
			<stop  offset="0" style="stop-color:#A48058"/>
			<stop  offset="0.5608" style="stop-color:#6C4D2C"/>
			<stop  offset="1" style="stop-color:#45290D"/>
		</linearGradient>
		<path style="fill-rule:evenodd;clip-rule:evenodd;fill:url(#SVGID_5_);" d="M2.9-3.75C3.233-5.083,3-5.567,2.2-5.2
			c-0.8,0.4-1.467,1.534-2,3.4c-0.5,1.7-0.284,2.25,0.65,1.65C1.783-0.717,2.467-1.917,2.9-3.75z"/>
	</g>
</symbol>
<symbol  id="flash2.ai_x2F_Layer_4_x2F__x3C_Path_x3E__x5F_15" viewBox="-0.117 -8.86 4.855 8.979">
	<g id="Layer_1_65_">
		
			<linearGradient id="SVGID_6_" gradientUnits="userSpaceOnUse" x1="12258.5234" y1="-15309.3779" x2="12324.3779" y2="-15309.3779" gradientTransform="matrix(-0.995 0.0998 0.5333 -1.0585 20376.543 -17435.0566)">
			<stop  offset="0" style="stop-color:#A48058"/>
			<stop  offset="0.5608" style="stop-color:#6C4D2C"/>
			<stop  offset="1" style="stop-color:#45290D"/>
		</linearGradient>
		<path style="fill-rule:evenodd;clip-rule:evenodd;fill:url(#SVGID_6_);" d="M4.55-6.25c0.467-2.233,0.067-3.033-1.2-2.4
			s-2.3,2.5-3.1,5.6c-0.733,2.833-0.367,3.767,1.1,2.8S3.883-3.217,4.55-6.25z"/>
	</g>
</symbol>
<symbol  id="flash2.ai_x2F_Layer_4_x2F__x3C_Path_x3E__x5F_16" viewBox="-0.06 -6.616 7.656 6.742">
	<g id="Layer_1_64_">
		
			<linearGradient id="SVGID_7_" gradientUnits="userSpaceOnUse" x1="-5469.1406" y1="-14501.1094" x2="-5403.2852" y2="-14501.1094" gradientTransform="matrix(0.1845 -0.9828 0.8654 0.8102 13559.4141 6382.6191)">
			<stop  offset="0" style="stop-color:#A48058"/>
			<stop  offset="0.5608" style="stop-color:#6C4D2C"/>
			<stop  offset="1" style="stop-color:#45290D"/>
		</linearGradient>
		<path style="fill-rule:evenodd;clip-rule:evenodd;fill:url(#SVGID_7_);" d="M7.55-1.05C7.317-2.417,5.833-3.917,3.1-5.55
			C0.6-7.05-0.417-6.967,0.05-5.3c0.5,1.633,2.117,3.2,4.85,4.7C6.933,0.5,7.817,0.35,7.55-1.05z"/>
	</g>
</symbol>
<symbol  id="flash2.ai_x2F_Layer_4_x2F__x3C_Path_x3E__x5F_17" viewBox="-0.003 -5.358 14.408 5.475">
	<g id="Layer_1_63_">
		
			<linearGradient id="SVGID_8_" gradientUnits="userSpaceOnUse" x1="1732.3027" y1="-19030.6289" x2="1821.1755" y2="-19030.6289" gradientTransform="matrix(-0.4844 -0.8748 1.0137 -0.2336 20144.9531 -2920.6108)">
			<stop  offset="0" style="stop-color:#A48058"/>
			<stop  offset="0.5608" style="stop-color:#6C4D2C"/>
			<stop  offset="1" style="stop-color:#45290D"/>
		</linearGradient>
		<path style="fill-rule:evenodd;clip-rule:evenodd;fill:url(#SVGID_8_);" d="M11.65-0.35c3-1.2,3.55-2.417,1.65-3.65
			C11.367-5.3,7.917-5.667,2.95-5.1C0.917-4.9-0.067-4.45,0-3.75c0.067,0.633,0.85,1.3,2.35,2C6.217,0.117,9.317,0.583,11.65-0.35z"
			/>
	</g>
</symbol>
<symbol  id="flash2.ai_x2F_Layer_4_x2F__x3C_Path_x3E__x5F_18" viewBox="-0.033 -8.063 12.172 8.019">
	<g id="Layer_1_62_">
		
			<linearGradient id="SVGID_9_" gradientUnits="userSpaceOnUse" x1="7454.5361" y1="-19179.5273" x2="7534.4531" y2="-19179.5273" gradientTransform="matrix(-0.8506 -0.5259 0.7699 -0.6997 21124.2871 -9496.7158)">
			<stop  offset="0" style="stop-color:#A48058"/>
			<stop  offset="0.6549" style="stop-color:#504333"/>
			<stop  offset="1" style="stop-color:#292621"/>
		</linearGradient>
		<path style="fill-rule:evenodd;clip-rule:evenodd;fill:url(#SVGID_9_);" d="M11.05-4.05c0.934-1.133,1.267-2.083,1-2.85
			c-0.233-0.7-0.9-1.083-2-1.15C7.317-8.217,4.5-6.783,1.6-3.75C0.2-2.283-0.3-1.233,0.1-0.6c0.367,0.533,1.316,0.684,2.85,0.45
			C6.683-0.683,9.383-1.983,11.05-4.05z"/>
	</g>
</symbol>
<symbol  id="flash2.ai_x2F_Layer_4_x2F__x3C_Path_x3E__x5F_19" viewBox="-0.101 -4.198 6.95 4.203">
	<g id="Layer_1_61_">
		
			<linearGradient id="SVGID_10_" gradientUnits="userSpaceOnUse" x1="4667.6113" y1="-18969.7676" x2="4674.9365" y2="-18969.7676" gradientTransform="matrix(-0.467 -0.8842 0.8842 -0.467 18959.2207 -4730.3691)">
			<stop  offset="0" style="stop-color:#A48058"/>
			<stop  offset="0.6549" style="stop-color:#504333"/>
			<stop  offset="1" style="stop-color:#292621"/>
		</linearGradient>
		<path style="fill-rule:evenodd;clip-rule:evenodd;fill:url(#SVGID_10_);" d="M6.2-1.85c-1.034-1.267-2.583-2.033-4.65-2.3
			C-0.45-4.383-0.633-3.767,1-2.3C2.667-0.8,4.15-0.033,5.45,0C7.017,0.067,7.267-0.55,6.2-1.85z"/>
	</g>
</symbol>
<symbol  id="flash2.ai_x2F_Layer_4_x2F__x3C_Path_x3E__x5F_1_x5F_0" viewBox="-0.018 -5.707 6.125 5.816">
	<g id="Layer_1_9_">
		<path style="fill-rule:evenodd;clip-rule:evenodd;fill:#006B73;" d="M6.1-4.75c-0.067-1.167-1.05-1.267-2.95-0.3
			C1.25-4.083,0.2-2.8,0-1.2c-0.167,1.6,0.833,1.733,3,0.4C5.167-2.167,6.2-3.483,6.1-4.75z"/>
	</g>
</symbol>
<symbol  id="flash2.ai_x2F_Layer_4_x2F__x3C_Path_x3E__x5F_1_x5F_1" viewBox="-0.02 -6.288 3.687 6.451">
	<g id="Layer_1_13_">
		<path style="fill-rule:evenodd;clip-rule:evenodd;fill:#006B73;" d="M2.4-5.45c-1-1.133-1.733-1.117-2.2,0.05
			c-0.5,1.233-0.15,2.667,1.05,4.3c1.2,1.667,1.967,1.684,2.3,0.05C3.883-2.683,3.5-4.15,2.4-5.45z"/>
	</g>
</symbol>
<symbol  id="flash2.ai_x2F_Layer_4_x2F__x3C_Path_x3E__x5F_1_x5F_10" viewBox="-0.026 -2.907 3.241 2.98">
	<g id="Layer_1_48_">
		<path style="fill-rule:evenodd;clip-rule:evenodd;fill:#006B73;" d="M3.2-2.1c0.1-0.733-0.317-0.967-1.25-0.7
			c-0.967,0.267-1.6,0.883-1.9,1.85c-0.267,1,0.167,1.267,1.3,0.8S3.1-1.267,3.2-2.1z"/>
	</g>
</symbol>
<symbol  id="flash2.ai_x2F_Layer_4_x2F__x3C_Path_x3E__x5F_1_x5F_11" viewBox="0 -4.6 11.1 4.6">
	<g id="Layer_1_79_">
		
			<linearGradient id="SVGID_11_" gradientUnits="userSpaceOnUse" x1="-271.377" y1="-15872.7168" x2="-235.9599" y2="-15872.7168" gradientTransform="matrix(0.0311 -0.9995 0.9995 0.0311 15878.958 222.0352)">
			<stop  offset="0" style="stop-color:#897152"/>
			<stop  offset="0.0314" style="stop-color:#836C50"/>
			<stop  offset="0.2392" style="stop-color:#5B4C41"/>
			<stop  offset="0.4431" style="stop-color:#3C3435"/>
			<stop  offset="0.6392" style="stop-color:#26222D"/>
			<stop  offset="0.8275" style="stop-color:#191828"/>
			<stop  offset="1" style="stop-color:#141426"/>
		</linearGradient>
		<path style="fill-rule:evenodd;clip-rule:evenodd;fill:url(#SVGID_11_);" d="M11.1-2.3c0-0.633-0.55-1.167-1.65-1.6
			c-1.067-0.467-2.367-0.7-3.9-0.7c-1.533,0-2.833,0.233-3.9,0.7C0.55-3.467,0-2.933,0-2.3s0.55,1.167,1.65,1.6
			C2.717-0.233,4.017,0,5.55,0c1.534,0,2.833-0.233,3.9-0.7C10.55-1.133,11.1-1.667,11.1-2.3z"/>
	</g>
</symbol>
<symbol  id="flash2.ai_x2F_Layer_4_x2F__x3C_Path_x3E__x5F_1_x5F_2" viewBox="0.005 -7.887 11.001 7.889">
	<g id="Layer_1_16_">
		<path style="fill-rule:evenodd;clip-rule:evenodd;fill:#006B73;" d="M10.5-3.8c0.6-1.034,0.667-1.934,0.2-2.7
			c-0.434-0.7-1.2-1.133-2.3-1.3C5.633-8.233,3.183-7.05,1.05-4.25C0.017-2.883-0.25-1.8,0.25-1C0.683-0.3,1.6,0.033,3,0
			C6.5,0,9-1.267,10.5-3.8z"/>
	</g>
</symbol>
<symbol  id="flash2.ai_x2F_Layer_4_x2F__x3C_Path_x3E__x5F_1_x5F_3" viewBox="-0.002 -3.778 3.471 3.845">
	<g id="Layer_1_20_">
		<path style="fill-rule:evenodd;clip-rule:evenodd;fill:#006B73;" d="M0-2.8c0.067,0.933,0.7,1.75,1.9,2.45
			c1.267,0.733,1.767,0.5,1.5-0.7c-0.267-1.2-0.933-2.034-2-2.5C0.433-4.017-0.033-3.767,0-2.8z"/>
	</g>
</symbol>
<symbol  id="flash2.ai_x2F_Layer_4_x2F__x3C_Path_x3E__x5F_1_x5F_4" viewBox="-0.046 -2.861 4.956 2.952">
	<g id="Layer_1_25_">
		<path style="fill-rule:evenodd;clip-rule:evenodd;fill:#006B73;" d="M4.9-2.15C5-2.85,4.317-3.033,2.85-2.7
			c-1.5,0.333-2.434,0.967-2.8,1.9C-0.317,0.133,0.367,0.333,2.1-0.2C3.867-0.767,4.8-1.417,4.9-2.15z"/>
	</g>
</symbol>
<symbol  id="flash2.ai_x2F_Layer_4_x2F__x3C_Path_x3E__x5F_1_x5F_5" viewBox="-0.062 -2.935 3.281 2.937">
	<g id="Layer_1_30_">
		<path style="fill-rule:evenodd;clip-rule:evenodd;fill:#006B73;" d="M2.7,0c0.767-0.033,0.683-0.567-0.25-1.6
			c-0.934-1.033-1.667-1.467-2.2-1.3c-0.5,0.133-0.4,0.667,0.3,1.6C1.25-0.4,1.967,0.033,2.7,0z"/>
	</g>
</symbol>
<symbol  id="flash2.ai_x2F_Layer_4_x2F__x3C_Path_x3E__x5F_1_x5F_6" viewBox="-0.032 -5.151 3.439 5.217">
	<g id="Layer_1_35_">
		<path style="fill-rule:evenodd;clip-rule:evenodd;fill:#006B73;" d="M3.25-4.8C2.917-5.467,2.233-5.183,1.2-3.95
			c-1.034,1.233-1.417,2.367-1.15,3.4c0.267,1.033,0.967,0.767,2.1-0.8C3.283-2.917,3.65-4.067,3.25-4.8z"/>
	</g>
</symbol>
<symbol  id="flash2.ai_x2F_Layer_4_x2F__x3C_Path_x3E__x5F_1_x5F_7" viewBox="-0.029 -7.163 4.135 7.338">
	<g id="Layer_1_39_">
		<path style="fill-rule:evenodd;clip-rule:evenodd;fill:#006B73;" d="M2.65-6.2C1.517-7.5,0.7-7.483,0.2-6.15
			C-0.333-4.783,0.067-3.167,1.4-1.3C2.767,0.633,3.633,0.667,4-1.2C4.333-3.067,3.883-4.733,2.65-6.2z"/>
	</g>
</symbol>
<symbol  id="flash2.ai_x2F_Layer_4_x2F__x3C_Path_x3E__x5F_1_x5F_8" viewBox="0.001 -4.829 3.858 4.895">
	<g id="Layer_1_42_">
		<path style="fill-rule:evenodd;clip-rule:evenodd;fill:#006B73;" d="M1.3-4.75C0.267-5.05-0.15-4.5,0.05-3.1
			c0.2,1.4,0.967,2.383,2.3,2.95C3.683,0.417,4.133-0.133,3.7-1.8C3.233-3.5,2.433-4.483,1.3-4.75z"/>
	</g>
</symbol>
<symbol  id="flash2.ai_x2F_Layer_4_x2F__x3C_Path_x3E__x5F_1_x5F_9" viewBox="-0.044 -2.957 3.209 2.979">
	<g id="Layer_1_45_">
		<path style="fill-rule:evenodd;clip-rule:evenodd;fill:#006B73;" d="M3.15-2.15c0.1-0.733-0.316-0.967-1.25-0.7
			C0.933-2.583,0.317-1.967,0.05-1c-0.3,1,0.117,1.267,1.25,0.8C2.433-0.667,3.05-1.317,3.15-2.15z"/>
	</g>
</symbol>
<symbol  id="flash2.ai_x2F_Layer_4_x2F__x3C_Path_x3E__x5F_2" viewBox="-0.002 -10.751 10.753 10.835">
	<g id="Layer_1_3_">
		<path style="fill-rule:evenodd;clip-rule:evenodd;fill:#006B73;" d="M3.35-10.2c-1.5-0.7-2.517-0.733-3.05-0.1
			c-0.433,0.533-0.4,1.45,0.1,2.75C1.733-4.283,4.15-1.933,7.65-0.5c3.3,1.367,3.967,0.333,2-3.1C7.683-7,5.583-9.2,3.35-10.2z"/>
	</g>
</symbol>
<symbol  id="flash2.ai_x2F_Layer_4_x2F__x3C_Path_x3E__x5F_20" viewBox="0.008 -15.489 8.034 15.541">
	<g id="Layer_1_60_">
		
			<linearGradient id="SVGID_12_" gradientUnits="userSpaceOnUse" x1="-630.832" y1="-15472.627" x2="-617.4159" y2="-15472.627" gradientTransform="matrix(0.0783 -0.9969 0.9969 0.0783 15477.8818 582.5898)">
			<stop  offset="0" style="stop-color:#A48058"/>
			<stop  offset="0.6549" style="stop-color:#504333"/>
			<stop  offset="1" style="stop-color:#292621"/>
		</linearGradient>
		<path style="fill-rule:evenodd;clip-rule:evenodd;fill:url(#SVGID_12_);" d="M7.45-0.3C7.95-0.867,8.133-1.933,8-3.5
			C7.633-7.433,5.967-10.933,3-14c-1.433-1.5-2.35-1.867-2.75-1.1c-0.367,0.667-0.317,2.033,0.15,4.1C1.533-5.933,3.067-2.533,5-0.8
			C6.067,0.133,6.883,0.3,7.45-0.3z"/>
	</g>
</symbol>
<symbol  id="flash2.ai_x2F_Layer_4_x2F__x3C_Path_x3E__x5F_21" viewBox="0 -7.1 15.7 7.1">
	<g id="Layer_1_59_">
		
			<linearGradient id="SVGID_13_" gradientUnits="userSpaceOnUse" x1="-615.2881" y1="-15485.2617" x2="-610.0478" y2="-15485.2617" gradientTransform="matrix(0.0763 -0.9971 0.9971 0.0763 15494.6533 568.1855)">
			<stop  offset="0" style="stop-color:#A48058"/>
			<stop  offset="0.6549" style="stop-color:#504333"/>
			<stop  offset="1" style="stop-color:#292621"/>
		</linearGradient>
		<path style="fill-rule:evenodd;clip-rule:evenodd;fill:url(#SVGID_13_);" d="M15.7,0C12.433-2.633,8.833-4.617,4.9-5.95
			C2.933-6.583,1.3-6.967,0-7.1C4-5.367,9.233-3,15.7,0z"/>
	</g>
</symbol>
<symbol  id="flash2.ai_x2F_Layer_4_x2F__x3C_Path_x3E__x5F_22" viewBox="0 -14.55 32.1 14.55">
	<g id="Layer_1_58_">
		
			<linearGradient id="SVGID_14_" gradientUnits="userSpaceOnUse" x1="-615.7373" y1="-15475.7412" x2="-604.9557" y2="-15475.7412" gradientTransform="matrix(0.0765 -0.9971 0.9971 0.0765 15493.0264 569.5859)">
			<stop  offset="0" style="stop-color:#A48058"/>
			<stop  offset="0.6549" style="stop-color:#504333"/>
			<stop  offset="1" style="stop-color:#292621"/>
		</linearGradient>
		<path style="fill-rule:evenodd;clip-rule:evenodd;fill:url(#SVGID_14_);" d="M0-14.55C3.233-13.317,13.933-8.467,32.1,0
			c-3.9-3.267-10.417-6.667-19.55-10.2C7.983-12,3.8-13.45,0-14.55z"/>
	</g>
</symbol>
<symbol  id="flash2.ai_x2F_Layer_4_x2F__x3C_Path_x3E__x5F_23" viewBox="0 -19.55 12.85 19.55">
	<g id="Layer_1_57_">
		
			<linearGradient id="SVGID_15_" gradientUnits="userSpaceOnUse" x1="-620.5605" y1="-15481.9863" x2="-603.9865" y2="-15481.9863" gradientTransform="matrix(0.0769 -0.997 0.997 0.0769 15489.4873 572.6279)">
			<stop  offset="0" style="stop-color:#A48058"/>
			<stop  offset="0.6549" style="stop-color:#504333"/>
			<stop  offset="1" style="stop-color:#292621"/>
		</linearGradient>
		<path style="fill-rule:evenodd;clip-rule:evenodd;fill:url(#SVGID_15_);" d="M12.85,0c-1.5-3.967-4.083-8.417-7.75-13.35
			c-1.867-2.467-3.567-4.533-5.1-6.2C2-16.317,6.283-9.8,12.85,0z"/>
	</g>
</symbol>
<symbol  id="flash2.ai_x2F_Layer_4_x2F__x3C_Path_x3E__x5F_24" viewBox="0 -29.15 6.468 29.15">
	<g id="Layer_1_56_">
		
			<linearGradient id="SVGID_16_" gradientUnits="userSpaceOnUse" x1="-623.749" y1="-15483.0557" x2="-598.1727" y2="-15483.0557" gradientTransform="matrix(0.0772 -0.997 0.997 0.0772 15486.9492 574.8086)">
			<stop  offset="0" style="stop-color:#A48058"/>
			<stop  offset="0.6549" style="stop-color:#504333"/>
			<stop  offset="1" style="stop-color:#292621"/>
		</linearGradient>
		<path style="fill-rule:evenodd;clip-rule:evenodd;fill:url(#SVGID_16_);" d="M6.35,0C6.817-7.333,5.9-14.4,3.6-21.2
			c-1.133-3.367-2.333-6.017-3.6-7.95c1.433,4.033,2.917,10.1,4.45,18.2C5.217-6.883,5.85-3.233,6.35,0z"/>
	</g>
</symbol>
<symbol  id="flash2.ai_x2F_Layer_4_x2F__x3C_Path_x3E__x5F_25" viewBox="0.066 -96.1 224.607 96.063">
	<g id="Layer_1_55_">
		<path style="fill-rule:evenodd;clip-rule:evenodd;fill:#9E9078;" d="M162.85-17.25c-2.5,1.667-4.65,2.833-6.45,3.5
			c-1.833,0.667-4.8,1.417-8.9,2.25c-3.933,0.8-6.9,1.617-8.9,2.45c-2.867,1.2-4.434,1.85-4.7,1.95
			c-1.733,0.633-3.367,1.083-4.9,1.35c-3.933,0.733-6.883,1.25-8.85,1.55c-3.433,0.534-6.4,0.65-8.9,0.35
			c-1.5-0.167-4.783-0.517-9.85-1.05c-4.1-0.434-7.4-0.833-9.9-1.2c-1.767-0.167-3.217-0.35-4.35-0.55
			C85.117-7.017,83.867-7.6,83.4-8.4c-0.5-0.9-0.217-1.517,0.85-1.85c0.633-0.2,1.7-0.467,3.2-0.8c-1.8-1.5-4.383-2.917-7.75-4.25
			c-3.867-1.367-6.667-2.383-8.4-3.05c-0.833-0.333-2.867-1.8-6.1-4.4c-2.7-2.133-4.817-3.183-6.35-3.15
			c0.467,0.9,1.367,2.183,2.7,3.85c-2.7-0.633-5.683-2-8.95-4.1c-1.7-1.1-4.4-3.067-8.1-5.9c-4.2-3.233-7.233-5.75-9.1-7.55
			c-3.867-3.8-5.85-6.983-5.95-9.55c0.8,0.233,2.2,1.2,4.2,2.9c1.733,1.467,3.3,2.15,4.7,2.05c-0.233-1.267-1.083-2.966-2.55-5.1
			c-0.767-1.2-1.883-2.85-3.35-4.95c-0.667-1.1-1.633-2.417-2.9-3.95c-1.767-2.1-2.816-3.367-3.15-3.8c-0.467-0.6-1.733-2.9-3.8-6.9
			c-1.7-3.233-3.2-5.25-4.5-6.05c-1.434-0.867-2.35-0.716-2.75,0.45c-0.233,0.7-0.3,2.017-0.2,3.95c-0.767-1.5-1.95-4.05-3.55-7.65
			c-1.5-3.3-2.717-5.833-3.65-7.6c-1.633-3.1-2.7-5.034-3.2-5.8c-1.567-2.4-3.067-3.9-4.5-4.5c-0.3,0.7-0.233,1.8,0.2,3.3
			c7.2,24.466,17.133,43.017,29.8,55.65c8.267,8.267,17.2,15.183,26.8,20.75C67.817-10.1,79.233-5.617,91.3-2.95
			c12.833,2.833,24.534,3.6,35.1,2.3c10.8-1.333,22.35-5.033,34.65-11.1c22.267-10.9,39.367-26.083,51.3-45.55
			c4.5-7.333,7.933-15.067,10.3-23.2c2.067-7.133,2.55-10.883,1.45-11.25c-0.467,1.967-1.684,5.7-3.65,11.2
			c-0.967,2.733-3.483,7.117-7.55,13.15c-1.633,3.733-2.95,6.733-3.95,9c-1.867,4.233-3.717,6.45-5.55,6.65
			c-0.1-0.7-0.05-1.617,0.15-2.75c0.233-1.333,0.35-2.25,0.35-2.75c-1.133,0.667-2.3,1.75-3.5,3.25c-1.267,1.733-2.267,3-3,3.8
			c-0.9,1-2.066,2.067-3.5,3.2c-0.333,0.233-1.617,1.167-3.85,2.8c-2.233,1.4-3.966,2.534-5.2,3.4
			c-2.233,1.566-3.617,3.033-4.15,4.4c-0.733,1.833-0.55,2.667,0.55,2.5c0.667-0.067,1.95-0.283,3.85-0.65
			c-0.033,1.733-1.267,3.767-3.7,6.1c-2.267,2.167-4.367,3.55-6.3,4.15c-0.067-0.167-0.083-0.417-0.05-0.75
			c-1,0.2-2.066,0.667-3.2,1.4c-1.3,0.9-2.283,1.583-2.95,2.05C166.267-19.667,164.25-18.217,162.85-17.25z"/>
	</g>
</symbol>
<symbol  id="flash2.ai_x2F_Layer_4_x2F__x3C_Path_x3E__x5F_26" viewBox="-0.001 -75.478 165.369 75.478">
	<g id="Layer_1_54_">
		
			<linearGradient id="SVGID_17_" gradientUnits="userSpaceOnUse" x1="-621.1152" y1="-15407.4375" x2="-549.6514" y2="-15407.4375" gradientTransform="matrix(0.0773 -0.997 0.997 0.0773 15486.1504 575.4961)">
			<stop  offset="0" style="stop-color:#A48058"/>
			<stop  offset="0.6549" style="stop-color:#504333"/>
			<stop  offset="1" style="stop-color:#292621"/>
		</linearGradient>
		<path style="fill-rule:evenodd;clip-rule:evenodd;fill:url(#SVGID_17_);" d="M164.8-64.4c0.833-4.8,0.75-7.684-0.25-8.65
			c-0.833-0.833-4.183-1.2-10.05-1.1c-6.067,0.133-10.183,0.8-12.35,2c-1.433,0.8-4.583,1.283-9.45,1.45
			c-4.867,0.133-7.883,0.534-9.05,1.2c-0.066,2-0.267,4.333-0.6,7c-0.667,5.333-2.7,11.8-6.1,19.4c-2.2,4.9-5.3,8.817-9.3,11.75
			c-4.4,3.267-10.45,5.8-18.15,7.6c-7.8,1.8-14.167,2.05-19.1,0.75c-4.467-1.133-9.75-4.133-15.85-9
			c-6.633-5.267-12.733-16.333-18.3-33.2c-0.233-0.7-0.517-2.117-0.85-4.25c-0.433-1.767-1.083-2.716-1.95-2.85
			c-1.833-0.3-3.85-0.8-6.05-1.5c-1.767-0.534-3.367-0.85-4.8-0.95c-5.367-0.167-9.167-0.317-11.4-0.45
			C6.433-75.533,2.7-75.567,0-75.3c-0.033-0.2,0.9,2.85,2.8,9.15c1.667,4.267,3.65,7.283,5.95,9.05
			c0.033-0.633-0.217-2.217-0.75-4.75c-0.267-2.233,0.183-3.25,1.35-3.05c0.933,0.133,2,1.467,3.2,4
			c1.367,2.833,2.333,4.467,2.9,4.9c0.1-1.1,0.333-2.2,0.7-3.3c0.867,0.667,1.733,1.966,2.6,3.9c0.833,2.233,1.433,3.75,1.8,4.55
			c0.367,0.7,1.167,2.15,2.4,4.35c1,1.8,1.75,3.267,2.25,4.4c0.3,0.733,0.733,1.95,1.3,3.65c0.5,1.567,0.967,2.817,1.4,3.75
			c1.1,1.967,1.9,3.45,2.4,4.45c0.9,1.8,1.383,3.383,1.45,4.75c-0.867-0.033-1.767-0.5-2.7-1.4c-1.267-1.3-2.017-2.017-2.25-2.15
			c-0.233,1.667,0.9,3.8,3.4,6.4c1.367,1.4,3.283,3.183,5.75,5.35c3.533,3.733,7.816,6.417,12.85,8.05
			c-1.9-2.5-3.367-4.517-4.4-6.05c-1.867-2.833-2.7-5.083-2.5-6.75c1.4-0.2,2.833,0.3,4.3,1.5c0.833,0.7,2,1.783,3.5,3.25
			c1.966,1.466,5.05,3.167,9.25,5.1c1.133,0.534,4.3,1.383,9.5,2.55c4.2,0.933,7.117,2.2,8.75,3.8c-0.567,0.733-1.65,1.267-3.25,1.6
			c-1.8,0.3-3.05,0.533-3.75,0.7c0.8,1.767,2.75,2.783,5.85,3.05c1.7,0.133,4.067,0.117,7.1-0.05c1.6,0.066,4.533,0.25,8.8,0.55
			c3.733-0.033,6.367-0.95,7.9-2.75c-0.7-0.667-2.184-1.033-4.45-1.1c-2.167-0.066-3.566-0.517-4.2-1.35
			c1.767-1.233,4.816-2.267,9.15-3.1c5.5-1.1,8.8-1.833,9.9-2.2c6.267-2.267,10.883-4.9,13.85-7.9c-1-0.867-2.333-1.033-4-0.5
			c-1.9,0.633-3.2,0.816-3.9,0.55c-1.534-0.566-1.417-1.4,0.35-2.5c0.934-0.566,2.317-1.283,4.15-2.15
			c2.1-1.367,4.133-3.333,6.1-5.9c1.733-2.3,3.15-4.717,4.25-7.25c0.233-0.533,0.784-1.75,1.65-3.65c0.9-1.5,1.816-1.833,2.75-1
			c0.233,0.2,0.367,1.4,0.4,3.6c0,1.567,0.733,1.934,2.2,1.1c0.6-0.333,1.317-1.533,2.15-3.6c0.433-1.1,0.983-2.5,1.65-4.2
			c0.633-1.3,1.283-2.917,1.95-4.85c0.367-1.1,0.917-2.767,1.65-5c0.833-2.2,1.4-3.533,1.7-4c0.934-1.567,1.95-1.917,3.05-1.05
			c0.6,0.466,1.017,1.7,1.25,3.7c0.267,2.3,0.517,3.7,0.75,4.2c0.733-0.667,1.833-2.5,3.3-5.5c1.2-2.467,2.617-4,4.25-4.6
			c0.733,0.667,1.233,1.85,1.5,3.55C162.783-57.183,163.967-59.5,164.8-64.4z"/>
	</g>
</symbol>
<symbol  id="flash2.ai_x2F_Layer_4_x2F__x3C_Path_x3E__x5F_27" viewBox="0 -2.85 6.35 2.85">
	<g id="Layer_1_80_">
		
			<linearGradient id="SVGID_18_" gradientUnits="userSpaceOnUse" x1="-267.4746" y1="-15879.1855" x2="-245.3893" y2="-15879.1855" gradientTransform="matrix(0.0306 -0.9995 0.9995 0.0306 15883.0684 218.1582)">
			<stop  offset="0" style="stop-color:#897152"/>
			<stop  offset="0.0314" style="stop-color:#836C50"/>
			<stop  offset="0.2392" style="stop-color:#5B4C41"/>
			<stop  offset="0.4431" style="stop-color:#3C3435"/>
			<stop  offset="0.6392" style="stop-color:#26222D"/>
			<stop  offset="0.8275" style="stop-color:#191828"/>
			<stop  offset="1" style="stop-color:#141426"/>
		</linearGradient>
		<path style="fill-rule:evenodd;clip-rule:evenodd;fill:url(#SVGID_18_);" d="M6.35-1.4c0-0.4-0.317-0.75-0.95-1.05
			c-0.633-0.267-1.383-0.4-2.25-0.4S1.533-2.717,0.9-2.45C0.3-2.15,0-1.8,0-1.4c0,0.367,0.3,0.7,0.9,1C1.533-0.133,2.283,0,3.15,0
			S4.767-0.133,5.4-0.4C6.033-0.7,6.35-1.033,6.35-1.4z"/>
	</g>
</symbol>
<symbol  id="flash2.ai_x2F_Layer_4_x2F__x3C_Path_x3E__x5F_28" viewBox="-0.026 -17.36 80.321 17.348">
	<g id="Layer_1_53_">
		
			<linearGradient id="SVGID_19_" gradientUnits="userSpaceOnUse" x1="-21.3989" y1="-16092.6396" x2="14.3261" y2="-16092.6396" gradientTransform="matrix(2.799161e-005 -1 1 -0.001 16132.7744 -33.0791)">
			<stop  offset="0" style="stop-color:#897152"/>
			<stop  offset="0.0314" style="stop-color:#836C50"/>
			<stop  offset="0.2392" style="stop-color:#5B4C41"/>
			<stop  offset="0.4431" style="stop-color:#3C3435"/>
			<stop  offset="0.6392" style="stop-color:#26222D"/>
			<stop  offset="0.8275" style="stop-color:#191828"/>
			<stop  offset="1" style="stop-color:#141426"/>
		</linearGradient>
		<path style="fill-rule:evenodd;clip-rule:evenodd;fill:url(#SVGID_19_);" d="M61.55-2.25c2.9-1,5.133-1.683,6.7-2.05
			c5.067-1.233,7.833-1.934,8.3-2.1c4.1-1.3,4.833-2.333,2.2-3.1c-0.133-0.033-1.167-0.267-3.1-0.7c-1.033-0.2-1.733-0.483-2.1-0.85
			c-0.133-0.133,0.067-0.434,0.6-0.9c0.5-0.4,0.35-0.933-0.45-1.6c-0.967-0.767-3.067-1.434-6.3-2c-2.833-0.5-5.35-0.767-7.55-0.8
			c-0.967-0.033-2.333-0.167-4.1-0.4c-1.867-0.233-3.25-0.367-4.15-0.4l-9.15-0.2c-1.7-0.066-4.317,0.2-7.85,0.8
			c-3.467,0.566-6.083,0.816-7.85,0.75c-4.767-0.167-8.567,0-11.4,0.5c-4,0.733-3.967,2.017,0.1,3.85
			c-0.1,0.567-0.967,0.934-2.6,1.1c-2.434,0.133-4.517,0.283-6.25,0.45C4.5-9.733,3.1-9.583,2.4-9.45C0.8-9.117,0-8.617,0-7.95
			c-0.367,2.333,3.133,3.967,10.5,4.9c10.067,1.3,17.45,2.133,22.15,2.5c9.067,0.733,16.467,0.716,22.2-0.05
			C56.983-0.867,59.217-1.417,61.55-2.25z"/>
	</g>
</symbol>
<symbol  id="flash2.ai_x2F_Layer_4_x2F__x3C_Path_x3E__x5F_29" viewBox="-0.002 -17.562 87.452 17.6">
	<g id="Layer_1_52_">
		
			<linearGradient id="SVGID_20_" gradientUnits="userSpaceOnUse" x1="-21.4648" y1="-16089.0527" x2="14.6852" y2="-16089.0527" gradientTransform="matrix(2.766252e-005 -1 1 -0.001 16132.7773 -33.0791)">
			<stop  offset="0" style="stop-color:#897152"/>
			<stop  offset="0.0314" style="stop-color:#836C50"/>
			<stop  offset="0.2392" style="stop-color:#5B4C41"/>
			<stop  offset="0.4431" style="stop-color:#3C3435"/>
			<stop  offset="0.6392" style="stop-color:#26222D"/>
			<stop  offset="0.8275" style="stop-color:#191828"/>
			<stop  offset="1" style="stop-color:#141426"/>
		</linearGradient>
		<path style="fill-rule:evenodd;clip-rule:evenodd;fill:url(#SVGID_20_);" d="M85-6.3c3.3-1.467,3.267-2.717-0.1-3.75
			c-0.8-0.2-1.4-0.35-1.8-0.45c-0.7-0.2-1.25-0.467-1.65-0.8c-0.2-0.167-0.1-0.35,0.3-0.55c0.5-0.233,0.567-0.683,0.2-1.35
			c-0.833-1.566-3.333-2.716-7.5-3.45c-2.6-0.434-5.617-0.667-9.05-0.7l-9.4-0.2c-0.967-0.034-2.45,0-4.45,0.1
			c-2,0.1-3.5,0.15-4.5,0.15c-1.8-0.067-4.65,0.117-8.55,0.55c-3.867,0.4-6.717,0.567-8.55,0.5c-4.8-0.1-8.667,0.15-11.6,0.75
			c-3.967,0.833-3.817,2.133,0.45,3.9c-0.1,0.5-1.133,0.717-3.1,0.65c-3.367-0.1-5.7-0.1-7,0c-2.067,0.067-3.65,0.184-4.75,0.35
			c-1.967,0.3-3.233,0.934-3.8,1.9c-0.7,1.3,1.017,2.833,5.15,4.6C9.1-2.467,12.75-1.433,16.25-1c13.2,1.533,27.583,1.367,43.15-0.5
			c2.067-0.267,5.133-0.617,9.2-1.05c3.533-0.467,6.566-0.967,9.1-1.5C80.567-4.65,83-5.4,85-6.3z"/>
	</g>
</symbol>
<symbol  id="flash2.ai_x2F_Layer_4_x2F__x3C_Path_x3E__x5F_2_x5F_0" viewBox="-0.023 -11.177 11.198 11.168">
	<g id="Layer_1_8_">
		<path style="fill-rule:evenodd;clip-rule:evenodd;fill:#006B73;" d="M11.15-8.1c0.133-1.3-0.267-2.2-1.2-2.7
			c-0.867-0.467-1.983-0.5-3.35-0.1C3.233-9.867,1.1-7.483,0.2-3.75c-0.467,1.833-0.2,3,0.8,3.5C1.867,0.183,3.1,0.033,4.7-0.7
			C8.667-2.467,10.817-4.933,11.15-8.1z"/>
	</g>
</symbol>
<symbol  id="flash2.ai_x2F_Layer_4_x2F__x3C_Path_x3E__x5F_2_x5F_1" viewBox="-0.007 -18.876 9.775 18.909">
	<g id="Layer_1_12_">
		<path style="fill-rule:evenodd;clip-rule:evenodd;fill:#006B73;" d="M5.25-16.7c-1.567-1.8-2.85-2.483-3.85-2.05
			C0.5-18.383,0.033-17.233,0-15.3c-0.133,4.833,1.65,9.25,5.35,13.25c1.767,1.9,3.017,2.5,3.75,1.8C9.733-0.85,9.917-2.3,9.65-4.6
			C9.017-10.033,7.55-14.067,5.25-16.7z"/>
	</g>
</symbol>
<symbol  id="flash2.ai_x2F_Layer_4_x2F__x3C_Path_x3E__x5F_2_x5F_10" viewBox="-0.032 -5.463 5.305 5.536">
	<g id="Layer_1_47_">
		<path style="fill-rule:evenodd;clip-rule:evenodd;fill:#006B73;" d="M5.1-3.95C5.6-5.517,5.017-5.867,3.35-5
			C1.683-4.167,0.6-2.917,0.1-1.25C-0.333,0.283,0.3,0.483,2-0.65S4.733-2.883,5.1-3.95z"/>
	</g>
</symbol>
<symbol  id="flash2.ai_x2F_Layer_4_x2F__x3C_Path_x3E__x5F_2_x5F_11" viewBox="0 -2.35 5.25 2.35">
	<g id="Layer_1_78_">
		
			<linearGradient id="SVGID_21_" gradientUnits="userSpaceOnUse" x1="-267.6006" y1="-15879.5586" x2="-249.6172" y2="-15879.5586" gradientTransform="matrix(0.0306 -0.9995 0.9995 0.0306 15882.8984 218.3174)">
			<stop  offset="0" style="stop-color:#897152"/>
			<stop  offset="0.0314" style="stop-color:#836C50"/>
			<stop  offset="0.2392" style="stop-color:#5B4C41"/>
			<stop  offset="0.4431" style="stop-color:#3C3435"/>
			<stop  offset="0.6392" style="stop-color:#26222D"/>
			<stop  offset="0.8275" style="stop-color:#191828"/>
			<stop  offset="1" style="stop-color:#141426"/>
		</linearGradient>
		<path style="fill-rule:evenodd;clip-rule:evenodd;fill:url(#SVGID_21_);" d="M5.25-1.15C5.25-1.483,5-1.767,4.5-2
			C3.967-2.233,3.35-2.35,2.65-2.35C1.917-2.35,1.3-2.233,0.8-2C0.267-1.767,0-1.483,0-1.15c0,0.333,0.267,0.6,0.8,0.8
			C1.3-0.117,1.917,0,2.65,0c0.7,0,1.317-0.117,1.85-0.35C5-0.55,5.25-0.817,5.25-1.15z"/>
	</g>
</symbol>
<symbol  id="flash2.ai_x2F_Layer_4_x2F__x3C_Path_x3E__x5F_2_x5F_2" viewBox="0.01 -12.787 19.65 12.774">
	<g id="Layer_1_15_">
		<path style="fill-rule:evenodd;clip-rule:evenodd;fill:#006B73;" d="M17.9-6.95c1.667-2,2.15-3.533,1.45-4.6
			c-0.6-0.967-1.983-1.367-4.15-1.2C9.833-12.283,5.333-9.7,1.7-5c-1.733,2.233-2.133,3.733-1.2,4.5c0.8,0.633,2.433,0.65,4.9,0.05
			c2.3-0.533,4.684-1.417,7.15-2.65C15.083-4.433,16.867-5.717,17.9-6.95z"/>
	</g>
</symbol>
<symbol  id="flash2.ai_x2F_Layer_4_x2F__x3C_Path_x3E__x5F_2_x5F_3" viewBox="-0.002 -10.751 10.753 10.835">
	<g id="Layer_1_19_">
		<path style="fill-rule:evenodd;clip-rule:evenodd;fill:#006B73;" d="M3.35-10.2c-1.5-0.7-2.517-0.733-3.05-0.1
			c-0.433,0.533-0.4,1.45,0.1,2.75C1.733-4.283,4.15-1.933,7.65-0.5c3.3,1.367,3.967,0.333,2-3.1C7.683-7.033,5.583-9.233,3.35-10.2
			z"/>
	</g>
</symbol>
<symbol  id="flash2.ai_x2F_Layer_4_x2F__x3C_Path_x3E__x5F_2_x5F_4" viewBox="-0.08 -5.982 9.172 6.058">
	<g id="Layer_1_24_">
		<path style="fill-rule:evenodd;clip-rule:evenodd;fill:#006B73;" d="M8.9-3.75c0.633-1.667-0.3-2.4-2.8-2.2
			C3.533-5.783,1.65-4.633,0.45-2.5C-0.783-0.333,0.133,0.467,3.2-0.1C6.267-0.667,8.167-1.883,8.9-3.75z"/>
	</g>
</symbol>
<symbol  id="flash2.ai_x2F_Layer_4_x2F__x3C_Path_x3E__x5F_2_x5F_5" viewBox="-0.126 -5.407 6.343 5.42">
	<g id="Layer_1_29_">
		<path style="fill-rule:evenodd;clip-rule:evenodd;fill:#006B73;" d="M0.45-2.75C1.383-1.05,2.767-0.133,4.6,0
			c1.867,0.133,2.117-0.75,0.75-2.65C3.95-4.583,2.517-5.5,1.05-5.4C-0.283-5.333-0.483-4.45,0.45-2.75z"/>
	</g>
</symbol>
<symbol  id="flash2.ai_x2F_Layer_4_x2F__x3C_Path_x3E__x5F_2_x5F_6" viewBox="-0.009 -9.7 6.515 9.702">
	<g id="Layer_1_34_">
		<path style="fill-rule:evenodd;clip-rule:evenodd;fill:#006B73;" d="M6.35-8.3c-0.5-1.833-1.75-1.867-3.75-0.1
			c-2,1.8-2.85,3.983-2.55,6.55C0.217-0.583,0.7,0.033,1.5,0c0.667-0.067,1.45-0.583,2.35-1.55C6.05-4.017,6.883-6.267,6.35-8.3z"/>
	</g>
</symbol>
<symbol  id="flash2.ai_x2F_Layer_4_x2F__x3C_Path_x3E__x5F_2_x5F_7" viewBox="-0.006 -21.431 10.941 21.454">
	<g id="Layer_1_38_">
		<path style="fill-rule:evenodd;clip-rule:evenodd;fill:#006B73;" d="M5.9-18.95c-1.767-2.033-3.2-2.816-4.3-2.35
			c-1,0.433-1.533,1.75-1.6,3.95c-0.133,5.5,1.883,10.5,6.05,15C8.017-0.183,9.4,0.5,10.2-0.3c0.7-0.7,0.9-2.35,0.6-4.95
			C10.1-11.417,8.467-15.983,5.9-18.95z"/>
	</g>
</symbol>
<symbol  id="flash2.ai_x2F_Layer_4_x2F__x3C_Path_x3E__x5F_2_x5F_8" viewBox="0.022 -8.138 6.893 8.154">
	<g id="Layer_1_41_">
		<path style="fill-rule:evenodd;clip-rule:evenodd;fill:#006B73;" d="M2.15-7.8C1.183-8.267,0.533-8.25,0.2-7.75
			c-0.267,0.467-0.233,1.2,0.1,2.2c0.867,2.5,2.417,4.233,4.65,5.2C7.05,0.583,7.467-0.267,6.2-2.9C4.933-5.467,3.583-7.1,2.15-7.8z
			"/>
	</g>
</symbol>
<symbol  id="flash2.ai_x2F_Layer_4_x2F__x3C_Path_x3E__x5F_2_x5F_9" viewBox="0.001 -5.484 5.272 5.548">
	<g id="Layer_1_44_">
		<path style="fill-rule:evenodd;clip-rule:evenodd;fill:#006B73;" d="M5.1-3.95c0.5-1.566-0.083-1.933-1.75-1.1
			C1.683-4.217,0.617-2.967,0.15-1.3c-0.467,1.566,0.167,1.783,1.9,0.65C3.75-1.783,4.767-2.883,5.1-3.95z"/>
	</g>
</symbol>
<symbol  id="flash2.ai_x2F_Layer_4_x2F__x3C_Path_x3E__x5F_3" viewBox="-0.005 -19.833 18.557 19.861">
	<g id="Layer_1_2_">
		
			<linearGradient id="SVGID_22_" gradientUnits="userSpaceOnUse" x1="13440.8438" y1="-18113.6602" x2="13460.9346" y2="-18113.6602" gradientTransform="matrix(-0.9582 -0.2862 0.2862 -0.9582 18083.3438 -13514.9365)">
			<stop  offset="0" style="stop-color:#57D18E;stop-opacity:0"/>
			<stop  offset="1" style="stop-color:#006B73"/>
		</linearGradient>
		<path style="fill-rule:evenodd;clip-rule:evenodd;fill:url(#SVGID_22_);" d="M2-18.95C1-17.783,0.367-16.133,0.1-14
			C-0.433-9.733,1.067-5.183,4.6-0.35c4.433,0.367,8.05,0.467,10.85,0.3c1.4-0.1,2.367-0.217,2.9-0.35
			c0.367-6.3,0.233-11.1-0.4-14.4c-1.733-2.1-4.417-3.583-8.05-4.45C6.367-20.117,3.733-20.017,2-18.95z"/>
	</g>
</symbol>
<symbol  id="flash2.ai_x2F_Layer_4_x2F__x3C_Path_x3E__x5F_32" viewBox="0 -16.963 84.557 16.925">
	<g id="Layer_1_51_">
		
			<linearGradient id="SVGID_23_" gradientUnits="userSpaceOnUse" x1="-274.9395" y1="-15832.9561" x2="-247.9011" y2="-15832.9561" gradientTransform="matrix(0.0314 -0.9995 0.9995 0.0314 15875.8145 224.9961)">
			<stop  offset="0" style="stop-color:#897152"/>
			<stop  offset="0.0314" style="stop-color:#836C50"/>
			<stop  offset="0.2392" style="stop-color:#5B4C41"/>
			<stop  offset="0.4431" style="stop-color:#3C3435"/>
			<stop  offset="0.6392" style="stop-color:#26222D"/>
			<stop  offset="0.8275" style="stop-color:#191828"/>
			<stop  offset="1" style="stop-color:#141426"/>
		</linearGradient>
		<path style="fill-rule:evenodd;clip-rule:evenodd;fill:url(#SVGID_23_);" d="M81.85-4.5c0.833-0.267,1.4-0.483,1.7-0.65
			c0.633-0.367,0.967-0.817,1-1.35c0.034-0.4-0.05-0.7-0.25-0.9c-0.066-0.1-0.316-0.3-0.75-0.6c-1.167-0.8-2.767-1.45-4.8-1.95
			c-2.3-0.433-4-0.767-5.1-1c-1.633-0.367-3.533-1.1-5.7-2.2c-0.833-0.467-1.467-0.8-1.9-1c-0.733-0.367-1.4-0.617-2-0.75
			c-1.7-0.267-2.966-0.533-3.8-0.8c-1.733-0.433-3-0.716-3.8-0.85c-0.434-0.067-0.983-0.083-1.65-0.05
			c-0.767,0.033-1.333,0.05-1.7,0.05s-1.684-0.083-3.95-0.25c-3.1-0.233-6.4-0.217-9.9,0.05C37.617-16.617,35.1-16,31.7-14.9
			c-3.233,1.033-5.817,1.566-7.75,1.6c-2.534-0.034-4.45-0.017-5.75,0.05c-2.3,0.167-4.184,0.6-5.65,1.3
			c-0.833,0.434-1.433,0.85-1.8,1.25c-0.4,0.5-0.617,1.133-0.65,1.9l0.05,0.45c0.067,0.467,0.117,0.817,0.15,1.05
			c0.034,0.466-0.017,0.8-0.15,1C9.883-5.933,9.167-5.7,8-5.6c-0.6,0.067-1.583,0.067-2.95,0c-1.267-0.066-2.233-0.05-2.9,0.05
			c-0.667,0.167-1.1,0.283-1.3,0.35C0.317-4.967,0.033-4.667,0-4.3c0,0.833,0.883,1.433,2.65,1.8c0.9,0.167,2.067,0.333,3.5,0.5
			c0.9,0.233,2.25,0.717,4.05,1.45c1.633,0.533,3.066,0.65,4.3,0.35c1-0.233,2.467-0.75,4.4-1.55c2.033-0.833,3.55-1.383,4.55-1.65
			c6.4-1.7,14.2-1.567,23.4,0.4c5.4,1.167,9.083,1.883,11.05,2.15c4.333,0.567,8.467,0.583,12.4,0.05
			c1.667-0.233,4.184-0.934,7.55-2.1c0.467-0.167,1.133-0.434,2-0.8C80.717-4.1,81.383-4.367,81.85-4.5z"/>
	</g>
</symbol>
<symbol  id="flash2.ai_x2F_Layer_4_x2F__x3C_Path_x3E__x5F_33" viewBox="0.024 -19.039 90.865 19.012">
	<g id="Layer_1_50_">
		
			<linearGradient id="SVGID_24_" gradientUnits="userSpaceOnUse" x1="-269.8086" y1="-15835.3906" x2="-239.7444" y2="-15835.3906" gradientTransform="matrix(0.0308 -0.9995 0.9995 0.0308 15881.373 219.7568)">
			<stop  offset="0" style="stop-color:#897152"/>
			<stop  offset="0.0314" style="stop-color:#836C50"/>
			<stop  offset="0.2392" style="stop-color:#5B4C41"/>
			<stop  offset="0.4431" style="stop-color:#3C3435"/>
			<stop  offset="0.6392" style="stop-color:#26222D"/>
			<stop  offset="0.8275" style="stop-color:#191828"/>
			<stop  offset="1" style="stop-color:#141426"/>
		</linearGradient>
		<path style="fill-rule:evenodd;clip-rule:evenodd;fill:url(#SVGID_24_);" d="M84.35-3.3c4.167-1.567,6.333-2.867,6.5-3.9
			c0.3-2-1.133-3.55-4.3-4.65c-0.533-0.167-2.966-0.683-7.3-1.55c-1.233-0.233-2.8-0.833-4.7-1.8c-2.1-1.1-3.65-1.783-4.65-2.05
			c-1.633-0.433-3.533-0.7-5.7-0.8c-2.534,0-4.45-0.017-5.75-0.05c-1.1-0.033-3.534-0.25-7.3-0.65c-2.967-0.3-5.4-0.367-7.3-0.2
			c-1.7,0.133-4.333,0.833-7.9,2.1c-3.367,1.167-6.05,1.767-8.05,1.8c-3.6-0.167-6.333-0.217-8.2-0.15
			c-3.233,0.067-5.817,0.733-7.75,2c-0.8,0.467-1.233,1.034-1.3,1.7c-0.033,0.2,0.184,0.717,0.65,1.55
			c0.167,0.3,0.233,0.45,0.2,0.45c-0.433,0.967-1.417,1.55-2.95,1.75c-1.767,0.033-3,0.083-3.7,0.15C2.883-7.367,1.667-7.167,1.2-7
			c-1.4,0.467-1.55,1.283-0.45,2.45C1.617-3.617,2.967-3.033,4.8-2.8c2.833,0.333,4.317,0.517,4.45,0.55
			c0.967,0.267,2.383,0.8,4.25,1.6c1.7,0.633,3.2,0.783,4.5,0.45c1.033-0.267,2.583-0.867,4.65-1.8c2.1-0.933,3.667-1.55,4.7-1.85
			C34.017-5.783,42.167-5.633,51.8-3.4c5.667,1.333,9.517,2.15,11.55,2.45C67.883-0.317,72.2-0.3,76.3-0.9
			C78.133-1.167,80.817-1.967,84.35-3.3z"/>
	</g>
</symbol>
<symbol  id="flash2.ai_x2F_Layer_4_x2F__x3C_Path_x3E__x5F_3_x5F_0" viewBox="-0.01 -23.184 13.848 23.185">
	<g id="Layer_1_7_">
		<path style="fill-rule:evenodd;clip-rule:evenodd;fill:#006B73;" d="M13.8-17.85c0.2-2.967-0.383-4.7-1.75-5.2
			c-1.233-0.434-2.783,0.183-4.65,1.85c-1.933,1.7-3.583,3.967-4.95,6.8C0.917-11.233,0.1-8.033,0-4.8C-0.1-1.6,0.533,0,1.9,0
			c1.167,0.033,2.717-1.083,4.65-3.35c1.767-2.1,3.367-4.55,4.8-7.35C12.85-13.633,13.667-16.017,13.8-17.85z"/>
	</g>
</symbol>
<symbol  id="flash2.ai_x2F_Layer_4_x2F__x3C_Path_x3E__x5F_3_x5F_1" viewBox="-0.022 -24.512 26.372 24.512">
	<g id="Layer_1_11_">
		
			<linearGradient id="SVGID_25_" gradientUnits="userSpaceOnUse" x1="8627.8799" y1="-19457.6816" x2="8651.1768" y2="-19457.6816" gradientTransform="matrix(-0.7437 -0.6685 0.6685 -0.7437 19444.7109 -8702.5918)">
			<stop  offset="0" style="stop-color:#57D18E;stop-opacity:0"/>
			<stop  offset="1" style="stop-color:#006B73"/>
		</linearGradient>
		<path style="fill-rule:evenodd;clip-rule:evenodd;fill:url(#SVGID_25_);" d="M8.1-24.5c-1.934,0.833-3.667,2.483-5.2,4.95
			C-0.2-14.65-0.833-8.133,1,0c2.9-1.433,5.733-3.767,8.5-7c1.4-1.633,2.5-3.117,3.3-4.45c0.5-0.933,1.467-1.133,2.9-0.6
			c0.733,0.3,2.133,1.1,4.2,2.4c3.8,2.367,5.95,2.5,6.45,0.4c-1.1-3.7-3.733-7.233-7.9-10.6C14.383-23.117,10.933-24.667,8.1-24.5z"
			/>
	</g>
</symbol>
<symbol  id="flash2.ai_x2F_Layer_4_x2F__x3C_Path_x3E__x5F_3_x5F_2" viewBox="-0.006 -19.883 18.557 19.934">
	<g id="Layer_1_18_">
		
			<linearGradient id="SVGID_26_" gradientUnits="userSpaceOnUse" x1="13440.8906" y1="-18113.6484" x2="13460.9814" y2="-18113.6484" gradientTransform="matrix(-0.9582 -0.2862 0.2862 -0.9582 18083.3438 -13514.9365)">
			<stop  offset="0" style="stop-color:#57D18E;stop-opacity:0"/>
			<stop  offset="1" style="stop-color:#006B73"/>
		</linearGradient>
		<path style="fill-rule:evenodd;clip-rule:evenodd;fill:url(#SVGID_26_);" d="M2-19c-1,1.2-1.633,2.867-1.9,5
			C-0.433-9.733,1.05-5.183,4.55-0.35c7.1,0.567,11.7,0.533,13.8-0.1c0.367-6.267,0.233-11.05-0.4-14.35
			c-1.733-2.1-4.417-3.6-8.05-4.5C6.367-20.167,3.733-20.067,2-19z"/>
	</g>
</symbol>
<symbol  id="flash2.ai_x2F_Layer_4_x2F__x3C_Path_x3E__x5F_3_x5F_3" viewBox="-0.035 -12.706 12.421 12.881">
	<g id="Layer_1_23_">
		<path style="fill-rule:evenodd;clip-rule:evenodd;fill:#006B73;" d="M12.05-9.2c0.567-1.733,0.417-2.833-0.45-3.3
			c-0.833-0.4-2.033-0.217-3.6,0.55c-3.967,1.867-6.533,4.8-7.7,8.8c-1.066,3.767,0.417,4.333,4.45,1.7
			C8.783-4.05,11.217-6.633,12.05-9.2z"/>
	</g>
</symbol>
<symbol  id="flash2.ai_x2F_Layer_4_x2F__x3C_Path_x3E__x5F_3_x5F_4" viewBox="0 -6.288 12.114 6.33">
	<g id="Layer_1_28_">
		<path style="fill-rule:evenodd;clip-rule:evenodd;fill:#006B73;" d="M2.1-6.25C0.733-6.083,0.033-5.617,0-4.85
			c0,0.7,0.5,1.467,1.5,2.3C4.067-0.417,6.9,0.4,10-0.1c2.9-0.467,2.817-1.667-0.25-3.6C6.65-5.633,4.1-6.483,2.1-6.25z"/>
	</g>
</symbol>
<symbol  id="flash2.ai_x2F_Layer_4_x2F__x3C_Path_x3E__x5F_3_x5F_5" viewBox="-0.12 -17.571 7.432 17.605">
	<g id="Layer_1_33_">
		<path style="fill-rule:evenodd;clip-rule:evenodd;fill:#006B73;" d="M6.85-15.05c-0.6-1.833-1.417-2.667-2.45-2.5
			c-0.933,0.167-1.833,1.083-2.7,2.75c-2.1,4.167-2.383,8.316-0.85,12.45c0.733,1.967,1.566,2.717,2.5,2.25
			C4.15-0.5,4.9-1.717,5.6-3.75C7.333-8.583,7.75-12.35,6.85-15.05z"/>
	</g>
</symbol>
<symbol  id="flash2.ai_x2F_Layer_4_x2F__x3C_Path_x3E__x5F_3_x5F_6" viewBox="-0.034 -27.771 29.434 27.771">
	<g id="Layer_1_37_">
		
			<linearGradient id="SVGID_27_" gradientUnits="userSpaceOnUse" x1="8628.8398" y1="-19455.8203" x2="8655.0225" y2="-19455.8203" gradientTransform="matrix(-0.7438 -0.6684 0.6684 -0.7438 19444.5723 -8705.124)">
			<stop  offset="0" style="stop-color:#57D18E;stop-opacity:0"/>
			<stop  offset="1" style="stop-color:#006B73"/>
		</linearGradient>
		<path style="fill-rule:evenodd;clip-rule:evenodd;fill:url(#SVGID_27_);" d="M26.7-8.7c1.433,0.333,2.333-0.267,2.7-1.8
			c-1.2-4.167-4.133-8.167-8.8-12c-4.533-3.733-8.383-5.483-11.55-5.25c-2.167,0.933-4.117,2.783-5.85,5.55
			C-0.233-16.633-0.933-9.233,1.1,0c3.233-1.633,6.4-4.283,9.5-7.95c1.566-1.867,2.8-3.55,3.7-5.05
			c0.567-1.067,1.633-1.283,3.2-0.65c0.833,0.3,2.4,1.183,4.7,2.65C24.3-9.667,25.8-8.9,26.7-8.7z"/>
	</g>
</symbol>
<symbol  id="flash2.ai_x2F_Layer_4_x2F__x3C_Path_x3E__x5F_3_x5F_7" viewBox="0 -3.4 7.85 3.4">
	<g id="Layer_1_77_">
		
			<linearGradient id="SVGID_28_" gradientUnits="userSpaceOnUse" x1="-267.6084" y1="-15878.3203" x2="-241.4462" y2="-15878.3203" gradientTransform="matrix(0.0306 -0.9995 0.9995 0.0306 15882.9424 218.2773)">
			<stop  offset="0" style="stop-color:#897152"/>
			<stop  offset="0.0314" style="stop-color:#836C50"/>
			<stop  offset="0.2392" style="stop-color:#5B4C41"/>
			<stop  offset="0.4431" style="stop-color:#3C3435"/>
			<stop  offset="0.6392" style="stop-color:#26222D"/>
			<stop  offset="0.8275" style="stop-color:#191828"/>
			<stop  offset="1" style="stop-color:#141426"/>
		</linearGradient>
		<path style="fill-rule:evenodd;clip-rule:evenodd;fill:url(#SVGID_28_);" d="M7.85-1.7c0-0.466-0.383-0.867-1.15-1.2
			C5.9-3.233,4.967-3.4,3.9-3.4c-1.066,0-1.983,0.167-2.75,0.5C0.383-2.567,0-2.167,0-1.7c0,0.467,0.383,0.867,1.15,1.2
			S2.833,0,3.9,0c1.067,0,2-0.167,2.8-0.5C7.467-0.833,7.85-1.233,7.85-1.7z"/>
	</g>
</symbol>
<symbol  id="flash2.ai_x2F_Layer_4_x2F__x3C_Path_x3E__x5F_4" viewBox="0 -39.279 35.866 39.279">
	<g id="Layer_1_6_">
		
			<linearGradient id="SVGID_29_" gradientUnits="userSpaceOnUse" x1="467.0698" y1="-16580.2148" x2="502.7831" y2="-16580.2148" gradientTransform="matrix(-0.0595 -0.9982 0.9982 -0.0595 16597.9121 -519.9844)">
			<stop  offset="0" style="stop-color:#57D18E;stop-opacity:0"/>
			<stop  offset="1" style="stop-color:#006B73"/>
		</linearGradient>
		<path style="fill-rule:evenodd;clip-rule:evenodd;fill:url(#SVGID_29_);" d="M30.05-38.5c-2.667-0.967-5.9-1.033-9.7-0.2
			C12.717-37.033,5.933-31.817,0-23.05c2.2,7.633,4.333,13.767,6.4,18.4C7.433-2.35,8.25-0.8,8.85,0
			C19.383-2.9,27.467-5.95,33.1-9.15c2.467-4.2,3.283-9.617,2.45-16.25C34.783-31.833,32.95-36.2,30.05-38.5z"/>
	</g>
</symbol>
<symbol  id="flash2.ai_x2F_Layer_4_x2F__x3C_Path_x3E__x5F_4_x5F_0" viewBox="0 -21.65 25.762 21.65">
	<g id="Layer_1_22_">
		
			<linearGradient id="SVGID_30_" gradientUnits="userSpaceOnUse" x1="-1113.416" y1="-14857.7813" x2="-1091.3046" y2="-14857.7813" gradientTransform="matrix(0.1459 -0.9893 0.9893 0.1459 14871.9141 1067.2129)">
			<stop  offset="0" style="stop-color:#57D18E;stop-opacity:0"/>
			<stop  offset="1" style="stop-color:#006B73"/>
		</linearGradient>
		<path style="fill-rule:evenodd;clip-rule:evenodd;fill:url(#SVGID_30_);" d="M23.65-20.3c-1.733-0.9-4.017-1.35-6.85-1.35
			c-5.667,0.033-11.267,2.3-16.8,6.8C0.433-10.017,1.05-6.1,1.85-3.1C2.25-1.567,2.6-0.533,2.9,0c7.833-0.433,14.033-1.25,18.6-2.45
			c2.367-2.2,3.75-5.333,4.15-9.4C26.05-15.783,25.383-18.6,23.65-20.3z"/>
	</g>
</symbol>
<symbol  id="flash2.ai_x2F_Layer_4_x2F__x3C_Path_x3E__x5F_4_x5F_1" viewBox="-0.007 -19.464 20.457 19.464">
	<g id="Layer_1_27_">
		
			<linearGradient id="SVGID_31_" gradientUnits="userSpaceOnUse" x1="18069.4063" y1="-13493.498" x2="18086.0078" y2="-13493.498" gradientTransform="matrix(-0.9577 0.2876 -0.2876 -0.9577 13443.9482 -18133.1328)">
			<stop  offset="0" style="stop-color:#57D18E;stop-opacity:0"/>
			<stop  offset="1" style="stop-color:#006B73"/>
		</linearGradient>
		<path style="fill-rule:evenodd;clip-rule:evenodd;fill:url(#SVGID_31_);" d="M1.3-9.4C3.1-5.5,6.417-2.367,11.25,0
			c3.133-1.867,5.617-3.567,7.45-5.1c0.9-0.767,1.483-1.333,1.75-1.7c-2.967-5.434-5.517-9.434-7.65-12
			c-2.233-0.934-4.783-0.883-7.65,0.15c-2.8,1-4.517,2.367-5.15,4.1C-0.067-13.05,0.367-11.333,1.3-9.4z"/>
	</g>
</symbol>
<symbol  id="flash2.ai_x2F_Layer_4_x2F__x3C_Path_x3E__x5F_4_x5F_2" viewBox="0 -30.6 25.943 30.6">
	<g id="Layer_1_32_">
		
			<linearGradient id="SVGID_32_" gradientUnits="userSpaceOnUse" x1="4800.832" y1="-18996.1875" x2="4824.3696" y2="-18996.1875" gradientTransform="matrix(-0.478 -0.8784 0.8784 -0.478 18999.9297 -4865.9395)">
			<stop  offset="0" style="stop-color:#57D18E;stop-opacity:0"/>
			<stop  offset="1" style="stop-color:#006B73"/>
		</linearGradient>
		<path style="fill-rule:evenodd;clip-rule:evenodd;fill:url(#SVGID_32_);" d="M16.35-30.6c-2,0.367-4.184,1.467-6.55,3.3
			c-4.733,3.633-8,9.133-9.8,16.5c3.433,3.833,6.417,6.783,8.95,8.85c1.267,1.034,2.2,1.684,2.8,1.95c6.3-5.4,10.967-10.067,14-14
			c0.6-3.4-0.2-6.95-2.4-10.65C21.217-28.25,18.883-30.233,16.35-30.6z"/>
	</g>
</symbol>
<symbol  id="flash2.ai_x2F_Layer_4_x2F__x3C_Path_x3E__x5F_4_x5F_3" viewBox="0 -5.4 14.55 5.4">
	<g id="Layer_1_76_">
		
			<linearGradient id="SVGID_33_" gradientUnits="userSpaceOnUse" x1="-271.0068" y1="-15871.4004" x2="-229.0867" y2="-15871.4004" gradientTransform="matrix(0.031 -0.9995 0.9995 0.031 15879.3486 221.666)">
			<stop  offset="0" style="stop-color:#897152"/>
			<stop  offset="0.0314" style="stop-color:#836C50"/>
			<stop  offset="0.2392" style="stop-color:#5B4C41"/>
			<stop  offset="0.4431" style="stop-color:#3C3435"/>
			<stop  offset="0.6392" style="stop-color:#26222D"/>
			<stop  offset="0.8275" style="stop-color:#191828"/>
			<stop  offset="1" style="stop-color:#141426"/>
		</linearGradient>
		<path style="fill-rule:evenodd;clip-rule:evenodd;fill:url(#SVGID_33_);" d="M14.55-2.7c0-0.767-0.716-1.4-2.15-1.9
			C11-5.133,9.283-5.4,7.25-5.4c-2,0-3.7,0.267-5.1,0.8C0.717-4.067,0-3.433,0-2.7c0,0.733,0.717,1.367,2.15,1.9
			C3.55-0.267,5.25,0,7.25,0C9.283,0,11-0.267,12.4-0.8C13.833-1.333,14.55-1.967,14.55-2.7z"/>
	</g>
</symbol>
<symbol  id="flash2.ai_x2F_Layer_4_x2F__x3C_Path_x3E__x5F_5" viewBox="-0.011 -4.615 3.467 4.722">
	<g id="Layer_1_14_">
		<path style="fill-rule:evenodd;clip-rule:evenodd;fill:#006B73;" d="M1.65-4.15c-1-0.733-1.55-0.6-1.65,0.4
			c-0.1,0.967,0.467,2,1.7,3.1c1.233,1.1,1.816,1,1.75-0.3C3.35-2.25,2.75-3.317,1.65-4.15z"/>
	</g>
</symbol>
<symbol  id="flash2.ai_x2F_Layer_4_x2F__x3C_Path_x3E__x5F_5_x5F_0" viewBox="0 -10.65 10.95 10.65">
	<g id="Layer_1_75_">
		
			<linearGradient id="SVGID_34_" gradientUnits="userSpaceOnUse" x1="-629.1816" y1="-15473.2461" x2="-618.9254" y2="-15473.2461" gradientTransform="matrix(0.078 -0.997 0.997 0.078 15480.1631 580.6338)">
			<stop  offset="0" style="stop-color:#A48058"/>
			<stop  offset="0.6549" style="stop-color:#504333"/>
			<stop  offset="1" style="stop-color:#292621"/>
		</linearGradient>
		<path style="fill-rule:evenodd;clip-rule:evenodd;fill:url(#SVGID_34_);" d="M0,0c2.567-1.633,5.167-3.9,7.8-6.8
			c1.3-1.434,2.35-2.717,3.15-3.85c-2.567,1.633-5.167,3.9-7.8,6.8C1.85-2.417,0.8-1.133,0,0z"/>
	</g>
</symbol>
<symbol  id="flash2.ai_x2F_Layer_4_x2F__x3C_Path_x3E__x5F_6" viewBox="-0.11 -4.3 4.728 4.308">
	<g id="Layer_1_17_">
		<path style="fill-rule:evenodd;clip-rule:evenodd;fill:#006B73;" d="M4.3-2.45C4.9-3.683,4.65-4.3,3.55-4.3
			c-1.133,0-2.167,0.767-3.1,2.3c-0.934,1.567-0.7,2.217,0.7,1.95C2.583-0.317,3.633-1.117,4.3-2.45z"/>
	</g>
</symbol>
<symbol  id="flash2.ai_x2F_Layer_4_x2F__x3C_Path_x3E__x5F_6_x5F_0" viewBox="0 -5.9 31.1 5.9">
	<g id="Layer_1_74_">
		
			<linearGradient id="SVGID_35_" gradientUnits="userSpaceOnUse" x1="-626.999" y1="-15465.375" x2="-619.6016" y2="-15465.375" gradientTransform="matrix(0.0777 -0.997 0.997 0.0777 15482.5176 578.6152)">
			<stop  offset="0" style="stop-color:#A48058"/>
			<stop  offset="0.6549" style="stop-color:#504333"/>
			<stop  offset="1" style="stop-color:#292621"/>
		</linearGradient>
		<path style="fill-rule:evenodd;clip-rule:evenodd;fill:url(#SVGID_35_);" d="M0,0c2.8-0.567,13.167-2.533,31.1-5.9
			C24.067-5.433,16.783-4.317,9.25-2.55C5.45-1.65,2.367-0.8,0,0z"/>
	</g>
</symbol>
<symbol  id="flash2.ai_x2F_Layer_4_x2F__x3C_Path_x3E__x5F_7" viewBox="-0.024 -2.467 3.254 2.486">
	<g id="Layer_1_21_">
		<path style="fill-rule:evenodd;clip-rule:evenodd;fill:#006B73;" d="M0.05-1.65C0.25-0.917,0.9-0.4,2-0.1
			c1.133,0.3,1.483,0.033,1.05-0.8C2.617-1.733,1.933-2.233,1-2.4C0.133-2.6-0.183-2.35,0.05-1.65z"/>
	</g>
</symbol>
<symbol  id="flash2.ai_x2F_Layer_4_x2F__x3C_Path_x3E__x5F_7_x5F_0" viewBox="0 -18.45 41.45 18.45">
	<g id="Layer_1_73_">
		
			<linearGradient id="SVGID_36_" gradientUnits="userSpaceOnUse" x1="-625.168" y1="-15463.6895" x2="-605.7849" y2="-15463.6895" gradientTransform="matrix(0.0774 -0.997 0.997 0.0774 15485.498 576.0557)">
			<stop  offset="0" style="stop-color:#A48058"/>
			<stop  offset="0.6549" style="stop-color:#504333"/>
			<stop  offset="1" style="stop-color:#292621"/>
		</linearGradient>
		<path style="fill-rule:evenodd;clip-rule:evenodd;fill:url(#SVGID_36_);" d="M0,0c4.1-2.567,12.233-6.417,24.4-11.55
			c6.1-2.567,11.783-4.867,17.05-6.9c-10.967,3.034-21.167,7.017-30.6,11.95C6.15-4.033,2.533-1.867,0,0z"/>
	</g>
</symbol>
<symbol  id="flash2.ai_x2F_Layer_4_x2F__x3C_Path_x3E__x5F_8" viewBox="-0.036 -3.678 2.843 3.767">
	<g id="Layer_1_26_">
		<path style="fill-rule:evenodd;clip-rule:evenodd;fill:#006B73;" d="M2.8-2.6c0.067-0.967-0.333-1.283-1.2-0.95
			C0.733-3.217,0.2-2.433,0-1.2c-0.167,1.267,0.25,1.6,1.25,1C2.25-0.767,2.767-1.567,2.8-2.6z"/>
	</g>
</symbol>
<symbol  id="flash2.ai_x2F_Layer_4_x2F__x3C_Path_x3E__x5F_8_x5F_0" viewBox="0 -18.5 10.95 18.5">
	<g id="Layer_1_72_">
		
			<linearGradient id="SVGID_37_" gradientUnits="userSpaceOnUse" x1="-619.9189" y1="-15484.8965" x2="-602.6431" y2="-15484.8965" gradientTransform="matrix(0.0767 -0.9971 0.9971 0.0767 15491.4873 570.9082)">
			<stop  offset="0" style="stop-color:#A48058"/>
			<stop  offset="0.6549" style="stop-color:#504333"/>
			<stop  offset="1" style="stop-color:#292621"/>
		</linearGradient>
		<path style="fill-rule:evenodd;clip-rule:evenodd;fill:url(#SVGID_37_);" d="M0,0c2.8-4.867,6.45-11.033,10.95-18.5
			c-1.967,2-4.383,5.683-7.25,11.05C2.267-4.783,1.033-2.3,0,0z"/>
	</g>
</symbol>
<symbol  id="flash2.ai_x2F_Layer_4_x2F__x3C_Path_x3E__x5F_9" viewBox="-0.071 -1.769 3.205 1.787">
	<g id="Layer_1_31_">
		<path style="fill-rule:evenodd;clip-rule:evenodd;fill:#006B73;" d="M2.35-0.15C3.283-0.417,3.383-0.8,2.65-1.3S1.2-1.9,0.5-1.6
			c-0.667,0.267-0.75,0.65-0.25,1.15S1.45,0.15,2.35-0.15z"/>
	</g>
</symbol>
<symbol  id="flash2.ai_x2F_Layer_4_x2F__x3C_Path_x3E__x5F_9_x5F_0" viewBox="0 -33.65 22.15 33.65">
	<g id="Layer_1_71_">
		
			<linearGradient id="SVGID_38_" gradientUnits="userSpaceOnUse" x1="-627.8438" y1="-15471.4727" x2="-596.2985" y2="-15471.4727" gradientTransform="matrix(0.0777 -0.997 0.997 0.0777 15483.0732 578.1377)">
			<stop  offset="0" style="stop-color:#A48058"/>
			<stop  offset="0.6549" style="stop-color:#504333"/>
			<stop  offset="1" style="stop-color:#292621"/>
		</linearGradient>
		<path style="fill-rule:evenodd;clip-rule:evenodd;fill:url(#SVGID_38_);" d="M0,0c2-4.2,6.3-11.067,12.9-20.6
			c3.267-4.767,6.35-9.117,9.25-13.05C17.617-30.017,12.567-23.317,7-13.55C4.2-8.683,1.867-4.167,0,0z"/>
	</g>
</symbol>
<g>
	<g>
		<g>
			<g>
				
					<linearGradient id="SVGID_39_" gradientUnits="userSpaceOnUse" x1="91.2852" y1="-70.0703" x2="114.8803" y2="-70.0703" gradientTransform="matrix(0.0413 0.9991 -0.9991 0.0413 -1.675710e-004 1.829937e-004)">
					<stop  offset="0" style="stop-color:#7CD18E"/>
					<stop  offset="1" style="stop-color:#007375"/>
				</linearGradient>
				<path style="fill-rule:evenodd;clip-rule:evenodd;fill:url(#SVGID_39_);" d="M86.4,98.1h0.05c0.833,12.4-2.2,21.133-9.1,26.2
					c-2.533,1.867-5.283,3-8.25,3.4c-2.6,0.333-4.6,0.1-6-0.7c4.467-3.6,9.233-8.783,14.3-15.55
					C80.667,107.117,83.667,102.667,86.4,98.1z"/>
				
					<linearGradient id="SVGID_40_" gradientUnits="userSpaceOnUse" x1="87.9175" y1="-78.3389" x2="113.5411" y2="-78.3389" gradientTransform="matrix(-0.0429 0.9991 -0.9991 -0.0429 6.614104e-004 1.785755e-004)">
					<stop  offset="0" style="stop-color:#57D18E"/>
					<stop  offset="1" style="stop-color:#1B7D73"/>
				</linearGradient>
				<path style="fill-rule:evenodd;clip-rule:evenodd;fill:url(#SVGID_40_);" d="M63.1,127l-0.15-0.05
					c-0.934-1.267-1.534-2.983-1.8-5.15c-0.5-4.333,1.017-8.8,4.55-13.4c3.066-4,7.383-6.917,12.95-8.75
					c2.8-0.9,5.383-1.417,7.75-1.55c-2.733,4.566-5.733,9.017-9,13.35C72.333,118.217,67.567,123.4,63.1,127z"/>
			</g>
			
				<use xlink:href="#flash2.ai_x2F_Layer_4_x2F__x3C_Path_x3E__x5F_3"  width="18.557" height="19.861" x="-0.005" y="-19.833" transform="matrix(1 0 0 -1 61.1001 108.0498)" style="overflow:visible;enable-background:new    ;"/>
			
				<use xlink:href="#flash2.ai_x2F_Layer_4_x2F__x3C_Path_x3E__x5F_2"  width="10.753" height="10.835" x="-0.002" y="-10.751" transform="matrix(1 0 0 -1 72.6001 112.4502)" style="overflow:visible;opacity:0.4492;enable-background:new    ;"/>
			
				<use xlink:href="#flash2.ai_x2F_Layer_4_x2F__x3C_Path_x3E__x5F_1"  width="3.477" height="3.865" x="-0.006" y="-3.778" transform="matrix(1 0 0 -1 73.8501 103)" style="overflow:visible;opacity:0.4492;enable-background:new    ;"/>
			
				<use xlink:href="#flash2.ai_x2F_Layer_4_x2F__x3C_Path_x3E_"  width="3.254" height="2.467" x="-0.024" y="-2.448" transform="matrix(1 0 0 -1 67.75 122.7998)" style="overflow:visible;opacity:0.4492;enable-background:new    ;"/>
		</g>
		<g>
			<g>
				
					<linearGradient id="SVGID_41_" gradientUnits="userSpaceOnUse" x1="8.8242" y1="45.8945" x2="51.0843" y2="45.8945" gradientTransform="matrix(0.953 0.3029 -0.3029 0.953 -3.635883e-005 -3.330112e-004)">
					<stop  offset="0" style="stop-color:#7CD18E"/>
					<stop  offset="1" style="stop-color:#007375"/>
				</linearGradient>
				<path style="fill-rule:evenodd;clip-rule:evenodd;fill:url(#SVGID_41_);" d="M18.6,31.4v-0.05c21.633,6,34.583,16.3,38.85,30.9
					C59.017,67.583,59.2,72.867,58,78.1c-1.067,4.566-2.733,7.8-5,9.7c-3.3-9.6-9.117-20.716-17.45-33.35
					C30.283,46.517,24.633,38.833,18.6,31.4z"/>
				
					<linearGradient id="SVGID_42_" gradientUnits="userSpaceOnUse" x1="-16.6353" y1="-68.2949" x2="6.3085" y2="-68.2949" gradientTransform="matrix(-0.9393 0.3432 -0.3432 -0.9393 -1.733303e-004 -1.002550e-004)">
					<stop  offset="0" style="stop-color:#57D18E"/>
					<stop  offset="1" style="stop-color:#1B7D73"/>
				</linearGradient>
				<path style="fill-rule:evenodd;clip-rule:evenodd;fill:url(#SVGID_42_);" d="M16.3,45.4c0.133-3.333,0.55-6.6,1.25-9.8
					c0.3-1.567,0.65-2.967,1.05-4.2c6.033,7.434,11.683,15.117,16.95,23.05C43.883,67.083,49.7,78.2,53,87.8l-0.25,0.15
					c-2.733,0.867-6.033,0.85-9.9-0.05c-7.733-1.733-14.367-6.917-19.9-15.55C18.05,64.783,15.833,55.8,16.3,45.4z"/>
			</g>
			
				<use xlink:href="#flash2.ai_x2F_Layer_4_x2F__x3C_Path_x3E__x5F_4"  width="35.866" height="39.279" y="-39.279" transform="matrix(1 0 0 -1 22.9502 49.2998)" style="overflow:visible;enable-background:new    ;"/>
			
				<use xlink:href="#flash2.ai_x2F_Layer_4_x2F__x3C_Path_x3E__x5F_3_x5F_0"  width="13.848" height="23.185" x="-0.01" y="-23.184" transform="matrix(1 0 0 -1 19.1499 43.7002)" style="overflow:visible;opacity:0.4492;enable-background:new    ;"/>
			
				<use xlink:href="#flash2.ai_x2F_Layer_4_x2F__x3C_Path_x3E__x5F_2_x5F_0"  width="11.198" height="11.168" x="-0.023" y="-11.177" transform="matrix(1 0 0 -1 41.3501 52.5)" style="overflow:visible;opacity:0.4492;enable-background:new    ;"/>
			
				<use xlink:href="#flash2.ai_x2F_Layer_4_x2F__x3C_Path_x3E__x5F_1_x5F_0"  width="6.125" height="5.816" x="-0.018" y="-5.707" transform="matrix(1 0 0 -1 30.4502 43.7002)" style="overflow:visible;opacity:0.4492;enable-background:new    ;"/>
			
				<use xlink:href="#flash2.ai_x2F_Layer_4_x2F__x3C_Path_x3E__x5F_0"  width="3.415" height="6.553" x="-0.023" y="-6.411" transform="matrix(1 0 0 -1 50.2002 72.3501)" style="overflow:visible;opacity:0.4492;enable-background:new    ;"/>
		</g>
		<g>
			<g>
				
					<linearGradient id="SVGID_43_" gradientUnits="userSpaceOnUse" x1="57.5269" y1="-22.3052" x2="89.6541" y2="-22.3052" gradientTransform="matrix(0.4646 0.8855 -0.8855 0.4646 1.806021e-005 -2.868772e-004)">
					<stop  offset="0" style="stop-color:#7CD18E"/>
					<stop  offset="1" style="stop-color:#007375"/>
				</linearGradient>
				<path style="fill-rule:evenodd;clip-rule:evenodd;fill:url(#SVGID_43_);" d="M71.75,82.65C69.517,86.517,66.6,89.633,63,92
					c-3.133,2.1-5.833,3.1-8.1,3c3.7-7.233,6.934-16.633,9.7-28.2c1.7-7.233,3.083-14.6,4.15-22.1
					C76.783,59.4,77.783,72.05,71.75,82.65z"/>
				
					<linearGradient id="SVGID_44_" gradientUnits="userSpaceOnUse" x1="-80.958" y1="-54.4038" x2="-57.7299" y2="-54.4038" gradientTransform="matrix(-0.9751 -0.2217 0.2217 -0.9751 0 3.577173e-004)">
					<stop  offset="0" style="stop-color:#57D18E"/>
					<stop  offset="1" style="stop-color:#1B7D73"/>
				</linearGradient>
				<path style="fill-rule:evenodd;clip-rule:evenodd;fill:url(#SVGID_44_);" d="M54.9,95l-0.2-0.05
					c-1.934-0.934-3.667-2.65-5.2-5.15c-3.1-5.033-3.667-11.466-1.7-19.3c1.7-6.9,5.633-13.217,11.8-18.95
					c3.1-2.9,6.15-5.183,9.15-6.85c-1.067,7.5-2.45,14.867-4.15,22.1C61.833,78.367,58.6,87.767,54.9,95z"/>
			</g>
			
				<use xlink:href="#flash2.ai_x2F_Layer_4_x2F__x3C_Path_x3E__x5F_3_x5F_1"  width="26.372" height="24.512" x="-0.022" y="-24.512" transform="matrix(1 0 0 -1 46.7998 70.5)" style="overflow:visible;enable-background:new    ;"/>
			
				<use xlink:href="#flash2.ai_x2F_Layer_4_x2F__x3C_Path_x3E__x5F_2_x5F_1"  width="9.775" height="18.909" x="-0.007" y="-18.876" transform="matrix(1 0 0 -1 53.1499 60)" style="overflow:visible;opacity:0.4492;enable-background:new    ;"/>
			
				<use xlink:href="#flash2.ai_x2F_Layer_4_x2F__x3C_Path_x3E__x5F_1_x5F_1"  width="3.687" height="6.451" x="-0.02" y="-6.288" transform="matrix(1 0 0 -1 67.5 57.3999)" style="overflow:visible;opacity:0.4492;enable-background:new    ;"/>
			
				<use xlink:href="#flash2.ai_x2F_Layer_4_x2F__x3C_Path_x3E__x5F_5"  width="3.467" height="4.722" x="-0.011" y="-4.615" transform="matrix(1 0 0 -1 59.5 85.0498)" style="overflow:visible;opacity:0.4492;enable-background:new    ;"/>
		</g>
		<g>
			<g>
				
					<linearGradient id="SVGID_45_" gradientUnits="userSpaceOnUse" x1="-40.1851" y1="89.3281" x2="-4.1237" y2="89.3281" gradientTransform="matrix(0.9442 -0.3293 0.3293 0.9442 -9.748340e-005 -3.561974e-004)">
					<stop  offset="0" style="stop-color:#7CD18E"/>
					<stop  offset="1" style="stop-color:#007375"/>
				</linearGradient>
				<path style="fill-rule:evenodd;clip-rule:evenodd;fill:url(#SVGID_45_);" d="M23.55,81.95c-7.466-2.767-15.3-5.25-23.5-7.45H0
					c17.933-7.267,32.117-6.817,42.55,1.35c3.833,2.967,6.684,6.65,8.55,11.05c1.633,3.8,2.167,6.983,1.6,9.55
					C45.5,91.35,35.783,86.517,23.55,81.95z"/>
				
					<linearGradient id="SVGID_46_" gradientUnits="userSpaceOnUse" x1="71.4741" y1="-44.7261" x2="100.1419" y2="-44.7261" gradientTransform="matrix(-0.2224 0.975 -0.975 -0.2224 7.125735e-005 -1.552254e-004)">
					<stop  offset="0" style="stop-color:#57D18E"/>
					<stop  offset="1" style="stop-color:#1B7D73"/>
				</linearGradient>
				<path style="fill-rule:evenodd;clip-rule:evenodd;fill:url(#SVGID_46_);" d="M5.65,85.75c-1.6-2.467-3-5.017-4.2-7.65
					c-0.733-1.667-1.2-2.867-1.4-3.6c8.2,2.2,16.034,4.683,23.5,7.45c12.233,4.566,21.95,9.4,29.15,14.5l-0.05,0.25
					c-1.433,2.066-3.7,3.816-6.8,5.25c-6.2,2.9-13.434,2.75-21.7-0.45C16.883,98.667,10.717,93.417,5.65,85.75z"/>
			</g>
			
				<use xlink:href="#flash2.ai_x2F_Layer_4_x2F__x3C_Path_x3E__x5F_2_x5F_2"  width="19.65" height="12.774" x="0.01" y="-12.787" transform="matrix(1 0 0 -1 12.8999 82.8999)" style="overflow:visible;opacity:0.4492;enable-background:new    ;"/>
			
				<use xlink:href="#flash2.ai_x2F_Layer_4_x2F__x3C_Path_x3E__x5F_1_x5F_2"  width="11.001" height="7.889" x="0.005" y="-7.887" transform="matrix(1 0 0 -1 29.1499 76.7998)" style="overflow:visible;opacity:0.4492;enable-background:new    ;"/>
			
				<use xlink:href="#flash2.ai_x2F_Layer_4_x2F__x3C_Path_x3E__x5F_6"  width="4.728" height="4.308" x="-0.11" y="-4.3" transform="matrix(1 0 0 -1 43.2998 86.2002)" style="overflow:visible;opacity:0.4492;enable-background:new    ;"/>
		</g>
	</g>
	<g>
		<g>
			<g>
				
					<linearGradient id="SVGID_47_" gradientUnits="userSpaceOnUse" x1="16.7764" y1="-233.5146" x2="40.3715" y2="-233.5146" gradientTransform="matrix(0.0413 0.9991 -0.9991 0.0413 -1.675710e-004 1.829937e-004)">
					<stop  offset="0" style="stop-color:#7CD18E"/>
					<stop  offset="1" style="stop-color:#007375"/>
				</linearGradient>
				<path style="fill-rule:evenodd;clip-rule:evenodd;fill:url(#SVGID_47_);" d="M237.55,43.05c-2.5,1.867-5.233,3-8.2,3.4
					c-2.566,0.367-4.566,0.15-6-0.65c4.434-3.6,9.2-8.8,14.301-15.6c3.133-4.2,6.133-8.65,9-13.35
					C247.483,29.25,244.45,37.983,237.55,43.05z"/>
				
					<linearGradient id="SVGID_48_" gradientUnits="userSpaceOnUse" x1="-0.1367" y1="-234.9531" x2="25.4869" y2="-234.9531" gradientTransform="matrix(-0.0429 0.9991 -0.9991 -0.0429 6.614104e-004 1.785755e-004)">
					<stop  offset="0" style="stop-color:#57D18E"/>
					<stop  offset="1" style="stop-color:#1B7D73"/>
				</linearGradient>
				<path style="fill-rule:evenodd;clip-rule:evenodd;fill:url(#SVGID_48_);" d="M223.35,45.8l-0.149-0.1
					c-0.934-1.267-1.533-2.983-1.8-5.15c-0.5-4.333,1-8.8,4.5-13.4c3.1-4,7.433-6.917,13-8.75c2.8-0.9,5.383-1.417,7.75-1.55
					c-2.867,4.7-5.867,9.15-9,13.35C232.55,37,227.783,42.2,223.35,45.8z"/>
			</g>
			
				<use xlink:href="#flash2.ai_x2F_Layer_4_x2F__x3C_Path_x3E__x5F_3_x5F_2"  width="18.557" height="19.934" x="-0.006" y="-19.883" transform="matrix(1 0 0 -1 221.3496 26.7998)" style="overflow:visible;enable-background:new    ;"/>
			
				<use xlink:href="#flash2.ai_x2F_Layer_4_x2F__x3C_Path_x3E__x5F_2_x5F_3"  width="10.753" height="10.835" x="-0.002" y="-10.751" transform="matrix(1 0 0 -1 232.8496 31.2002)" style="overflow:visible;opacity:0.4492;enable-background:new    ;"/>
			
				<use xlink:href="#flash2.ai_x2F_Layer_4_x2F__x3C_Path_x3E__x5F_1_x5F_3"  width="3.471" height="3.845" x="-0.002" y="-3.778" transform="matrix(1 0 0 -1 234.0996 21.75)" style="overflow:visible;opacity:0.4492;enable-background:new    ;"/>
			
				<use xlink:href="#flash2.ai_x2F_Layer_4_x2F__x3C_Path_x3E__x5F_7"  width="3.254" height="2.486" x="-0.024" y="-2.467" transform="matrix(1 0 0 -1 228 41.5498)" style="overflow:visible;opacity:0.4492;enable-background:new    ;"/>
		</g>
		<g>
			<g>
				
					<linearGradient id="SVGID_49_" gradientUnits="userSpaceOnUse" x1="104.2773" y1="32.9668" x2="134.6112" y2="32.9668" gradientTransform="matrix(0.9948 0.1022 -0.1022 0.9948 6.850064e-005 -5.097836e-004)">
					<stop  offset="0" style="stop-color:#7CD18E"/>
					<stop  offset="1" style="stop-color:#007375"/>
				</linearGradient>
				<path style="fill-rule:evenodd;clip-rule:evenodd;fill:url(#SVGID_49_);" d="M114.8,32.05V32c16.3,0.9,27.05,5.433,32.25,13.6
					c1.9,3,2.8,6.133,2.7,9.4c-0.066,2.833-0.767,4.95-2.1,6.35c-3.767-5.3-9.551-11.184-17.351-17.65
					C125.4,39.633,120.233,35.75,114.8,32.05z"/>
				
					<linearGradient id="SVGID_50_" gradientUnits="userSpaceOnUse" x1="-90.7354" y1="-108.9551" x2="-73.0174" y2="-108.9551" gradientTransform="matrix(-0.8494 0.5277 -0.5277 -0.8494 -6.060600e-004 6.794930e-006)">
					<stop  offset="0" style="stop-color:#57D18E"/>
					<stop  offset="1" style="stop-color:#1B7D73"/>
				</linearGradient>
				<path style="fill-rule:evenodd;clip-rule:evenodd;fill:url(#SVGID_50_);" d="M115.25,40.7c-0.4-2-0.6-4-0.6-6
					c0.1-1.667,0.15-2.55,0.15-2.65c5.434,3.7,10.6,7.583,15.5,11.65c7.8,6.466,13.584,12.35,17.351,17.65l-0.101,0.15
					c-1.833,0.867-4.184,1.267-7.05,1.2c-5.767-0.067-11.267-2.333-16.5-6.8C119.4,52,116.483,46.933,115.25,40.7z"/>
			</g>
			
				<use xlink:href="#flash2.ai_x2F_Layer_4_x2F__x3C_Path_x3E__x5F_4_x5F_0"  width="25.762" height="21.65" y="-21.65" transform="matrix(1 0 0 -1 124 41.0498)" style="overflow:visible;enable-background:new    ;"/>
			
				<use xlink:href="#flash2.ai_x2F_Layer_4_x2F__x3C_Path_x3E__x5F_3_x5F_3"  width="12.421" height="12.881" x="-0.035" y="-12.706" transform="matrix(1 0 0 -1 117.4502 39.0498)" style="overflow:visible;opacity:0.4492;enable-background:new    ;"/>
			
				<use xlink:href="#flash2.ai_x2F_Layer_4_x2F__x3C_Path_x3E__x5F_2_x5F_4"  width="9.172" height="6.058" x="-0.08" y="-5.982" transform="matrix(1 0 0 -1 134.3999 41.5)" style="overflow:visible;opacity:0.4492;enable-background:new    ;"/>
			
				<use xlink:href="#flash2.ai_x2F_Layer_4_x2F__x3C_Path_x3E__x5F_1_x5F_4"  width="4.956" height="2.952" x="-0.046" y="-2.861" transform="matrix(1 0 0 -1 125.2002 37.7998)" style="overflow:visible;opacity:0.4492;enable-background:new    ;"/>
			
				<use xlink:href="#flash2.ai_x2F_Layer_4_x2F__x3C_Path_x3E__x5F_8"  width="2.843" height="3.767" x="-0.036" y="-3.678" transform="matrix(1 0 0 -1 143.6504 52.3999)" style="overflow:visible;opacity:0.4492;enable-background:new    ;"/>
		</g>
		<g>
			<g>
				
					<linearGradient id="SVGID_51_" gradientUnits="userSpaceOnUse" x1="-83.0391" y1="-241.1641" x2="-60.1311" y2="-241.1641" gradientTransform="matrix(-0.514 0.8578 -0.8578 -0.514 -4.693270e-004 -2.188683e-004)">
					<stop  offset="0" style="stop-color:#7CD18E"/>
					<stop  offset="1" style="stop-color:#007375"/>
				</linearGradient>
				<path style="fill-rule:evenodd;clip-rule:evenodd;fill:url(#SVGID_51_);" d="M233.15,84c-2.634,0.367-5.051,0-7.25-1.1
					c-1.9-0.967-3.117-2.133-3.65-3.5c4.8-0.9,10.65-2.983,17.55-6.25c4.3-2.066,8.584-4.367,12.851-6.9
					C246.884,77.15,240.384,83.067,233.15,84z"/>
				
					<linearGradient id="SVGID_52_" gradientUnits="userSpaceOnUse" x1="-103.4849" y1="227.0801" x2="-90.0393" y2="227.0801" gradientTransform="matrix(-0.119 -0.9929 0.9929 -0.119 1.872033e-004 -8.355007e-004)">
					<stop  offset="0" style="stop-color:#57D18E"/>
					<stop  offset="1" style="stop-color:#1B7D73"/>
				</linearGradient>
				<path style="fill-rule:evenodd;clip-rule:evenodd;fill:url(#SVGID_52_);" d="M246.65,63.75c2.366,0.6,4.366,1.433,6,2.5
					c-4.267,2.533-8.551,4.833-12.851,6.9c-6.899,3.267-12.75,5.35-17.55,6.25l-0.05-0.15c0-0.367,0.066-0.867,0.2-1.5
					c0.233-1.267,0.649-2.517,1.25-3.75c1.866-3.933,5.149-6.983,9.85-9.15C237.634,62.95,242.017,62.583,246.65,63.75z"/>
			</g>
			
				<use xlink:href="#flash2.ai_x2F_Layer_4_x2F__x3C_Path_x3E__x5F_4_x5F_1"  width="20.457" height="19.464" x="-0.007" y="-19.464" transform="matrix(1 0 0 -1 222.25 64.8501)" style="overflow:visible;enable-background:new    ;"/>
			
				<use xlink:href="#flash2.ai_x2F_Layer_4_x2F__x3C_Path_x3E__x5F_3_x5F_4"  width="12.114" height="6.33" y="-6.288" transform="matrix(1 0 0 -1 234.8496 64.8999)" style="overflow:visible;opacity:0.4492;enable-background:new    ;"/>
			
				<use xlink:href="#flash2.ai_x2F_Layer_4_x2F__x3C_Path_x3E__x5F_2_x5F_5"  width="6.343" height="5.42" x="-0.126" y="-5.407" transform="matrix(1 0 0 -1 233.5498 76.1499)" style="overflow:visible;opacity:0.4492;enable-background:new    ;"/>
			
				<use xlink:href="#flash2.ai_x2F_Layer_4_x2F__x3C_Path_x3E__x5F_1_x5F_5"  width="3.281" height="2.937" x="-0.062" y="-2.935" transform="matrix(1 0 0 -1 242.1504 71.2998)" style="overflow:visible;opacity:0.4492;enable-background:new    ;"/>
			
				<use xlink:href="#flash2.ai_x2F_Layer_4_x2F__x3C_Path_x3E__x5F_9"  width="3.205" height="1.787" x="-0.071" y="-1.769" transform="matrix(1 0 0 -1 226.4502 79)" style="overflow:visible;opacity:0.4492;enable-background:new    ;"/>
		</g>
		<g>
			<g>
				
					<linearGradient id="SVGID_53_" gradientUnits="userSpaceOnUse" x1="143.5391" y1="-132.0713" x2="175.6656" y2="-132.0713" gradientTransform="matrix(0.7338 0.6793 -0.6793 0.7338 1.776814e-004 -2.998710e-004)">
					<stop  offset="0" style="stop-color:#7CD18E"/>
					<stop  offset="1" style="stop-color:#007375"/>
				</linearGradient>
				<path style="fill-rule:evenodd;clip-rule:evenodd;fill:url(#SVGID_53_);" d="M214.7,0c13.033,11.167,19.166,21.9,18.399,32.2
					c-0.3,3.733-1.517,6.966-3.649,9.7c-1.834,2.4-3.75,3.767-5.75,4.1c0.2-6.933-0.917-15.65-3.351-26.15
					C218.783,13.183,216.9,6.567,214.7,0z"/>
				
					<linearGradient id="SVGID_54_" gradientUnits="userSpaceOnUse" x1="-224.4814" y1="-3.4185" x2="-205.9329" y2="-3.4185" gradientTransform="matrix(-0.996 -0.089 0.089 -0.996 2.294779e-005 3.464669e-004)">
					<stop  offset="0" style="stop-color:#57D18E"/>
					<stop  offset="1" style="stop-color:#1B7D73"/>
				</linearGradient>
				<path style="fill-rule:evenodd;clip-rule:evenodd;fill:url(#SVGID_54_);" d="M223.7,46h-0.2c-2.066-0.433-4.283-1.6-6.65-3.5
					c-4.733-3.733-7.899-9.167-9.5-16.3c-1.366-6.267-0.6-12.45,2.301-18.55C211.116,4.55,212.8,2,214.7,0
					c2.2,6.567,4.083,13.183,5.649,19.85C222.783,30.35,223.9,39.067,223.7,46z"/>
			</g>
			
				<use xlink:href="#flash2.ai_x2F_Layer_4_x2F__x3C_Path_x3E__x5F_4_x5F_2"  width="25.943" height="30.6" y="-30.6" transform="matrix(1 0 0 -1 207.3496 15.3999)" style="overflow:visible;enable-background:new    ;"/>
			
				<use xlink:href="#flash2.ai_x2F_Layer_4_x2F__x3C_Path_x3E__x5F_3_x5F_5"  width="7.432" height="17.605" x="-0.12" y="-17.571" transform="matrix(1 0 0 -1 209.9502 8.1499)" style="overflow:visible;opacity:0.4492;enable-background:new    ;"/>
			
				<use xlink:href="#flash2.ai_x2F_Layer_4_x2F__x3C_Path_x3E__x5F_2_x5F_6"  width="6.515" height="9.702" x="-0.009" y="-9.7" transform="matrix(1 0 0 -1 223.8496 21.1499)" style="overflow:visible;opacity:0.4492;enable-background:new    ;"/>
			
				<use xlink:href="#flash2.ai_x2F_Layer_4_x2F__x3C_Path_x3E__x5F_1_x5F_6"  width="3.439" height="5.217" x="-0.032" y="-5.151" transform="matrix(1 0 0 -1 219.25 11.75)" style="overflow:visible;opacity:0.4492;enable-background:new    ;"/>
			
				<use xlink:href="#flash2.ai_x2F_Layer_4_x2F__x3C_Path_x3E__x5F_10"  width="2.472" height="4.538" x="-0.066" y="-4.425" transform="matrix(1 0 0 -1 224.7998 36)" style="overflow:visible;opacity:0.4492;enable-background:new    ;"/>
		</g>
		<g>
			<g>
				
					<linearGradient id="SVGID_55_" gradientUnits="userSpaceOnUse" x1="64.1079" y1="-121.6328" x2="100.5631" y2="-121.6328" gradientTransform="matrix(0.465 0.8853 -0.8853 0.465 1.096129e-004 -4.622638e-004)">
					<stop  offset="0" style="stop-color:#7CD18E"/>
					<stop  offset="1" style="stop-color:#007375"/>
				</linearGradient>
				<path style="fill-rule:evenodd;clip-rule:evenodd;fill:url(#SVGID_55_);" d="M162.65,4.9c8.966,16.667,10.066,31.017,3.3,43.05
					c-2.434,4.367-5.667,7.9-9.7,10.6c-3.5,2.333-6.517,3.45-9.05,3.35c4.133-8.167,7.733-18.816,10.8-31.95
					C159.9,21.783,161.45,13.433,162.65,4.9z"/>
				
					<linearGradient id="SVGID_56_" gradientUnits="userSpaceOnUse" x1="-164.228" y1="1.8052" x2="-138.3316" y2="1.8052" gradientTransform="matrix(-0.975 -0.222 0.222 -0.975 -6.882846e-005 -2.385378e-004)">
					<stop  offset="0" style="stop-color:#57D18E"/>
					<stop  offset="1" style="stop-color:#1B7D73"/>
				</linearGradient>
				<path style="fill-rule:evenodd;clip-rule:evenodd;fill:url(#SVGID_56_);" d="M139.25,34.15c1.934-7.8,6.316-14.95,13.15-21.45
					c3.466-3.3,6.883-5.9,10.25-7.8c-1.2,8.533-2.75,16.883-4.65,25.05c-3.066,13.133-6.667,23.783-10.8,31.95h-0.25
					c-2.167-1.066-4.101-3.017-5.8-5.85C137.683,50.35,137.05,43.05,139.25,34.15z"/>
			</g>
			
				<use xlink:href="#flash2.ai_x2F_Layer_4_x2F__x3C_Path_x3E__x5F_3_x5F_6"  width="29.434" height="27.771" x="-0.034" y="-27.771" transform="matrix(1 0 0 -1 138.1504 34.1499)" style="overflow:visible;enable-background:new    ;"/>
			
				<use xlink:href="#flash2.ai_x2F_Layer_4_x2F__x3C_Path_x3E__x5F_2_x5F_7"  width="10.941" height="21.454" x="-0.006" y="-21.431" transform="matrix(1 0 0 -1 145.2002 22.25)" style="overflow:visible;opacity:0.4492;enable-background:new    ;"/>
			
				<use xlink:href="#flash2.ai_x2F_Layer_4_x2F__x3C_Path_x3E__x5F_1_x5F_7"  width="4.135" height="7.338" x="-0.029" y="-7.163" transform="matrix(1 0 0 -1 161.25 19.2998)" style="overflow:visible;opacity:0.4492;enable-background:new    ;"/>
			
				<use xlink:href="#flash2.ai_x2F_Layer_4_x2F__x3C_Path_x3E__x5F_11"  width="3.828" height="5.334" x="0.032" y="-5.239" transform="matrix(1 0 0 -1 152.2998 50.6499)" style="overflow:visible;opacity:0.4492;enable-background:new    ;"/>
		</g>
		<g>
			<g>
				
					<linearGradient id="SVGID_57_" gradientUnits="userSpaceOnUse" x1="61.6479" y1="-164.6807" x2="79.9984" y2="-164.6807" gradientTransform="matrix(0.0068 1 -1 0.0068 1.787413e-004 2.298318e-005)">
					<stop  offset="0" style="stop-color:#7CD18E"/>
					<stop  offset="1" style="stop-color:#007375"/>
				</linearGradient>
				<path style="fill-rule:evenodd;clip-rule:evenodd;fill:url(#SVGID_57_);" d="M172.7,68.5c0.467,9.8-1.517,16.55-5.95,20.25
					c-1.6,1.333-3.35,2.083-5.25,2.25c-1.634,0.167-2.9-0.1-3.8-0.8C162.366,85.9,167.366,78.667,172.7,68.5z"/>
				
					<linearGradient id="SVGID_58_" gradientUnits="userSpaceOnUse" x1="-183.7339" y1="19.166" x2="-173.1602" y2="19.166" gradientTransform="matrix(-0.8512 -0.5249 0.5249 -0.8512 -2.459288e-004 -2.430081e-004)">
					<stop  offset="0" style="stop-color:#57D18E"/>
					<stop  offset="1" style="stop-color:#1B7D73"/>
				</linearGradient>
				<path style="fill-rule:evenodd;clip-rule:evenodd;fill:url(#SVGID_58_);" d="M167.75,69.35c1.8-0.6,3.45-0.883,4.95-0.85
					c-5.334,10.167-10.334,17.4-15,21.7l-0.101-0.05c-0.6-1.033-0.966-2.417-1.1-4.15c-0.3-3.467,0.684-6.917,2.95-10.35
					C161.45,72.617,164.217,70.517,167.75,69.35z"/>
			</g>
			
				<use xlink:href="#flash2.ai_x2F_Layer_4_x2F__x3C_Path_x3E__x5F_2_x5F_8"  width="6.893" height="8.154" x="0.022" y="-8.138" transform="matrix(1 0 0 -1 160.8496 72.9502)" style="overflow:visible;opacity:0.4492;enable-background:new    ;"/>
			
				<use xlink:href="#flash2.ai_x2F_Layer_4_x2F__x3C_Path_x3E__x5F_1_x5F_8"  width="3.858" height="4.895" x="0.001" y="-4.829" transform="matrix(1 0 0 -1 164.0498 81.75)" style="overflow:visible;opacity:0.4492;enable-background:new    ;"/>
			
				<use xlink:href="#flash2.ai_x2F_Layer_4_x2F__x3C_Path_x3E__x5F_12"  width="2.099" height="1.881" x="-0.038" y="-1.862" transform="matrix(1 0 0 -1 160.6504 87.2002)" style="overflow:visible;opacity:0.4492;enable-background:new    ;"/>
		</g>
		<g>
			<g>
				
					<linearGradient id="SVGID_59_" gradientUnits="userSpaceOnUse" x1="134.6499" y1="56.2158" x2="147.5991" y2="56.2158" gradientTransform="matrix(0.9923 0.1236 -0.1236 0.9923 -7.370114e-005 -1.031160e-005)">
					<stop  offset="0" style="stop-color:#7CD18E"/>
					<stop  offset="1" style="stop-color:#007375"/>
				</linearGradient>
				<path style="fill-rule:evenodd;clip-rule:evenodd;fill:url(#SVGID_59_);" d="M132.9,67.8c6.9,0.6,11.45,2.617,13.65,6.05
					c0.8,1.267,1.167,2.566,1.101,3.9c-0.034,1.167-0.334,2.033-0.9,2.6C144.116,76.583,139.5,72.4,132.9,67.8z"/>
				
					<linearGradient id="SVGID_60_" gradientUnits="userSpaceOnUse" x1="-31.8647" y1="-155.2051" x2="-24.4189" y2="-155.2051" gradientTransform="matrix(-0.6312 0.7756 -0.7756 -0.6312 8.282661e-004 1.261830e-004)">
					<stop  offset="0" style="stop-color:#57D18E"/>
					<stop  offset="1" style="stop-color:#1B7D73"/>
				</linearGradient>
				<path style="fill-rule:evenodd;clip-rule:evenodd;fill:url(#SVGID_60_);" d="M146.75,80.35l-0.05,0.05
					c-0.767,0.333-1.767,0.467-3,0.4c-2.467-0.1-4.8-1.117-7-3.05c-1.934-1.667-3.133-3.8-3.6-6.4c-0.133-2.267-0.2-3.45-0.2-3.55
					C139.5,72.4,144.116,76.583,146.75,80.35z"/>
			</g>
			
				<use xlink:href="#flash2.ai_x2F_Layer_4_x2F__x3C_Path_x3E__x5F_2_x5F_9"  width="5.272" height="5.548" x="0.001" y="-5.484" transform="matrix(1 0 0 -1 135.5 71.7998)" style="overflow:visible;opacity:0.4492;enable-background:new    ;"/>
			
				<use xlink:href="#flash2.ai_x2F_Layer_4_x2F__x3C_Path_x3E__x5F_1_x5F_9"  width="3.209" height="2.979" x="-0.044" y="-2.957" transform="matrix(1 0 0 -1 141.7002 72.5)" style="overflow:visible;opacity:0.4492;enable-background:new    ;"/>
			
				<use xlink:href="#flash2.ai_x2F_Layer_4_x2F__x3C_Path_x3E__x5F_13"  width="1.218" height="1.561" x="-0.013" y="-1.55" transform="matrix(1 0 0 -1 145.0498 76.6001)" style="overflow:visible;opacity:0.4492;enable-background:new    ;"/>
		</g>
		<g>
			<g>
				
					<linearGradient id="SVGID_61_" gradientUnits="userSpaceOnUse" x1="204.5449" y1="28.3389" x2="217.4942" y2="28.3389" gradientTransform="matrix(0.9923 0.1236 -0.1236 0.9923 -7.370114e-005 -1.031160e-005)">
					<stop  offset="0" style="stop-color:#7CD18E"/>
					<stop  offset="1" style="stop-color:#007375"/>
				</linearGradient>
				<path style="fill-rule:evenodd;clip-rule:evenodd;fill:url(#SVGID_61_);" d="M219.35,54.85c0.801,1.233,1.167,2.517,1.101,3.85
					c-0.033,1.167-0.334,2.033-0.9,2.6c-2.566-3.6-7.166-7.767-13.8-12.5C212.65,49.4,217.184,51.417,219.35,54.85z"/>
				
					<linearGradient id="SVGID_62_" gradientUnits="userSpaceOnUse" x1="-92.5542" y1="-199.6792" x2="-85.1084" y2="-199.6792" gradientTransform="matrix(-0.6312 0.7756 -0.7756 -0.6312 8.282661e-004 1.261830e-004)">
					<stop  offset="0" style="stop-color:#57D18E"/>
					<stop  offset="1" style="stop-color:#1B7D73"/>
				</linearGradient>
				<path style="fill-rule:evenodd;clip-rule:evenodd;fill:url(#SVGID_62_);" d="M219.55,61.3l-0.05,0.05
					c-0.767,0.333-1.767,0.467-3,0.4c-2.434-0.1-4.75-1.1-6.95-3c-1.934-1.667-3.149-3.8-3.649-6.4c-0.101-2.3-0.15-3.483-0.15-3.55
					C212.384,53.533,216.983,57.7,219.55,61.3z"/>
			</g>
			
				<use xlink:href="#flash2.ai_x2F_Layer_4_x2F__x3C_Path_x3E__x5F_2_x5F_10"  width="5.305" height="5.536" x="-0.032" y="-5.463" transform="matrix(1 0 0 -1 208.3496 52.7998)" style="overflow:visible;opacity:0.4492;enable-background:new    ;"/>
			
				<use xlink:href="#flash2.ai_x2F_Layer_4_x2F__x3C_Path_x3E__x5F_1_x5F_10"  width="3.241" height="2.98" x="-0.026" y="-2.907" transform="matrix(1 0 0 -1 214.5 53.5)" style="overflow:visible;opacity:0.4492;enable-background:new    ;"/>
			
				<use xlink:href="#flash2.ai_x2F_Layer_4_x2F__x3C_Path_x3E__x5F_14"  width="1.214" height="1.565" x="-0.013" y="-1.504" transform="matrix(1 0 0 -1 217.9004 57.6001)" style="overflow:visible;opacity:0.4492;enable-background:new    ;"/>
		</g>
	</g>
	<g>
		
			<use xlink:href="#flash2.ai_x2F_Layer_4_x2F__x3C_Path_x3E__x5F_33"  width="90.865" height="19.012" x="0.024" y="-19.039" transform="matrix(1 0 0 -1 187 205.4004)" style="overflow:visible;opacity:0.3789;enable-background:new    ;"/>
		
			<use xlink:href="#flash2.ai_x2F_Layer_4_x2F__x3C_Path_x3E__x5F_32"  width="84.557" height="16.925" y="-16.963" transform="matrix(1 0 0 -1 189.4502 205.9502)" style="overflow:visible;opacity:0.9883;enable-background:new    ;"/>
		
			<linearGradient id="SVGID_63_" gradientUnits="userSpaceOnUse" x1="-131.4502" y1="-254.4258" x2="-87.3781" y2="-254.4258" gradientTransform="matrix(-0.9405 0.3398 -0.3398 -0.9405 -5.003810e-004 -1.835823e-005)">
			<stop  offset="0" style="stop-color:#303B3B"/>
			<stop  offset="0.1725" style="stop-color:#2F353A"/>
			<stop  offset="0.4039" style="stop-color:#2B2336"/>
			<stop  offset="0.4157" style="stop-color:#2B2236"/>
			<stop  offset="1" style="stop-color:#80715E"/>
		</linearGradient>
		<path style="fill-rule:evenodd;clip-rule:evenodd;fill:url(#SVGID_63_);" d="M183.45,178.7c-0.167-0.7-0.233-1.283-0.2-1.75
			c1.5-0.033,3.417,1.05,5.75,3.25c1.267,1.233,2.95,2.916,5.05,5.05c2.5,2.066,5.084,5.4,7.75,10c1.134,2,2.967,4.833,5.5,8.5
			c2.566,3.7,4.417,6.55,5.55,8.55c0.434,0.733,1.733,1.717,3.9,2.95c2.033,1.1,3.167,2.134,3.4,3.1
			c-0.5-0.1-4.934-1.666-13.301-4.699c-6.533-2.334-11.333-3.2-14.399-2.601c-1.434,0.2-2.084-1.05-1.95-3.75
			c0.233-3.833,0.316-5.85,0.25-6.05c-0.2-0.7-0.717-3.333-1.55-7.9c-0.533-3.033-1.351-5.533-2.45-7.5
			c-0.833-1.466-1.45-2.6-1.85-3.399C184.167,180.983,183.684,179.733,183.45,178.7z"/>
		<path style="fill-rule:evenodd;clip-rule:evenodd;fill:#1A1026;" d="M187.1,178.15c-0.166-0.667-0.25-1.267-0.25-1.801
			c1.5-0.033,3.417,1.067,5.75,3.301c1.267,1.199,2.95,2.866,5.051,5c2.6,2.166,5.199,5.517,7.8,10.05
			c1.133,1.967,2.967,4.8,5.5,8.5c2.566,3.7,4.416,6.533,5.55,8.5c0.434,0.733,1.733,1.717,3.9,2.95
			c2.033,1.133,3.166,2.183,3.399,3.149c-2.233-0.434-6.733-1.6-13.5-3.5c-7.233-2.033-11.967-3.3-14.2-3.8
			c-0.966-0.634-1.466-2.15-1.5-4.55c-0.033-3.167-0.1-4.917-0.199-5.25c-0.267-0.9-0.784-3.533-1.551-7.9
			c-0.566-3.033-1.383-5.533-2.449-7.5c-0.834-1.467-1.45-2.6-1.851-3.399C187.816,180.434,187.333,179.184,187.1,178.15z"/>
		
			<use xlink:href="#flash2.ai_x2F_Layer_4_x2F__x3C_Path_x3E__x5F_29"  width="87.452" height="17.6" x="-0.002" y="-17.562" transform="matrix(1 0 0 -1 37.6499 207.25)" style="overflow:visible;opacity:0.3789;enable-background:new    ;"/>
		
			<use xlink:href="#flash2.ai_x2F_Layer_4_x2F__x3C_Path_x3E__x5F_28"  width="80.321" height="17.348" x="-0.026" y="-17.36" transform="matrix(1 0 0 -1 42.3999 206.9004)" style="overflow:visible;opacity:0.9883;enable-background:new    ;"/>
		
			<radialGradient id="SVGID_64_" cx="164.6504" cy="216.2002" r="134.35" gradientTransform="matrix(1 0 0 -0.8913 0 408.9056)" gradientUnits="userSpaceOnUse">
			<stop  offset="0" style="stop-color:#303B3B"/>
			<stop  offset="0.3569" style="stop-color:#2D2A38"/>
			<stop  offset="0.498" style="stop-color:#2B2236"/>
			<stop  offset="0.5843" style="stop-color:#2F2636"/>
			<stop  offset="0.6745" style="stop-color:#3C3037"/>
			<stop  offset="0.7725" style="stop-color:#524239"/>
			<stop  offset="0.8667" style="stop-color:#705A3C"/>
			<stop  offset="0.9647" style="stop-color:#967A3F"/>
			<stop  offset="0.9922" style="stop-color:#A38440"/>
		</radialGradient>
		<path style="fill-rule:evenodd;clip-rule:evenodd;fill:url(#SVGID_64_);" d="M195.15,193.55c-2.2-4.666-5.483-8.7-9.851-12.1
			c-4.899-3.8-10.5-6.267-16.8-7.4c-6.566-1.166-12.667-0.833-18.3,1c-5.434,1.767-10.867,5.05-16.3,9.851
			c-2.367,2.066-4.533,4.883-6.5,8.449c-1.3,2.334-2.8,5.584-4.5,9.75c-0.9,2.301-1.383,3.551-1.45,3.75c-0.5,1.4-0.8,2.7-0.9,3.9
			c-0.066,0.634-0.133,1.667-0.2,3.1c-0.233,1.2-0.767,2.034-1.6,2.5c-0.367,0.2-1.15,0.483-2.35,0.851
			c-1,0.434-1.383,1.033-1.15,1.8c-0.533,0.7-1.3,1.233-2.3,1.6c-0.133,0.034-1.067,0.25-2.8,0.65c-2.933,0.733-5.15,1.25-6.65,1.55
			c-1,0.2-2.133,0.283-3.4,0.25c-1.467-0.1-2.6-0.149-3.4-0.149c-0.5,0-2.434,0.133-5.8,0.399c-3.333,0.267-6.917,0.316-10.75,0.15
			c-2.633-0.134-6.233-0.434-10.8-0.9c-3.533-0.1-6.184-0.316-7.95-0.649c-0.9-0.134-1.633-0.284-2.2-0.45
			c-1.034-0.267-1.633-0.601-1.8-1c-0.2-0.467-0.05-0.917,0.45-1.351c0.8-0.666,1.233-1.066,1.3-1.199
			c-1-0.534-4.15-1.017-9.45-1.45c-4.333-0.367-6.467-1.134-6.4-2.3c1-5.733,3.2-12.983,6.6-21.75
			c2.667-6.9,6.883-14.684,12.65-23.351c6.333-9.5,14.133-18,23.4-25.5c8.933-7.233,18.816-13.166,29.65-17.8
			c19.667-8.434,38.917-11.4,57.75-8.9c16.334,2.2,32.851,8.617,49.551,19.25c7.933,5.067,15.233,11.434,21.899,19.101
			c8.634,9.833,16.033,22.116,22.2,36.85c1.9,4.634,3.35,9.184,4.35,13.65c0.767,3.633,0.767,6.149,0,7.55
			c-0.8,1.467-2.866,2.45-6.199,2.95c-2.034,0.3-5.717,1.383-11.051,3.25c-4.6,1.633-8.3,2.45-11.1,2.45
			c-3.833,0.133-6.733,0.216-8.7,0.25c-3.467,0.033-6.35-0.15-8.649-0.551c-0.733-0.133-1.584-0.416-2.551-0.85
			c-1.333-0.566-2.166-0.9-2.5-1c-1.8-0.6-4.883-0.95-9.25-1.05c-4.1-0.134-7.149-0.617-9.149-1.45
			c-1.033-0.434-1.65-0.884-1.851-1.35c-0.133-0.267-0.166-0.967-0.1-2.101C200.517,208.066,198.816,201.316,195.15,193.55z"/>
		
			<use xlink:href="#flash2.ai_x2F_Layer_4_x2F__x3C_Path_x3E__x5F_26"  width="165.369" height="75.478" x="-0.001" y="-75.478" transform="matrix(1 0 0 -1 79.7002 147.7998)" style="overflow:visible;opacity:0.1914;enable-background:new    ;"/>
		
			<use xlink:href="#flash2.ai_x2F_Layer_4_x2F__x3C_Path_x3E__x5F_25"  width="224.607" height="96.063" x="0.066" y="-96.1" transform="matrix(1 0 0 -1 45.6499 116.5)" style="overflow:visible;opacity:0.1406;enable-background:new    ;"/>
		
			<use xlink:href="#flash2.ai_x2F_Layer_4_x2F__x3C_Path_x3E__x5F_24"  width="6.468" height="29.15" y="-29.15" transform="matrix(1 0 0 -1 189.1504 124.8496)" style="overflow:visible;opacity:0.3008;enable-background:new    ;"/>
		
			<use xlink:href="#flash2.ai_x2F_Layer_4_x2F__x3C_Path_x3E__x5F_23"  width="12.85" height="19.55" y="-19.55" transform="matrix(1 0 0 -1 207.8496 141.5498)" style="overflow:visible;opacity:0.3008;enable-background:new    ;"/>
		
			<use xlink:href="#flash2.ai_x2F_Layer_4_x2F__x3C_Path_x3E__x5F_22"  width="32.1" height="14.55" y="-14.55" transform="matrix(1 0 0 -1 204.5 173.7998)" style="overflow:visible;opacity:0.3008;enable-background:new    ;"/>
		
			<use xlink:href="#flash2.ai_x2F_Layer_4_x2F__x3C_Path_x3E__x5F_21"  width="15.7" height="7.1" y="-7.1" transform="matrix(1 0 0 -1 225.75 176.4004)" style="overflow:visible;opacity:0.3008;enable-background:new    ;"/>
		
			<use xlink:href="#flash2.ai_x2F_Layer_4_x2F__x3C_Path_x3E__x5F_20"  width="8.034" height="15.541" x="0.008" y="-15.489" transform="matrix(1 0 0 -1 90.7998 187.5498)" style="overflow:visible;opacity:0.1914;enable-background:new    ;"/>
		
			<use xlink:href="#flash2.ai_x2F_Layer_4_x2F__x3C_Path_x3E__x5F_19"  width="6.95" height="4.203" x="-0.101" y="-4.198" transform="matrix(1 0 0 -1 118.8501 152.75)" style="overflow:visible;opacity:0.1914;enable-background:new    ;"/>
		
			<use xlink:href="#flash2.ai_x2F_Layer_4_x2F__x3C_Path_x3E__x5F_18"  width="12.172" height="8.019" x="-0.033" y="-8.063" transform="matrix(1 0 0 -1 195 149.2998)" style="overflow:visible;opacity:0.1914;enable-background:new    ;"/>
		
			<use xlink:href="#flash2.ai_x2F_Layer_4_x2F__x3C_Path_x3E__x5F_17"  width="14.408" height="5.475" x="-0.003" y="-5.358" transform="matrix(1 0 0 -1 139.9004 123.2998)" style="overflow:visible;opacity:0.1406;enable-background:new    ;"/>
		
			<use xlink:href="#flash2.ai_x2F_Layer_4_x2F__x3C_Path_x3E__x5F_16"  width="7.656" height="6.742" x="-0.06" y="-6.616" transform="matrix(1 0 0 -1 89.5 147.7998)" style="overflow:visible;opacity:0.1406;enable-background:new    ;"/>
		
			<use xlink:href="#flash2.ai_x2F_Layer_4_x2F__x3C_Path_x3E__x5F_15"  width="4.855" height="8.979" x="-0.117" y="-8.86" transform="matrix(1 0 0 -1 250.0996 176.5996)" style="overflow:visible;opacity:0.1406;enable-background:new    ;"/>
		
			<use xlink:href="#flash2.ai_x2F_Layer_4_x2F__x3C_Path_x3E__x5F_14_x5F_0"  width="3.109" height="5.404" x="-0.062" y="-5.319" transform="matrix(1 0 0 -1 257.5 186.3496)" style="overflow:visible;opacity:0.1406;enable-background:new    ;"/>
		
			<use xlink:href="#flash2.ai_x2F_Layer_4_x2F__x3C_Path_x3E__x5F_13_x5F_0"  width="3.935" height="7.28" x="-0.038" y="-7.123" transform="matrix(1 0 0 -1 65.25 190.7998)" style="overflow:visible;opacity:0.1406;enable-background:new    ;"/>
		
			<use xlink:href="#flash2.ai_x2F_Layer_4_x2F__x3C_Path_x3E__x5F_12_x5F_0"  width="8.295" height="9.35" x="-0.131" y="-9.259" transform="matrix(1 0 0 -1 205.9004 169.4004)" style="overflow:visible;opacity:0.1914;enable-background:new    ;"/>
		
			<use xlink:href="#flash2.ai_x2F_Layer_4_x2F__x3C_Path_x3E__x5F_11_x5F_0"  width="4.773" height="2.407" x="-0.083" y="-2.4" transform="matrix(1 0 0 -1 146.5498 153.0996)" style="overflow:visible;opacity:0.1914;enable-background:new    ;"/>
		
			<use xlink:href="#flash2.ai_x2F_Layer_4_x2F__x3C_Path_x3E__x5F_10_x5F_0"  width="4.489" height="6.475" x="-0.049" y="-6.341" transform="matrix(1 0 0 -1 100.6001 182.5)" style="overflow:visible;opacity:0.1914;enable-background:new    ;"/>
		
			<use xlink:href="#flash2.ai_x2F_Layer_4_x2F__x3C_Path_x3E__x5F_9_x5F_0"  width="22.15" height="33.65" y="-33.65" transform="matrix(1 0 0 -1 110.0498 134.8496)" style="overflow:visible;opacity:0.3008;enable-background:new    ;"/>
		
			<use xlink:href="#flash2.ai_x2F_Layer_4_x2F__x3C_Path_x3E__x5F_8_x5F_0"  width="10.95" height="18.5" y="-18.5" transform="matrix(1 0 0 -1 131.3501 157)" style="overflow:visible;opacity:0.3008;enable-background:new    ;"/>
		
			<use xlink:href="#flash2.ai_x2F_Layer_4_x2F__x3C_Path_x3E__x5F_7_x5F_0"  width="41.45" height="18.45" y="-18.45" transform="matrix(1 0 0 -1 77.2998 175.5)" style="overflow:visible;opacity:0.3008;enable-background:new    ;"/>
		
			<use xlink:href="#flash2.ai_x2F_Layer_4_x2F__x3C_Path_x3E__x5F_6_x5F_0"  width="31.1" height="5.9" y="-5.9" transform="matrix(1 0 0 -1 53.5 197.5996)" style="overflow:visible;opacity:0.3008;enable-background:new    ;"/>
		
			<use xlink:href="#flash2.ai_x2F_Layer_4_x2F__x3C_Path_x3E__x5F_5_x5F_0"  width="10.95" height="10.65" y="-10.65" transform="matrix(1 0 0 -1 89.8999 157.8496)" style="overflow:visible;opacity:0.3008;enable-background:new    ;"/>
		
			<use xlink:href="#flash2.ai_x2F_Layer_4_x2F__x3C_Path_x3E__x5F_4_x5F_3"  width="14.55" height="5.4" y="-5.4" transform="matrix(1 0 0 -1 179.6504 214.7998)" style="overflow:visible;opacity:0.5313;enable-background:new    ;"/>
		
			<use xlink:href="#flash2.ai_x2F_Layer_4_x2F__x3C_Path_x3E__x5F_3_x5F_7"  width="7.85" height="3.4" y="-3.4" transform="matrix(1 0 0 -1 42.2002 220.0996)" style="overflow:visible;opacity:0.5313;enable-background:new    ;"/>
		
			<use xlink:href="#flash2.ai_x2F_Layer_4_x2F__x3C_Path_x3E__x5F_2_x5F_11"  width="5.25" height="2.35" y="-2.35" transform="matrix(1 0 0 -1 122.8501 218.4004)" style="overflow:visible;opacity:0.5313;enable-background:new    ;"/>
		
			<use xlink:href="#flash2.ai_x2F_Layer_4_x2F__x3C_Path_x3E__x5F_1_x5F_11"  width="11.1" height="4.6" y="-4.6" transform="matrix(1 0 0 -1 23 215.9502)" style="overflow:visible;opacity:0.5313;enable-background:new    ;"/>
		
			<use xlink:href="#flash2.ai_x2F_Layer_4_x2F__x3C_Path_x3E__x5F_27"  width="6.35" height="2.85" y="-2.85" transform="matrix(1 0 0 -1 210.0996 222.25)" style="overflow:visible;opacity:0.5313;enable-background:new    ;"/>
	</g>
	
		<linearGradient id="SVGID_65_" gradientUnits="userSpaceOnUse" x1="218.1406" y1="-11.9277" x2="253.6651" y2="-11.9277" gradientTransform="matrix(0.9015 0.4328 -0.4328 0.9015 0 -5.085468e-004)">
		<stop  offset="0" style="stop-color:#66542E"/>
		<stop  offset="0.1137" style="stop-color:#4F402F"/>
		<stop  offset="0.2392" style="stop-color:#3F3130"/>
		<stop  offset="0.3804" style="stop-color:#362930"/>
		<stop  offset="0.5725" style="stop-color:#332630"/>
		<stop  offset="0.8392" style="stop-color:#352B31"/>
		<stop  offset="1" style="stop-color:#373132"/>
	</linearGradient>
	<path style="fill-rule:evenodd;clip-rule:evenodd;fill:url(#SVGID_65_);" d="M222.25,45.55c0.4-1.9,0.7-2.1,0.9-0.6
		c0.133,0.867,0.283,3.25,0.449,7.15c0.2,5.133,0.434,9.467,0.7,13c0.267,4.066,0.267,7.6,0,10.6
		c-0.434,5.267-0.684,8.716-0.75,10.35c-0.133,3.5-0.267,9.083-0.399,16.75c-0.134,7.934-0.25,13.417-0.351,16.45
		c-0.166,4-1.033,7.717-2.6,11.15c-0.834,1.733-1.717,3.383-2.65,4.949c-0.033,1.434-0.267,2.45-0.7,3.051
		c-0.733,1.066-2.366,1.033-4.899-0.101c-2.834-1.233-4.566-2.5-5.2-3.8c-0.533-1.167-0.167-2.267,1.1-3.3
		c1-0.8,2.634-3.184,4.9-7.15c2.4-4.267,4.134-7.983,5.2-11.15c1-3.1,1.7-7.083,2.1-11.95c0.3-4.1,0.334-8.083,0.101-11.95
		c-0.134-2.7,0.1-5.617,0.699-8.75c0.801-3.367,1.317-5.917,1.551-7.65c0.267-1.9,0.233-4.583-0.101-8.05
		c-0.434-4.5-0.649-7.917-0.649-10.25C221.65,50.5,221.85,47.583,222.25,45.55z"/>
	
		<linearGradient id="SVGID_66_" gradientUnits="userSpaceOnUse" x1="155.207" y1="12.4292" x2="191.3594" y2="12.4292" gradientTransform="matrix(0.9014 0.433 -0.433 0.9014 -4.595518e-005 -1.288652e-004)">
		<stop  offset="0" style="stop-color:#66542E"/>
		<stop  offset="0.1137" style="stop-color:#4F402F"/>
		<stop  offset="0.2392" style="stop-color:#3F3130"/>
		<stop  offset="0.3804" style="stop-color:#362930"/>
		<stop  offset="0.5725" style="stop-color:#332630"/>
		<stop  offset="0.8392" style="stop-color:#352B31"/>
		<stop  offset="1" style="stop-color:#373132"/>
	</linearGradient>
	<path style="fill-rule:evenodd;clip-rule:evenodd;fill:url(#SVGID_66_);" d="M147.7,55l0.7,1.85
		c0.433,2.533,0.583,7.15,0.449,13.85c-0.1,3.6,0.15,6.966,0.75,10.1c0.301,1.733,0.784,4.35,1.45,7.85c0.267,2,0.533,5.267,0.8,9.8
		c0.4,3.633,1.134,5.6,2.2,5.9c1.2,0.333,2.15-1,2.851-4c0.6-2.567,0.899-5.6,0.899-9.1c0-4.033,0.05-6.75,0.15-8.15
		c0.133-2.367,0.45-3.133,0.95-2.3c1.033,1.633,1.283,6.867,0.75,15.7c-0.134,2.367-0.851,5.167-2.15,8.4
		c-1.167,2.934-1.7,4.983-1.6,6.15c0.166,1.567,0.666,2.851,1.5,3.851c0.399,0.5,0.783,0.833,1.149,1l-7.1,0.399
		c-1.7-2.866-2.816-7.417-3.351-13.65c-0.466-5.1-0.466-10.017,0-14.75c0.267-2.7,0.134-5.333-0.399-7.9
		c-0.601-2.8-0.851-5.517-0.75-8.15L147.7,55z"/>
	
		<linearGradient id="SVGID_67_" gradientUnits="userSpaceOnUse" x1="85.2905" y1="100.5122" x2="137.6377" y2="100.5122" gradientTransform="matrix(0.9015 0.4328 -0.4328 0.9015 -1.522601e-004 5.369782e-004)">
		<stop  offset="0" style="stop-color:#66542E"/>
		<stop  offset="0.1137" style="stop-color:#4F402F"/>
		<stop  offset="0.2392" style="stop-color:#3F3130"/>
		<stop  offset="0.3804" style="stop-color:#362930"/>
		<stop  offset="0.5725" style="stop-color:#332630"/>
		<stop  offset="0.8392" style="stop-color:#352B31"/>
		<stop  offset="1" style="stop-color:#373132"/>
	</linearGradient>
	<path style="fill-rule:evenodd;clip-rule:evenodd;fill:url(#SVGID_67_);" d="M53.45,98.45c-0.034,1.5-0.117,3.95-0.25,7.35
		c0,1.633-0.034,4.633-0.1,9c0.133,3.934,0.667,6.917,1.6,8.95c0.9,1.967,1.383,4.316,1.45,7.05c0.033,1.467,0.05,3.351,0.05,5.65
		c0.167,1.399,0.816,1.533,1.95,0.399c1.033-1.066,1.883-2.449,2.55-4.149c0.466-1.233,0.85-2.351,1.15-3.351l0.3-1.1l-0.2,2.05
		c-0.233,1.733-0.65,3.533-1.25,5.4c-0.4,1.2-1.217,2.95-2.45,5.25c-0.867,1.633-1.3,3-1.3,4.1c0,2.434,0.1,5.25,0.3,8.45
		c0.3,4.333,0.7,7.233,1.2,8.7c0.833,2.6,1.466,4.233,1.9,4.899c0.9,1.367,2,1.483,3.3,0.351c1.867-1.634,3.3-2.634,4.3-3
		c1.466-0.566,2.533-0.184,3.2,1.149c0.967,1.934,1.067,4.733,0.3,8.4c-0.867,4.267-2.717,7.066-5.55,8.4
		c-2.233,1.066-4.183,1.366-5.85,0.899c-2.333-0.7-4-2.866-5-6.5c-1.3-4.866-2.167-8.75-2.6-11.649
		c-0.567-4.101-0.684-8.434-0.35-13c0.433-6,0.667-9.517,0.7-10.551c0.034-2.466-0.2-6.166-0.7-11.1
		c-0.934-8.667-1.4-13.184-1.4-13.55c-0.3-4.067-0.217-7.65,0.25-10.75c0.267-1.7,0.583-4.784,0.95-9.25
		c0.2-2.467,0.517-3.5,0.95-3.1C53.317,94.317,53.517,95.85,53.45,98.45z"/>
</g>
</svg>
