<?xml version="1.0" encoding="iso-8859-1"?>
<!-- Generator: Adobe Illustrator 15.1.0, SVG Export Plug-In . SVG Version: 6.00 Build 0)  -->
<!DOCTYPE svg PUBLIC "-//W3C//DTD SVG 1.1//EN" "http://www.w3.org/Graphics/SVG/1.1/DTD/svg11.dtd">
<svg version="1.1" id="Layer_3" xmlns="http://www.w3.org/2000/svg" xmlns:xlink="http://www.w3.org/1999/xlink" x="0px" y="0px"
	 width="230.2px" height="211.35px" viewBox="0 0 230.2 211.35" style="enable-background:new 0 0 230.2 211.35;"
	 xml:space="preserve">
<symbol  id="flash0.ai_x5F_1_x2F_Layer_3_x2F__x3C_Clip_Group_0_x3E_" viewBox="0 -89.3 140.65 89.3">
	<g id="Layer_1_53_">
	</g>
	<g>
		<defs>
			<path id="SVGID_1_" d="M117.5-57.5c-1.767,2.967-4.217,5.85-7.35,8.65c-7.8,7.067-15.233,12.033-22.3,14.9
				c-5.3,2.167-10.467,3.25-15.5,3.25c-3.9,0-7.667-0.683-11.3-2.05c-7.966-2.933-15.066-7.95-21.3-15.05
				c-4.767-5.4-8.7-11.233-11.8-17.5l-2-4.35c-1.467-3.467-2.1-5.434-1.9-5.9c0.2-0.5,0.583-0.35,1.15,0.45
				c0.8,1.2,1.283,1.867,1.45,2c0-0.433-0.167-1.3-0.5-2.6c-0.3-1.066-0.367-1.933-0.2-2.6c0.3-1.2,0.883-1.6,1.75-1.2
				c0.6,0.267,1.267,0.867,2,1.8c0.733,0.934,1.3,1.5,1.7,1.7c0.7,0.4,1.25,0.133,1.65-0.8c0.2-0.5,0.35-1.35,0.45-2.55
				c0.2-0.967,0.783-1.483,1.75-1.55c1.033-0.067,2.1,0.433,3.2,1.5c1.133,1.333,1.966,2.233,2.5,2.7
				c0.9,0.867,1.65,1.583,2.25,2.15c1.133,1.033,1.917,1.55,2.35,1.55c0.167,0,0.3-0.067,0.4-0.2c0.167-0.267,0.133-0.75-0.1-1.45
				c0-0.133-0.117-0.517-0.35-1.15c-0.367-1.233-0.583-2.05-0.65-2.45c-0.2-0.933-0.184-1.583,0.05-1.95
				c0.133-0.233,0.417-0.35,0.85-0.35l0.8,0.1c2.067,0.467,4.067,1.567,6,3.3c0.367,0.433,0.667,0.75,0.9,0.95
				c0.367,0.367,0.667,0.467,0.9,0.3c0.133-0.033,0.1-0.483-0.1-1.35c-0.267-1.067-0.383-1.8-0.35-2.2
				c0.1-1.533,0.45-2.483,1.05-2.85c0.733-0.467,1.767-0.217,3.1,0.75c1.3,0.966,2.267,1.216,2.9,0.75c0.133-0.1,0.5-0.55,1.1-1.35
				c0.467-0.633,1.034-0.967,1.7-1c0.667,0,1.25,0.316,1.75,0.95c0.067,0.1,0.4,0.733,1,1.9c0.4,0.8,0.867,1.283,1.4,1.45
				c0.533,0.167,1.083,0,1.65-0.5c0.2-0.167,0.6-0.617,1.2-1.35c1.433-1.633,2.517-2.65,3.25-3.05c1.4-0.767,2.7-0.5,3.9,0.8l1.45,3
				c0.566,1.133,1.35,1.383,2.35,0.75c0.767-0.5,1.7-1.316,2.8-2.45c1.033-0.767,2.167-0.75,3.4,0.05c0.3,0.167,0.7,0.45,1.2,0.85
				c0.467,0.333,0.933,0.483,1.4,0.45c0.467-0.034,1.05-0.25,1.75-0.65c0.933-0.533,1.5-0.833,1.7-0.9c0.6-0.2,1.117-0.3,1.55-0.3
				c1.367-0.033,2.367,0.7,3,2.2c0.4,0.9,0.7,2.383,0.9,4.45c0.133,1.4,0.2,2.15,0.2,2.25c0.2,0.933,0.6,1.5,1.2,1.7
				c0.534,0.133,1.267-0.083,2.2-0.65c0.5-0.333,1.15-0.8,1.95-1.4c2.2-1.233,3.9-1.367,5.1-0.4c1.1,0.867,1.684,2.533,1.75,5
				c0.067,1.033,0.133,1.617,0.2,1.75c0.167,0.3,0.667,0.367,1.5,0.2c0.5-0.1,1.117-0.233,1.85-0.4c0.633-0.033,1.25,0.133,1.85,0.5
				C120.1-65.15,120.2-62,117.5-57.5z"/>
		</defs>
		<clipPath id="SVGID_2_">
			<use xlink:href="#SVGID_1_"  style="overflow:visible;"/>
		</clipPath>
		<g id="Layer_3_1_" style="clip-path:url(#SVGID_2_);">
			
				<use xlink:href="#flash0.ai_x5F_1_x2F_Layer_3_x2F__x3C_Path_x3E_"  width="140.65" height="89.3" y="-89.3" style="overflow:visible;opacity:0.3984;enable-background:new    ;"/>
		</g>
	</g>
	<g id="Layer_4_1_">
	</g>
</symbol>
<symbol  id="flash0.ai_x5F_1_x2F_Layer_3_x2F__x3C_Clip_Group_0_x3E__x5F_0" viewBox="-0.041 -105.638 184.882 105.677">
	<g id="Layer_1_69_">
	</g>
	<g>
		<defs>
			<path id="SVGID_3_" d="M154.7-84.95c1.267-1.133,1.933-1.716,2-1.75c-0.233,3.567-2.467,8.7-6.7,15.4
				c-6.667,10.566-16.2,19.65-28.6,27.25c-4.6,2.833-9.566,5.083-14.9,6.75c-5.367,1.667-10.65,2.617-15.85,2.85
				c-9.233,0.4-19.033-1.3-29.4-5.1c-11.633-4.233-21.7-11.733-30.2-22.5c-6.033-7.6-10.033-14.733-12-21.4
				c-0.367-1.2-0.433-1.917-0.2-2.15l0.05-0.05c0.3,0,0.65,0.283,1.05,0.85c0.2,0.267,0.367,0.4,0.5,0.4l0.15-0.05l0.1-0.1
				c0.1-0.1,0.133-0.417,0.1-0.95c-0.133-1.767,0.15-2.733,0.85-2.9l0.2-0.05c0.933-0.033,2.383,0.767,4.35,2.4
				c1.5,1.233,2.783,2.45,3.85,3.65c0.6,0.633,1.083,0.95,1.45,0.95c0.2,0,0.35-0.1,0.45-0.3c0.333-0.5,0.133-1.85-0.6-4.05
				c-0.434-1.2-0.4-2.184,0.1-2.95c0.466-0.767,1.267-1.183,2.4-1.25c1.267-0.067,2.6,0.367,4,1.3c1.2,0.8,2.917,2.2,5.15,4.2
				c1.033,1,1.8,1.65,2.3,1.95c0.133,0.133,0.284,0.2,0.45,0.2c0.1,0,0.217-0.066,0.35-0.2c0.133-0.167,0.05-0.784-0.25-1.85
				c-0.633-2.2-0.817-3.783-0.55-4.75c0.167-0.567,0.517-0.85,1.05-0.85c0.7-0.033,1.617,0.3,2.75,1c1,0.567,1.816,1.167,2.45,1.8
				c0.367,0.367,0.717,0.55,1.05,0.55c0.3,0,0.533-0.217,0.7-0.65c0.133-0.267,0.267-0.817,0.4-1.65l0.25-1.3
				c0.1-0.567,0.4-0.85,0.9-0.85c0.533-0.033,1.183,0.184,1.95,0.65c0.667,0.4,1.117,0.767,1.35,1.1c0.167,0.2,0.317,0.267,0.45,0.2
				c0.267,0,0.5-0.233,0.7-0.7c0.167-0.3,0.417-0.983,0.75-2.05c0.4-1.434,0.733-2.3,1-2.6c0.467-0.533,0.867-0.8,1.2-0.8
				c1-0.034,2.017,2.267,3.05,6.9c0.167,0.7,0.467,1.05,0.9,1.05c0.466,0,1.083-0.65,1.85-1.95c0.3-0.6,0.617-0.9,0.95-0.9
				c0.567-0.033,1.4,1,2.5,3.1l0.2,0.35c0.3,0.567,0.55,0.85,0.75,0.85c0.233,0,0.417-0.35,0.55-1.05
				c0.533-1.966,1.283-4.017,2.25-6.15c0.967-1.967,2.117-3.566,3.45-4.8c1.367-1.233,2.716-1.867,4.05-1.9
				c1.133-0.067,2.067,0.35,2.8,1.25c0.667,0.8,1.217,1.917,1.65,3.35c0.267,0.8,0.566,1.983,0.9,3.55
				c0.367,1.733,0.683,2.717,0.95,2.95l0.35,0.1c0.267-0.033,0.533-0.283,0.8-0.75c0.167-0.3,0.5-1,1-2.1
				c0.667-1.466,1.15-2.433,1.45-2.9c0.567-1.033,1.083-1.583,1.55-1.65l0.2-0.05c1.333-0.034,2.667,1.4,4,4.3
				c0.4,0.833,1,1.25,1.8,1.25c1.167-0.067,2.45-1.083,3.85-3.05l0.25-0.3c0.833-1.133,1.417-1.883,1.75-2.25
				c0.567-0.566,1.1-0.867,1.6-0.9c0.5,0,1.067,0.25,1.7,0.75c0.667,0.533,1.083,1.333,1.25,2.4c0.066,0.567,0.066,1.517,0,2.85
				c-0.1,1.067-0.083,1.783,0.05,2.15c0.2,0.5,0.483,0.75,0.85,0.75c0.367-0.033,1-0.65,1.9-1.85c1.1-1.5,3.317-3.517,6.65-6.05
				c1.9-1.4,3.333-1.333,4.3,0.2c0.5,0.733,1.033,2.4,1.6,5c0.5,2.1,1.466,3.167,2.9,3.2c1,0.033,2.35-0.5,4.05-1.6
				c1.967-1.3,3.033-1.533,3.2-0.7c0,0.033-0.167,1.2-0.5,3.5c0.066,0.833,0.933,0.95,2.6,0.35c0.9-0.333,2.15-0.9,3.75-1.7
				c0.8-0.3,2.933-1.267,6.4-2.9c3.167-1.2,4.933-1,5.3,0.6c0.067,0.367-0.133,1.367-0.6,3c-0.466,1.533-0.566,2.45-0.3,2.75
				C153.117-83.9,153.767-84.117,154.7-84.95z"/>
		</defs>
		<clipPath id="SVGID_4_">
			<use xlink:href="#SVGID_3_"  style="overflow:visible;"/>
		</clipPath>
		<g id="Layer_3_2_" style="clip-path:url(#SVGID_4_);">
			
				<use xlink:href="#flash0.ai_x5F_1_x2F_Layer_3_x2F__x3C_Path_x3E__x5F_16"  width="184.882" height="105.677" x="-0.041" y="-105.638" style="overflow:visible;opacity:0.4883;enable-background:new    ;"/>
		</g>
	</g>
	<g id="Layer_4_2_">
	</g>
</symbol>
<symbol  id="flash0.ai_x5F_1_x2F_Layer_3_x2F__x3C_Compound_Path_x3E_" viewBox="-0.013 -7.8 6.767 7.8">
	<g id="Layer_1_18_">
		<path style="fill-rule:evenodd;clip-rule:evenodd;fill:#FDE68B;" d="M6.75-2.9C6.65-4.333,6-5.6,4.8-6.7
			C3.933-7.433,3.117-7.8,2.35-7.8c-0.767,0.033-1.367,0.433-1.8,1.2C0.117-5.933-0.067-5.167,0-4.3c0,1,0.317,1.8,0.95,2.4
			C2.217-0.633,3.417,0,4.55,0C5.25-0.033,5.8-0.35,6.2-0.95C6.6-1.483,6.783-2.133,6.75-2.9z M1.4-2.4C0.9-2.867,0.65-3.5,0.65-4.3
			C0.583-5.033,0.733-5.683,1.1-6.25C1.4-6.783,1.833-7.067,2.4-7.1c0.633,0,1.283,0.317,1.95,0.95c1.1,0.967,1.683,2.066,1.75,3.3
			c0,1.367-0.533,2.083-1.6,2.15C3.567-0.7,2.533-1.267,1.4-2.4z"/>
	</g>
</symbol>
<symbol  id="flash0.ai_x5F_1_x2F_Layer_3_x2F__x3C_Compound_Path_x3E__x5F_0" viewBox="0.018 -9.76 9.898 9.763">
	<g id="Layer_1_19_">
		<path style="fill-rule:evenodd;clip-rule:evenodd;fill:#FDE68B;" d="M8.3-2.1C9.667-4.233,10.167-6,9.8-7.4
			C9.567-8.333,9.033-9,8.2-9.4C7.367-9.8,6.433-9.867,5.4-9.6C3.467-9.133,1.967-7.933,0.9-6C0.133-4.633-0.133-3.45,0.1-2.45
			C0.367-1.417,1.05-0.7,2.15-0.3c0.967,0.367,2.033,0.4,3.2,0.1C6.683-0.467,7.667-1.1,8.3-2.1z M5.2-0.9
			C4.067-0.667,3.117-0.7,2.35-1c-0.867-0.3-1.4-0.833-1.6-1.6C0.517-3.433,0.767-4.467,1.5-5.7C2.6-7.533,4-8.65,5.7-9.05
			c0.9-0.2,1.667-0.167,2.3,0.1c0.633,0.3,1.033,0.8,1.2,1.5C9.5-6.117,9-4.483,7.7-2.55C7.2-1.717,6.367-1.167,5.2-0.9z"/>
	</g>
</symbol>
<symbol  id="flash0.ai_x5F_1_x2F_Layer_3_x2F__x3C_Compound_Path_x3E__x5F_1" viewBox="0 -13.954 20.658 13.925">
	<g id="Layer_1_20_">
		<path style="fill-rule:evenodd;clip-rule:evenodd;fill:#FDE68B;" d="M17.85-6.3C19.283-5.067,20-3.95,20-2.95
			c0.067,1.367-1,2.117-3.2,2.25c-1.233,0.034-2.783-0.216-4.65-0.75C9.583-2.217,7.017-3.8,4.45-6.2c-1.1-1-2-2.033-2.7-3.1
			c-0.7-1.034-1.067-1.883-1.1-2.55c0-0.433,0.133-0.767,0.4-1c0.267-0.267,0.717-0.4,1.35-0.4c1.767-0.1,4.4,0.683,7.9,2.35
			C13.467-9.367,15.983-7.833,17.85-6.3z M19.65-0.85c0.733-0.566,1.067-1.267,1-2.1c-0.033-1.267-0.833-2.55-2.4-3.85
			c-1.967-1.633-4.533-3.217-7.7-4.75c-3.533-1.667-6.25-2.467-8.15-2.4c-0.767,0.067-1.35,0.25-1.75,0.55C0.217-13,0-12.467,0-11.8
			c0.1,1.667,1.433,3.7,4,6.1c2.7,2.467,5.367,4.1,8,4.9c1.9,0.6,3.5,0.85,4.8,0.75C18.067-0.117,19.017-0.383,19.65-0.85z"/>
	</g>
</symbol>
<symbol  id="flash0.ai_x5F_1_x2F_Layer_3_x2F__x3C_Compound_Path_x3E__x5F_10" viewBox="-0.011 -11.308 14.66 11.318">
	<g id="Layer_1_29_">
		<path style="fill-rule:evenodd;clip-rule:evenodd;fill:#FDE68B;" d="M12-1.5C11.1-1,10.133-0.733,9.1-0.7
			C7.367-0.6,5.65-1.233,3.95-2.6c-0.9-0.733-1.667-1.633-2.3-2.7c-0.633-1.1-0.967-2.067-1-2.9C0.583-9.7,1.5-10.517,3.4-10.65
			c2.267-0.067,4.6,0.733,7,2.4C11.433-7.583,12.3-6.833,13-6c0.667,0.8,1,1.483,1,2.05c0,0.233-0.05,0.45-0.15,0.65
			C13.417-2.6,12.8-2,12-1.5z M10.75-8.85c-2.633-1.733-5.1-2.55-7.4-2.45c-1.2,0.033-2.067,0.35-2.6,0.95
			C0.183-9.85-0.067-9.133,0-8.2c0.033,1.034,0.4,2.117,1.1,3.25c0.667,1.1,1.483,2.067,2.45,2.9C5.35-0.583,7.2,0.1,9.1,0
			c1.167-0.033,2.233-0.35,3.2-0.95c0.9-0.533,1.6-1.2,2.1-2c0.167-0.267,0.25-0.617,0.25-1.05C14.55-5.5,13.25-7.117,10.75-8.85z"
			/>
	</g>
</symbol>
<symbol  id="flash0.ai_x5F_1_x2F_Layer_3_x2F__x3C_Compound_Path_x3E__x5F_11" viewBox="-0.006 -2.862 4.956 2.872">
	<g id="Layer_1_31_">
		<path style="fill-rule:evenodd;clip-rule:evenodd;fill:#FDE68B;" d="M4-2.2C2.833-2.7,1.833-2.917,1-2.85
			c-0.233,0-0.45,0.05-0.65,0.15C0.083-2.567-0.033-2.35,0-2.05C0-1.783,0.25-1.367,0.75-0.8c0.6,0.6,1.367,0.867,2.3,0.8
			C3.583,0,4-0.1,4.3-0.3c0.434-0.233,0.65-0.534,0.65-0.9C4.917-1.6,4.6-1.933,4-2.2z M4.05-0.9c-0.3,0.133-0.633,0.217-1,0.25
			c-0.767,0-1.383-0.217-1.85-0.65C0.733-1.733,0.55-2,0.65-2.1l0.4-0.1c0.733,0,1.633,0.217,2.7,0.65l0.5,0.25L4.3-1.15L4.05-0.9z"
			/>
	</g>
</symbol>
<symbol  id="flash0.ai_x5F_1_x2F_Layer_3_x2F__x3C_Compound_Path_x3E__x5F_12" viewBox="0 -4.154 4 4.154">
	<g id="Layer_1_32_">
		<path style="fill-rule:evenodd;clip-rule:evenodd;fill:#FDE68B;" d="M0.95-2c0.3-0.7,0.767-1.15,1.4-1.35
			c0.5-0.2,0.816-0.233,0.95-0.1c0,0.133-0.033,0.267-0.1,0.4c-0.3,0.667-0.9,1.367-1.8,2.1l-0.5,0.3H0.8L0.75-0.7L0.7-1
			C0.7-1.367,0.783-1.7,0.95-2z M1.85-0.45c1-0.833,1.65-1.6,1.95-2.3C3.933-2.983,4-3.217,4-3.45c0-0.3-0.133-0.5-0.4-0.6
			c-0.3-0.167-0.783-0.133-1.45,0.1H2.1C1.333-3.717,0.733-3.167,0.3-2.3C0.1-1.867,0-1.45,0-1.05c0,0.5,0.167,0.833,0.5,1
			C0.9,0.083,1.35-0.05,1.85-0.45z"/>
	</g>
</symbol>
<symbol  id="flash0.ai_x5F_1_x2F_Layer_3_x2F__x3C_Compound_Path_x3E__x5F_2" viewBox="-0.004 -5.666 14.106 5.666">
	<g id="Layer_1_21_">
		<path style="fill-rule:evenodd;clip-rule:evenodd;fill:#FDE68B;" d="M11.25-0.7c-1.033,0.067-2.167-0.05-3.4-0.35
			c-1.767-0.4-3.434-1-5-1.8C2.183-3.183,1.633-3.533,1.2-3.9C0.767-4.267,0.583-4.5,0.65-4.6l0.2-0.15C1.083-4.883,1.5-4.967,2.1-5
			c2.233-0.067,4.55,0.3,6.95,1.1c1.034,0.3,1.967,0.667,2.8,1.1c0.8,0.4,1.3,0.733,1.5,1l0.1,0.3
			c0.066,0.167-0.083,0.317-0.45,0.45C12.633-0.883,12.05-0.767,11.25-0.7z M13.85-2.2c-0.633-0.8-2.167-1.583-4.6-2.35
			c-2.667-0.833-5.067-1.2-7.2-1.1C1.483-5.65,1-5.567,0.6-5.4C0.167-5.2-0.033-4.917,0-4.55c0.067,0.667,0.917,1.433,2.55,2.3
			C4.183-1.417,5.9-0.8,7.7-0.4C8.9-0.133,10.1,0,11.3,0c0.767-0.033,1.417-0.167,1.95-0.4c0.6-0.233,0.883-0.6,0.85-1.1
			C14.1-1.733,14.017-1.967,13.85-2.2z"/>
	</g>
</symbol>
<symbol  id="flash0.ai_x5F_1_x2F_Layer_3_x2F__x3C_Compound_Path_x3E__x5F_3" viewBox="-0.015 -9.3 10.129 9.276">
	<g id="Layer_1_22_">
		<path style="fill-rule:evenodd;clip-rule:evenodd;fill:#FDE68B;" d="M1.55-0.7C1.083-0.567,0.8-0.55,0.7-0.65L0.65-0.9
			c0-0.2,0.133-0.533,0.4-1C1.917-3.5,3.3-5.067,5.2-6.6C6.933-8,8.183-8.7,8.95-8.7L9.3-8.65c0.133,0.133,0.184,0.333,0.15,0.6
			c0,0.3-0.167,0.783-0.5,1.45c-0.367,0.7-1,1.5-1.9,2.4C5.817-3.033,4.533-2.1,3.2-1.4C2.667-1.067,2.117-0.833,1.55-0.7z
			 M3.6-0.85c1.533-0.833,2.867-1.816,4-2.95c0.733-0.7,1.383-1.517,1.95-2.45c0.367-0.667,0.55-1.233,0.55-1.7
			c0.066-0.6-0.117-1-0.55-1.2C9.417-9.25,9.183-9.3,8.85-9.3C7.917-9.267,6.533-8.517,4.7-7.05c-1.934,1.566-3.35,3.167-4.25,4.8
			C0.15-1.75,0-1.333,0-1c-0.067,0.4,0.083,0.683,0.45,0.85C1.05,0.15,2.1-0.083,3.6-0.85z"/>
	</g>
</symbol>
<symbol  id="flash0.ai_x5F_1_x2F_Layer_3_x2F__x3C_Compound_Path_x3E__x5F_4" viewBox="0 -10.05 9.072 10.05">
	<g id="Layer_1_23_">
		<path style="fill-rule:evenodd;clip-rule:evenodd;fill:#FDE68B;" d="M8.05-1.75C8.25-1.483,8.383-1.233,8.45-1
			c-0.034,0.167-0.167,0.267-0.4,0.3c-1,0.067-2.483-0.95-4.45-3.05C2.967-4.383,2.317-5.333,1.65-6.6c-0.633-1.2-0.967-2.066-1-2.6
			L0.7-9.35c0.133,0,0.333,0.117,0.6,0.35c1.133,0.8,2.417,2.033,3.85,3.7C5.95-4.367,6.917-3.183,8.05-1.75z M5.65-5.75
			c-1.467-1.7-2.783-2.967-3.95-3.8c-0.5-0.333-0.867-0.5-1.1-0.5c-0.233,0.066-0.4,0.167-0.5,0.3L0-9.2
			c0.067,0.733,0.417,1.717,1.05,2.95c0.667,1.233,1.367,2.233,2.1,3C5.183-1.083,6.833,0,8.1,0c0.333,0,0.566-0.1,0.7-0.3
			C9.033-0.533,9.117-0.767,9.05-1c0-0.367-0.167-0.767-0.5-1.2L5.65-5.75z"/>
	</g>
</symbol>
<symbol  id="flash0.ai_x5F_1_x2F_Layer_3_x2F__x3C_Compound_Path_x3E__x5F_5" viewBox="-0.022 -11.35 7.829 11.351">
	<g id="Layer_1_24_">
		<path style="fill-rule:evenodd;clip-rule:evenodd;fill:#FDE68B;" d="M6.95-1.15c-0.133,0.3-0.367,0.467-0.7,0.5
			C5.483-0.65,4.4-1.367,3-2.8C2.533-3.267,2.033-4.15,1.5-5.45C0.967-6.85,0.683-8.033,0.65-9c-0.033-1.067,0.25-1.617,0.85-1.65
			c0.4,0,0.883,0.15,1.45,0.45c1.133,0.567,2.133,1.684,3,3.35c0.767,1.5,1.167,2.917,1.2,4.25C7.183-2.067,7.117-1.583,6.95-1.15z
			 M7.55-0.85c0.2-0.533,0.284-1.133,0.25-1.8C7.733-4.117,7.3-5.633,6.5-7.2c-0.9-1.767-1.983-2.983-3.25-3.65
			c-0.667-0.333-1.267-0.5-1.8-0.5c-0.6,0.067-1,0.333-1.2,0.8C0.017-10.15-0.067-9.617,0-8.95c0.033,1.1,0.333,2.333,0.9,3.7
			C1.433-3.917,1.983-2.933,2.55-2.3C4.083-0.733,5.333,0.033,6.3,0C6.867,0,7.283-0.283,7.55-0.85z"/>
	</g>
</symbol>
<symbol  id="flash0.ai_x5F_1_x2F_Layer_3_x2F__x3C_Compound_Path_x3E__x5F_6" viewBox="0.027 -13.882 12.635 13.89">
	<g id="Layer_1_25_">
		<path style="fill-rule:evenodd;clip-rule:evenodd;fill:#FDE68B;" d="M0.95-1.5C0.75-1.967,0.7-2.717,0.8-3.75
			C1.033-5.583,2.05-7.467,3.85-9.4c1.633-1.767,3.333-2.967,5.1-3.6c0.833-0.3,1.517-0.4,2.05-0.3c0.467,0.1,0.783,0.35,0.95,0.75
			c0.433,1,0,2.85-1.3,5.55C10.217-6.1,9.267-5,7.8-3.7C6.233-2.333,4.817-1.417,3.55-0.95C2.783-0.683,2.2-0.6,1.8-0.7
			C1.4-0.767,1.117-1.033,0.95-1.5z M1.75-0.05c0.6,0.133,1.317,0.033,2.15-0.3c1.367-0.5,2.817-1.417,4.35-2.75
			c1.433-1.233,2.417-2.367,2.95-3.4c1.3-2.767,1.733-4.767,1.3-6c-0.3-0.733-0.85-1.183-1.65-1.35c-0.733-0.1-1.533,0.033-2.4,0.4
			c-1.833,0.667-3.567,1.867-5.2,3.6c-1.8,1.934-2.85,3.9-3.15,5.9c-0.133,1.1-0.083,1.967,0.15,2.6
			C0.517-0.583,1.017-0.15,1.75-0.05z"/>
	</g>
</symbol>
<symbol  id="flash0.ai_x5F_1_x2F_Layer_3_x2F__x3C_Compound_Path_x3E__x5F_7" viewBox="-0.008 -9.922 21.061 9.927">
	<g id="Layer_1_26_">
		<path style="fill-rule:evenodd;clip-rule:evenodd;fill:#FDE68B;" d="M10.55-0.7c-1.333,0.067-2.6-0.066-3.8-0.4
			C5.083-1.5,3.633-2.183,2.4-3.15C1.233-4.117,0.65-5,0.65-5.8c0-0.534,0.25-0.983,0.75-1.35C2.067-7.65,3.333-8.1,5.2-8.5
			s3.85-0.633,5.95-0.7c3.167-0.1,5.767,0.117,7.8,0.65C19.917-8.217,20.4-7.7,20.4-7c0.067,0.533-0.15,1.15-0.65,1.85
			c-0.5,0.733-1.183,1.4-2.05,2C15.633-1.617,13.25-0.8,10.55-0.7z M11.15-9.9C6.083-9.667,2.7-8.933,1-7.7
			C0.267-7.2-0.067-6.55,0-5.75C0.067-4.65,0.733-3.6,2-2.6s2.8,1.733,4.6,2.2c1.467,0.3,2.8,0.433,4,0.4
			c2.8-0.133,5.3-0.983,7.5-2.55c2.033-1.534,3.017-3.034,2.95-4.5c0-1.067-0.633-1.784-1.9-2.15C17.017-9.767,14.35-10,11.15-9.9z"
			/>
	</g>
</symbol>
<symbol  id="flash0.ai_x5F_1_x2F_Layer_3_x2F__x3C_Compound_Path_x3E__x5F_8" viewBox="-0.05 -11.912 16.045 11.948">
	<g id="Layer_1_27_">
		<path style="fill-rule:evenodd;clip-rule:evenodd;fill:#FDE68B;" d="M10.25-2.2C9.417-1.7,8.433-1.3,7.3-1
			c-1.367,0.4-2.7,0.483-4,0.25c-1.2-0.233-1.95-0.633-2.25-1.2C0.85-2.317,0.867-2.733,1.1-3.2c0.3-0.633,1.066-1.45,2.3-2.45
			s2.633-1.934,4.2-2.8c2.3-1.333,4.3-2.2,6-2.6c0.833-0.133,1.383,0.033,1.65,0.5c0.233,0.367,0.3,0.883,0.2,1.55
			c-0.1,0.733-0.35,1.483-0.75,2.25C13.7-4.883,12.217-3.367,10.25-2.2z M13.35-11.85C11.417-11.383,9.3-10.483,7-9.15
			c-3.7,2.167-5.967,4.033-6.8,5.6c-0.333,0.7-0.333,1.316,0,1.85c0.5,0.8,1.417,1.333,2.75,1.6C4.283,0.133,5.733,0.067,7.3-0.3
			c1.1-0.3,2.15-0.733,3.15-1.3c2.133-1.233,3.683-2.867,4.65-4.9c0.967-1.9,1.15-3.4,0.55-4.5
			C15.183-11.767,14.417-12.05,13.35-11.85z"/>
	</g>
</symbol>
<symbol  id="flash0.ai_x5F_1_x2F_Layer_3_x2F__x3C_Compound_Path_x3E__x5F_9" viewBox="0 -4.307 8.35 4.307">
	<g id="Layer_1_28_">
		<path style="fill-rule:evenodd;clip-rule:evenodd;fill:#FDE68B;" d="M7.3-3.4C7.567-3.3,7.7-3.167,7.7-3
			c0.033,0.133-0.067,0.317-0.3,0.55c-0.333,0.267-0.75,0.467-1.25,0.6C3.917-1.117,2.617-0.733,2.25-0.7c-0.4,0-0.733-0.066-1-0.2
			L1.1-0.6l0.1-0.3C0.833-1.133,0.65-1.333,0.65-1.5c0-0.333,0.333-0.683,1-1.05c0.8-0.5,1.883-0.817,3.25-0.95l0.8-0.1
			C6.367-3.6,6.9-3.533,7.3-3.4z M8.35-3c-0.1-0.933-1-1.367-2.7-1.3L4.8-4.2C3.4-4,2.25-3.667,1.35-3.2C0.45-2.633,0-2.05,0-1.45
			c0.067,0.5,0.383,0.883,0.95,1.15C1.317-0.1,1.767,0,2.3,0c0.434-0.033,1.017-0.167,1.75-0.4c0.434-0.133,1.2-0.383,2.3-0.75
			C7.683-1.583,8.35-2.2,8.35-3z"/>
	</g>
</symbol>
<symbol  id="flash0.ai_x5F_1_x2F_Layer_3_x2F__x3C_Group_x3E_" viewBox="0 -4.154 4 4.154">
	<g id="Layer_1_68_">
		<g>
			<path style="fill-rule:evenodd;clip-rule:evenodd;fill:#EF5F8B;" d="M2.25-3.65C1.183-3.283,0.55-2.5,0.35-1.3
				C0.183-0.067,0.6,0.133,1.6-0.7c1.066-0.867,1.733-1.667,2-2.4S3.417-4.017,2.25-3.65z"/>
			
				<use xlink:href="#flash0.ai_x5F_1_x2F_Layer_3_x2F__x3C_Compound_Path_x3E__x5F_12"  width="4" height="4.154" y="-4.154" style="overflow:visible;enable-background:new    ;"/>
		</g>
	</g>
</symbol>
<symbol  id="flash0.ai_x5F_1_x2F_Layer_3_x2F__x3C_Group_x3E__x5F_1" viewBox="-0.006 -2.862 4.956 2.872">
	<g id="Layer_1_67_">
		<g>
			<path style="fill-rule:evenodd;clip-rule:evenodd;fill:#EF5F8B;" d="M0.95-1.05C1.783-0.25,2.767-0.067,3.9-0.5
				c1.2-0.433,1.184-0.9-0.05-1.4c-1.3-0.5-2.3-0.7-3-0.6C0.05-2.4,0.083-1.917,0.95-1.05z"/>
			
				<use xlink:href="#flash0.ai_x5F_1_x2F_Layer_3_x2F__x3C_Compound_Path_x3E__x5F_11"  width="4.956" height="2.872" x="-0.006" y="-2.862" style="overflow:visible;enable-background:new    ;"/>
		</g>
	</g>
</symbol>
<symbol  id="flash0.ai_x5F_1_x2F_Layer_3_x2F__x3C_Group_x3E__x5F_10" viewBox="-0.015 -9.3 10.129 9.276">
	<g id="Layer_1_58_">
		<g>
			<path style="fill-rule:evenodd;clip-rule:evenodd;fill:#EF5F8B;" d="M7.3-4c1.267-1.233,2.067-2.4,2.4-3.5
				C10-8.567,9.733-9.067,8.9-9C8-8.933,6.683-8.217,4.95-6.85c-1.9,1.533-3.3,3.117-4.2,4.75C-0.183-0.433,0.267,0.083,2.1-0.55
				C3.833-1.15,5.567-2.3,7.3-4z"/>
			
				<use xlink:href="#flash0.ai_x5F_1_x2F_Layer_3_x2F__x3C_Compound_Path_x3E__x5F_3"  width="10.129" height="9.276" x="-0.015" y="-9.3" style="overflow:visible;enable-background:new    ;"/>
		</g>
	</g>
</symbol>
<symbol  id="flash0.ai_x5F_1_x2F_Layer_3_x2F__x3C_Group_x3E__x5F_11" viewBox="-0.004 -5.666 14.106 5.666">
	<g id="Layer_1_57_">
		<g>
			<path style="fill-rule:evenodd;clip-rule:evenodd;fill:#EF5F8B;" d="M7.8-0.7c1.9,0.4,3.483,0.45,4.75,0.15
				C13.75-0.817,14.1-1.3,13.6-2c-0.567-0.733-2.05-1.483-4.45-2.25c-2.6-0.8-4.967-1.167-7.1-1.1c-2.167,0.1-2.4,0.75-0.7,1.95
				C2.95-2.2,5.1-1.3,7.8-0.7z"/>
			
				<use xlink:href="#flash0.ai_x5F_1_x2F_Layer_3_x2F__x3C_Compound_Path_x3E__x5F_2"  width="14.106" height="5.666" x="-0.004" y="-5.666" style="overflow:visible;enable-background:new    ;"/>
		</g>
	</g>
</symbol>
<symbol  id="flash0.ai_x5F_1_x2F_Layer_3_x2F__x3C_Group_x3E__x5F_12" viewBox="0 -13.954 20.658 13.925">
	<g id="Layer_1_56_">
		<g>
			<path style="fill-rule:evenodd;clip-rule:evenodd;fill:#EF5F8B;" d="M12.05-1.1c3.867,1.167,6.45,1.05,7.75-0.35
				c1.267-1.367,0.684-3.066-1.75-5.1c-2.367-1.967-5.433-3.75-9.2-5.35c-4.2-1.8-6.867-2.2-8-1.2c-1.267,1.067-0.5,3.083,2.3,6.05
				C5.917-4.083,8.883-2.1,12.05-1.1z"/>
			
				<use xlink:href="#flash0.ai_x5F_1_x2F_Layer_3_x2F__x3C_Compound_Path_x3E__x5F_1"  width="20.658" height="13.925" y="-13.954" style="overflow:visible;enable-background:new    ;"/>
		</g>
	</g>
</symbol>
<symbol  id="flash0.ai_x5F_1_x2F_Layer_3_x2F__x3C_Group_x3E__x5F_13" viewBox="0.018 -9.76 9.898 9.763">
	<g id="Layer_1_55_">
		<g>
			<path style="fill-rule:evenodd;clip-rule:evenodd;fill:#EF5F8B;" d="M8.1-2.3c1.233-1.9,1.783-3.517,1.65-4.85
				c-0.1-1.167-0.7-1.934-1.8-2.3C6.917-9.817,5.767-9.717,4.5-9.15c-1.4,0.667-2.533,1.733-3.4,3.2
				C-0.6-3.083-0.183-1.267,2.35-0.5C4.917,0.233,6.833-0.367,8.1-2.3z"/>
			
				<use xlink:href="#flash0.ai_x5F_1_x2F_Layer_3_x2F__x3C_Compound_Path_x3E__x5F_0"  width="9.898" height="9.763" x="0.018" y="-9.76" style="overflow:visible;enable-background:new    ;"/>
		</g>
	</g>
</symbol>
<symbol  id="flash0.ai_x5F_1_x2F_Layer_3_x2F__x3C_Group_x3E__x5F_14" viewBox="-0.013 -7.8 6.767 7.8">
	<g id="Layer_1_54_">
		<g>
			<path style="fill-rule:evenodd;clip-rule:evenodd;fill:#EF5F8B;" d="M1.2-2.15C3.467,0.083,5.083,0.367,6.05-1.3
				C7.017-2.967,6.533-4.667,4.6-6.4C2.867-7.967,1.583-7.917,0.75-6.25C-0.117-4.617,0.033-3.25,1.2-2.15z"/>
			
				<use xlink:href="#flash0.ai_x5F_1_x2F_Layer_3_x2F__x3C_Compound_Path_x3E_"  width="6.767" height="7.8" x="-0.013" y="-7.8" style="overflow:visible;enable-background:new    ;"/>
		</g>
	</g>
</symbol>
<symbol  id="flash0.ai_x5F_1_x2F_Layer_3_x2F__x3C_Group_x3E__x5F_2" viewBox="-0.001 -7.205 9.202 7.205">
	<g id="Layer_1_66_">
		<g>
			<path style="fill-rule:evenodd;clip-rule:evenodd;fill:#EF5F8B;" d="M1.05-0.35c4.133-0.667,6.667-2,7.6-4
				c0.367-0.767,0.317-1.4-0.15-1.9C8.067-6.75,7.333-6.933,6.3-6.8C4.367-6.567,2.683-5.383,1.25-3.25S-0.25-0.15,1.05-0.35z"/>
			
				<use xlink:href="#flash0.ai_x5F_1_x2F_Layer_3_x2F__x3C_Path_x3E__x5F_15"  width="9.202" height="7.205" x="-0.001" y="-7.205" style="overflow:visible;enable-background:new    ;"/>
		</g>
	</g>
</symbol>
<symbol  id="flash0.ai_x5F_1_x2F_Layer_3_x2F__x3C_Group_x3E__x5F_3" viewBox="-0.011 -11.308 14.66 11.318">
	<g id="Layer_1_65_">
		<g>
			<path style="fill-rule:evenodd;clip-rule:evenodd;fill:#EF5F8B;" d="M3.75-2.35c2,1.667,4.083,2.3,6.25,1.9
				c1.867-0.333,3.25-1.216,4.15-2.65c0.767-1.267-0.183-2.917-2.85-4.95c-2.733-2.067-5.367-3.034-7.9-2.9C1-10.85,0-9.733,0.4-7.6
				C0.733-5.633,1.85-3.883,3.75-2.35z"/>
			
				<use xlink:href="#flash0.ai_x5F_1_x2F_Layer_3_x2F__x3C_Compound_Path_x3E__x5F_10"  width="14.66" height="11.318" x="-0.011" y="-11.308" style="overflow:visible;enable-background:new    ;"/>
		</g>
	</g>
</symbol>
<symbol  id="flash0.ai_x5F_1_x2F_Layer_3_x2F__x3C_Group_x3E__x5F_4" viewBox="0 -4.307 8.35 4.307">
	<g id="Layer_1_64_">
		<g>
			<path style="fill-rule:evenodd;clip-rule:evenodd;fill:#EF5F8B;" d="M1.1-0.6c0.566,0.267,1.267,0.3,2.1,0.1
				c0.533-0.133,1.55-0.467,3.05-1C7.65-1.933,8.233-2.483,8-3.15c-0.233-0.7-1.283-0.934-3.15-0.7S1.633-3.133,0.8-2.4
				C0.033-1.667,0.133-1.067,1.1-0.6z"/>
			
				<use xlink:href="#flash0.ai_x5F_1_x2F_Layer_3_x2F__x3C_Compound_Path_x3E__x5F_9"  width="8.35" height="4.307" y="-4.307" style="overflow:visible;enable-background:new    ;"/>
		</g>
	</g>
</symbol>
<symbol  id="flash0.ai_x5F_1_x2F_Layer_3_x2F__x3C_Group_x3E__x5F_5" viewBox="-0.05 -11.912 16.045 11.948">
	<g id="Layer_1_63_">
		<g>
			<path style="fill-rule:evenodd;clip-rule:evenodd;fill:#EF5F8B;" d="M7.35-0.75c3.8-1.033,6.417-3.2,7.85-6.5
				c0.566-1.267,0.716-2.317,0.45-3.15c-0.3-0.833-1-1.133-2.1-0.9C11.383-10.8,8.867-9.633,6-7.8C3.2-6,1.483-4.5,0.85-3.3
				C0.25-2.167,0.7-1.317,2.2-0.75C3.667-0.217,5.383-0.217,7.35-0.75z"/>
			
				<use xlink:href="#flash0.ai_x5F_1_x2F_Layer_3_x2F__x3C_Compound_Path_x3E__x5F_8"  width="16.045" height="11.948" x="-0.05" y="-11.912" style="overflow:visible;enable-background:new    ;"/>
		</g>
	</g>
</symbol>
<symbol  id="flash0.ai_x5F_1_x2F_Layer_3_x2F__x3C_Group_x3E__x5F_6" viewBox="-0.008 -9.922 21.061 9.927">
	<g id="Layer_1_62_">
		<g>
			<path style="fill-rule:evenodd;clip-rule:evenodd;fill:#EF5F8B;" d="M6.7-0.75c4.566,1.1,8.517,0.233,11.85-2.6
				c1.3-1.1,2.017-2.183,2.15-3.25c0.167-1.133-0.383-1.883-1.65-2.25C16.517-9.583,13.2-9.767,9.1-9.4
				C5.167-9.033,2.533-8.383,1.2-7.45c-1.233,0.9-1.217,2.117,0.05,3.65C2.483-2.333,4.3-1.317,6.7-0.75z"/>
			
				<use xlink:href="#flash0.ai_x5F_1_x2F_Layer_3_x2F__x3C_Compound_Path_x3E__x5F_7"  width="21.061" height="9.927" x="-0.008" y="-9.922" style="overflow:visible;enable-background:new    ;"/>
		</g>
	</g>
</symbol>
<symbol  id="flash0.ai_x5F_1_x2F_Layer_3_x2F__x3C_Group_x3E__x5F_7" viewBox="0.027 -13.882 12.635 13.89">
	<g id="Layer_1_61_">
		<g>
			<path style="fill-rule:evenodd;clip-rule:evenodd;fill:#EF5F8B;" d="M11.05-6.75c1.5-3.1,1.9-5.2,1.2-6.3
				c-0.633-0.967-1.883-1.067-3.75-0.3c-1.833,0.767-3.55,2.017-5.15,3.75c-1.767,1.934-2.767,3.867-3,5.8
				C-0.15-0.167,1.3,0.783,4.7-0.95C7.9-2.617,10.017-4.55,11.05-6.75z"/>
			
				<use xlink:href="#flash0.ai_x5F_1_x2F_Layer_3_x2F__x3C_Compound_Path_x3E__x5F_6"  width="12.635" height="13.89" x="0.027" y="-13.882" style="overflow:visible;enable-background:new    ;"/>
		</g>
	</g>
</symbol>
<symbol  id="flash0.ai_x5F_1_x2F_Layer_3_x2F__x3C_Group_x3E__x5F_8" viewBox="-0.022 -11.35 7.829 11.351">
	<g id="Layer_1_60_">
		<g>
			<path style="fill-rule:evenodd;clip-rule:evenodd;fill:#EF5F8B;" d="M2.75-2.55c1.667,1.7,2.917,2.433,3.75,2.2
				c0.767-0.2,1.1-1.033,1-2.5C7.4-4.25,6.95-5.7,6.15-7.2C5.283-8.833,4.267-9.95,3.1-10.55C0.9-11.683,0-10.9,0.4-8.2
				C0.767-5.7,1.55-3.817,2.75-2.55z"/>
			
				<use xlink:href="#flash0.ai_x5F_1_x2F_Layer_3_x2F__x3C_Compound_Path_x3E__x5F_5"  width="7.829" height="11.351" x="-0.022" y="-11.35" style="overflow:visible;enable-background:new    ;"/>
		</g>
	</g>
</symbol>
<symbol  id="flash0.ai_x5F_1_x2F_Layer_3_x2F__x3C_Group_x3E__x5F_9" viewBox="0 -10.05 9.072 10.05">
	<g id="Layer_1_59_">
		<g>
			<path style="fill-rule:evenodd;clip-rule:evenodd;fill:#EF5F8B;" d="M3.35-3.5C5.35-1.4,6.9-0.35,8-0.35s1.2-0.533,0.3-1.6
				C6.867-3.75,5.9-4.933,5.4-5.5C3.967-7.167,2.667-8.433,1.5-9.3c-1.267-0.9-1.533-0.434-0.8,1.4C1.367-6.133,2.25-4.667,3.35-3.5
				z"/>
			
				<use xlink:href="#flash0.ai_x5F_1_x2F_Layer_3_x2F__x3C_Compound_Path_x3E__x5F_4"  width="9.072" height="10.05" y="-10.05" style="overflow:visible;enable-background:new    ;"/>
		</g>
	</g>
</symbol>
<symbol  id="flash0.ai_x5F_1_x2F_Layer_3_x2F__x3C_Path_x3E_" viewBox="0 -89.3 140.65 89.3">
	<g id="Layer_1_15_">
		
			<radialGradient id="SVGID_5_" cx="68.6499" cy="-33.6499" r="82.175" gradientTransform="matrix(1 0 0 -0.7008 0 -57.231)" gradientUnits="userSpaceOnUse">
			<stop  offset="0" style="stop-color:#CC2130;stop-opacity:0"/>
			<stop  offset="0.5216" style="stop-color:#CC2130;stop-opacity:0.7765"/>
			<stop  offset="0.5765" style="stop-color:#CC2130"/>
			<stop  offset="0.9922" style="stop-color:#CC2130;stop-opacity:0"/>
		</radialGradient>
		<path style="fill-rule:evenodd;clip-rule:evenodd;fill:url(#SVGID_5_);" d="M140.65-44.65c0-12.333-6.867-22.85-20.6-31.55
			c-13.7-8.733-30.267-13.1-49.7-13.1c-19.434,0-36.017,4.367-49.75,13.1C6.867-67.5,0-56.983,0-44.65
			C0-32.317,6.867-21.8,20.6-13.1C34.333-4.367,50.917,0,70.35,0c19.433,0,36-4.367,49.7-13.1
			C133.783-21.8,140.65-32.317,140.65-44.65z"/>
	</g>
</symbol>
<symbol  id="flash0.ai_x5F_1_x2F_Layer_3_x2F__x3C_Path_x3E__x5F_0" viewBox="-0.009 -7.075 8.789 7.153">
	<g id="Layer_1_17_">
		<path style="fill-rule:evenodd;clip-rule:evenodd;fill:#BB2726;" d="M2-0.25c2-0.867,3.717-2.1,5.15-3.7
			c1.233-1.4,1.767-2.367,1.6-2.9c-0.1-0.4-0.8-0.267-2.1,0.4c-1.233,0.667-2.7,1.633-4.4,2.9C0.65-2.383-0.1-1.4,0-0.6
			C0.067,0.167,0.733,0.283,2-0.25z"/>
	</g>
</symbol>
<symbol  id="flash0.ai_x5F_1_x2F_Layer_3_x2F__x3C_Path_x3E__x5F_1" viewBox="-0.028 -6.701 10.276 6.701">
	<g id="Layer_1_16_">
		<path style="fill-rule:evenodd;clip-rule:evenodd;fill:#BB2726;" d="M3.65,0C5.583,0,7.233-0.617,8.6-1.85s1.883-2.5,1.55-3.8
			c-0.233-0.967-1.5-1.267-3.8-0.9C4.15-6.183,2.417-5.5,1.15-4.5c-1.167,0.933-1.467,1.917-0.9,2.95C0.85-0.517,1.983,0,3.65,0z"/>
	</g>
</symbol>
<symbol  id="flash0.ai_x5F_1_x2F_Layer_3_x2F__x3C_Path_x3E__x5F_10" viewBox="-0.029 -6.495 5.229 6.623">
	<g id="Layer_1_6_">
		<path style="fill-rule:evenodd;clip-rule:evenodd;fill:#BB2726;" d="M5.1-1.4C4.7-3.233,3.6-4.733,1.8-5.9
			C0.2-6.967-0.35-6.6,0.15-4.8C0.65-3.033,1.5-1.717,2.7-0.85C4.7,0.617,5.5,0.433,5.1-1.4z"/>
	</g>
</symbol>
<symbol  id="flash0.ai_x5F_1_x2F_Layer_3_x2F__x3C_Path_x3E__x5F_10_x5F_0" viewBox="-0.053 -2.806 5.482 2.82">
	<g id="Layer_1_42_">
		<path style="fill-rule:evenodd;clip-rule:evenodd;fill:#459691;" d="M3.3-0.15c1.934-0.533,2.55-1.167,1.85-1.9
			c-0.733-0.733-1.933-0.934-3.6-0.6C0.017-2.317-0.417-1.733,0.25-0.9C0.883-0.033,1.9,0.217,3.3-0.15z"/>
	</g>
</symbol>
<symbol  id="flash0.ai_x5F_1_x2F_Layer_3_x2F__x3C_Path_x3E__x5F_11" viewBox="0 -6.017 6.543 6.152">
	<g id="Layer_1_5_">
		<path style="fill-rule:evenodd;clip-rule:evenodd;fill:#BB2726;" d="M6.35-2.1C5.617-4.6,4.333-5.9,2.5-6C0.833-6.133,0-5.5,0-4.1
			c0.033,1.4,0.95,2.533,2.75,3.4C5.85,0.767,7.05,0.3,6.35-2.1z"/>
	</g>
</symbol>
<symbol  id="flash0.ai_x5F_1_x2F_Layer_3_x2F__x3C_Path_x3E__x5F_11_x5F_0" viewBox="-0.039 -3.263 12.335 3.267">
	<g id="Layer_1_41_">
		<path style="fill-rule:evenodd;clip-rule:evenodd;fill:#459691;" d="M4.7-0.05c1.933-0.2,3.75-0.617,5.45-1.25
			c1.733-0.667,2.417-1.217,2.05-1.65C11.833-3.35,10.217-3.367,7.35-3c-2.8,0.333-4.934,0.767-6.4,1.3
			C-0.317-1.233-0.367-0.8,0.8-0.4C1.933-0.033,3.233,0.083,4.7-0.05z"/>
	</g>
</symbol>
<symbol  id="flash0.ai_x5F_1_x2F_Layer_3_x2F__x3C_Path_x3E__x5F_12" viewBox="-0.013 -8.606 7.61 8.78">
	<g id="Layer_1_4_">
		<path style="fill-rule:evenodd;clip-rule:evenodd;fill:#BB2726;" d="M0.05-8.3C0.317-7.767,1.2-6.65,2.7-4.95
			C3.567-4.017,4.85-2.6,6.55-0.7c1.1,1.3,1.333,1.15,0.7-0.45C6.617-2.683,5.733-4.067,4.6-5.3C3.5-6.467,2.4-7.4,1.3-8.1
			C0.233-8.7-0.183-8.767,0.05-8.3z"/>
	</g>
</symbol>
<symbol  id="flash0.ai_x5F_1_x2F_Layer_3_x2F__x3C_Path_x3E__x5F_12_x5F_0" viewBox="-0.015 -3.888 11.921 3.883">
	<g id="Layer_1_40_">
		<path style="fill-rule:evenodd;clip-rule:evenodd;fill:#459691;" d="M3.9-0.1c2.167,0.233,4.133,0.033,5.9-0.6
			c1.633-0.6,2.317-1.2,2.05-1.8s-0.983-1-2.15-1.2C8.4-3.933,6.367-3.95,3.6-3.75c-2.733,0.167-3.917,0.767-3.55,1.8
			C0.383-0.917,1.667-0.3,3.9-0.1z"/>
	</g>
</symbol>
<symbol  id="flash0.ai_x5F_1_x2F_Layer_3_x2F__x3C_Path_x3E__x5F_13" viewBox="-0.031 -3.692 10.377 3.719">
	<g id="Layer_1_3_">
		<path style="fill-rule:evenodd;clip-rule:evenodd;fill:#BB2726;" d="M0.25-2.3C1.35-1.133,4.167-0.367,8.7,0
			c1.6,0.133,2.033-0.233,1.3-1.1C9.233-1.933,7.717-2.633,5.45-3.2c-2.167-0.533-3.733-0.633-4.7-0.3C-0.083-3.2-0.25-2.8,0.25-2.3
			z"/>
	</g>
</symbol>
<symbol  id="flash0.ai_x5F_1_x2F_Layer_3_x2F__x3C_Path_x3E__x5F_14" viewBox="-0.034 -9.275 15.835 9.305">
	<g id="Layer_1_2_">
		<path style="fill-rule:evenodd;clip-rule:evenodd;fill:#BB2726;" d="M14-0.2c1.767-0.533,2.233-1.316,1.4-2.35
			c-0.833-1-2.617-2.267-5.35-3.8C6.917-8.083,4.233-9.05,2-9.25c-2.3-0.2-2.65,0.783-1.05,2.95C2.417-4.233,4.2-2.683,6.3-1.65
			C9.5-0.117,12.067,0.367,14-0.2z"/>
	</g>
</symbol>
<symbol  id="flash0.ai_x5F_1_x2F_Layer_3_x2F__x3C_Path_x3E__x5F_15" viewBox="-0.001 -7.205 9.202 7.205">
	<g id="Layer_1_30_">
		<path style="fill-rule:evenodd;clip-rule:evenodd;fill:#FDE68B;" d="M6.9-2.85C5.467-1.817,3.5-1.1,1-0.7H0.9
			C0.767-0.733,0.683-0.817,0.65-0.95c-0.033-0.3,0.1-0.733,0.4-1.3c0.3-0.633,0.717-1.233,1.25-1.8
			c1.267-1.467,2.617-2.267,4.05-2.4L6.7-6.5c1.167,0,1.783,0.4,1.85,1.2C8.617-4.533,8.067-3.717,6.9-2.85z M9.2-5.35
			c-0.034-0.566-0.284-1.033-0.75-1.4C7.983-7.083,7.383-7.233,6.65-7.2l-0.4,0.05C4.683-6.983,3.2-6.1,1.8-4.5
			C0.567-3.067-0.033-1.867,0-0.9c0,0.267,0.083,0.483,0.25,0.65C0.383-0.083,0.6,0,0.9,0l0.2-0.05
			C3.733-0.483,5.783-1.233,7.25-2.3C8.55-3.233,9.2-4.25,9.2-5.35z"/>
	</g>
</symbol>
<symbol  id="flash0.ai_x5F_1_x2F_Layer_3_x2F__x3C_Path_x3E__x5F_16" viewBox="-0.041 -105.638 184.882 105.677">
	<g id="Layer_1_33_">
		
			<radialGradient id="SVGID_6_" cx="507.1533" cy="356.1035" r="108.0788" gradientTransform="matrix(0.9987 0.0511 0.0321 -0.6274 -431.915 156.1377)" gradientUnits="userSpaceOnUse">
			<stop  offset="0" style="stop-color:#CC2130;stop-opacity:0"/>
			<stop  offset="0.2353" style="stop-color:#CA2133;stop-opacity:0.1059"/>
			<stop  offset="0.4157" style="stop-color:#C2213D;stop-opacity:0.4431"/>
			<stop  offset="0.5765" style="stop-color:#B5214D"/>
			<stop  offset="0.6745" style="stop-color:#BE2142;stop-opacity:0.6157"/>
			<stop  offset="0.8431" style="stop-color:#C82135;stop-opacity:0.1569"/>
			<stop  offset="0.9922" style="stop-color:#CC2130;stop-opacity:0"/>
		</radialGradient>
		<path style="fill-rule:evenodd;clip-rule:evenodd;fill:url(#SVGID_6_);" d="M184.8-48.05c0.367-7.133-1.716-14.083-6.25-20.85
			c-4.333-6.533-10.65-12.45-18.95-17.75c-17.5-11.2-39-17.45-64.5-18.75c-25.5-1.3-47.533,2.717-66.1,12.05
			c-8.767,4.4-15.667,9.633-20.7,15.7C3.133-71.383,0.367-64.683,0-57.55S1.717-43.467,6.25-36.7
			c4.333,6.534,10.65,12.45,18.95,17.75C42.7-7.75,64.2-1.5,89.7-0.2c25.533,1.3,47.583-2.716,66.15-12.05
			c8.767-4.433,15.65-9.667,20.65-15.7C181.667-34.217,184.433-40.917,184.8-48.05z"/>
	</g>
</symbol>
<symbol  id="flash0.ai_x5F_1_x2F_Layer_3_x2F__x3C_Path_x3E__x5F_17" viewBox="-0.016 -4.101 5.12 4.174">
	<g id="Layer_1_52_">
		<path style="fill-rule:evenodd;clip-rule:evenodd;fill:#499F9F;" d="M1.2-0.15C3.767-1.383,5.067-2.467,5.1-3.4
			c0.066-0.9-0.783-0.934-2.55-0.1c-1.466,0.7-2.3,1.55-2.5,2.55C-0.183,0.05,0.2,0.317,1.2-0.15z"/>
	</g>
</symbol>
<symbol  id="flash0.ai_x5F_1_x2F_Layer_3_x2F__x3C_Path_x3E__x5F_18" viewBox="0.026 -2.438 2.658 2.49">
	<g id="Layer_1_39_">
		<path style="fill-rule:evenodd;clip-rule:evenodd;fill:#C91438;" d="M2.6-0.45c0.267-0.633-0.1-1.2-1.1-1.7
			c-0.9-0.467-1.383-0.367-1.45,0.3c-0.1,0.667,0.117,1.167,0.65,1.5C1.667,0.217,2.3,0.183,2.6-0.45z"/>
	</g>
</symbol>
<symbol  id="flash0.ai_x5F_1_x2F_Layer_3_x2F__x3C_Path_x3E__x5F_19" viewBox="-0.026 -5.889 8.738 5.891">
	<g id="Layer_1_38_">
		<path style="fill-rule:evenodd;clip-rule:evenodd;fill:#C91438;" d="M7.95-1.4C8.783-2.3,8.933-3.2,8.4-4.1
			C7.867-5.033,6.8-5.6,5.2-5.8C3.467-6.067,2-5.733,0.8-4.8c-1.133,0.9-1.1,1.95,0.1,3.15C2-0.583,3.133-0.033,4.3,0
			C5.833,0.033,7.05-0.433,7.95-1.4z"/>
	</g>
</symbol>
<symbol  id="flash0.ai_x5F_1_x2F_Layer_3_x2F__x3C_Path_x3E__x5F_1_x5F_0" viewBox="-0.081 -2.135 3.431 2.185">
	<g id="Layer_1_51_">
		<path style="fill-rule:evenodd;clip-rule:evenodd;fill:#499F9F;" d="M0.7-0.1c1.066-0.433,1.867-0.933,2.4-1.5
			c0.5-0.566,0.25-0.683-0.75-0.35c-0.967,0.333-1.684,0.8-2.15,1.4C-0.3,0.05-0.133,0.2,0.7-0.1z"/>
	</g>
</symbol>
<symbol  id="flash0.ai_x5F_1_x2F_Layer_3_x2F__x3C_Path_x3E__x5F_2" viewBox="0.019 -26.244 53.467 26.311">
	<g id="Layer_1_14_">
		
			<linearGradient id="SVGID_7_" gradientUnits="userSpaceOnUse" x1="19287.5234" y1="-6098.7554" x2="19310.3828" y2="-6098.7554" gradientTransform="matrix(-0.572 0.8203 -0.8203 -0.572 6064.3828 -19336.3633)">
			<stop  offset="0" style="stop-color:#000000"/>
			<stop  offset="1" style="stop-color:#FFFFFF"/>
		</linearGradient>
		<path style="fill-rule:evenodd;clip-rule:evenodd;fill:url(#SVGID_7_);" d="M43.35-0.75c5.333-1.2,8.6-2.867,9.8-5
			c1-1.733-0.233-3.65-3.7-5.75c-3.5-2.1-8.233-3.75-14.2-4.95c-6.133-1.1-10.583-1.933-13.35-2.5c-4.8-0.966-8.483-2.1-11.05-3.4
			c-4.7-2.333-7.733-3.617-9.1-3.85c-2.767-0.4-2.217,1.934,1.65,7c3.934,5.133,8.117,9.133,12.55,12
			c2.2,1.434,5.716,3.184,10.55,5.25C31.6,0.25,37.217,0.65,43.35-0.75z"/>
	</g>
</symbol>
<symbol  id="flash0.ai_x5F_1_x2F_Layer_3_x2F__x3C_Path_x3E__x5F_20" viewBox="-0.045 -3.397 3.956 3.4">
	<g id="Layer_1_37_">
		<path style="fill-rule:evenodd;clip-rule:evenodd;fill:#C91438;" d="M2.45-0.8c0.3-0.267,0.683-0.617,1.15-1.05
			C3.9-2.217,3.983-2.633,3.85-3.1s-0.733-0.383-1.8,0.25c-1,0.633-1.65,1.267-1.95,1.9C-0.2-0.35-0.033-0.033,0.6,0
			S1.85-0.233,2.45-0.8z"/>
	</g>
</symbol>
<symbol  id="flash0.ai_x5F_1_x2F_Layer_3_x2F__x3C_Path_x3E__x5F_21" viewBox="0.025 -1.2 1.97 1.204">
	<g id="Layer_1_36_">
		<path style="fill-rule:evenodd;clip-rule:evenodd;fill:#C91438;" d="M1.95-0.55C1.783-0.983,1.367-1.2,0.7-1.2
			c-0.6,0-0.8,0.184-0.6,0.55C0.3-0.283,0.617-0.067,1.05,0C1.817,0.033,2.117-0.15,1.95-0.55z"/>
	</g>
</symbol>
<symbol  id="flash0.ai_x5F_1_x2F_Layer_3_x2F__x3C_Path_x3E__x5F_22" viewBox="-0.026 -1.748 3.074 1.761">
	<g id="Layer_1_35_">
		<path style="fill-rule:evenodd;clip-rule:evenodd;fill:#C91438;" d="M1.15,0C2.617-0.133,3.233-0.5,3-1.1
			C2.8-1.7,2.183-1.883,1.15-1.65C0.25-1.45-0.133-1.1,0-0.6C0.1-0.133,0.483,0.067,1.15,0z"/>
	</g>
</symbol>
<symbol  id="flash0.ai_x5F_1_x2F_Layer_3_x2F__x3C_Path_x3E__x5F_23" viewBox="-0.038 -4.47 6.515 4.487">
	<g id="Layer_1_34_">
		<path style="fill-rule:evenodd;clip-rule:evenodd;fill:#C91438;" d="M6.15-0.35c0.4-0.4,0.434-0.9,0.1-1.5
			C5.917-2.417,5.2-3,4.1-3.6C2.867-4.267,1.75-4.55,0.75-4.45C-0.283-4.35-0.3-3.7,0.7-2.5c0.966,1.167,2.033,1.933,3.2,2.3
			C4.967,0.133,5.717,0.083,6.15-0.35z"/>
	</g>
</symbol>
<symbol  id="flash0.ai_x5F_1_x2F_Layer_3_x2F__x3C_Path_x3E__x5F_2_x5F_0" viewBox="-0.108 -4.169 5.247 4.227">
	<g id="Layer_1_50_">
		<path style="fill-rule:evenodd;clip-rule:evenodd;fill:#499F9F;" d="M0.75-0.15C3.15-1.417,4.567-2.5,5-3.4
			c0.433-0.934-0.15-1.017-1.75-0.25C1.917-3.05,0.933-2.2,0.3-1.1C-0.367,0-0.217,0.317,0.75-0.15z"/>
	</g>
</symbol>
<symbol  id="flash0.ai_x5F_1_x2F_Layer_3_x2F__x3C_Path_x3E__x5F_3" viewBox="-0.005 -4.75 7.816 4.752">
	<g id="Layer_1_13_">
		<path style="fill-rule:evenodd;clip-rule:evenodd;fill:#BB2726;" d="M3.8-0.4c1.5-0.467,2.617-1.033,3.35-1.7
			c0.767-0.7,0.867-1.4,0.3-2.1c-0.567-0.733-1.6-0.733-3.1,0c-1.867,0.9-3.1,1.617-3.7,2.15c-0.8,0.7-0.867,1.283-0.2,1.75
			C1.083,0.133,2.2,0.1,3.8-0.4z"/>
	</g>
</symbol>
<symbol  id="flash0.ai_x5F_1_x2F_Layer_3_x2F__x3C_Path_x3E__x5F_3_x5F_0" viewBox="-0.031 -2.185 3.986 2.213">
	<g id="Layer_1_49_">
		<path style="fill-rule:evenodd;clip-rule:evenodd;fill:#499F9F;" d="M3.95-0.75c-0.067-0.767-0.833-1.233-2.3-1.4
			c-1.367-0.133-1.9,0.117-1.6,0.75C0.383-0.8,1.033-0.383,2-0.15C3.367,0.217,4.017,0.017,3.95-0.75z"/>
	</g>
</symbol>
<symbol  id="flash0.ai_x5F_1_x2F_Layer_3_x2F__x3C_Path_x3E__x5F_4" viewBox="-0.103 -10.129 16.767 10.263">
	<g id="Layer_1_12_">
		<path style="fill-rule:evenodd;clip-rule:evenodd;fill:#BB2726;" d="M9.8-0.45c2.667-0.9,4.65-2.283,5.95-4.15
			c1.267-1.867,1.217-3.25-0.15-4.15c-1.833-1.2-4.25-1.617-7.25-1.25c-3.133,0.367-5.5,1.45-7.1,3.25c-2,2.233-1.783,4.1,0.65,5.6
			C4.267,0.283,6.9,0.517,9.8-0.45z"/>
	</g>
</symbol>
<symbol  id="flash0.ai_x5F_1_x2F_Layer_3_x2F__x3C_Path_x3E__x5F_4_x5F_0" viewBox="-0.064 -2.798 7.209 2.806">
	<g id="Layer_1_48_">
		<path style="fill-rule:evenodd;clip-rule:evenodd;fill:#499F9F;" d="M4.3,0c2.9-0.133,3.583-0.7,2.05-1.7S3.133-3.017,1.3-2.65
			c-1.566,0.3-1.783,0.833-0.65,1.6C1.783-0.283,3,0.067,4.3,0z"/>
	</g>
</symbol>
<symbol  id="flash0.ai_x5F_1_x2F_Layer_3_x2F__x3C_Path_x3E__x5F_5" viewBox="-0.013 -10.604 15.739 10.693">
	<g id="Layer_1_11_">
		<path style="fill-rule:evenodd;clip-rule:evenodd;fill:#BB2726;" d="M12.75-0.25c2.467-0.667,3.4-2.033,2.8-4.1
			C15.217-5.617,13.5-7.067,10.4-8.7c-3.3-1.733-5.983-2.283-8.05-1.65c-2.1,0.633-2.8,2-2.1,4.1s2.367,3.783,5,5.05
			C7.883,0.1,10.383,0.417,12.75-0.25z"/>
	</g>
</symbol>
<symbol  id="flash0.ai_x5F_1_x2F_Layer_3_x2F__x3C_Path_x3E__x5F_5_x5F_0" viewBox="-0.115 -3.3 7.946 3.3">
	<g id="Layer_1_47_">
		<path style="fill-rule:evenodd;clip-rule:evenodd;fill:#499F9F;" d="M6.75,0C8.383,0,8.167-0.55,6.1-1.65
			C4-2.75,2.217-3.3,0.75-3.3c-1.4,0-1.1,0.55,0.9,1.65C3.683-0.55,5.383,0,6.75,0z"/>
	</g>
</symbol>
<symbol  id="flash0.ai_x5F_1_x2F_Layer_3_x2F__x3C_Path_x3E__x5F_6" viewBox="-0.048 -5.428 10.243 5.401">
	<g id="Layer_1_10_">
		<path style="fill-rule:evenodd;clip-rule:evenodd;fill:#BB2726;" d="M0.9-0.45c1.5,0.434,2.817,0.534,3.95,0.3
			C5.917-0.383,7.2-1.033,8.7-2.1c1.4-1,1.816-1.883,1.25-2.65C9.317-5.517,7.817-5.633,5.45-5.1c-2.333,0.567-3.967,1.417-4.9,2.55
			C-0.35-1.517-0.233-0.817,0.9-0.45z"/>
	</g>
</symbol>
<symbol  id="flash0.ai_x5F_1_x2F_Layer_3_x2F__x3C_Path_x3E__x5F_6_x5F_0" viewBox="-0.063 -1.5 3.681 1.492">
	<g id="Layer_1_46_">
		<path style="fill-rule:evenodd;clip-rule:evenodd;fill:#459691;" d="M2.75-0.6C3.817-1.2,3.9-1.5,3-1.5S1.267-1.283,0.5-0.85
			c-0.733,0.4-0.75,0.667-0.05,0.8C1.117,0.083,1.883-0.1,2.75-0.6z"/>
	</g>
</symbol>
<symbol  id="flash0.ai_x5F_1_x2F_Layer_3_x2F__x3C_Path_x3E__x5F_7" viewBox="-0.095 -3.2 6.112 3.268">
	<g id="Layer_1_9_">
		<path style="fill-rule:evenodd;clip-rule:evenodd;fill:#BB2726;" d="M5.75-0.5C6.417-1.333,5.833-2.1,4-2.8
			c-1.3-0.534-2.467-0.534-3.5,0c-1.067,0.5-0.7,1.183,1.1,2.05C3.7,0.25,5.083,0.333,5.75-0.5z"/>
	</g>
</symbol>
<symbol  id="flash0.ai_x5F_1_x2F_Layer_3_x2F__x3C_Path_x3E__x5F_7_x5F_0" viewBox="-0.024 -1.662 2.904 1.634">
	<g id="Layer_1_45_">
		<path style="fill-rule:evenodd;clip-rule:evenodd;fill:#459691;" d="M1.6-0.05C2.667-0.183,3.067-0.5,2.8-1
			C2.533-1.5,1.933-1.717,1-1.65c-0.867,0.033-1.183,0.333-0.95,0.9C0.283-0.183,0.8,0.05,1.6-0.05z"/>
	</g>
</symbol>
<symbol  id="flash0.ai_x5F_1_x2F_Layer_3_x2F__x3C_Path_x3E__x5F_8" viewBox="-0.064 -8.639 18.08 8.669">
	<g id="Layer_1_8_">
		<path style="fill-rule:evenodd;clip-rule:evenodd;fill:#BB2726;" d="M13.25-0.3c2.933-0.633,4.517-1.85,4.75-3.65
			C18.2-5.683,16.6-7,13.2-7.9c-3.133-0.8-6.317-0.95-9.55-0.45C0.85-7.883-0.367-6.733,0-4.9c0.367,1.767,1.8,3.083,4.3,3.95
			C7.4,0.083,10.383,0.3,13.25-0.3z"/>
	</g>
</symbol>
<symbol  id="flash0.ai_x5F_1_x2F_Layer_3_x2F__x3C_Path_x3E__x5F_8_x5F_0" viewBox="-0.004 -2.278 8.638 2.298">
	<g id="Layer_1_44_">
		<path style="fill-rule:evenodd;clip-rule:evenodd;fill:#459691;" d="M8.5-0.3c0.367-0.267-0.017-0.55-1.15-0.85
			c-1.6-0.4-3.1-0.717-4.5-0.95C0.983-2.367,0.033-2.333,0-2c-0.067,0.333,0.8,0.75,2.6,1.25C4.2-0.317,5.5-0.067,6.5,0
			C7.533,0.067,8.2-0.033,8.5-0.3z"/>
	</g>
</symbol>
<symbol  id="flash0.ai_x5F_1_x2F_Layer_3_x2F__x3C_Path_x3E__x5F_9" viewBox="-0.018 -6.086 8.79 6.193">
	<g id="Layer_1_7_">
		<path style="fill-rule:evenodd;clip-rule:evenodd;fill:#BB2726;" d="M8.65-1.65c0.567-1.8-0.833-3.15-4.2-4.05
			C1.283-6.533-0.2-6.017,0-4.15C0.233-2.283,1.35-1.033,3.35-0.4C6.283,0.567,8.05,0.15,8.65-1.65z"/>
	</g>
</symbol>
<symbol  id="flash0.ai_x5F_1_x2F_Layer_3_x2F__x3C_Path_x3E__x5F_9_x5F_0" viewBox="-0.064 -4.461 9.219 4.488">
	<g id="Layer_1_43_">
		<path style="fill-rule:evenodd;clip-rule:evenodd;fill:#459691;" d="M5,0c1.767-0.2,3-0.75,3.7-1.65
			c0.667-0.867,0.6-1.567-0.2-2.1c-0.767-0.533-1.95-0.767-3.55-0.7C3.283-4.417,1.883-4.067,0.75-3.4
			C-0.383-2.733-0.333-1.967,0.9-1.1S3.5,0.133,5,0z"/>
	</g>
</symbol>
<g>
	
		<radialGradient id="SVGID_8_" cx="128.5498" cy="180.9502" r="43.6" gradientTransform="matrix(1 0 0 -0.5221 0 275.4199)" gradientUnits="userSpaceOnUse">
		<stop  offset="0" style="stop-color:#228B8F"/>
		<stop  offset="0.3922" style="stop-color:#258D91"/>
		<stop  offset="0.7373" style="stop-color:#309396"/>
		<stop  offset="1" style="stop-color:#3E9A9D"/>
	</radialGradient>
	<path style="fill-rule:evenodd;clip-rule:evenodd;fill:url(#SVGID_8_);" d="M117.8,179.15c3.434,0.233,7.917,2.133,13.45,5.699
		c8.866,5.634,15.116,9.367,18.75,11.2c6.1,3.101,10.733,5.884,13.9,8.351c-0.134,0.533-0.884,1.017-2.25,1.449
		c-2.733,0.867-7.167,1.084-13.301,0.65c-12.8-0.333-23.449-0.7-31.949-1.1c-16.167-0.733-23.817-1.9-22.95-3.5
		c1.867-5.267,4.033-9.684,6.5-13.25C104.65,181.783,110.6,178.616,117.8,179.15z"/>
	
		<radialGradient id="SVGID_9_" cx="79.0498" cy="182.4502" r="47.5" gradientTransform="matrix(-1 0 0 -0.3182 158.0996 240.4982)" gradientUnits="userSpaceOnUse">
		<stop  offset="0" style="stop-color:#228B8F"/>
		<stop  offset="0.3922" style="stop-color:#258D91"/>
		<stop  offset="0.7373" style="stop-color:#309396"/>
		<stop  offset="1" style="stop-color:#3E9A9D"/>
	</radialGradient>
	<path style="fill-rule:evenodd;clip-rule:evenodd;fill:url(#SVGID_9_);" d="M46.4,197.25c1.934-0.667,4.417-1.5,7.45-2.5
		c4.367-1.5,9.783-3.583,16.25-6.25c5.233-1.967,9.917-3.05,14.05-3.25c8.267-0.366,15.983,1.45,23.15,5.45
		c4.233,2.366,7.684,5.05,10.351,8.05c0.966,1.1-7.65,1.9-25.851,2.4c-20.3,0.366-32.316,0.616-36.05,0.75
		c-6.933,0.267-11.933,0.1-15-0.5l-2.55-0.95C40.133,199.517,42.867,198.45,46.4,197.25z"/>
	
		<linearGradient id="SVGID_10_" gradientUnits="userSpaceOnUse" x1="-160.1216" y1="165.1611" x2="-78.2509" y2="165.1611" gradientTransform="matrix(0.2568 -0.9665 0.9665 0.2568 1.673102e-004 0)">
		<stop  offset="0" style="stop-color:#20141B"/>
		<stop  offset="1" style="stop-color:#303B3B"/>
	</linearGradient>
	<path style="fill-rule:evenodd;clip-rule:evenodd;fill:url(#SVGID_10_);" d="M117.65,193.85c-0.134,0-0.2-0.517-0.2-1.55
		c0.033-0.866,0.066-1.45,0.1-1.75c0.033-1.133,0.25-2.366,0.65-3.7c0.733-2.5,1.95-4.949,3.649-7.35
		c0.334-0.467,0.834-1.066,1.5-1.8c0.834-0.934,1.351-1.517,1.551-1.75c0.5-0.634,1-1.367,1.5-2.2c0.8-1.2,1.733-3.233,2.8-6.1
		l0.75-2.75c-0.467,3.399-1.7,6.666-3.7,9.8c-0.333,0.533-1.116,1.583-2.35,3.149c-1,1.301-1.733,2.4-2.2,3.301
		c-1.267,2.633-1.884,5.233-1.851,7.8c0.067,1.899,0.384,3.7,0.95,5.399L117.65,193.85z"/>
	
		<linearGradient id="SVGID_11_" gradientUnits="userSpaceOnUse" x1="-167.0537" y1="167.2598" x2="-101.9439" y2="167.2598" gradientTransform="matrix(0.2568 -0.9665 0.9665 0.2568 1.871884e-004 -1.024008e-004)">
		<stop  offset="0" style="stop-color:#20141B"/>
		<stop  offset="1" style="stop-color:#303B3B"/>
	</linearGradient>
	<path style="fill-rule:evenodd;clip-rule:evenodd;fill:url(#SVGID_11_);" d="M118.25,194.2c-0.833-2.9-0.15-5.917,2.05-9.05
		c2.334-3.301,5.667-5.7,10-7.2l-2.25,1.1c-1.733,0.934-3.233,1.983-4.5,3.15c-4,3.767-4.816,7.934-2.45,12.5L118.25,194.2z"/>
	<g>
		
			<linearGradient id="SVGID_12_" gradientUnits="userSpaceOnUse" x1="94.3228" y1="10.1875" x2="116.1982" y2="10.1875" gradientTransform="matrix(0.6446 0.7646 -0.7646 0.6446 2.507567e-004 6.270409e-005)">
			<stop  offset="0" style="stop-color:#1B1718"/>
			<stop  offset="1" style="stop-color:#2C1826"/>
		</linearGradient>
		<path style="fill-rule:evenodd;clip-rule:evenodd;fill:url(#SVGID_12_);" d="M57.2,82.8c-0.633-1.867-0.934-3.033-0.9-3.5
			c0.033-1.063,0.775-1.879,2.225-2.45c-0.839,0.357-0.464,2.29,1.125,5.8c1.767,3.833,4.117,7.15,7.05,9.95
			c1.5,1.433,3.167,2.45,5,3.05c2.066,0.633,3.983,0.617,5.75-0.05L78,99c0.2,2.3-0.183,3.483-1.15,3.55
			c-1.6,0.133-3.467-0.483-5.6-1.85c-2.267-1.667-3.933-2.8-5-3.4c-0.533-0.3-1.267-0.6-2.2-0.9c-1.033-0.333-1.8-0.6-2.3-0.8
			c-4.7-1.733-8.217-4.067-10.55-7c-2.467-3.1-3.6-5.517-3.4-7.25c0.367-0.267,0.7-0.4,1-0.4c0.8,2.433,2.15,4.716,4.05,6.85
			c2.1,2.333,4.3,3.767,6.6,4.3c1.367,0.3,2,0.167,1.9-0.4c-0.033-0.267-0.5-1.167-1.4-2.7C58.783,86.933,57.867,84.867,57.2,82.8z"
			/>
		
			<linearGradient id="SVGID_13_" gradientUnits="userSpaceOnUse" x1="125.8242" y1="-92.3037" x2="202.7036" y2="-92.3037" gradientTransform="matrix(0.0276 0.9996 -0.9996 0.0276 -3.594346e-005 1.269877e-004)">
			<stop  offset="0" style="stop-color:#242224"/>
			<stop  offset="0.2353" style="stop-color:#27252E"/>
			<stop  offset="0.6314" style="stop-color:#302E49"/>
			<stop  offset="0.698" style="stop-color:#32304E"/>
			<stop  offset="1" style="stop-color:#617D84"/>
		</linearGradient>
		<path style="fill-rule:evenodd;clip-rule:evenodd;fill:url(#SVGID_13_);" d="M103.95,116.4c1.533,0,2.517-0.051,2.95-0.15
			c-0.033,0.967,0.033,2.35,0.2,4.15c0.2,1.933,0.3,3.333,0.3,4.199c0,2.267-0.3,5.084-0.9,8.45c-0.033,0.233-0.333,1.417-0.9,3.55
			c-0.367,1.467-0.533,2.65-0.5,3.551c0.233,5.733,1,9.916,2.3,12.55c0.533,1.1,1.117,1.149,1.75,0.149
			c0.367-0.633,0.717-1.55,1.05-2.75c0.2-1,0.367-1.75,0.5-2.25c0.2-0.866,0.4-1.033,0.6-0.5c0.733,1.467,0.717,3.784-0.05,6.95
			c-0.133,0.533-0.35,1.3-0.65,2.3c-0.267,0.867-0.383,1.634-0.35,2.301c0.033,0.733,0.167,1.616,0.4,2.649
			c0.133,0.601,0.35,1.483,0.65,2.65c0.967,4.133,1.567,8.066,1.8,11.8c0.233,3.6,0.333,6.434,0.3,8.5c-0.033,3.3-0.367,6.1-1,8.4
			c-1.267-0.567-2.983-0.9-5.15-1c-1.1-0.067-2.867-0.067-5.3,0c-2.667-0.034-4.633-0.017-5.9,0.05c-2.233,0.133-4.1,0.649-5.6,1.55
			c-0.267-0.533-0.4-1.35-0.4-2.45c0-1.267-0.05-2.116-0.15-2.55c-0.167-0.733-0.483-1.616-0.95-2.65
			c-0.733-1.633-1.117-2.483-1.15-2.55c-0.7-1.6-1.167-2.899-1.4-3.899c-0.167-0.9-0.316-1.601-0.45-2.101
			c-0.2-0.866-0.483-1.5-0.85-1.899c-0.967-1-1.633-1.733-2-2.2c-0.633-0.8-1.1-1.7-1.4-2.7c-0.233-0.8-0.417-1.483-0.55-2.05
			c-0.233-1-0.267-1.65-0.1-1.95c0.3-0.566,0.717-0.7,1.25-0.4c0.467,0.267,0.75,0.65,0.85,1.15c0.133,0.6,0.267,1.533,0.4,2.8
			c0.233,1.267,0.767,2.017,1.6,2.25c0.567,0.167,0.817-0.133,0.75-0.899c-0.167-0.867-0.25-1.417-0.25-1.65
			c0-0.6,0.25-0.85,0.75-0.75c0.267,0.066,0.434,0.217,0.5,0.45c0.033,0.133,0.05,0.366,0.05,0.7c0.066,0.8,0.216,1.983,0.45,3.55
			c0.033,1.566,0.367,3.066,1,4.5c0.8,1.934,1.417,2.916,1.85,2.95c1.9,0.267,3.183-8.534,3.85-26.4c0.133-4.733,0.2-7.2,0.2-7.4
			c-0.033-2.366-0.216-4.633-0.55-6.8c-0.7-4.233-1.667-7.733-2.9-10.5c-1.4-3.366-2.533-5.816-3.4-7.35
			c-1.6-2.9-3.317-5.584-5.15-8.05c-1.1-1.367-1.9-2.4-2.4-3.101c1.2-1.066,2.25-1.333,3.15-0.8c0.434,0.267,1.25,1.167,2.45,2.7
			l1.8,2.45c0.367,0.533,1.15,1.566,2.35,3.1c0.934,1.2,1.65,2.233,2.15,3.1c0.8,1.4,2.05,3.417,3.75,6.051
			c1.833,3,3.25,4.649,4.25,4.949c0.9,0.267,1.883-0.75,2.95-3.05c0.9-2.033,1.4-3.75,1.5-5.149
			C104.483,121.833,104.383,119,103.95,116.4z"/>
		<linearGradient id="SVGID_14_" gradientUnits="userSpaceOnUse" x1="144.123" y1="196.918" x2="99.4127" y2="110.0619">
			<stop  offset="0" style="stop-color:#617D84"/>
			<stop  offset="0.3647" style="stop-color:#32304E"/>
			<stop  offset="0.4235" style="stop-color:#302E49"/>
			<stop  offset="0.7882" style="stop-color:#27252E"/>
			<stop  offset="1" style="stop-color:#242224"/>
		</linearGradient>
		<path style="fill-rule:evenodd;clip-rule:evenodd;fill:url(#SVGID_14_);" d="M159.6,119.75l-0.35,1.9
			c-0.366,1.566-0.884,3.083-1.55,4.55c-2.167,4.733-5.483,8.133-9.95,10.2c-4.4,2.066-7.634,3.783-9.7,5.149
			c-3.566,2.4-6,5.017-7.3,7.851c-0.667,1.5-1.366,3.6-2.1,6.3c-0.834,3.033-1.801,5.883-2.9,8.55c-0.934,2.233-2.4,5.65-4.4,10.25
			c-1.566,3.9-2.416,6.9-2.55,9c-0.166,1.967-0.116,3.7,0.15,5.2c0.333,1.8,1.033,3.7,2.1,5.7c0.4,0.733,0.851,1.5,1.351,2.3
			c0.333,0.5,0.566,0.967,0.699,1.399c-0.699,0.034-2.316-0.05-4.85-0.25c-2.634-0.166-4.267-0.25-4.9-0.25
			c-0.767,0.034-1.883-0.017-3.35-0.149c-1.7-0.134-2.833-0.2-3.4-0.2c-6.067-0.066-11.833,0.066-17.3,0.4
			c-0.367-3.267,0.517-8.067,2.65-14.4c1.033-2.967,2.5-6.033,4.4-9.2c1.533-2.533,2.283-3.899,2.25-4.1
			c-0.533-2.233-0.8-4.384-0.8-6.45c0.034-1.533,0.233-3.366,0.6-5.5c0.267-1.634,0.783-3.283,1.55-4.95
			c0.167-0.2,0.133,0.483-0.1,2.05c-0.267,2.167-0.35,3.884-0.25,5.15c0.333,3.733,1.316,6,2.95,6.8c2.3-1.267,4.2-2.483,5.7-3.649
			c2.733-2.134,4.567-3.684,5.5-4.65c3.934-4.3,6.316-8.7,7.15-13.2c0.1-0.6-1.067-2.333-3.5-5.2c-2.934-3.366-4.9-7.033-5.9-11
			c-0.867-3.366-1.333-6.649-1.4-9.85l0.15-3.75l4,1.3l-0.05,4.9c0.167,3.733,0.8,6.717,1.899,8.95
			c0.867,1.8,1.684,3.199,2.45,4.199c1.101,1.5,2.367,2.567,3.8,3.2c1.834,0.867,3.317,0.851,4.45-0.05c0.834-0.667,1.601-2,2.3-4
			c1.334-3.6,2.267-6.667,2.801-9.2c0.6-3,1.166-7.383,1.699-13.149c0.367-0.034,0.801-0.101,1.301-0.2
			c0.399-0.033,0.8,0.033,1.199,0.2c0.367,2.5,0.567,5.383,0.601,8.649c0.033,4.2-0.267,8.316-0.9,12.351
			c-0.267,1.5,0,2.449,0.8,2.85c0.434,0.2,1.284,0.15,2.551-0.15c1.1-0.267,2.149-0.633,3.149-1.1c1.8-0.833,3.117-1.783,3.95-2.85
			c0.767-0.934,1.316-2.2,1.65-3.801c0.267-1.233,0.55-3,0.85-5.3l0.4-3.05l1.8-0.65c1.133-0.333,1.55-0.166,1.25,0.5
			c-0.434,1.067-0.9,2.95-1.4,5.65c-0.5,2.967-0.517,4.5-0.05,4.6c0.467,0.101,1.116-0.416,1.95-1.55
			c0.733-1,1.366-2.133,1.899-3.399c0.367-0.9,0.717-1.983,1.051-3.25L156,119.8L159.6,119.75z"/>
		<g>
			<g>
				<path style="fill-rule:evenodd;clip-rule:evenodd;fill:#FBE6C3;" d="M104.45,59c2.533-1.1,4.633-1.567,6.3-1.4
					c1.933,0.233,3.617,1,5.05,2.3c1.267,1.2,2.233,2.783,2.9,4.75c0.967,2.833,1.316,4.733,1.05,5.7c-0.2,0.633-0.5,0.983-0.9,1.05
					c-0.1,0-0.6-0.05-1.5-0.15c-1.966-0.233-3.383,0.933-4.25,3.5c-0.5,1.4-1.167,3.517-2,6.35c-1.7,3.167-3.617,4.45-5.75,3.85
					c-0.733-0.2-1.367-0.733-1.9-1.6c-0.6-0.967-1.083-1.55-1.45-1.75c-0.533-0.3-1.517,0.25-2.95,1.65
					c-1.733,1.7-2.767,2.633-3.1,2.8c-1.2,0.6-2.583,1.067-4.15,1.4c-1.633,0.367-3.066,0.5-4.3,0.4
					c-0.367-0.033-1.55-0.617-3.55-1.75c-1.434-0.833-2.567-0.833-3.4,0c-0.233,0.233-0.6,0.733-1.1,1.5
					c-0.434,0.667-0.85,1.15-1.25,1.45c-1.167,0.867-2.4,1.317-3.7,1.35c-1.6,0.033-3-0.55-4.2-1.75
					c-0.533-0.633-0.966-1.117-1.3-1.45c-0.6-0.6-1.133-0.95-1.6-1.05c-0.6-0.133-1.066,0-1.4,0.4c-0.533,0.667-0.867,1.034-1,1.1
					c-1.267,0.733-2.467,0.483-3.6-0.75c-1.367-1.5-2.383-2.233-3.05-2.2c-0.2,0-0.5,0.133-0.9,0.4c-0.367,0.233-0.7,0.333-1,0.3
					c-0.3-0.033-0.633-0.217-1-0.55c-0.367-0.4-0.633-0.684-0.8-0.85c-0.267-0.3-0.85-0.15-1.75,0.45
					c-1.133,0.767-2.066,1.15-2.8,1.15c-0.1,0-0.35-0.217-0.75-0.65c-0.3-0.333-0.833-0.267-1.6,0.2c-0.9,0.533-1.633,0.633-2.2,0.3
					c-0.433-0.267-0.716-0.75-0.85-1.45c-0.2-0.9-0.333-1.367-0.4-1.4c-0.4-0.233-1.35,0.15-2.85,1.15c-1.9,1.233-3.35,1.9-4.35,2
					c-1.2,0.133-2.067-0.45-2.6-1.75c-0.1-0.3-0.833-0.017-2.2,0.85c-1.6,1-2.883,1.333-3.85,1c-0.633-0.233-0.85-1.267-0.65-3.1
					c0.133-1.567,0.05-2.233-0.25-2c-0.966,0.833-1.65,1.267-2.05,1.3c-0.6,0.034-1.05-0.633-1.35-2
					c-0.267-1.267,0.033-3.017,0.9-5.25c1.034-2.267,1.65-3.683,1.85-4.25l19.3-1.5c0.333-0.033,0.8,0.067,1.4,0.3
					c0.367,0.133,0.833,0.316,1.4,0.55l7.2,2.2c1.8,0.566,4.55,1.517,8.25,2.85c3.3,1,6.15,1.35,8.55,1.05
					c3.2-0.433,6.25-1.55,9.15-3.35c1-0.633,2.184-1.533,3.55-2.7c1.833-1.567,2.966-2.517,3.4-2.85c2.3-1.733,5.45-3.483,9.45-5.25
					C99.717,61.35,101.683,60.4,104.45,59z"/>
			</g>
			<g>
				
					<radialGradient id="SVGID_15_" cx="50.6499" cy="23.6499" r="54.8625" gradientTransform="matrix(1 0 0 -1.0624 0 48.7762)" gradientUnits="userSpaceOnUse">
					<stop  offset="0.0118" style="stop-color:#E95752"/>
					<stop  offset="1" style="stop-color:#C72E3D"/>
				</radialGradient>
				<path style="fill-rule:evenodd;clip-rule:evenodd;fill:url(#SVGID_15_);" d="M110.15,48.85c3.133,2.8,5.583,5.683,7.35,8.65
					c2.7,4.5,2.6,7.65-0.3,9.45c-0.601,0.367-1.217,0.533-1.851,0.5c-0.733-0.167-1.35-0.3-1.85-0.4c-0.833-0.167-1.333-0.1-1.5,0.2
					c-0.067,0.133-0.133,0.717-0.2,1.75c-0.066,2.467-0.65,4.133-1.75,5c-1.2,0.967-2.9,0.833-5.1-0.4c-0.8-0.6-1.45-1.067-1.95-1.4
					c-0.933-0.567-1.667-0.784-2.2-0.65c-0.6,0.2-1,0.767-1.2,1.7c0,0.1-0.067,0.85-0.2,2.25c-0.2,2.067-0.5,3.55-0.9,4.45
					c-0.633,1.5-1.633,2.233-3,2.2c-0.433,0-0.95-0.1-1.55-0.3c-0.2-0.067-0.767-0.367-1.7-0.9c-0.7-0.4-1.283-0.617-1.75-0.65
					c-0.467-0.033-0.933,0.117-1.4,0.45c-0.5,0.4-0.9,0.683-1.2,0.85c-1.233,0.8-2.367,0.816-3.4,0.05
					c-1.1-1.133-2.033-1.95-2.8-2.45c-1-0.633-1.784-0.383-2.35,0.75l-1.45,3c-1.2,1.3-2.5,1.566-3.9,0.8
					c-0.733-0.4-1.817-1.417-3.25-3.05c-0.6-0.733-1-1.184-1.2-1.35c-0.566-0.5-1.117-0.667-1.65-0.5c-0.533,0.167-1,0.65-1.4,1.45
					c-0.6,1.167-0.933,1.8-1,1.9c-0.5,0.633-1.083,0.95-1.75,0.95c-0.667-0.033-1.233-0.367-1.7-1c-0.6-0.8-0.966-1.25-1.1-1.35
					c-0.633-0.466-1.6-0.216-2.9,0.75c-1.333,0.967-2.367,1.217-3.1,0.75c-0.6-0.367-0.95-1.316-1.05-2.85
					c-0.033-0.4,0.083-1.133,0.35-2.2c0.2-0.867,0.233-1.317,0.1-1.35c-0.233-0.167-0.533-0.066-0.9,0.3
					c-0.233,0.2-0.534,0.517-0.9,0.95c-1.933,1.733-3.933,2.833-6,3.3l-0.8,0.1c-0.433,0-0.717-0.117-0.85-0.35
					c-0.233-0.367-0.25-1.017-0.05-1.95c0.066-0.4,0.283-1.217,0.65-2.45c0.233-0.633,0.35-1.017,0.35-1.15
					c0.233-0.7,0.267-1.183,0.1-1.45c-0.1-0.133-0.233-0.2-0.4-0.2c-0.433,0-1.216,0.517-2.35,1.55c-0.6,0.567-1.35,1.284-2.25,2.15
					c-0.534,0.466-1.367,1.367-2.5,2.7c-1.1,1.067-2.167,1.567-3.2,1.5c-0.967-0.066-1.55-0.583-1.75-1.55
					c-0.1-1.2-0.25-2.05-0.45-2.55c-0.4-0.933-0.95-1.2-1.65-0.8c-0.4,0.2-0.967,0.767-1.7,1.7c-0.733,0.933-1.4,1.533-2,1.8
					c-0.867,0.4-1.45,0-1.75-1.2c-0.167-0.667-0.1-1.533,0.2-2.6c0.333-1.3,0.5-2.167,0.5-2.6c-0.167,0.133-0.65,0.8-1.45,2
					c-0.567,0.8-0.95,0.95-1.15,0.45c-0.2-0.466,0.434-2.433,1.9-5.9l2-4.35c3.1-6.267,7.033-12.1,11.8-17.5
					c6.233-7.1,13.333-12.117,21.3-15.05c3.633-1.367,7.4-2.05,11.3-2.05c5.033,0,10.2,1.083,15.5,3.25
					C94.917,36.817,102.35,41.783,110.15,48.85z"/>
			</g>
			
				<use xlink:href="#flash0.ai_x5F_1_x2F_Layer_3_x2F__x3C_Path_x3E__x5F_14"  width="15.835" height="9.305" x="-0.034" y="-9.275" transform="matrix(1 0 0 -1 46.3999 39.75)" style="overflow:visible;opacity:0.5313;enable-background:new    ;"/>
			
				<use xlink:href="#flash0.ai_x5F_1_x2F_Layer_3_x2F__x3C_Path_x3E__x5F_13"  width="10.377" height="3.719" x="-0.031" y="-3.692" transform="matrix(1 0 0 -1 61.1499 33.1001)" style="overflow:visible;opacity:0.5313;enable-background:new    ;"/>
			
				<use xlink:href="#flash0.ai_x5F_1_x2F_Layer_3_x2F__x3C_Path_x3E__x5F_12"  width="7.61" height="8.78" x="-0.013" y="-8.606" transform="matrix(1 0 0 -1 34.25 47.3501)" style="overflow:visible;opacity:0.5313;enable-background:new    ;"/>
			
				<use xlink:href="#flash0.ai_x5F_1_x2F_Layer_3_x2F__x3C_Path_x3E__x5F_11"  width="6.543" height="6.152" y="-6.017" transform="matrix(1 0 0 -1 40.4502 51.9502)" style="overflow:visible;opacity:0.5313;enable-background:new    ;"/>
			
				<use xlink:href="#flash0.ai_x5F_1_x2F_Layer_3_x2F__x3C_Path_x3E__x5F_10"  width="5.229" height="6.623" x="-0.029" y="-6.495" transform="matrix(1 0 0 -1 30.9502 61.0498)" style="overflow:visible;opacity:0.5313;enable-background:new    ;"/>
			
				<use xlink:href="#flash0.ai_x5F_1_x2F_Layer_3_x2F__x3C_Path_x3E__x5F_9"  width="8.79" height="6.193" x="-0.018" y="-6.086" transform="matrix(1 0 0 -1 53.8999 49.2998)" style="overflow:visible;opacity:0.5313;enable-background:new    ;"/>
			
				<use xlink:href="#flash0.ai_x5F_1_x2F_Layer_3_x2F__x3C_Path_x3E__x5F_8"  width="18.08" height="8.669" x="-0.064" y="-8.639" transform="matrix(1 0 0 -1 65.9502 40.6499)" style="overflow:visible;opacity:0.5313;enable-background:new    ;"/>
			
				<use xlink:href="#flash0.ai_x5F_1_x2F_Layer_3_x2F__x3C_Path_x3E__x5F_7"  width="6.112" height="3.268" x="-0.095" y="-3.2" transform="matrix(1 0 0 -1 71.7002 35.3501)" style="overflow:visible;opacity:0.5313;enable-background:new    ;"/>
			
				<use xlink:href="#flash0.ai_x5F_1_x2F_Layer_3_x2F__x3C_Path_x3E__x5F_6"  width="10.243" height="5.401" x="-0.048" y="-5.428" transform="matrix(1 0 0 -1 83.4502 35.8501)" style="overflow:visible;opacity:0.5313;enable-background:new    ;"/>
			
				<use xlink:href="#flash0.ai_x5F_1_x2F_Layer_3_x2F__x3C_Path_x3E__x5F_5"  width="15.739" height="10.693" x="-0.013" y="-10.604" transform="matrix(1 0 0 -1 42.7998 56.6001)" style="overflow:visible;opacity:0.5313;enable-background:new    ;"/>
			
				<use xlink:href="#flash0.ai_x5F_1_x2F_Layer_3_x2F__x3C_Path_x3E__x5F_4"  width="16.767" height="10.263" x="-0.103" y="-10.129" transform="matrix(1 0 0 -1 71.75 53.8501)" style="overflow:visible;opacity:0.5313;enable-background:new    ;"/>
			
				<use xlink:href="#flash0.ai_x5F_1_x2F_Layer_3_x2F__x3C_Path_x3E__x5F_3"  width="7.816" height="4.752" x="-0.005" y="-4.75" transform="matrix(1 0 0 -1 88.25 44.1001)" style="overflow:visible;opacity:0.5313;enable-background:new    ;"/>
			
				<use xlink:href="#flash0.ai_x5F_1_x2F_Layer_3_x2F__x3C_Path_x3E__x5F_2"  width="53.467" height="26.311" x="0.019" y="-26.244" transform="matrix(1 0 0 -1 35.2998 31.2998)" style="overflow:visible;opacity:0.0898;enable-background:new    ;"/>
			
				<use xlink:href="#flash0.ai_x5F_1_x2F_Layer_3_x2F__x3C_Clip_Group_0_x3E_"  width="140.65" height="89.3" y="-89.3" transform="matrix(1 0 0 -1 0 0)" style="overflow:visible;"/>
			
				<use xlink:href="#flash0.ai_x5F_1_x2F_Layer_3_x2F__x3C_Path_x3E__x5F_1"  width="10.276" height="6.701" x="-0.028" y="-6.701" transform="matrix(1 0 0 -1 91.25 51.7998)" style="overflow:visible;opacity:0.5313;enable-background:new    ;"/>
			
				<use xlink:href="#flash0.ai_x5F_1_x2F_Layer_3_x2F__x3C_Path_x3E__x5F_0"  width="8.789" height="7.153" x="-0.009" y="-7.075" transform="matrix(1 0 0 -1 102.6499 46.1499)" style="overflow:visible;opacity:0.5313;enable-background:new    ;"/>
		</g>
		<g>
			<g>
				<path style="fill-rule:evenodd;clip-rule:evenodd;fill:#FCEACC;" d="M164.6,95.1c3.334-0.3,6.051-0.417,8.15-0.35
					c2.866,0.067,5.533,0.433,8,1.1c1.833,0.533,4.717,1,8.65,1.4c3.466,0.633,6.033,1.85,7.699,3.65
					c1.467,1.567,2.851,3.684,4.15,6.35c1.434,2.934,1.983,5.1,1.65,6.5c-0.334,1.467-1.884,1.517-4.65,0.15
					c-2.9-1.434-4.616-1.551-5.15-0.351c-0.267,0.9-0.5,1.5-0.699,1.8c-0.334,0.567-0.934,0.801-1.801,0.7
					c-0.699-0.066-1.616-0.666-2.75-1.8c-1.033-1.033-2-1.467-2.899-1.3c-0.033,0.5-0.05,1.3-0.05,2.399
					c-0.134,0.867-0.617,1.334-1.45,1.4c-0.601,0.033-1.283-0.217-2.05-0.75c-0.867-0.667-1.467-1.134-1.801-1.4
					c-1.166-0.399-1.833,0.267-2,2c-0.233,2.434-0.449,3.784-0.649,4.051c-1,1.366-2.517,1.649-4.55,0.85
					c-2.267-1.233-3.834-2.05-4.7-2.45c-0.9-0.467-1.65-0.75-2.25-0.85c-0.8-0.167-1.601-0.117-2.4,0.149
					c-0.866,0.267-1.8,0.934-2.8,2c-1.1,1.2-1.95,1.95-2.55,2.25c-0.867,0.467-2.483,0.101-4.851-1.1c-2-1.066-3.283-0.95-3.85,0.35
					c-0.634,1.534-2.083,2.2-4.35,2c-1.967-0.166-3.551-0.733-4.75-1.699c-1.134-1.233-1.95-1.967-2.45-2.2
					c-0.767-0.367-1.467,0.467-2.101,2.5c-0.699,2.166-2.1,3.5-4.199,4c-1.767,0.399-3.534,0.166-5.301-0.7
					c-0.666-0.333-1.966-1.434-3.899-3.3c-1.267-1.2-2.084-1.417-2.45-0.65c-0.434,0.934-1.233,1.2-2.4,0.8
					c-0.899-0.3-2.1-1.033-3.6-2.199c-1.333-1.267-2.183-2.084-2.55-2.45c-0.6-0.566-1.167-0.584-1.7-0.05
					c-0.7,0.699-1.567,1.199-2.6,1.5c-1.133,0.3-2.167,0.267-3.1-0.101c-0.966-0.767-1.65-1.283-2.05-1.55
					c-0.633-0.4-1.45-0.1-2.45,0.9c-1.066,1.066-2.066,1.283-3,0.649c-0.4-0.233-1.05-0.983-1.95-2.25
					c-0.567-1.133-0.983-1.916-1.25-2.35c-0.533-0.8-1.167-0.983-1.9-0.55c-1,0.633-1.767,1.017-2.3,1.149
					c-0.667,0.2-1.133,0.084-1.4-0.35c-0.333-0.533-0.767-0.834-1.3-0.9c-0.7-0.1-1.85,0.134-3.45,0.7s-2.717,0.667-3.35,0.3
					c-0.433-0.233-0.816-0.866-1.15-1.899c-0.267-0.7-1.067-0.801-2.4-0.301c-0.733,0.267-2.283,1.051-4.65,2.351
					c-3.1,1.666-5.083,0.733-5.95-2.8c-0.333-1.301-0.233-3.4,0.3-6.301c0.434-2.399,0.85-4.05,1.25-4.95l8.85-0.6
					c2.867-0.233,9.35-0.683,19.45-1.35c8-0.567,14.467-1.067,19.4-1.5c2.267-0.2,5.217-0.4,8.85-0.6
					c4.767-0.267,7.717-0.434,8.851-0.5c0.733-0.033,1.75-0.15,3.05-0.35c1.167-0.133,2.2-0.1,3.1,0.1c2.801,0.633,5.134,1,7,1.1
					c2.434,0.1,4.784-0.167,7.051-0.8c1.666-0.467,3.733-0.816,6.199-1.05C159.75,95.467,161.833,95.3,164.6,95.1z"/>
			</g>
			<g>
				
					<radialGradient id="SVGID_16_" cx="99.459" cy="51.6523" r="112.7204" gradientTransform="matrix(0.9992 0.0411 0.0437 -1.0615 -4.3818 106.4368)" gradientUnits="userSpaceOnUse">
					<stop  offset="0" style="stop-color:#ED5E57"/>
					<stop  offset="0.5765" style="stop-color:#CC2130"/>
				</radialGradient>
				<path style="fill-rule:evenodd;clip-rule:evenodd;fill:url(#SVGID_16_);" d="M195.35,90.65c4.233,6.7,6.467,11.833,6.7,15.4
					c-0.066-0.033-0.733-0.617-2-1.75c-0.934-0.833-1.583-1.05-1.95-0.65c-0.267,0.3-0.166,1.217,0.301,2.75
					c0.466,1.633,0.666,2.633,0.6,3c-0.366,1.6-2.134,1.8-5.3,0.6c-3.467-1.634-5.601-2.6-6.4-2.9c-1.6-0.8-2.85-1.366-3.75-1.7
					c-1.666-0.6-2.533-0.483-2.6,0.35c0.333,2.3,0.5,3.467,0.5,3.5c-0.167,0.833-1.233,0.6-3.2-0.7c-1.7-1.1-3.05-1.633-4.05-1.6
					c-1.434,0.033-2.4,1.1-2.9,3.2c-0.566,2.6-1.1,4.267-1.6,5c-0.967,1.533-2.4,1.6-4.3,0.199c-3.334-2.533-5.551-4.55-6.65-6.05
					c-0.9-1.2-1.533-1.816-1.9-1.85c-0.366,0-0.649,0.25-0.85,0.75c-0.134,0.366-0.15,1.083-0.05,2.149
					c0.066,1.334,0.066,2.284,0,2.851c-0.167,1.066-0.584,1.866-1.25,2.399c-0.634,0.5-1.2,0.75-1.7,0.75
					c-0.5-0.033-1.033-0.333-1.6-0.899c-0.334-0.367-0.917-1.117-1.75-2.25l-0.25-0.3c-1.4-1.967-2.684-2.983-3.851-3.051
					c-0.8,0-1.399,0.417-1.8,1.25c-1.333,2.9-2.667,4.334-4,4.301l-0.2-0.051c-0.467-0.066-0.983-0.616-1.55-1.649
					c-0.3-0.467-0.783-1.434-1.45-2.9c-0.5-1.1-0.833-1.8-1-2.1c-0.267-0.467-0.533-0.717-0.8-0.75l-0.35,0.1
					c-0.267,0.233-0.584,1.217-0.95,2.95c-0.334,1.566-0.634,2.75-0.9,3.55c-0.434,1.434-0.983,2.55-1.649,3.351
					c-0.733,0.899-1.667,1.316-2.801,1.25c-1.333-0.034-2.683-0.667-4.05-1.9c-1.333-1.233-2.483-2.833-3.45-4.8
					c-0.966-2.134-1.716-4.184-2.25-6.15c-0.133-0.7-0.316-1.05-0.55-1.05c-0.2,0-0.45,0.283-0.75,0.85l-0.2,0.351
					c-1.1,2.1-1.933,3.133-2.5,3.1c-0.333,0-0.65-0.3-0.95-0.899c-0.767-1.301-1.383-1.95-1.85-1.95c-0.433,0-0.733,0.35-0.9,1.05
					c-1.033,4.634-2.05,6.934-3.05,6.9c-0.333,0-0.733-0.267-1.2-0.801c-0.267-0.3-0.6-1.166-1-2.6
					c-0.333-1.066-0.583-1.75-0.75-2.05c-0.2-0.467-0.433-0.7-0.7-0.7c-0.133-0.066-0.284,0-0.45,0.2
					c-0.233,0.333-0.683,0.7-1.35,1.1c-0.767,0.467-1.417,0.684-1.95,0.65c-0.5,0-0.8-0.283-0.9-0.851l-0.25-1.3
					c-0.133-0.833-0.267-1.383-0.4-1.649c-0.167-0.434-0.4-0.65-0.7-0.65c-0.333,0-0.684,0.184-1.05,0.55
					c-0.633,0.634-1.45,1.233-2.45,1.8c-1.133,0.7-2.05,1.034-2.75,1c-0.534,0-0.883-0.283-1.05-0.85
					c-0.267-0.967-0.083-2.55,0.55-4.75c0.3-1.067,0.383-1.683,0.25-1.85c-0.133-0.133-0.25-0.2-0.35-0.2
					c-0.167,0-0.317,0.066-0.45,0.2c-0.5,0.3-1.267,0.95-2.3,1.95c-2.233,2-3.95,3.4-5.15,4.2c-1.4,0.934-2.733,1.367-4,1.3
					c-1.133-0.066-1.934-0.483-2.4-1.25c-0.5-0.767-0.533-1.75-0.1-2.95c0.733-2.2,0.933-3.55,0.6-4.05c-0.1-0.2-0.25-0.3-0.45-0.3
					c-0.367,0-0.85,0.317-1.45,0.95c-1.066,1.2-2.35,2.417-3.85,3.65c-1.966,1.633-3.417,2.433-4.35,2.4l-0.2-0.05
					c-0.7-0.167-0.983-1.134-0.85-2.9c0.033-0.533,0-0.85-0.1-0.95l-0.1-0.1l-0.15-0.05c-0.133,0-0.3,0.133-0.5,0.4
					c-0.4,0.567-0.75,0.85-1.05,0.85l-0.05-0.05c-0.233-0.233-0.167-0.95,0.2-2.15c1.967-6.667,5.967-13.8,12-21.4
					c8.5-10.767,18.567-18.267,30.2-22.5c10.367-3.8,20.167-5.5,29.4-5.1c5.2,0.233,10.483,1.184,15.85,2.85
					c5.334,1.667,10.301,3.917,14.9,6.75C179.15,71,188.684,80.083,195.35,90.65z"/>
			</g>
			
				<use xlink:href="#flash0.ai_x5F_1_x2F_Layer_3_x2F__x3C_Group_x3E__x5F_14"  width="6.767" height="7.8" x="-0.013" y="-7.8" transform="matrix(1 0 0 -1 96.9502 80.3999)" style="overflow:visible;opacity:0.5117;enable-background:new    ;"/>
			
				<use xlink:href="#flash0.ai_x5F_1_x2F_Layer_3_x2F__x3C_Group_x3E__x5F_13"  width="9.898" height="9.763" x="0.018" y="-9.76" transform="matrix(1 0 0 -1 141.4004 76.8999)" style="overflow:visible;opacity:0.5117;enable-background:new    ;"/>
			
				<use xlink:href="#flash0.ai_x5F_1_x2F_Layer_3_x2F__x3C_Group_x3E__x5F_12"  width="20.658" height="13.925" y="-13.954" transform="matrix(1 0 0 -1 88.3501 65.25)" style="overflow:visible;opacity:0.6992;enable-background:new    ;"/>
			
				<use xlink:href="#flash0.ai_x5F_1_x2F_Layer_3_x2F__x3C_Group_x3E__x5F_11"  width="14.106" height="5.666" x="-0.004" y="-5.666" transform="matrix(1 0 0 -1 111.8501 57.4502)" style="overflow:visible;opacity:0.6992;enable-background:new    ;"/>
			
				<use xlink:href="#flash0.ai_x5F_1_x2F_Layer_3_x2F__x3C_Group_x3E__x5F_10"  width="10.129" height="9.276" x="-0.015" y="-9.3" transform="matrix(1 0 0 -1 177.2998 75.1001)" style="overflow:visible;opacity:0.6992;enable-background:new    ;"/>
			
				<use xlink:href="#flash0.ai_x5F_1_x2F_Layer_3_x2F__x3C_Group_x3E__x5F_9"  width="9.072" height="10.05" y="-10.05" transform="matrix(1 0 0 -1 77 75.5498)" style="overflow:visible;opacity:0.6992;enable-background:new    ;"/>
			
				<use xlink:href="#flash0.ai_x5F_1_x2F_Layer_3_x2F__x3C_Group_x3E__x5F_8"  width="7.829" height="11.351" x="-0.022" y="-11.35" transform="matrix(1 0 0 -1 81.3999 87)" style="overflow:visible;opacity:0.5703;enable-background:new    ;"/>
			
				<use xlink:href="#flash0.ai_x5F_1_x2F_Layer_3_x2F__x3C_Group_x3E__x5F_7"  width="12.635" height="13.89" x="0.027" y="-13.882" transform="matrix(1 0 0 -1 157.6504 79.75)" style="overflow:visible;opacity:0.5703;enable-background:new    ;"/>
			
				<use xlink:href="#flash0.ai_x5F_1_x2F_Layer_3_x2F__x3C_Group_x3E__x5F_6"  width="21.061" height="9.927" x="-0.008" y="-9.922" transform="matrix(1 0 0 -1 123.75 63.75)" style="overflow:visible;opacity:0.5313;enable-background:new    ;"/>
			
				<use xlink:href="#flash0.ai_x5F_1_x2F_Layer_3_x2F__x3C_Group_x3E__x5F_5"  width="16.045" height="11.948" x="-0.05" y="-11.912" transform="matrix(1 0 0 -1 160.0996 69.9502)" style="overflow:visible;opacity:0.5313;enable-background:new    ;"/>
			
				<use xlink:href="#flash0.ai_x5F_1_x2F_Layer_3_x2F__x3C_Group_x3E__x5F_4"  width="8.35" height="4.307" y="-4.307" transform="matrix(1 0 0 -1 132.9502 55.3999)" style="overflow:visible;opacity:0.6992;enable-background:new    ;"/>
			
				<use xlink:href="#flash0.ai_x5F_1_x2F_Layer_3_x2F__x3C_Group_x3E__x5F_3"  width="14.66" height="11.318" x="-0.011" y="-11.308" transform="matrix(1 0 0 -1 112.2002 74.3501)" style="overflow:visible;opacity:0.3711;enable-background:new    ;"/>
			
				<use xlink:href="#flash0.ai_x5F_1_x2F_Layer_3_x2F__x3C_Group_x3E__x5F_2"  width="9.202" height="7.205" x="-0.001" y="-7.205" transform="matrix(1 0 0 -1 151.4004 59.5)" style="overflow:visible;opacity:0.4414;enable-background:new    ;"/>
			
				<use xlink:href="#flash0.ai_x5F_1_x2F_Layer_3_x2F__x3C_Group_x3E__x5F_1"  width="4.956" height="2.872" x="-0.006" y="-2.862" transform="matrix(1 0 0 -1 113.8999 70.0498)" style="overflow:visible;opacity:0.6992;enable-background:new    ;"/>
			
				<use xlink:href="#flash0.ai_x5F_1_x2F_Layer_3_x2F__x3C_Group_x3E_"  width="4" height="4.154" y="-4.154" transform="matrix(1 0 0 -1 182.5498 85.3999)" style="overflow:visible;opacity:0.6992;enable-background:new    ;"/>
			
				<use xlink:href="#flash0.ai_x5F_1_x2F_Layer_3_x2F__x3C_Clip_Group_0_x3E__x5F_0"  width="184.882" height="105.677" x="-0.041" y="-105.638" transform="matrix(1 0 0 -1 45.3501 19.3501)" style="overflow:visible;"/>
		</g>
	</g>
	<g>
		<path style="fill-rule:evenodd;clip-rule:evenodd;fill:#FBE6C3;" d="M70.4,168.3c-0.667,0.5-1.1,0.533-1.3,0.101
			c0.066-0.801,0.316-1.45,0.75-1.95c0.233-0.3,0.517-0.601,0.85-0.9c0.333-0.3,0.6-0.583,0.8-0.85l0.3-0.3
			c0.4-0.301,1.034-0.417,1.9-0.351c1.133,0.066,1.8,0.084,2,0.05c1.767-0.267,3.8-0.333,6.1-0.199c1.5,0.066,3.517,0.267,6.05,0.6
			c3.1,0.333,5.033,0.634,5.8,0.9c0.7,0.233,1.467,0.8,2.3,1.699c0.8,0.867,1.35,1.667,1.65,2.4c0.3,0.833,0.017,1.134-0.85,0.9
			c-1.033-0.434-1.683-0.684-1.95-0.75c-0.633-0.167-1.083,0.05-1.35,0.649c-0.434,0.967-0.684,1.483-0.75,1.55
			c-0.567,0.5-1.233,0.617-2,0.351c-0.4-0.134-1.034-0.5-1.9-1.101c-0.833-0.6-1.466-0.949-1.9-1.05c-0.333-0.1-0.667-0.083-1,0.05
			c-0.367,0.167-0.667,0.284-0.9,0.351c-0.267,0.066-0.683-0.033-1.25-0.3c-0.633-0.334-1.05-0.517-1.25-0.551
			c-0.633-0.1-1.283,0.051-1.95,0.45c-0.367,0.267-0.917,0.667-1.65,1.2c-1,0.566-1.816,0.434-2.45-0.4
			c-0.167-0.3-0.3-0.517-0.4-0.649c-0.167-0.267-0.367-0.417-0.6-0.45c-0.167-0.033-0.567,0.066-1.2,0.3
			c-0.4,0.167-0.767,0.05-1.1-0.35c-0.167-0.167-0.35-0.467-0.55-0.9c-0.2-0.467-0.4-0.783-0.6-0.95
			C71.7,167.583,71.167,167.733,70.4,168.3z"/>
	</g>
	<g>
		
			<radialGradient id="SVGID_17_" cx="39.3901" cy="168.375" r="40.8285" gradientTransform="matrix(0.9781 -0.208 -0.1761 -0.8283 64.6778 304.157)" gradientUnits="userSpaceOnUse">
			<stop  offset="0" style="stop-color:#E03833"/>
			<stop  offset="1" style="stop-color:#C91438"/>
		</radialGradient>
		<path style="fill-rule:evenodd;clip-rule:evenodd;fill:url(#SVGID_17_);" d="M69.6,166.35c1.167-2.066,2.033-3.616,2.6-4.649
			c1.533-2.733,3.066-4.75,4.6-6.05c1.967-1.733,4.067-2.65,6.3-2.75c1.4-0.034,2.783,0.25,4.15,0.85
			c1.333,0.566,2.517,1.366,3.55,2.4c1.9,1.899,3.4,4.399,4.5,7.5c0.267,0.833,0.733,1.899,1.4,3.199
			c0.1,0.2,0.316,0.634,0.65,1.301c0.267,0.666,0.3,1.133,0.1,1.399c-0.267,0.4-0.8,0.233-1.6-0.5c-0.967-0.899-1.567-1.35-1.8-1.35
			c-0.5,0-1.033,0.467-1.6,1.399c-0.5,0.867-1.083,1.233-1.75,1.101c-0.333-0.066-0.784-0.283-1.35-0.65
			c-0.6-0.399-1.05-0.649-1.35-0.75c-0.333-0.066-0.683-0.05-1.05,0.05c-0.434,0.2-0.767,0.334-1,0.4
			c-0.534,0.2-1.083,0.167-1.65-0.1c-0.5-0.334-0.917-0.601-1.25-0.801c-0.566-0.333-1-0.366-1.3-0.1
			c-1.467,1.366-2.6,2.116-3.4,2.25c-0.833,0.134-1.417-0.233-1.75-1.1c-0.367-1.067-0.75-1.667-1.15-1.801
			c-0.2-0.066-0.517,0-0.95,0.2c-0.4,0.2-0.717,0.25-0.95,0.15c-0.167-0.066-0.333-0.3-0.5-0.7c-0.133-0.4-0.3-0.634-0.5-0.7
			c-0.267-0.133-0.566-0.066-0.9,0.2c-0.2,0.167-0.45,0.4-0.75,0.7l-0.05,0.05c-0.7,0.634-1.184,0.8-1.45,0.5
			C69.133,167.733,69.2,167.184,69.6,166.35z"/>
	</g>
	<g>
		
			<linearGradient id="SVGID_18_" gradientUnits="userSpaceOnUse" x1="172.4063" y1="-61.2349" x2="207.1443" y2="-61.2349" gradientTransform="matrix(0.321 0.9471 -0.9471 0.321 3.572106e-004 -2.223253e-004)">
			<stop  offset="0" style="stop-color:#242224"/>
			<stop  offset="0.2118" style="stop-color:#27252E"/>
			<stop  offset="0.5765" style="stop-color:#302E49"/>
			<stop  offset="0.6353" style="stop-color:#32304E"/>
			<stop  offset="1" style="stop-color:#617D84"/>
		</linearGradient>
		<path style="fill-rule:evenodd;clip-rule:evenodd;fill:url(#SVGID_18_);" d="M119.5,170.45c-1.967,1.166-3.5,0.8-4.6-1.101
			c-1.1-1.933-0.5-4.583,1.8-7.949c2.2-3.267,4.333-5,6.399-5.2c1.4-0.101,2.217,0.733,2.45,2.5c0.267,1.833-0.2,3.916-1.399,6.25
			C122.816,167.55,121.267,169.384,119.5,170.45z"/>
		
			<linearGradient id="SVGID_19_" gradientUnits="userSpaceOnUse" x1="150.7305" y1="-128.8271" x2="172.3624" y2="-128.8271" gradientTransform="matrix(-0.0543 0.9985 -0.9985 -0.0543 4.192628e-004 -2.024025e-004)">
			<stop  offset="0" style="stop-color:#242224"/>
			<stop  offset="0.2118" style="stop-color:#27252E"/>
			<stop  offset="0.5765" style="stop-color:#302E49"/>
			<stop  offset="0.6353" style="stop-color:#32304E"/>
			<stop  offset="1" style="stop-color:#617D84"/>
		</linearGradient>
		<path style="fill-rule:evenodd;clip-rule:evenodd;fill:url(#SVGID_19_);" d="M119.7,169.75c-1.867,1.167-3.283,0.866-4.25-0.9
			c-1-1.8-0.434-4.283,1.7-7.449c2.033-3.101,3.983-4.733,5.85-4.9c1.267-0.1,2.017,0.667,2.25,2.3
			c0.233,1.667-0.184,3.566-1.25,5.7C122.8,166.934,121.366,168.684,119.7,169.75z"/>
		
			<linearGradient id="SVGID_20_" gradientUnits="userSpaceOnUse" x1="155.249" y1="-128.6582" x2="174.6774" y2="-128.6582" gradientTransform="matrix(-0.0538 0.9986 -0.9986 -0.0538 -8.847825e-004 1.321286e-004)">
			<stop  offset="0" style="stop-color:#242224"/>
			<stop  offset="0.2118" style="stop-color:#27252E"/>
			<stop  offset="0.5765" style="stop-color:#302E49"/>
			<stop  offset="0.6353" style="stop-color:#32304E"/>
			<stop  offset="1" style="stop-color:#617D84"/>
		</linearGradient>
		<path style="fill-rule:evenodd;clip-rule:evenodd;fill:url(#SVGID_20_);" d="M119.6,168.9c-1.733,1.066-3.05,0.8-3.949-0.801
			c-0.9-1.6-0.367-3.833,1.6-6.699c1.9-2.767,3.717-4.233,5.45-4.4c1.166-0.066,1.866,0.634,2.1,2.1
			c0.233,1.5-0.149,3.2-1.149,5.101C122.517,166.4,121.167,167.967,119.6,168.9z"/>
		
			<linearGradient id="SVGID_21_" gradientUnits="userSpaceOnUse" x1="155.9961" y1="-128.7119" x2="188.2686" y2="-128.7119" gradientTransform="matrix(-0.0542 0.9985 -0.9985 -0.0542 -7.889941e-004 1.655743e-004)">
			<stop  offset="0" style="stop-color:#1F1D1F"/>
			<stop  offset="0.1961" style="stop-color:#232129"/>
			<stop  offset="0.5294" style="stop-color:#2E2C44"/>
			<stop  offset="0.6353" style="stop-color:#32304E"/>
			<stop  offset="1" style="stop-color:#617D84"/>
		</linearGradient>
		<path style="fill-rule:evenodd;clip-rule:evenodd;fill:url(#SVGID_21_);" d="M119.25,168.1c-1.9,0.767-3.25,0.317-4.05-1.35
			c-0.333-1.033,0.416-2.917,2.25-5.65c1.934-2.899,3.783-4.433,5.55-4.6c1.167-0.1,1.833,0.566,2,2c0.134,1.333-0.2,2.833-1,4.5
			C122.733,165.634,121.15,167.333,119.25,168.1z"/>
		
			<linearGradient id="SVGID_22_" gradientUnits="userSpaceOnUse" x1="118.6943" y1="170.2227" x2="121.1945" y2="170.2227" gradientTransform="matrix(0.9999 0.0102 -0.0102 0.9999 -1.777336e-005 2.350127e-004)">
			<stop  offset="0" style="stop-color:#242224"/>
			<stop  offset="0.2118" style="stop-color:#27252E"/>
			<stop  offset="0.5765" style="stop-color:#302E49"/>
			<stop  offset="0.6353" style="stop-color:#32304E"/>
			<stop  offset="1" style="stop-color:#617D84"/>
		</linearGradient>
		<polygon style="fill-rule:evenodd;clip-rule:evenodd;fill:url(#SVGID_22_);" points="117,168.35 117.4,168.4 119.2,170.15 
			116.7,174.5 117.25,170.35 		"/>
	</g>
	<g>
		<linearGradient id="SVGID_23_" gradientUnits="userSpaceOnUse" x1="109.9702" y1="164.4043" x2="140.7231" y2="131.3569">
			<stop  offset="0" style="stop-color:#242224"/>
			<stop  offset="0.2118" style="stop-color:#27252E"/>
			<stop  offset="0.5765" style="stop-color:#302E49"/>
			<stop  offset="0.6353" style="stop-color:#32304E"/>
			<stop  offset="1" style="stop-color:#617D84"/>
		</linearGradient>
		<path style="fill-rule:evenodd;clip-rule:evenodd;fill:url(#SVGID_23_);" d="M127.4,145.65c0.199,0.699,0.216,1.466,0.05,2.3
			c-0.367,1.666-1.066,3.116-2.101,4.35c-0.466,0.566-1.066,1.017-1.8,1.351c-0.033,0-0.399,0.149-1.1,0.449
			c-0.467,0.167-0.8,0.351-1,0.551c-0.167,0.133-0.417,0.366-0.75,0.699c0.3-0.533,0.434-0.916,0.399-1.149
			c-0.267,0.1-0.6,0.416-1,0.95c-0.433,0.533-0.783,1-1.05,1.399c0-0.133,0.134-0.533,0.4-1.2c0.467-0.933,0.7-1.583,0.7-1.949
			c-0.067-0.834-0.084-1.467-0.051-1.9c0.034-0.3,0.15-0.75,0.351-1.35c0.267-0.967,0.767-1.95,1.5-2.95c0.934-1.3,2-2.117,3.2-2.45
			C126.35,144.45,127.1,144.75,127.4,145.65z"/>
		<linearGradient id="SVGID_24_" gradientUnits="userSpaceOnUse" x1="114.5454" y1="153.7471" x2="127.9494" y2="147.4306">
			<stop  offset="0" style="stop-color:#242224"/>
			<stop  offset="0.2118" style="stop-color:#27252E"/>
			<stop  offset="0.5765" style="stop-color:#302E49"/>
			<stop  offset="0.6353" style="stop-color:#32304E"/>
			<stop  offset="1" style="stop-color:#617D84"/>
		</linearGradient>
		<path style="fill-rule:evenodd;clip-rule:evenodd;fill:url(#SVGID_24_);" d="M126.95,145.85c0.434,1.2,0.083,2.817-1.05,4.851
			c-1.167,2.1-2.384,3.066-3.65,2.899c-1.267-0.166-1.833-0.966-1.7-2.399c0.101-1.3,0.65-2.634,1.65-4
			c0.899-1.2,1.85-1.934,2.85-2.2C126.017,144.767,126.65,145.05,126.95,145.85z"/>
		<linearGradient id="SVGID_25_" gradientUnits="userSpaceOnUse" x1="113.1523" y1="154.4434" x2="125.3754" y2="148.6893">
			<stop  offset="0" style="stop-color:#242224"/>
			<stop  offset="0.2118" style="stop-color:#27252E"/>
			<stop  offset="0.5765" style="stop-color:#302E49"/>
			<stop  offset="0.6353" style="stop-color:#32304E"/>
			<stop  offset="1" style="stop-color:#617D84"/>
		</linearGradient>
		<path style="fill-rule:evenodd;clip-rule:evenodd;fill:url(#SVGID_25_);" d="M126.75,146.15c0.4,1.1,0.066,2.583-1,4.449
			c-1.066,1.934-2.184,2.817-3.35,2.65c-1.101-0.167-1.584-0.917-1.45-2.25c0.1-1.167,0.616-2.384,1.55-3.65
			c0.8-1.066,1.634-1.716,2.5-1.949C125.9,145.167,126.483,145.417,126.75,146.15z"/>
		<linearGradient id="SVGID_26_" gradientUnits="userSpaceOnUse" x1="105.9863" y1="157.5146" x2="125.3858" y2="148.3885">
			<stop  offset="0" style="stop-color:#617D84"/>
			<stop  offset="0.3647" style="stop-color:#32304E"/>
			<stop  offset="0.4902" style="stop-color:#2D2B42"/>
			<stop  offset="0.8118" style="stop-color:#211F27"/>
			<stop  offset="1" style="stop-color:#1D1B1D"/>
		</linearGradient>
		<path style="fill-rule:evenodd;clip-rule:evenodd;fill:url(#SVGID_26_);" d="M126.95,145.85c0.434,1.167,0.133,2.617-0.9,4.351
			c-0.967,1.633-1.833,2.416-2.6,2.35c-1.167-0.1-1.8-0.717-1.9-1.85c-0.1-1.134,0.4-2.434,1.5-3.9c0.7-0.934,1.45-1.517,2.25-1.75
			S126.65,145.083,126.95,145.85z"/>
	</g>
	<g>
		<linearGradient id="SVGID_27_" gradientUnits="userSpaceOnUse" x1="96.8872" y1="177.9619" x2="126.1144" y2="158.3652">
			<stop  offset="0" style="stop-color:#242224"/>
			<stop  offset="0.2118" style="stop-color:#27252E"/>
			<stop  offset="0.5765" style="stop-color:#302E49"/>
			<stop  offset="0.6353" style="stop-color:#32304E"/>
			<stop  offset="1" style="stop-color:#617D84"/>
		</linearGradient>
		<path style="fill-rule:evenodd;clip-rule:evenodd;fill:url(#SVGID_27_);" d="M108.2,168.65c0.367-0.733,0.8-1.351,1.3-1.851
			c0.767-0.8,1.55-1.2,2.35-1.2c0.8,0,1.233,0.367,1.3,1.101c0.067,0.467,0,1.05-0.2,1.75c-0.4,1.133-1.017,2.066-1.85,2.8
			c-0.367,0.333-0.8,0.55-1.3,0.65c-0.733,0.033-1.233,0.133-1.5,0.3c-0.333,0.233-0.517,0.35-0.55,0.35
			c0.267-0.3,0.4-0.55,0.4-0.75c-0.2,0.033-0.45,0.2-0.75,0.5c-0.433,0.467-0.7,0.75-0.8,0.851c0-0.134,0.133-0.417,0.4-0.851
			c0.367-0.5,0.583-0.934,0.65-1.3l0.2-1.4C108.017,169.167,108.133,168.85,108.2,168.65z"/>
		<linearGradient id="SVGID_28_" gradientUnits="userSpaceOnUse" x1="103.0313" y1="170.3633" x2="114.3317" y2="167.9653">
			<stop  offset="0" style="stop-color:#242224"/>
			<stop  offset="0.2118" style="stop-color:#27252E"/>
			<stop  offset="0.5765" style="stop-color:#302E49"/>
			<stop  offset="0.6353" style="stop-color:#32304E"/>
			<stop  offset="1" style="stop-color:#617D84"/>
		</linearGradient>
		<path style="fill-rule:evenodd;clip-rule:evenodd;fill:url(#SVGID_28_);" d="M112.85,166.8c0.133,1-0.283,2.134-1.25,3.4
			c-0.967,1.3-1.85,1.767-2.65,1.399c-0.767-0.366-1.034-1.083-0.8-2.149c0.233-0.967,0.75-1.834,1.55-2.601
			c0.7-0.699,1.383-1.05,2.05-1.05S112.783,166.134,112.85,166.8z"/>
		<linearGradient id="SVGID_29_" gradientUnits="userSpaceOnUse" x1="102.1719" y1="170.5537" x2="112.4712" y2="168.3756">
			<stop  offset="0" style="stop-color:#242224"/>
			<stop  offset="0.2118" style="stop-color:#27252E"/>
			<stop  offset="0.5765" style="stop-color:#302E49"/>
			<stop  offset="0.6353" style="stop-color:#32304E"/>
			<stop  offset="1" style="stop-color:#617D84"/>
		</linearGradient>
		<path style="fill-rule:evenodd;clip-rule:evenodd;fill:url(#SVGID_29_);" d="M112.7,167c0.133,0.9-0.25,1.934-1.15,3.1
			c-0.9,1.2-1.716,1.617-2.45,1.25c-0.7-0.333-0.917-0.983-0.65-1.949c0.2-0.834,0.667-1.634,1.4-2.4
			c0.633-0.634,1.25-0.95,1.85-0.95C112.3,166.083,112.633,166.4,112.7,167z"/>
		
			<linearGradient id="SVGID_30_" gradientUnits="userSpaceOnUse" x1="-20.335" y1="-200.9033" x2="-6.8113" y2="-200.9033" gradientTransform="matrix(-0.8799 0.4751 -0.4751 -0.8799 -5.899668e-004 2.400577e-004)">
			<stop  offset="0" style="stop-color:#1C1A1C"/>
			<stop  offset="0.2667" style="stop-color:#1D1B1E"/>
			<stop  offset="0.4039" style="stop-color:#201E26"/>
			<stop  offset="0.5137" style="stop-color:#262434"/>
			<stop  offset="0.6078" style="stop-color:#2F2D47"/>
			<stop  offset="0.6353" style="stop-color:#32304E"/>
			<stop  offset="1" style="stop-color:#617D84"/>
		</linearGradient>
		<path style="fill-rule:evenodd;clip-rule:evenodd;fill:url(#SVGID_30_);" d="M112.8,166.7c0.133,0.7-0.066,1.517-0.6,2.45
			c-0.467,0.866-0.934,1.366-1.4,1.5c-1.2,0.466-1.8,0.166-1.8-0.9c-0.033-1.066,0.483-2.134,1.55-3.2c0.4-0.399,0.867-0.6,1.4-0.6
			C112.483,165.983,112.767,166.233,112.8,166.7z"/>
	</g>
	
		<use xlink:href="#flash0.ai_x5F_1_x2F_Layer_3_x2F__x3C_Path_x3E__x5F_23"  width="6.515" height="4.487" x="-0.038" y="-4.47" transform="matrix(1 0 0 -1 76.3999 153.7998)" style="overflow:visible;opacity:0.2188;enable-background:new    ;"/>
	
		<use xlink:href="#flash0.ai_x5F_1_x2F_Layer_3_x2F__x3C_Path_x3E__x5F_22"  width="3.074" height="1.761" x="-0.026" y="-1.748" transform="matrix(1 0 0 -1 83.7002 153.75)" style="overflow:visible;opacity:0.2188;enable-background:new    ;"/>
	
		<use xlink:href="#flash0.ai_x5F_1_x2F_Layer_3_x2F__x3C_Path_x3E__x5F_21"  width="1.97" height="1.204" x="0.025" y="-1.2" transform="matrix(1 0 0 -1 82.7002 155.5996)" style="overflow:visible;opacity:0.2188;enable-background:new    ;"/>
	
		<use xlink:href="#flash0.ai_x5F_1_x2F_Layer_3_x2F__x3C_Path_x3E__x5F_20"  width="3.956" height="3.4" x="-0.045" y="-3.397" transform="matrix(1 0 0 -1 87.75 155.8496)" style="overflow:visible;opacity:0.2188;enable-background:new    ;"/>
	
		<use xlink:href="#flash0.ai_x5F_1_x2F_Layer_3_x2F__x3C_Path_x3E__x5F_19"  width="8.738" height="5.891" x="-0.026" y="-5.889" transform="matrix(1 0 0 -1 80.7998 157.2998)" style="overflow:visible;opacity:0.2188;enable-background:new    ;"/>
	
		<use xlink:href="#flash0.ai_x5F_1_x2F_Layer_3_x2F__x3C_Path_x3E__x5F_18"  width="2.658" height="2.49" x="0.026" y="-2.438" transform="matrix(1 0 0 -1 75 160.0498)" style="overflow:visible;opacity:0.2188;enable-background:new    ;"/>
	
		<linearGradient id="SVGID_31_" gradientUnits="userSpaceOnUse" x1="-187.8818" y1="116.7373" x2="-147.3282" y2="116.7373" gradientTransform="matrix(0.0623 -0.9981 0.9981 0.0623 -2.813525e-004 -7.919967e-005)">
		<stop  offset="0" style="stop-color:#20141B"/>
		<stop  offset="1" style="stop-color:#303B3B"/>
	</linearGradient>
	<path style="fill-rule:evenodd;clip-rule:evenodd;fill:url(#SVGID_31_);" d="M102.85,193.2c0.933-1.4,1.783-3.084,2.55-5.05
		c1.394-3.688,1.736-6.896,1.025-9.625l0.975,3.324c0.4,3.467-0.233,7.25-1.9,11.351H102.85z"/>
	
		<linearGradient id="SVGID_32_" gradientUnits="userSpaceOnUse" x1="-97.9243" y1="197.7246" x2="-71.7106" y2="197.7246" gradientTransform="matrix(0.5694 -0.8221 0.8221 0.5694 4.581213e-004 -2.419949e-004)">
		<stop  offset="0" style="stop-color:#20141B"/>
		<stop  offset="1" style="stop-color:#303B3B"/>
	</linearGradient>
	<path style="fill-rule:evenodd;clip-rule:evenodd;fill:url(#SVGID_32_);" d="M114.35,180.7c-1.5,1.6-2.65,3.217-3.45,4.85
		c-1.167,2.267-1.85,4.8-2.05,7.601l-1.5-0.101c0.133-1.066,0.45-2.3,0.95-3.7c0.934-2.8,2.233-5.066,3.9-6.8
		c2.033-2.133,3.267-3.45,3.7-3.95c0.625-0.725,1.142-1.449,1.55-2.175L117.1,177.1C116.4,178.3,115.483,179.5,114.35,180.7z"/>
	
		<linearGradient id="SVGID_33_" gradientUnits="userSpaceOnUse" x1="-192.4253" y1="78.8018" x2="-164.7702" y2="78.8018" gradientTransform="matrix(-0.1055 -0.9944 0.9944 -0.1055 1.242757e-005 -3.237426e-004)">
		<stop  offset="0" style="stop-color:#20141B"/>
		<stop  offset="1" style="stop-color:#303B3B"/>
	</linearGradient>
	<path style="fill-rule:evenodd;clip-rule:evenodd;fill:url(#SVGID_33_);" d="M96.8,174.3l1.75,5.2
		c1.367,4.767,2.083,9.05,2.15,12.85l-2.2,0.301c0.267-1.334,0.4-3.134,0.4-5.4C98.837,182.962,98.137,178.646,96.8,174.3z"/>
	
		<linearGradient id="SVGID_34_" gradientUnits="userSpaceOnUse" x1="-189.021" y1="116.7539" x2="-108.0883" y2="116.7539" gradientTransform="matrix(0.0624 -0.9981 0.9981 0.0624 3.261864e-004 -1.198277e-004)">
		<stop  offset="0" style="stop-color:#20141B"/>
		<stop  offset="1" style="stop-color:#303B3B"/>
	</linearGradient>
	<path style="fill-rule:evenodd;clip-rule:evenodd;fill:url(#SVGID_34_);" d="M102.6,192.85c-0.167-3.133-0.017-6.767,0.45-10.899
		c1-8.233,3.15-14.75,6.45-19.55l-1.15,2.199c-0.9,1.867-1.633,3.917-2.2,6.15c-1.933,7.066-2.066,14.384-0.4,21.95L102.6,192.85z"
		/>
	
		<radialGradient id="SVGID_35_" cx="108.9502" cy="188.5498" r="55.5125" gradientTransform="matrix(1 0 0 -0.3938 0 262.8064)" gradientUnits="userSpaceOnUse">
		<stop  offset="0" style="stop-color:#228B8F"/>
		<stop  offset="0.3922" style="stop-color:#258D91"/>
		<stop  offset="0.7373" style="stop-color:#309396"/>
		<stop  offset="1" style="stop-color:#3E9A9D"/>
	</radialGradient>
	<path style="fill-rule:evenodd;clip-rule:evenodd;fill:url(#SVGID_35_);" d="M129.4,195.95c3.6,1.166,7.183,2.566,10.75,4.2
		c2.533,0.767,5.666,2,9.399,3.699c3.9,1.767,7.233,3.467,10,5.101c-0.166,0.533-1.217,1.033-3.149,1.5
		c-3.801,0.899-10,1.133-18.601,0.7c-17.866-0.334-32.733-0.717-44.6-1.15c-22.6-0.767-33.284-2-32.05-3.7
		c2.2-3.1,6.733-6.166,13.6-9.2c9.2-4.066,19.033-5.816,29.5-5.25C114.25,192.417,122.634,193.783,129.4,195.95z"/>
	
		<use xlink:href="#flash0.ai_x5F_1_x2F_Layer_3_x2F__x3C_Path_x3E__x5F_12_x5F_0"  width="11.921" height="3.883" x="-0.015" y="-3.888" transform="matrix(1 0 0 -1 98.2998 193.25)" style="overflow:visible;opacity:0.3711;enable-background:new    ;"/>
	
		<use xlink:href="#flash0.ai_x5F_1_x2F_Layer_3_x2F__x3C_Path_x3E__x5F_11_x5F_0"  width="12.335" height="3.267" x="-0.039" y="-3.263" transform="matrix(1 0 0 -1 111.4502 193.4502)" style="overflow:visible;opacity:0.3711;enable-background:new    ;"/>
	
		<use xlink:href="#flash0.ai_x5F_1_x2F_Layer_3_x2F__x3C_Path_x3E__x5F_10_x5F_0"  width="5.482" height="2.82" x="-0.053" y="-2.806" transform="matrix(1 0 0 -1 111.3501 196.75)" style="overflow:visible;opacity:0.3711;enable-background:new    ;"/>
	
		<use xlink:href="#flash0.ai_x5F_1_x2F_Layer_3_x2F__x3C_Path_x3E__x5F_9_x5F_0"  width="9.219" height="4.488" x="-0.064" y="-4.461" transform="matrix(1 0 0 -1 102.75 198.6504)" style="overflow:visible;opacity:0.3711;enable-background:new    ;"/>
	
		<use xlink:href="#flash0.ai_x5F_1_x2F_Layer_3_x2F__x3C_Path_x3E__x5F_8_x5F_0"  width="8.638" height="2.298" x="-0.004" y="-2.278" transform="matrix(1 0 0 -1 82.2998 193.5)" style="overflow:visible;opacity:0.3711;enable-background:new    ;"/>
	
		<use xlink:href="#flash0.ai_x5F_1_x2F_Layer_3_x2F__x3C_Path_x3E__x5F_7_x5F_0"  width="2.904" height="1.634" x="-0.024" y="-1.662" transform="matrix(1 0 0 -1 95.0498 193.0996)" style="overflow:visible;opacity:0.3711;enable-background:new    ;"/>
	
		<use xlink:href="#flash0.ai_x5F_1_x2F_Layer_3_x2F__x3C_Path_x3E__x5F_6_x5F_0"  width="3.681" height="1.492" x="-0.063" y="-1.5" transform="matrix(1 0 0 -1 130.9004 197.2998)" style="overflow:visible;opacity:0.3711;enable-background:new    ;"/>
	
		<use xlink:href="#flash0.ai_x5F_1_x2F_Layer_3_x2F__x3C_Path_x3E__x5F_5_x5F_0"  width="7.946" height="3.3" x="-0.115" y="-3.3" transform="matrix(1 0 0 -1 69.7002 187.0996)" style="overflow:visible;opacity:0.1914;enable-background:new    ;"/>
	
		<use xlink:href="#flash0.ai_x5F_1_x2F_Layer_3_x2F__x3C_Path_x3E__x5F_4_x5F_0"  width="7.209" height="2.806" x="-0.064" y="-2.798" transform="matrix(1 0 0 -1 80.6499 186.5996)" style="overflow:visible;opacity:0.1914;enable-background:new    ;"/>
	
		<use xlink:href="#flash0.ai_x5F_1_x2F_Layer_3_x2F__x3C_Path_x3E__x5F_3_x5F_0"  width="3.986" height="2.213" x="-0.031" y="-2.185" transform="matrix(1 0 0 -1 75.4502 188.4502)" style="overflow:visible;opacity:0.1914;enable-background:new    ;"/>
	
		<use xlink:href="#flash0.ai_x5F_1_x2F_Layer_3_x2F__x3C_Path_x3E__x5F_2_x5F_0"  width="5.247" height="4.227" x="-0.108" y="-4.169" transform="matrix(1 0 0 -1 127.5498 183.75)" style="overflow:visible;opacity:0.1914;enable-background:new    ;"/>
	
		<use xlink:href="#flash0.ai_x5F_1_x2F_Layer_3_x2F__x3C_Path_x3E__x5F_1_x5F_0"  width="3.431" height="2.185" x="-0.081" y="-2.135" transform="matrix(1 0 0 -1 135.0996 189.1504)" style="overflow:visible;opacity:0.1914;enable-background:new    ;"/>
	
		<use xlink:href="#flash0.ai_x5F_1_x2F_Layer_3_x2F__x3C_Path_x3E__x5F_17"  width="5.12" height="4.174" x="-0.016" y="-4.101" transform="matrix(1 0 0 -1 128.9004 188.0996)" style="overflow:visible;opacity:0.1914;enable-background:new    ;"/>
</g>
</svg>
