<?xml version="1.0" encoding="iso-8859-1"?>
<!-- Generator: Adobe Illustrator 15.1.0, SVG Export Plug-In . SVG Version: 6.00 Build 0)  -->
<!DOCTYPE svg PUBLIC "-//W3C//DTD SVG 1.1//EN" "http://www.w3.org/Graphics/SVG/1.1/DTD/svg11.dtd">
<svg version="1.1" id="Layer_1" xmlns="http://www.w3.org/2000/svg" xmlns:xlink="http://www.w3.org/1999/xlink" x="0px" y="0px"
	 width="299.15px" height="305.6px" viewBox="0 0 299.15 305.6" style="enable-background:new 0 0 299.15 305.6;"
	 xml:space="preserve">
<g>
	
		<linearGradient id="SVGID_1_" gradientUnits="userSpaceOnUse" x1="-170.311" y1="152.9502" x2="117.7068" y2="152.9502" gradientTransform="matrix(0.0111 -0.9999 0.9999 0.0111 6.874651e-005 -5.905237e-005)">
		<stop  offset="0" style="stop-color:#B5D6BA"/>
		<stop  offset="1" style="stop-color:#CEE3D1"/>
	</linearGradient>
	<path style="fill-rule:evenodd;clip-rule:evenodd;fill:url(#SVGID_1_);" d="M219.35,95.95c-2.133,5.966-3.716,12.25-4.75,18.85
		c-3.3,21.067-0.383,41.283,8.75,60.65c-0.899-6.667-0.316-14.15,1.75-22.45c4.067-16.533,13.45-28.817,28.15-36.85
		c-1.3,0.9-2.816,2.317-4.55,4.25c-3.5,3.8-6.384,8.2-8.65,13.2c-7.166,16-6.717,34.917,1.351,56.75
		c-1.134-3.267-1.301-7.55-0.5-12.85c1.633-10.566,7.35-20.866,17.149-30.9l-2.35,4.35c-1.733,3.733-3.101,7.649-4.101,11.75
		c-3.133,13.166-1.883,25.783,3.75,37.85c7.101,15.134,15.601,32.783,25.5,52.95c7.233,15.8,13.334,32.483,18.301,50.05L0,305.6
		c1.433-5.566,3.55-12.816,6.35-21.75c5.533-17.899,11.633-35.316,18.3-52.25c11.1-26.5,18.767-45,23-55.5
		c6.934-17.233,12.817-35.633,17.65-55.2c2.1-8.533,4.633-20.283,7.6-35.25c3.1-15.667,5.367-26.5,6.8-32.5
		C85.2,30.217,92.15,15.1,100.55,7.8c10.267-8.966,20.633-10.183,31.1-3.65c10.667,6.7,19.167,20.184,25.5,40.45
		c2.633,8.5,5.083,19.45,7.35,32.85c1.3,7.667,3.2,19.517,5.7,35.55c4.967,28.592,12.367,51.692,22.2,69.3
		c-1.835-3.627-3.368-8.493-4.601-14.6c-3.066-15.233-2.25-32.417,2.45-51.55l-0.8,5.35c-0.434,4.6-0.367,9.45,0.2,14.55
		c1.8,16.333,8.183,32.233,19.149,47.7c-3.899-8.934-6.267-19.6-7.1-32c-1.667-24.733,5.184-45.667,20.55-62.8L219.35,95.95z"/>
	<g>
		
			<linearGradient id="SVGID_2_" gradientUnits="userSpaceOnUse" x1="-289.4429" y1="135.5029" x2="-159.5282" y2="135.5029" gradientTransform="matrix(0.0316 -0.9995 0.9995 0.0316 -1.578741e-004 4.882291e-004)">
			<stop  offset="0" style="stop-color:#B5D6BA"/>
			<stop  offset="1" style="stop-color:#CEE3D1"/>
		</linearGradient>
		<path style="fill-rule:evenodd;clip-rule:evenodd;fill:url(#SVGID_2_);" d="M113.05,55.35c6.967-7.867,14.167-8.9,21.6-3.1
			c7.367,5.767,12.983,18.333,16.85,37.7c1.1,5.433,2.583,13.833,4.45,25.2c1.8,10.2,3.616,18.317,5.45,24.35
			c4,13.167,8.783,26.333,14.35,39.5c3.866,9.066,7.5,16.816,10.9,23.25c11.133,20.9,19.8,43.95,26,69.15
			c3.133,12.6,5.133,23.1,6,31.5h-66l-119.351,2c1.6-9.934,4.25-22.367,7.95-37.301c7.433-29.833,16.467-57.216,27.1-82.149
			c7.033-16.434,13.367-34.133,19-53.1c4.233-14.2,7.783-28.017,10.65-41.45C101.467,74.633,106.483,62.783,113.05,55.35z"/>
		
			<linearGradient id="SVGID_3_" gradientUnits="userSpaceOnUse" x1="-257.3843" y1="142.3794" x2="41.6178" y2="142.3794" gradientTransform="matrix(0.039 -0.9992 0.9992 0.039 -6.921589e-006 4.777014e-004)">
			<stop  offset="0" style="stop-color:#B5D6BA"/>
			<stop  offset="1" style="stop-color:#CEE3D1"/>
		</linearGradient>
		<path style="fill-rule:evenodd;clip-rule:evenodd;fill:url(#SVGID_3_);" d="M136.5,79.5c2.8,4.033,5.45,11.017,7.95,20.95
			c1.7,6.7,3.917,17.466,6.649,32.3c3.334,17.867,5.801,30.517,7.4,37.95c0.9,4.233,4.184,12.5,9.85,24.8
			c7.334,15.934,12.317,27.3,14.95,34.1c5.8,15.034,11.434,31.75,16.9,50.15c2.733,9.233,4.883,16.95,6.45,23.15
			c-76,1.333-126.667,1.783-152,1.35c1.033-6.7,2.767-15.05,5.2-25.05c4.9-20.033,10.95-38.351,18.15-54.95
			c6.933-16.033,11.9-28.533,14.9-37.5c5.133-15.366,9.934-34.2,14.4-56.5c2.934-17.367,5.184-29.233,6.75-35.6
			c2.567-10.333,6.317-16.683,11.25-19.05C129.567,73.533,133.3,74.833,136.5,79.5z"/>
	</g>
	<path style="fill-rule:evenodd;clip-rule:evenodd;fill:#CEE3D1;" d="M123.9,118.95c0.567,2.466,0.7,5.583,0.4,9.35
		c-0.3,3.733-0.917,6.934-1.85,9.6c-1.034,2.934-2.233,4.4-3.6,4.4c-4.367,0-5.833-4.367-4.4-13.1c0.566-3.4,1.466-6.483,2.7-9.25
		c1.267-2.833,2.483-4.383,3.65-4.65C122.267,115,123.3,116.217,123.9,118.95z"/>
	<path style="fill-rule:evenodd;clip-rule:evenodd;fill:#CEE3D1;" d="M140.15,116.15c0.934,0.333,1.783,1.867,2.55,4.6
		c0.733,2.667,1.183,5.583,1.35,8.75c0.4,8.2-1.167,12.133-4.7,11.8c-1.1-0.1-1.934-1.55-2.5-4.35c-0.533-2.534-0.75-5.534-0.65-9
		c0.066-3.534,0.433-6.417,1.1-8.65C138.033,116.8,138.983,115.75,140.15,116.15z"/>
</g>
</svg>
