<?xml version="1.0" encoding="iso-8859-1"?>
<!-- Generator: Adobe Illustrator 15.1.0, SVG Export Plug-In . SVG Version: 6.00 Build 0)  -->
<!DOCTYPE svg PUBLIC "-//W3C//DTD SVG 1.1//EN" "http://www.w3.org/Graphics/SVG/1.1/DTD/svg11.dtd">
<svg version="1.1" id="Layer_1" xmlns="http://www.w3.org/2000/svg" xmlns:xlink="http://www.w3.org/1999/xlink" x="0px" y="0px"
	 width="205.1px" height="288.1px" viewBox="0 0 205.1 288.1" style="enable-background:new 0 0 205.1 288.1;" xml:space="preserve"
	>
<symbol  id="flash0.ai_x2F_Layer_1_x2F__x3C_Clip_Group_0_x3E_" viewBox="0 -288.088 205.1 288.09">
	<g id="Layer_1_6_">
	</g>
	<g>
		<defs>
			<path id="SVGID_1_" d="M195.6-262.85c-4.567,11.367-9.617,25.684-15.15,42.95c-1.9,5.967-10.6,36.683-26.1,92.15
				c-14.533,52-22.8,80.483-24.8,85.45c-6,14.966-11.75,25.767-17.25,32.4C103.233,1,93.867,2.867,84.2-4.3
				c-4.333-3.2-8.3-9.35-11.9-18.45c-2.867-7.233-5.867-17.383-9-30.45c-1.833-7.667-4.566-19.85-8.2-36.55
				c-3.434-15.067-6.617-27.283-9.55-36.65c-6.466-20.667-14.917-47.4-25.35-80.2C12.133-233.533,5.4-260.5,0-287.5
				c35.033-0.667,77.05-0.767,126.05-0.3c40.367,0.4,66.717,0.883,79.05,1.45C201.2-276.75,198.033-268.917,195.6-262.85z"/>
		</defs>
		<clipPath id="SVGID_2_">
			<use xlink:href="#SVGID_1_"  style="overflow:visible;"/>
		</clipPath>
		<g id="Layer_3_1_" style="clip-path:url(#SVGID_2_);">
			
				<use xlink:href="#flash0.ai_x2F_Layer_1_x2F__x3C_Path_x3E__x5F_3"  width="50.101" height="35.33" y="-35.328" transform="matrix(1 0 0 1 71.25 0)" style="overflow:visible;opacity:0.4492;enable-background:new    ;"/>
			
				<use xlink:href="#flash0.ai_x2F_Layer_1_x2F__x3C_Path_x3E__x5F_2"  width="76.587" height="55.736" y="-55.719" transform="matrix(1 0 0 1 61.7998 -34.6001)" style="overflow:visible;opacity:0.4492;enable-background:new    ;"/>
			
				<use xlink:href="#flash0.ai_x2F_Layer_1_x2F__x3C_Path_x3E__x5F_1"  width="94.7" height="74.39" y="-74.414" transform="matrix(1 0 0 1 54.5498 -59.3501)" style="overflow:visible;opacity:0.4492;enable-background:new    ;"/>
			
				<use xlink:href="#flash0.ai_x2F_Layer_1_x2F__x3C_Path_x3E_"  width="129.2" height="101.958" y="-101.945" transform="matrix(1 0 0 1 44.25 -118.1001)" style="overflow:visible;opacity:0.4492;enable-background:new    ;"/>
		</g>
	</g>
	<g id="Layer_4_1_">
	</g>
</symbol>
<symbol  id="flash0.ai_x2F_Layer_1_x2F__x3C_Path_x3E_" viewBox="0 -101.945 129.2 101.958">
	<g id="Layer_1_5_">
		<path style="fill-rule:evenodd;clip-rule:evenodd;fill:#C6E1B5;" d="M113-87.55c3.4,1.466,6.367,3.9,8.9,7.3
			c2.434,3.267,4.083,6.883,4.95,10.85l2.35-9.85c-1.2-5.467-3.467-10.367-6.8-14.7c-6.667-8.7-15.316-10.3-25.95-4.8
			c-5.567,2.9-11.567,8.267-18,16.1c-4.067,5-9.934,13.2-17.6,24.6c-5.167,8.433-9.483,15.233-12.95,20.4
			c-6.333,9.433-13.017,17.783-20.05,25.05C21.617-6.2,15.1-4.383,8.3-7.15c-3.4-1.4-6.167-3.434-8.3-6.1l2.15,7.3
			C4.283-3.85,7-2.233,10.3-1.1C16.867,1.2,23-0.067,28.7-4.9c7.733-6.533,17.55-18.2,29.45-35
			c14.067-19.833,23.967-32.883,29.7-39.15C96.317-88.283,104.7-91.117,113-87.55z"/>
	</g>
</symbol>
<symbol  id="flash0.ai_x2F_Layer_1_x2F__x3C_Path_x3E__x5F_1" viewBox="0 -74.414 94.7 74.39">
	<g id="Layer_1_4_">
		<path style="fill-rule:evenodd;clip-rule:evenodd;fill:#C6E1B5;" d="M91.65-43.75l0.25,3.25l2.8-9.85l-0.55-4.45
			c-0.533-3.4-1.2-6.2-2-8.4c-1.2-3.133-2.85-5.617-4.95-7.45c-1.667-1.434-3.733-2.533-6.2-3.3c-3.333-1-6.733-0.383-10.2,1.85
			c-4.133,2.667-9.017,7.917-14.65,15.75C48.75-46.083,43.1-38.633,39.2-34c-4.7,5.567-9.35,10.117-13.95,13.65
			c-3.9,3-8.517,3.1-13.85,0.3c-4.633-2.4-8.433-6-11.4-10.8l5.35,22.3C11.483-0.583,17.783,1.8,24.25-1.4
			c5.7-2.833,12.333-10.583,19.9-23.25c8.4-14.1,15.283-24.233,20.65-30.4c6.9-7.934,12.583-11.083,17.05-9.45
			c3.933,1.433,6.783,5.867,8.55,13.3C90.967-48.867,91.383-46.383,91.65-43.75z"/>
	</g>
</symbol>
<symbol  id="flash0.ai_x2F_Layer_1_x2F__x3C_Path_x3E__x5F_2" viewBox="0 -55.719 76.587 55.736">
	<g id="Layer_1_3_">
		<path style="fill-rule:evenodd;clip-rule:evenodd;fill:#C6E1B5;" d="M76.25-41.9c-0.933-5.567-3.633-9.783-8.1-12.65
			c-6.767-4.333-16.9,3.383-30.4,23.15c-5.967,8.667-11.867,13.933-17.7,15.8C13.183-13.433,6.5-16.05,0-23.45L3.9-7.8
			C8.433-2.833,13.033-0.233,17.7,0c4.7,0.233,9.233-1.95,13.6-6.55c1.833-1.934,4.233-5.083,7.2-9.45
			c1.733-2.5,4.433-6.517,8.1-12.05c6.933-10.167,12.4-16,16.4-17.5c3.967-1.5,6.683,1.183,8.15,8.05c0.6,2.8,1.033,7.7,1.3,14.7
			l3.85-11.6l0.25-2.2C76.65-38.4,76.55-40.167,76.25-41.9z"/>
	</g>
</symbol>
<symbol  id="flash0.ai_x2F_Layer_1_x2F__x3C_Path_x3E__x5F_3" viewBox="0 -35.328 50.101 35.33">
	<g id="Layer_1_2_">
		<path style="fill-rule:evenodd;clip-rule:evenodd;fill:#C6E1B5;" d="M43.45-10.8c2.667-3.534,4.617-7.067,5.85-10.6l0.8-3.75
			c0.033-3.067-1.1-6.1-3.4-9.1c-1.667-2.2-5.25-1.033-10.75,3.5c-3.333,2.933-5.917,5.167-7.75,6.7c-3.3,2.833-6.133,5-8.5,6.5
			c-4.8,3-8.9,3.216-12.3,0.65c-1.967-1.467-4.433-4.333-7.4-8.6c2.2,6.567,4.467,11.567,6.8,15C11.633-3.4,17.65,0.1,24.85,0
			C31.917-0.1,38.117-3.7,43.45-10.8z"/>
	</g>
</symbol>
<g>
	
		<linearGradient id="SVGID_3_" gradientUnits="userSpaceOnUse" x1="-314.6636" y1="110.6968" x2="154.3416" y2="110.6968" gradientTransform="matrix(0.0285 -0.9996 0.9996 0.0285 -4.540198e-004 2.348740e-004)">
		<stop  offset="0" style="stop-color:#CCE4E4"/>
		<stop  offset="0.4902" style="stop-color:#CDE7CF"/>
		<stop  offset="1" style="stop-color:#B5E4D6"/>
	</linearGradient>
	<path style="fill-rule:evenodd;clip-rule:evenodd;fill:url(#SVGID_3_);" d="M84.2,4.3c9.667-7.167,19.033-5.3,28.1,5.6
		c5.5,6.633,11.25,17.434,17.25,32.4c2,4.967,10.267,33.45,24.8,85.45c15.5,55.467,24.2,86.184,26.101,92.15
		c5.533,17.267,10.583,31.583,15.149,42.949c2.434,6.067,5.601,13.9,9.5,23.5c-12.333,0.567-38.683,1.051-79.05,1.45
		c-49,0.467-91.017,0.367-126.05-0.3c5.4-27,12.133-53.967,20.2-80.9c10.433-32.8,18.883-59.533,25.35-80.2
		c2.934-9.367,6.117-21.583,9.55-36.65c3.633-16.7,6.367-28.883,8.2-36.55c3.133-13.067,6.133-23.217,9-30.45
		C75.9,13.65,79.867,7.5,84.2,4.3z"/>
	
		<use xlink:href="#flash0.ai_x2F_Layer_1_x2F__x3C_Clip_Group_0_x3E_"  width="205.1" height="288.09" y="-288.088" transform="matrix(1 0 0 -1 0 0)" style="overflow:visible;"/>
</g>
</svg>
