<?xml version="1.0" encoding="iso-8859-1"?>
<!-- Generator: Adobe Illustrator 15.1.0, SVG Export Plug-In . SVG Version: 6.00 Build 0)  -->
<!DOCTYPE svg PUBLIC "-//W3C//DTD SVG 1.1//EN" "http://www.w3.org/Graphics/SVG/1.1/DTD/svg11.dtd">
<svg version="1.1" id="Layer_3" xmlns="http://www.w3.org/2000/svg" xmlns:xlink="http://www.w3.org/1999/xlink" x="0px" y="0px"
	 width="371.6px" height="372.75px" viewBox="0 0 371.6 372.75" style="enable-background:new 0 0 371.6 372.75;"
	 xml:space="preserve">
<symbol  id="FlashAICB_x2F_Layer_3_x2F__x3C_Clip_Group_0_x3E_" viewBox="0.057 -178.82 330.893 178.839">
	<g id="Layer_1_6_">
	</g>
	<g>
		<defs>
			<path id="SVGID_1_" d="M323.5-35.55c-4.767,0.667-7.517,1.1-8.25,1.3c-4.767,1.233-13.033,3.883-24.8,7.95
				c-10.4,3.566-18.717,6.017-24.95,7.35c-4.967,1.067-14.25,2.067-27.85,3c-11.767,0.8-20.967,2.284-27.6,4.45l-1.1,0.35
				c-7.467,3.033-12.983,5.283-16.55,6.75c-6.367,2.566-12.083,3.983-17.15,4.25c-14.633,0.767-27.65-1.067-39.05-5.5
				c-4.767-1.867-10.633-2.767-17.6-2.7c-8.033,0.434-14.067,0.684-18.1,0.75c-3.233,0.067-7.65-0.35-13.25-1.25
				c-6.2-1-10.617-1.55-13.25-1.65c-4.4-0.167-9.667-0.167-15.8,0c-7,0.267-12.267,0.45-15.8,0.55c-8.767,0.7-16,1.017-21.7,0.95
				C10.067-9.133,3.483-10.983,0.95-14.55c-1.667-2.4-1-6.8,2-13.2c1.633-3.433,3.95-7.767,6.95-13
				c1.467-3.233,2.517-5.383,3.15-6.45c1.434-2.367,3.083-4.066,4.95-5.1c1.1-0.6,2.75-0.983,4.95-1.15
				c2.333-0.167,3.983-0.45,4.95-0.85c1.767-0.767,3.417-2.2,4.95-4.3c0.867-1.2,2.133-3.05,3.8-5.55c2.7-3.533,6.1-6.55,10.2-9.05
				c2.433-1.466,6.4-3.55,11.9-6.25c4.2-2.233,8.883-6.15,14.05-11.75c2.867-3.133,6.95-7.767,12.25-13.9
				c3.9-4.167,6.434-5.833,7.6-5c0.434,0.3,1.117,1.217,2.05,2.75c1.133,1.934,2.233,3.5,3.3,4.7c1-2.5,2.25-4.533,3.75-6.1
				c0.967-0.967,2.783-2.4,5.45-4.3c2.367-1.7,4.633-4.05,6.8-7.05c1.233-1.7,3.117-4.383,5.65-8.05c1.233-1.6,3.167-3.117,5.8-4.55
				c2.867-1.533,4.8-2.833,5.8-3.9c2.467-2.633,4.417-7.566,5.85-14.8c1.9-9.7,3.05-15.083,3.45-16.15
				c3.7-10.034,7.633-9.883,11.8,0.45c1.133,2.767,2.633,7.35,4.5,13.75c1.667,5.633,2.816,9.017,3.45,10.15
				c1.333,2.434,3.284,3.9,5.85,4.4c4.6,0.9,7.184,1.483,7.75,1.75c3.233,1.433,6.467,4.216,9.7,8.35
				c1.833,2.367,4.35,5.934,7.55,10.7c1.4,1.867,3.033,4.633,4.9,8.3c2,3.934,3.55,6.7,4.65,8.3c1.466,2.1,3.55,4.283,6.25,6.55
				c2.6,2.2,5.083,3.917,7.45,5.15c1.867,0.934,3.517,1.417,4.95,1.45c0.033,0,1.8-0.167,5.3-0.5
				c4.033-0.433,8.017-0.517,11.95-0.25c4.833,0.333,8.683,1.2,11.55,2.6c2.9,1.4,8.767,4.533,17.6,9.4
				c7.133,3.9,13,6.783,17.6,8.65c2.233,0.9,4.617,2.4,7.15,4.5c0.2,0.167,2.283,2.067,6.25,5.7c3.233,2.9,6.7,4.9,10.4,6
				c0.733,0.2,1.184,0.316,1.35,0.35c0.3,0,0.617-0.083,0.95-0.25c-0.1-0.867-0.617-1.817-1.55-2.85c-0.867-0.934-1.566-1.8-2.1-2.6
				c-0.233-0.4-0.483-0.917-0.75-1.55c-0.433-1.067-0.667-1.617-0.7-1.65c-0.633-1.1-0.917-1.75-0.85-1.95
				c0.1-0.267,0.4-0.3,0.9-0.1c0.3,0.1,0.667,0.267,1.1,0.5c0.567,0.233,1.767,0.95,3.6,2.15c4.1,2.1,7.816,4.883,11.15,8.35
				c2.967,3.067,4.983,5.25,6.05,6.55c2.2,2.7,3.75,5.2,4.65,7.5C329.517-36.8,327.033-36.083,323.5-35.55z"/>
		</defs>
		<clipPath id="SVGID_2_">
			<use xlink:href="#SVGID_1_"  style="overflow:visible;"/>
		</clipPath>
		<g id="Layer_3_1_" style="clip-path:url(#SVGID_2_);">
			<g>
				
					<use xlink:href="#FlashAICB_x2F_Layer_3_x2F__x3C_Group_x3E__x5F_1"  width="322.725" height="166.5" x="-0.013" y="-166.506" transform="matrix(1 0 0 1 6.1001 -5.7002)" style="overflow:visible;opacity:0.9219;enable-background:new    ;"/>
				
					<use xlink:href="#FlashAICB_x2F_Layer_3_x2F__x3C_Group_x3E_"  width="322.835" height="144.52" y="-144.52" transform="matrix(1 0 0 1 3.5 -34.2998)" style="overflow:visible;enable-background:new    ;"/>
			</g>
		</g>
	</g>
	<g id="Layer_4_1_">
	</g>
</symbol>
<symbol  id="FlashAICB_x2F_Layer_3_x2F__x3C_Group_x3E_" viewBox="0 -144.52 322.835 144.52">
	<g id="Layer_1_5_">
		<g>
			
				<use xlink:href="#FlashAICB_x2F_Layer_3_x2F__x3C_Path_x3E__x5F_0"  width="322.835" height="144.52" y="-144.52" style="overflow:visible;opacity:0.7305;enable-background:new    ;"/>
		</g>
	</g>
</symbol>
<symbol  id="FlashAICB_x2F_Layer_3_x2F__x3C_Group_x3E__x5F_1" viewBox="-0.013 -166.506 322.725 166.5">
	<g id="Layer_1_4_">
		<g>
			
				<use xlink:href="#FlashAICB_x2F_Layer_3_x2F__x3C_Path_x3E_"  width="322.725" height="166.5" x="-0.013" y="-166.506" style="overflow:visible;opacity:0.3398;enable-background:new    ;"/>
		</g>
	</g>
</symbol>
<symbol  id="FlashAICB_x2F_Layer_3_x2F__x3C_Path_x3E_" viewBox="-0.013 -166.506 322.725 166.5">
	<g id="Layer_1_2_">
		
			<linearGradient id="SVGID_3_" gradientUnits="userSpaceOnUse" x1="-24.0664" y1="-15794.3193" x2="36.3101" y2="-15794.3193" gradientTransform="matrix(0.007 -1 1 0.007 15955.4385 58.1509)">
			<stop  offset="0" style="stop-color:#90B5B0"/>
			<stop  offset="1" style="stop-color:#BDDAC3"/>
		</linearGradient>
		<path style="fill-rule:evenodd;clip-rule:evenodd;fill:url(#SVGID_3_);" d="M294.05-47.9c-2.966-1.567-5.6-3.15-7.9-4.75
			c-7.9-5.467-13.9-11.733-18-18.8c-2.333-0.5-4.083-0.883-5.25-1.15c-2.066-0.5-3.767-1.083-5.1-1.75
			c0.467,1.067,1.284,2.317,2.45,3.75c0.667,0.833,1.65,1.983,2.95,3.45c1.033,1.2,2.8,2.933,5.3,5.2
			c2.367,2.2,4.117,3.983,5.25,5.35c0.567,0.667,3.033,2.667,7.4,6c3.833,3.3,5.233,5.6,4.2,6.9c-1.434-1.4-3.6-2.933-6.5-4.6
			c-3.233-1.8-5.55-3.133-6.95-4c0.434,1,0.8,1.683,1.1,2.05c-2.6-1.433-6.117-3.65-10.55-6.65c-4.8-3.267-8.25-5.517-10.35-6.75
			c0.4,0.633,1.117,1.45,2.15,2.45c1.033,1.067,1.75,1.883,2.15,2.45c0.367,0.533,0.783,1.317,1.25,2.35
			c0.467,1.066,0.867,1.867,1.2,2.4c-1.434-0.233-3.1-0.867-5-1.9c-0.467-0.267-1.983-1.2-4.55-2.8c-1.3-0.767-3.667-2.566-7.1-5.4
			c-0.6-0.5-1.467-1-2.6-1.5c-1.133-0.533-1.967-1-2.5-1.4s-1.35-1.283-2.45-2.65c-0.867-1.033-1.8-1.733-2.8-2.1
			c-2.833-2-5.267-3.6-7.3-4.8c-3.9-2.333-5.433-2.167-4.6,0.5c0.433,1.033,1.167,2.033,2.2,3c0.567,0.533,1.483,1.333,2.75,2.4
			c0.733,0.633,1.667,1.7,2.8,3.2c1.115,1.477,2.007,2.519,2.675,3.125c-1.115-0.962-3.324-2.087-6.625-3.375
			c-3.267-1.267-5.583-2.517-6.95-3.75c-3.1-3.2-5.466-5.566-7.1-7.1c-3-2.833-4.4-3.383-4.2-1.65c0.833,2.733,2.567,5.5,5.2,8.3
			c1.466,1.533,4.15,3.917,8.05,7.15c3.633,3.033,6.25,5.45,7.85,7.25c2.5,2.833,4.05,5.683,4.65,8.55
			c-6,1.034-10.883,1.15-14.65,0.35c-2.2-0.467-5.967-2.867-11.3-7.2c-4.966-4.1-10.1-8.9-15.4-14.4c-5.5-5.7-9.7-10.65-12.6-14.85
			c-3.233-4.733-4.167-7.633-2.8-8.7c-0.2-0.933-0.683-2.25-1.45-3.95c-0.833-1.767-1.367-3.066-1.6-3.9
			c1.6-0.033,3.8,0.934,6.6,2.9c2.667,1.867,4.8,2.65,6.4,2.35c-3.167-4.733-6.3-8.467-9.4-11.2c-0.6-0.534-2.85-1.883-6.75-4.05
			c-4.033-2.267-6.05-3.2-6.05-2.8c0.033,0.367-0.033,0.85-0.2,1.45c-0.2,0.667-0.3,1.05-0.3,1.15
			c-4.567-5.2-8.283-11.05-11.15-17.55c-2.8-6.4-4.667-13.117-5.6-20.15c-0.167-1.333-0.483-4.717-0.95-10.15
			c-0.8-4.7-2.367-6.983-4.7-6.85c-1.833,7.767-2.783,11.867-2.85,12.3c-0.8,4.467-1,8.65-0.6,12.55
			c0.533,5.2,0.633,9.417,0.3,12.65c-0.434,4.3-1.65,8.283-3.65,11.95c-1.367,2.2-2.367,3.883-3,5.05
			c-1.066,2.033-1.583,3.867-1.55,5.5c0.033,1.2,0.633,3.017,1.8,5.45c1.167,2.367,1.733,4.183,1.7,5.45
			c-0.033,1.667-0.567,3.25-1.6,4.75c-1.4,1.767-2.5,3.2-3.3,4.3c-1.833,2.566-3.2,5.066-4.1,7.5c-0.967,2.633-1.483,5.433-1.55,8.4
			c0,0.3,0.167,1.717,0.5,4.25c0.233,1.833,0.15,3.2-0.25,4.1c-0.4,0.9-0.967,1.517-1.7,1.85c-0.867,0.4-1.45,0.8-1.75,1.2
			c-1.333,1.733-2.15,3.633-2.45,5.7c-0.167,2.533-0.466,4.7-0.9,6.5c-4.933-1.4-7.533-6.167-7.8-14.3c0-0.2,0.05-3.55,0.15-10.05
			c0.067-3.867-0.183-6.717-0.75-8.55c-0.733,0.633-1.3,1.15-1.7,1.55c-0.767,0.7-1.316,1.333-1.65,1.9
			c-0.133-1.767,0.167-3.817,0.9-6.15c0.434-1.3,1.117-3.25,2.05-5.85c1.367-8.733,1.25-12.267-0.35-10.6
			c-3.3,3.367-5.833,6.567-7.6,9.6c-0.8,1.367-2.1,3.283-3.9,5.75c-1.867,2.567-3.183,4.5-3.95,5.8c-0.9,1.534-1.816,3.8-2.75,6.8
			c-1.033,3.233-1.883,5.517-2.55,6.85c-0.533,1.033-1.65,2.55-3.35,4.55c-1.6,1.867-2.65,3.4-3.15,4.6
			c-0.533,1.233-0.667,3.017-0.4,5.35c0.267,2.433,0.217,4.183-0.15,5.25c-0.934,2.7-3.817,5.45-8.65,8.25
			c-5.6,3.2-9,5.583-10.2,7.15c-0.7-0.733-1.117-1.817-1.25-3.25c-0.067-0.833-0.15-2.067-0.25-3.7c-0.133-0.9-0.75-2.633-1.85-5.2
			c-1-2.3-1.483-4-1.45-5.1c0.067-2.533,1.284-5.65,3.65-9.35c3.033-4.8,4.767-7.767,5.2-8.9c0.867-2.167,2.417-5.9,4.65-11.2
			c1.034-3.333-0.617-2.6-4.95,2.2c-2.633,2.9-6.517,7.25-11.65,13.05c-5.167,5.833-9.034,10.167-11.6,13
			c-1.367,1.5-2.9,3.75-4.6,6.75c-1.833,3.3-3.233,5.55-4.2,6.75c-1.133,1.4-2.7,2.1-4.7,2.1c-2.434-0.267-4.317-0.35-5.65-0.25
			c-1.967,0.133-3.367,0.667-4.2,1.6c-0.867,1.333-1.817,2.417-2.85,3.25c-0.7,0.566-1.933,0.917-3.7,1.05
			c-2.1,0.1-3.65,0.2-4.65,0.3c-3.7,0.433-5.15,2.3-4.35,5.6c0.367,1.567,2.216,3.3,5.55,5.2c1.767,1,4.15,2.35,7.15,4.05
			c2.133,1.633,3.9,2.767,5.3,3.4c1.9,0.833,3.95,1.167,6.15,1c3.8-0.3,8-0.233,12.6,0.2c1.566,0.167,5.767,0.7,12.6,1.6
			c16.733,2.133,34.7,3.583,53.9,4.35c16.167,0.633,34.183,0.8,54.05,0.5c20.933-0.367,38.717-1.317,53.35-2.85
			c19.4-2.033,36.867-5.383,52.4-10.05c9.933-2.934,21.217-7.434,33.85-13.5c0.5-0.233,3.15-1.684,7.95-4.35
			c3.267-1.8,5.983-3.033,8.15-3.7l0.25-0.05c0.8-0.233,2.583-0.4,5.35-0.5c2.4-0.333,3.7-1.233,3.9-2.7
			c0.066-0.433-0.15-0.867-0.65-1.3c-0.633-0.5-1.083-0.883-1.35-1.15l-0.7,0.6c-0.067-0.167-0.283-0.417-0.65-0.75
			c-0.333-0.333-0.533-0.566-0.6-0.7c0,0.133-0.05,0.35-0.15,0.65s-0.15,0.533-0.15,0.7c-1.067-0.4-1.817-0.733-2.25-1
			c-0.034,0.033-0.034,0.1,0,0.2c0.024,0.072,0.049,0.122,0.075,0.15c-0.477-0.215-1.385-0.715-2.725-1.5
			c0.4,0.8,0.934,1.534,1.6,2.2c-0.4-0.233-1.117-0.733-2.15-1.5c-0.9-0.633-1.633-1.067-2.2-1.3c0.2,0.267,0.367,0.65,0.5,1.15
			c-1.733,0.2-3.3,0.066-4.7-0.4c-0.567-0.167-2.017-0.833-4.35-2C297.183-46.333,294.45-47.7,294.05-47.9z"/>
	</g>
</symbol>
<symbol  id="FlashAICB_x2F_Layer_3_x2F__x3C_Path_x3E__x5F_0" viewBox="0 -144.52 322.835 144.52">
	<g id="Layer_1_3_">
		<path style="fill-rule:evenodd;clip-rule:evenodd;fill:#474D41;" d="M304.2-22.65c-1.034-1.4-1.65-2.65-1.85-3.75
			c1.2,0.066,2.8,0.8,4.8,2.2c1.033,0.733,2.483,1.9,4.35,3.5c0.767,0.633,1.933,1.75,3.5,3.35c1.5,1.434,2.667,2.5,3.5,3.2
			c0.533,0.433,1.217,0.8,2.05,1.1c1.367,0.533,2.1,0.816,2.2,0.85c0.4-1.3-0.617-3.35-3.05-6.15
			c-0.167-0.167-1.917-1.917-5.25-5.25c-2.067-2.1-4.717-4.15-7.95-6.15c-1.3-0.8-4.233-2.45-8.8-4.95
			c-2.867-1.6-7.034-2.883-12.5-3.85c-6.733-1.167-11.05-2.067-12.95-2.7c-1.333-0.433-2.967-1.183-4.9-2.25
			c-2.333-1.267-3.934-2.083-4.8-2.45c-1.7-0.767-3.917-1.983-6.65-3.65c-3.066-1.9-5.233-3.167-6.5-3.8
			c-4.333-2.2-9.566-4.15-15.7-5.85c-6.333-1.067-11.267-1.967-14.8-2.7c-6.5-1.333-10.9-3.45-13.2-6.35l-0.55-0.75
			c-0.967-1.5-2.033-3.867-3.2-7.1c-1.167-3.367-2.2-5.767-3.1-7.2c-1.767-2.867-4.117-5.7-7.05-8.5
			c-2.167-2.1-4.983-4.467-8.45-7.1c-9.567-7.333-16.717-14.017-21.45-20.05c-2.167-2.733-3.617-4.633-4.35-5.7
			c-1.5-2.267-2.517-4.4-3.05-6.4c-0.133-0.5-0.35-1.967-0.65-4.4c-0.233-1.767-0.633-3.167-1.2-4.2c-2.133-3.9-5.133-5.433-9-4.6
			c-3.566,0.767-6.267,2.966-8.1,6.6c-1.833,3.667-4.483,8.15-7.95,13.45c-5.233,7.933-8.1,12.3-8.6,13.1
			c-2.2,3.533-5.267,6.617-9.2,9.25c-1.167,0.8-5,2.95-11.5,6.45c-3.867,2.1-7.167,4.9-9.9,8.4c-1.467,1.933-3.75,5.617-6.85,11.05
			c-1.333,2.4-3.55,4.967-6.65,7.7c-4.033,3.633-6.5,5.966-7.4,7c-2.233,2.9-3.933,5.05-5.1,6.45c-2.033,2.4-4.05,4.184-6.05,5.35
			c-1.9,1.133-4.233,2.8-7,5c-3.667,2.9-5.95,4.667-6.85,5.3c-0.933,0.667-2.117,1.267-3.55,1.8c-1.633,0.566-2.883,1.033-3.75,1.4
			c-1.934,0.8-3.6,2.05-5,3.75c-1.5,2.067-2.75,3.683-3.75,4.85c-1,1.133-2.4,2.183-4.2,3.15c-2.133,1.033-3.717,1.833-4.75,2.4
			c-1.1,0.567-2.583,1.617-4.45,3.15c-1.9,1.534-3.367,2.583-4.4,3.15C6.417-14.317,4.5-12.067,2.9-8.8C1.667-6.3,0.7-3.367,0,0
			c1.533-0.767,3.017-2.65,4.45-5.65c1.767-3.633,3-5.833,3.7-6.6c1.434-1.6,3.367-2.8,5.8-3.6c3.333-1.033,5.783-1.617,7.35-1.75
			c0.767-0.066,2.083-0.1,3.95-0.1c1.6-0.1,2.8-0.5,3.6-1.2c0.733-0.667,1.6-1.967,2.6-3.9c1.066-2.067,1.95-3.467,2.65-4.2
			c0.566-0.633,1.7-1.733,3.4-3.3c1.5-1.4,2.6-2.534,3.3-3.4c0.667-0.833,1.5-1.917,2.5-3.25c0.9-1,2.034-1.783,3.4-2.35
			c3.1-1.3,5.75-2.667,7.95-4.1c3.3-2.133,5.684-3.917,7.15-5.35c0.867-0.9,2.35-1.95,4.45-3.15c2.167-1.233,3.65-2.233,4.45-3
			c0.566-0.533,1.566-1.817,3-3.85c1.066-1.5,2.283-2.633,3.65-3.4c2.133-1.167,3.883-2.283,5.25-3.35
			c1.167-0.9,2.117-1.95,2.85-3.15c0.433-0.733,1.133-1.917,2.1-3.55c1.2,0.7,2.034,1.867,2.5,3.5c0.434,1.567,0.434,3.034,0,4.4
			c-0.966,1.7-1.617,2.983-1.95,3.85c-0.633,1.6,0.033,1.817,2,0.65c0.4-0.267,0.85-0.8,1.35-1.6c0.566-0.9,0.983-1.467,1.25-1.7
			c0.333-0.333,0.9-0.733,1.7-1.2c0.8-0.5,1.367-0.9,1.7-1.2c0.7-0.667,1.417-1.683,2.15-3.05c0.9-1.733,1.5-2.817,1.8-3.25
			c0.934-1.333,2.8-2.867,5.6-4.6c2.633-1.633,4.383-3.25,5.25-4.85c0.434-0.767,0.833-1.85,1.2-3.25
			c0.433-1.567,0.783-2.65,1.05-3.25c0.434-1.067,1.167-2.05,2.2-2.95c0.566-0.5,1.6-1.233,3.1-2.2c0.2-0.133,1.167-0.9,2.9-2.3
			c1.566-1.233,2.433-1.867,2.6-1.9c0.6-0.1,0.933,0.633,1,2.2c0,1.833,0.017,3.033,0.05,3.6c1.267-1.733,2.533-3.817,3.8-6.25
			c0.733-1.4,1.8-3.6,3.2-6.6c1.467-3.167,2.483-7.333,3.05-12.5c0.9-8.067,1.4-12.35,1.5-12.85c0.4-2.267,1.017-4.167,1.85-5.7
			c1.233-2.333,2.75-3.267,4.55-2.8c2.2,0.567,3.883,3.033,5.05,7.4c0.967,4.9,1.683,8.033,2.15,9.4c0.367,1,1.15,2.617,2.35,4.85
			c1.1,2.067,1.833,3.717,2.2,4.95c0.5,2.233,0.883,3.867,1.15,4.9c0.433,1.867,1.05,3.467,1.85,4.8c1.367,2.3,2.483,4,3.35,5.1
			c1.8,2.3,3.284,3.317,4.45,3.05c-0.1-0.567-0.483-1.85-1.15-3.85c-0.4-1.867-0.233-3.05,0.5-3.55
			c0.533-0.367,1.583-0.267,3.15,0.3c0.033,0,1.1,0.45,3.2,1.35c1.633,0.667,3.15,1.833,4.55,3.5c0.8,0.966,2,2.517,3.6,4.65
			c2.9,3.3,5.2,7.017,6.9,11.15c0.7,1.733,1.783,4.05,3.25,6.95c1.7,3.367,2.833,5.683,3.4,6.95c1.467,3.267,4.283,6.133,8.45,8.6
			c1.167,0.7,2.95,1.683,5.35,2.95c2.133,1.2,3.85,2.3,5.15,3.3c2.467,1.933,3.733,2.933,3.8,3c1.533,1.167,2.883,2.067,4.05,2.7
			c-0.167-0.567-0.784-1.434-1.85-2.6c-0.934-1-1.4-1.917-1.4-2.75c0.133-0.033,0.933-0.467,2.4-1.3c0.8-0.466,1.75-0.617,2.85-0.45
			c0.733,0.1,1.833,0.433,3.3,1c1.4,0.566,2.483,0.883,3.25,0.95c-0.233-0.667-0.417-1.1-0.55-1.3c2.2-0.8,4.75-0.767,7.65,0.1
			c1.1,0.333,3.483,1.333,7.15,3c0.9,0.4,2.233,0.816,4,1.25c1.9,0.467,3.25,0.867,4.05,1.2c1,0.4,1.967,1.017,2.9,1.85
			c0.566,0.5,1.417,1.317,2.55,2.45c2.467,2.233,3.767,3.4,3.9,3.5c1.504,1.308,2.863,2.375,4.075,3.2
			c-0.719-0.524-1.627-1.674-2.725-3.45c-1.167-1.8-1.833-3.15-2-4.05c1,0.133,2.083,0.583,3.25,1.35c0.667,0.4,1.633,1.067,2.9,2
			c0.6,0.367,1.517,0.8,2.75,1.3c1.267,0.5,2.184,0.933,2.75,1.3c0.733,0.467,1.733,1.133,3,2c1.1,0.733,2.167,1.283,3.2,1.65
			c1.7,0.633,2.633,0.983,2.8,1.05c0.967,0.433,1.8,0.95,2.5,1.55c0.4,0.3,1.1,1.1,2.1,2.4c0.967,1.033,1.733,1.283,2.3,0.75
			c1.267,0.8,3.184,2.35,5.75,4.65c2.367,2.1,4.317,3.583,5.85,4.45c3.434,2,6.184,3.317,8.25,3.95c2.1,0.633,2.917,0.35,2.45-0.85
			c-0.267-0.7-1.05-1.95-2.35-3.75C305.617-20.683,304.767-21.85,304.2-22.65z"/>
	</g>
</symbol>
<g>
	
		<linearGradient id="SVGID_4_" gradientUnits="userSpaceOnUse" x1="-262.4053" y1="91.0015" x2="-117.7363" y2="91.0015" gradientTransform="matrix(-0.1141 -0.9935 0.9935 -0.1141 1.788288e-004 -9.683892e-004)">
		<stop  offset="0.0078" style="stop-color:#29545A"/>
		<stop  offset="0.3333" style="stop-color:#60A183"/>
		<stop  offset="1" style="stop-color:#B7DCCD"/>
	</linearGradient>
	<path style="fill-rule:evenodd;clip-rule:evenodd;fill:url(#SVGID_4_);" d="M166.95,164.2c-3.534,0.2-9.05,0.85-16.55,1.95
		c-7.167,1.033-12.683,1.633-16.55,1.8c-1.733,0.066-8.434,0.75-20.1,2.05c-8.2,0.867-14.9,0.983-20.1,0.35
		c-8.233-1.067-17.066-0.117-26.5,2.85c-2.566,0.833-5.2,1.816-7.9,2.95c-4.267,2.033-7.517,3.55-9.75,4.55
		c-4,1.8-7.367,2.95-10.1,3.45c1-1.633,2.45-3.3,4.35-5c0.933-0.867,2.667-2.283,5.2-4.25c1.333-1.033,2.75-2.433,4.25-4.2
		c2.233-2.567,3.517-4.034,3.85-4.4c1.6-1.6,2.867-2.433,3.8-2.5c0.667-0.066,2.183,0.034,4.55,0.3c3.533,0.066,6.934-1.2,10.2-3.8
		c2.4-1.9,5.117-4.933,8.15-9.1c3.267-4.8,5.75-8.267,7.45-10.4c2.9-3.7,5.633-6.233,8.2-7.6c3.4-1.8,6.783-1.55,10.15,0.75
		c2.067,1.433,4.9,4.417,8.5,8.95c3.7,4.667,6.5,7.684,8.4,9.05c3.233,2.367,6.45,2.683,9.65,0.95c1.467-0.8,3.1-1.717,4.9-2.75
		c1.433-0.433,3.3-0.05,5.6,1.15c0.8,0.434,2.833,2.1,6.1,5c2.566,2.267,4.783,3.467,6.65,3.6c0.867,0.067,1.733-0.217,2.6-0.85
		c0.966-0.667,1.733-1.033,2.3-1.1c1.133-0.133,2-0.133,2.6,0c0.4,0.1,1.233,0.316,2.5,0.65c1.467,0.3,3.917,0.783,7.35,1.45
		c3,0.7,5.3,1.534,6.9,2.5c-1.867,0.9-4.567,1.4-8.1,1.5C171.5,164.05,168.65,164.1,166.95,164.2z"/>
	<g>
		
			<linearGradient id="SVGID_5_" gradientUnits="userSpaceOnUse" x1="-583.98" y1="171.9141" x2="103.9549" y2="171.9141" gradientTransform="matrix(-0.114 -0.9935 0.9935 -0.114 1.447797e-004 1.658425e-004)">
			<stop  offset="0.0078" style="stop-color:#29545A"/>
			<stop  offset="0.3333" style="stop-color:#61A284"/>
			<stop  offset="1" style="stop-color:#B7DCCD"/>
		</linearGradient>
		<path style="fill-rule:evenodd;clip-rule:evenodd;fill:url(#SVGID_5_);" d="M155.8,49.75l-0.35,2.35l1-0.8L155.8,49.75z
			 M146.5,46.35l-0.3-1.05l-0.35,0.55c-0.167,0.833-0.25,1.333-0.25,1.5l-0.4-0.55c-1.367,1.934-2.983,3.934-4.85,6
			c-2.8,3.333-4.6,6.117-5.4,8.35c-1.3,3.567-0.617,6.467,2.05,8.7c-0.167-1.8,1.117-4.117,3.85-6.95c1.667-1.7,3.9-3.5,6.7-5.4
			c1.567-1.067,3.767-2.533,6.6-4.4l-0.55-5.7c-0.1,0.4-0.417,1.133-0.95,2.2c-0.433-1.133-0.517-2.233-0.25-3.3
			c-0.233,0.733-0.45,1.95-0.65,3.65c0.067-1.733-0.167-3.267-0.7-4.6c-0.5,2.2-0.833,4.083-1,5.65
			c-0.367-1.667-0.683-2.95-0.95-3.85c-0.434-1.566-1.017-2.7-1.75-3.4c-0.033,0.233-0.184,0.65-0.45,1.25
			C146.667,45.567,146.533,46.017,146.5,46.35z M141.225,39.4c0.029,0.733-0.229,1.6-0.775,2.6c-0.534,0.967-1.117,1.75-1.75,2.35
			c0-1.067,0.033-1.867,0.1-2.4c-0.2,0.533-0.6,1.316-1.2,2.35c0.167-0.8,0.25-1.8,0.25-3c-1.434,0.633-2.867,1.983-4.3,4.05
			c-1.1,2-2.267,3.9-3.5,5.7c-1.8,2.667-2.783,5.3-2.95,7.9c-0.167,2.2,0.233,4.267,1.2,6.2c0.067-1.333,0.317-2.65,0.75-3.95
			c0.967-2.567,3.317-5.333,7.05-8.3c4.433-3.5,7.183-5.983,8.25-7.45c-0.633-1.2-1-2.417-1.1-3.65c-0.233,1.1-0.75,2.75-1.55,4.95
			c0.066-0.967,0.017-2.233-0.15-3.8C141.377,41.137,141.269,39.954,141.225,39.4z M198.75,57.95c-0.333,1.533-0.616,2.633-0.85,3.3
			c0.133-1.633-0.051-3.633-0.551-6l-0.5,0.6c0.167,4.767,0.017,8.683-0.449,11.75c-0.362,2.203-1.262,5.736-2.7,10.6
			c0.172-0.421,0.655-1.071,1.45-1.95c0.466-0.533,1.083-1.217,1.85-2.05c0.4-0.567,1.333-1.733,2.8-3.5
			c1.267-1.5,2.167-2.7,2.7-3.6c2-3.333,3.417-6.95,4.25-10.85l-0.55,1c-0.295-1.114-0.253-2.247,0.125-3.4
			c-0.459,1.28-0.95,2.33-1.476,3.15c-0.3-1.7-0.383-3.167-0.25-4.4c-0.3,1-0.85,2.183-1.649,3.55
			c-0.934,1.533-1.617,2.684-2.05,3.45c-0.267-1.1-0.233-2.25,0.1-3.45c-0.167,0.4-0.483,1.033-0.95,1.9
			c-0.467-0.966-0.616-2.05-0.45-3.25C199.333,55.467,199.05,56.517,198.75,57.95z M194.1,58.15c-0.313-0.625-0.521-1.092-0.625-1.4
			c0.215,0.704,0.29,1.704,0.226,3c-0.4-1.367-0.834-2.483-1.3-3.35c-0.534,1.633-0.851,2.934-0.95,3.9l-0.4-1.45l-0.8,3.55
			c0.1-1.033,0.1-2.083,0-3.15c-0.1-0.667-0.184-1.067-0.25-1.2v0.05c-0.467,1.367-0.934,3.25-1.4,5.65
			c-0.533,3.033-0.899,4.933-1.1,5.7c0.566-2.534,0.717-5.633,0.45-9.3c-0.434,0.667-0.7,1.3-0.8,1.9l0.05-1.45
			c-0.834,0.8-1.467,1.833-1.9,3.1c-0.133-0.833-0.184-1.467-0.149-1.9c-0.8,1.434-1.384,2.85-1.75,4.25
			c-0.1-0.633-0.167-1.117-0.2-1.45c-0.1-0.567-0.117-1.083-0.05-1.55c-0.7,0.833-1.316,1.85-1.85,3.05
			c-0.533,1.133-0.85,2.133-0.95,3c-0.267-1.033-0.434-2.434-0.5-4.2c-0.8,3.033-1.233,5.65-1.3,7.85
			c-0.678-3.132-0.995-5.407-0.95-6.825c-0.108,1.839-0.325,4.564-0.65,8.175c-0.267,3.333-0.333,6.1-0.2,8.3
			c-0.367-1.867-0.7-4.75-1-8.65c-0.267-3.867-0.6-6.767-1-8.7c0.167,0.934,0.2,2.15,0.1,3.65c-0.033,0.867-0.117,2.117-0.25,3.75
			c-1.299-5.1-1.916-8.758-1.85-10.975l-0.3,5.325c-1.067-2.633-1.7-5.35-1.9-8.15l-0.3,0.5c-0.167-0.833-0.233-1.5-0.2-2
			c-0.933,1.533-1.55,3.217-1.85,5.05c-0.4-1.233-0.617-2.333-0.65-3.3c-0.8,1.5-1.3,3.467-1.5,5.9c-0.133,1.4-0.233,3.467-0.3,6.2
			c-0.367-1.767-0.633-4.083-0.8-6.95c-0.233-3.267-0.267-6.4-0.1-9.4c-0.4,0.067-0.8,1.75-1.2,5.05
			c-0.333,2.767-0.5,4.816-0.5,6.15c-0.3-2.3-0.533-4.05-0.7-5.25c-0.267-2.1-0.6-3.833-1-5.2c0,0.7-0.067,1.717-0.2,3.05
			c-0.594-2.179-1.303-3.871-2.125-5.075c0.335,0.52,0.194,1.579-0.425,3.175c-0.7-0.833-1.25-1.966-1.65-3.4
			c-0.667,0.8-1.367,1.533-2.1,2.2l-0.2,0.95l-0.15-0.65c-0.867,0.767-1.883,1.583-3.05,2.45c-4.5,3.167-7.283,5.667-8.35,7.5
			c-1.667,2.9-0.55,5.533,3.35,7.9c5.034,1.033,8.383,1.933,10.05,2.7c3.333,1.6,5.4,4.167,6.2,7.7c0.567,2.5,0.667,6.567,0.3,12.2
			c-0.333,5.333-0.117,9.316,0.65,11.95c1.5,5.167,5.517,6.833,12.05,5c2.2-0.633,4.833-1.7,7.9-3.2
			c1.666-0.833,3.767-1.917,6.3-3.25c3.1-1.5,5.983-2.817,8.65-3.95c-2.7-0.333-4.983-1.267-6.851-2.8
			c-2.066-1.667-3.333-3.8-3.8-6.4c-0.667-3.833,0.066-8.583,2.2-14.25c2.633-7,4.083-11.65,4.35-13.95
			c0.367-3.433,0.4-6.183,0.101-8.25L194.1,58.15z M249.95,59.3c-0.498-0.685-0.849-1.227-1.05-1.625
			c0.172,0.372,0.488,1.28,0.949,2.725l-0.85-1c0.267,0.667,0.384,1.517,0.35,2.55c0,0.6-0.05,1.483-0.149,2.65
			c-0.467-1.067-0.717-2.067-0.75-3c-0.167,1.467-0.667,3.4-1.5,5.8c-0.967,2.7-1.566,4.6-1.8,5.7
			c0.033-0.867,0.283-2.417,0.75-4.65c0.433-1.934,0.583-3.517,0.449-4.75c-0.233,1.367-0.733,2.7-1.5,4l-0.1-3.85
			c-0.4,1.367-1.233,2.6-2.5,3.7c-0.323-0.387-0.348-0.837-0.075-1.35c-1.352,2.405-2.177,4.005-2.475,4.8
			c-0.066-1.6,0.25-3.033,0.95-4.3c-1.134,1.4-1.95,2.517-2.45,3.35c-0.834,1.367-1.367,2.684-1.601,3.95
			c-0.699-1.933-0.949-3.533-0.75-4.8c-0.733,3.5-1.149,5.433-1.25,5.8c0.034-0.733-0.066-1.617-0.3-2.65
			c-0.333-1.533-0.517-2.417-0.55-2.65c0,1.1-0.384,2.733-1.15,4.9c-0.8,2.267-1.233,4.85-1.3,7.75c-0.3-4.2-0.133-7.567,0.5-10.1
			c-0.366,0.833-0.883,2.333-1.55,4.5c0.066-1.667,0.116-2.917,0.15-3.75c0.1-1.467,0.267-2.683,0.5-3.65
			c-0.233,0.5-0.65,1.25-1.25,2.25c0.033-1.167,0.083-2.05,0.149-2.65c-0.434,1.233-1.383,3.55-2.85,6.95
			c0.066-1.066,0.083-2.433,0.05-4.1c-0.066-2-0.1-3.333-0.1-4c-0.7,1.2-1.117,2.267-1.25,3.2c-0.301-0.567-0.551-1.017-0.75-1.35
			c-0.301-0.566-0.5-1.017-0.601-1.35c-0.233,0.567-0.434,1.317-0.6,2.25c-0.101,0.5-0.233,1.267-0.4,2.3
			c-0.2-0.633-0.45-1.783-0.75-3.45c-0.267-1.6-0.55-2.816-0.85-3.65c-0.066,0.567-0.334,1.467-0.8,2.7
			c-0.267-0.733-0.584-2.034-0.95-3.9c-0.101,0.467-0.316,1.217-0.65,2.25c-0.133-0.367-0.366-0.9-0.7-1.6
			c-0.366-0.7-0.6-1.2-0.699-1.5c-1.534,3.931-2.335,7.506-2.4,10.725c-0.026-4.243-0.442-7.801-1.25-10.675
			c-0.2,0.667-0.366,1.617-0.5,2.85c-0.134,1.333-0.283,2.283-0.45,2.85c-0.533-4.067-0.899-7.1-1.1-9.1
			c-0.367,1.7-0.566,2.75-0.601,3.15c-0.1-0.4-0.267-1.383-0.5-2.95c-0.166-1.2-0.399-2.133-0.699-2.8
			c-0.067,1.433-0.134,2.4-0.2,2.9c-0.134,1.067-0.384,1.934-0.75,2.6c-0.033-1.067-0.184-2.317-0.45-3.75
			c-0.366-1.633-0.634-2.867-0.8-3.7c-0.533,3.7-1.634,7.333-3.3,10.9c-1.634,3.5-4.567,8.65-8.801,15.45
			c-2.866,5.567-2.966,9.5-0.3,11.8c2.667,2.3,7.617,3.767,14.851,4.4c12.767-3.633,24.483-3.65,35.149-0.05
			c9.4,3.167,17.65,10.067,24.75,20.7c6.334,9.5,10.367,19.667,12.101,30.5c0.966,5.967,1.483,13.783,1.55,23.45
			c0.1,12.133,0.283,19.934,0.55,23.399c-11.833-4.233-25.566-6.616-41.2-7.149c-3.899-0.134-17.833,0.116-41.8,0.75
			c1.533-2.767,3.767-6.317,6.7-10.65c4.566-6.767,7.017-10.417,7.35-10.95c5.8-8.967,9.351-16.684,10.65-23.15
			c2.633-13.267-1-20.567-10.9-21.9c-5.233-0.667-14.717,0.833-28.45,4.5c-9,2.434-15.466,3.5-19.399,3.2
			c-6.667-0.5-11.617-3.133-14.85-7.9c-3.2-4.767-4.217-10.917-3.05-18.45c0.9-4.1,1.5-7.316,1.8-9.65
			c0.533-4.2,0.183-7.267-1.05-9.2c-0.9-1.433-2.35-2.633-4.35-3.6c-0.9-0.4-2.817-1.1-5.75-2.1
			c-4.367-1.267-8.083-3.383-11.15-6.35c-3.3-3.167-5.05-6.683-5.25-10.55c-0.267-4.333,1.467-8.833,5.2-13.5
			c1.933-2.467,3.4-4.617,4.4-6.45l0.15-0.85l-3,3.6c0.067-0.1,0.367-0.75,0.9-1.95c-1.1,1.4-1.95,2.434-2.55,3.1
			c0.1-1.066,0.2-1.85,0.3-2.35c-1.934,2.4-3.65,5.55-5.15,9.45c0-0.8,0.1-1.983,0.3-3.55c0.233-1.567,0.333-2.7,0.3-3.4
			c-1.167,1.9-1.85,4.784-2.05,8.65c-0.233,4.833-0.617,8.183-1.15,10.05c0.267-2.133,0.333-4.867,0.2-8.2
			c-0.233-3.8-0.4-6.566-0.5-8.3c-0.733,1.333-1.267,3.45-1.6,6.35c-0.2,1.633-0.4,3.9-0.6,6.8c0.167-3.267,0.216-5.816,0.15-7.65
			c-0.167-3.067-0.684-5.483-1.55-7.25c-0.5,1.067-0.983,2.8-1.45,5.2c-0.1-1.2-0.184-1.917-0.25-2.15
			c-0.133-0.733-0.4-1.383-0.8-1.95c0.034,0.066-0.066,0.233-0.3,0.5c-0.2,0.267-0.35,0.433-0.45,0.5c-0.4-0.8-0.783-1.133-1.15-1
			c-0.467,0.3-0.883,0.433-1.25,0.4c-0.167,0.633-0.517,1.55-1.05,2.75c-0.1-1.767-0.15-2.667-0.15-2.7
			c-0.167,0.633-0.467,1.6-0.9,2.9c-0.333,1.167-0.483,2.183-0.45,3.05l-0.25-3.65c-0.4,0.566-0.767,1.35-1.1,2.35
			c-0.167,0.566-0.4,1.35-0.7,2.35c0-1.566,0.034-2.733,0.1-3.5c-1,2.233-1.6,4.233-1.8,6c0-3.033,0.017-4.833,0.05-5.4
			c-0.867,2.833-1.367,6.684-1.5,11.55c-0.233,7.133-0.383,11.083-0.45,11.85c-0.267-2.233-0.4-5.966-0.4-11.2
			c0-4.9-0.2-8.633-0.6-11.2c-0.9,1.8-1.417,4.684-1.55,8.65c-0.367-1.433-0.55-3.117-0.55-5.05c-0.032-0.614,0.009-2.247,0.125-4.9
			c-0.073,0.957-0.381,3.007-0.925,6.15c-0.466,2.833-0.6,5.117-0.4,6.85c-1.1-6.467-1.433-11.483-1-15.05
			c-0.167,0.5-0.333,1.25-0.5,2.25c-0.167,1.067-0.316,1.817-0.45,2.25c-0.233-1.167-0.417-3.033-0.55-5.6l-0.3,1.15
			c-0.467-0.833-0.733-1.517-0.8-2.05l-0.9,0.9c-0.4-0.633-0.65-1.15-0.75-1.55v2.1c-0.7-0.633-1.283-1.483-1.75-2.55
			c-0.467-1.067-0.733-2.083-0.8-3.05c0,0.367-0.05,0.917-0.15,1.65c-0.7-1-1.317-2.633-1.85-4.9c0,0.5-0.05,1.267-0.15,2.3
			c-0.333-0.5-0.583-1.15-0.75-1.95c-0.167-0.933-0.3-1.617-0.4-2.05l-0.5,1.45c-0.333-1.1-0.5-2.35-0.5-3.75
			c-0.033,0.6-0.066,1.55-0.1,2.85c-0.067,1.1-0.2,1.983-0.4,2.65c-0.8-1.333-1.167-3.1-1.1-5.3c0.233-2.533,0.4-4.367,0.5-5.5
			c-0.3,0.8-0.567,1.917-0.8,3.35c-0.267,1.667-0.483,2.816-0.65,3.45c-0.433-3.066-0.333-6.25,0.3-9.55
			c0.267-1.2,0.567-2.3,0.9-3.3c1.4-3.767,4.283-7.517,8.65-11.25c3.8-3.267,7.816-5.833,12.05-7.7c8.467-3.7,18.55-6.05,30.25-7.05
			C143.583-0.267,150,0,156.4,1.1c5.767,1,11.217,2.617,16.35,4.85c5.433,2.367,10.15,5.533,14.15,9.5
			c2.5,2.5,4.483,5.033,5.949,7.6c1.967-0.9,3.834-1.517,5.601-1.85c4.366-0.833,9.316-0.75,14.85,0.25
			c4.8,0.9,9.55,2.383,14.25,4.45c5.4,2.367,9.9,5.617,13.5,9.75c1.8,2.067,3.066,3.9,3.8,5.5
			C248.816,47.483,250.517,53.533,249.95,59.3z"/>
	</g>
	
		<linearGradient id="SVGID_6_" gradientUnits="userSpaceOnUse" x1="38.728" y1="267.1934" x2="370.2051" y2="267.1934" gradientTransform="matrix(0.9973 0.0737 -0.0737 0.9973 -7.832795e-005 -7.466972e-005)">
		<stop  offset="0" style="stop-color:#BBD6C1"/>
		<stop  offset="0.1255" style="stop-color:#AEC9B2"/>
		<stop  offset="0.3569" style="stop-color:#9AB59C"/>
		<stop  offset="0.502" style="stop-color:#92AE93"/>
		<stop  offset="1" style="stop-color:#C2DAC7"/>
	</linearGradient>
	<path style="fill-rule:evenodd;clip-rule:evenodd;fill:url(#SVGID_6_);" d="M330.3,246.1c-3.7,1.101-7.166,3.101-10.399,6
		c-3.967,3.634-6.051,5.534-6.25,5.7c-2.534,2.101-4.917,3.601-7.15,4.5c-4.6,1.867-10.467,4.75-17.6,8.65
		c-8.834,4.866-14.7,8-17.601,9.399c-2.866,1.4-6.717,2.267-11.55,2.601c-3.934,0.267-7.917,0.184-11.95-0.25
		c-3.5-0.334-5.267-0.5-5.3-0.5c-1.434,0.033-3.083,0.517-4.95,1.45c-2.366,1.233-4.85,2.949-7.45,5.149
		c-2.699,2.267-4.783,4.45-6.25,6.55c-1.1,1.601-2.649,4.367-4.649,8.301c-1.867,3.666-3.5,6.433-4.9,8.3
		c-1.633,2.166-4.149,5.733-7.55,10.7c-3.233,4.133-6.467,6.916-9.7,8.35c-0.566,0.267-3.149,0.85-7.75,1.75
		c-2.566,0.5-4.517,1.967-5.85,4.4c-0.633,1.133-1.784,4.517-3.45,10.149c-1.867,6.4-3.367,10.983-4.5,13.75
		c-4.167,10.334-8.1,10.483-11.8,0.45c-0.4-1.066-1.55-6.45-3.45-16.15c-1.433-7.233-3.383-12.166-5.85-14.8
		c-1-1.066-2.933-2.366-5.8-3.899c-2.633-1.434-4.567-2.95-5.8-4.551c-2.533-3.666-4.417-6.35-5.65-8.05
		c-2.167-3-4.433-5.35-6.8-7.05c-2.667-1.9-4.483-3.333-5.45-4.3c-1.5-1.566-2.75-3.601-3.75-6.101c-1.066,1.2-2.167,2.767-3.3,4.7
		c-0.934,1.533-1.617,2.45-2.05,2.75c-1.167,0.834-3.7-0.833-7.6-5c-5.3-6.133-9.383-10.767-12.25-13.899
		c-5.167-5.601-9.85-9.517-14.05-11.75c-5.5-2.7-9.467-4.784-11.9-6.25c-4.1-2.5-7.5-5.517-10.2-9.051
		c-1.667-2.5-2.933-4.35-3.8-5.55c-1.533-2.1-3.183-3.533-4.95-4.3c-0.966-0.4-2.617-0.684-4.95-0.85
		c-2.2-0.167-3.85-0.551-4.95-1.15c-1.867-1.033-3.517-2.733-4.95-5.1c-0.633-1.067-1.684-3.217-3.15-6.45
		c-3-5.233-5.316-9.566-6.95-13c-3-6.4-3.667-10.8-2-13.2c2.533-3.566,9.117-5.417,19.75-5.55c5.7-0.066,12.933,0.25,21.7,0.95
		c3.534,0.1,8.8,0.283,15.8,0.55c6.133,0.166,11.4,0.166,15.8,0c2.633-0.101,7.05-0.65,13.25-1.65
		c5.6-0.899,10.017-1.316,13.25-1.25c4.033,0.066,10.067,0.316,18.1,0.75c6.967,0.066,12.833-0.833,17.6-2.7
		c11.4-4.433,24.417-6.267,39.05-5.5c5.066,0.267,10.783,1.684,17.149,4.25c3.566,1.467,9.084,3.717,16.55,6.75l1.101,0.351
		c6.633,2.166,15.833,3.649,27.6,4.45c13.601,0.933,22.884,1.933,27.851,3c6.233,1.333,14.55,3.783,24.949,7.35
		c11.767,4.066,20.034,6.717,24.801,7.95c0.733,0.2,3.483,0.633,8.25,1.3c3.533,0.533,6.017,1.25,7.449,2.15
		c-0.899,2.3-2.449,4.8-4.649,7.5c-1.066,1.3-3.084,3.483-6.05,6.55c-3.334,3.467-7.051,6.25-11.15,8.35
		c-1.833,1.2-3.033,1.917-3.6,2.15c-0.434,0.233-0.801,0.399-1.101,0.5c-0.5,0.2-0.8,0.166-0.899-0.101
		c-0.067-0.199,0.216-0.85,0.85-1.949c0.033-0.034,0.267-0.584,0.7-1.65c0.267-0.634,0.517-1.15,0.75-1.55
		c0.533-0.8,1.233-1.667,2.1-2.601c0.934-1.033,1.45-1.983,1.55-2.85c-0.333-0.167-0.649-0.25-0.949-0.25
		C331.483,245.783,331.033,245.9,330.3,246.1z"/>
	
		<use xlink:href="#FlashAICB_x2F_Layer_3_x2F__x3C_Clip_Group_0_x3E_"  width="330.893" height="178.839" x="0.057" y="-178.82" transform="matrix(1 0 0 -1 23.1499 193.9502)" style="overflow:visible;"/>
	
		<linearGradient id="SVGID_7_" gradientUnits="userSpaceOnUse" x1="157.4482" y1="-190.1348" x2="296.4509" y2="-190.1348" gradientTransform="matrix(-0.02 0.9998 -0.9998 -0.02 3.364272e-004 1.561102e-004)">
		<stop  offset="0" style="stop-color:#C4EAD7"/>
		<stop  offset="1" style="stop-color:#BDDAC3"/>
	</linearGradient>
	<path style="fill-rule:evenodd;clip-rule:evenodd;fill:url(#SVGID_7_);" d="M113.25,217.75c-0.5-0.566-1.033-1.283-1.6-2.15
		c0.2,0.334,0.5,1.184,0.9,2.551L113.25,217.75z M371.6,222.45v0.95c-0.066,0.767-0.267,1.899-0.6,3.399
		c-0.366,1.634-0.583,2.816-0.65,3.55c-0.066,0.767-0.116,2.017-0.149,3.75c-0.134,1.5-0.467,2.65-1,3.45l-0.05-0.8
		c-1.167,3.4-2.817,6.733-4.95,10c-2.233,3.467-4.634,6.283-7.2,8.45c1.767-3.7,3-6.483,3.7-8.351c1.166-3.1,1.934-6.066,2.3-8.899
		c-1.434,0.6-2.634,2.1-3.6,4.5c-0.534,1.3-1.267,3.184-2.2,5.649c0-2.199,0.017-3.85,0.05-4.949c0.066-1.867,0.25-3.483,0.55-4.851
		c-1.399,0.601-2.899,0.467-4.5-0.399c-1.733-1.2-3.066-1.967-4-2.301c-1.767-0.666-3.166-1.183-4.2-1.55
		c-1.866-0.666-3.25-1.066-4.149-1.2c-0.033,0-1.233,0.217-3.601,0.65c-2.022,0.359-3.022,0.334-3-0.075
		c-0.068,0.733-0.202,1.758-0.399,3.075c-0.101,1.167-0.101,2.2,0,3.1c-1.733-3-3.117-5.25-4.15-6.75
		c-1.8-2.767-3.85-4.083-6.149-3.949c0.1,0.1,0.449,0.399,1.05,0.899c0.434,0.4,0.8,0.684,1.1,0.851
		c-4.633-2.467-10.55-4.817-17.75-7.051c0.233,1.134,0.9,2.25,2,3.351c0.918,0.917,1.951,1.659,3.101,2.225
		c-0.728-0.332-2.561-1.073-5.5-2.225c-2.334-0.9-4.233-1.783-5.7-2.65c-3.934-2.366-6.767-4.467-8.5-6.3
		c-0.934-1.1-1.634-1.85-2.101-2.25c-0.733-0.7-1.633-1.184-2.699-1.45l0.649-0.05c-0.467,0-2.083-0.134-4.85-0.4
		c-2-0.166-3.584-0.1-4.75,0.2c0.8,1.033,1.434,1.783,1.899,2.25c0.733,0.733,1.5,1.283,2.301,1.65
		c-0.867-0.167-2.617-0.7-5.25-1.601c-2.134-0.733-3.95-1.149-5.45-1.25c-1.334-0.1-6.017-0.583-14.05-1.449
		c-5.7-0.634-10.4-0.867-14.101-0.7c0.533,0.566,1.434,1.3,2.7,2.2c-1.667,0.066-3.616-0.167-5.85-0.7
		c-2.934-0.7-4.817-1.101-5.65-1.2c0.3,1.134,0.816,2.2,1.55,3.2c0.795,1.081,1.67,1.814,2.625,2.2c0.038-0.001,0.08-0.001,0.125,0
		c0.066,0,0.066,0.017,0,0.05c-0.046-0.017-0.087-0.033-0.125-0.05c-1.961-0.052-3.886-0.469-5.774-1.25
		c-1.9-0.801-3.601-1.884-5.101-3.25c0,0.8,0.033,1.966,0.101,3.5c-0.767-0.4-1.601-1.367-2.5-2.9c-0.301,0.733-2.634,2.15-7,4.25
		c-4.267,2.033-6.75,2.983-7.45,2.85c0.033,0,0.133-0.1,0.3-0.3c-5.644,2.409-9.568,5.051-11.775,7.925
		c0.419-2.304,0.711-4.296,0.875-5.975c-0.633,0.566-2.216,2.283-4.75,5.15c-1.933,2.166-3.649,3.733-5.149,4.699
		c1.566-1.433,2.883-3.85,3.95-7.25c1.043-3.243,1.968-5.56,2.774-6.949c-1.272,1.854-3.131,3.57-5.575,5.149
		c-1.267,0.834-3.75,2.184-7.449,4.05c-3.5,1.367-6.25,2.467-8.25,3.301c-3.667,1.5-6.117,3.017-7.35,4.55
		c0.733-1.134,1.333-1.934,1.8-2.4c-5.867,3.467-10.617,5.566-14.25,6.3c2.066-1.5,3.667-2.916,4.8-4.25
		c1.434-1.699,2.417-3.616,2.95-5.75c-0.9,2.267-3.667,3.967-8.3,5.101c-4.966,1.233-8.066,2.767-9.3,4.6
		c-0.033-0.6,0.017-1.767,0.15-3.5c-0.033,0.267-0.35,0.816-0.95,1.65c-0.767,1-1.184,1.566-1.25,1.7
		c-0.267-1.801-0.517-2.95-0.75-3.45c-0.367-0.7-1.284-0.851-2.75-0.45c-1.3,0.333-2.784,1.167-4.45,2.5
		c-1.433,1.1-2.683,2.267-3.75,3.5c0.333-1,0.55-1.967,0.65-2.9c-1.267,0.667-3.133,1.617-5.6,2.851c-1.966,1.2-3.45,2.566-4.45,4.1
		c0-0.033,0.05-1.116,0.15-3.25c-1.5,0.967-2.717,2.9-3.65,5.8c-0.8,2.567-1.15,4.9-1.05,7c-0.433-1.8-1.517-4.1-3.25-6.899
		c-2.5-4.066-3.867-6.334-4.1-6.8c-0.1,0.699,0,2.05,0.3,4.05c-0.067-0.101-1.533-2.084-4.4-5.95c-1.9-2.566-2.967-4.7-3.2-6.4
		c-0.233-2.1,0.434-4.55,2-7.35c2-3.066,3.35-5.316,4.05-6.75c-0.867,0.113-1.742,0.479-2.625,1.1
		c0.167-0.157,0.326-0.308,0.475-0.449c1.367-1.233,1.983-2.051,1.85-2.45c-0.066-0.3-0.583-0.601-1.55-0.9
		c-1.067-0.267-1.717-0.45-1.95-0.55c-2.267-0.9-4.217-1.517-5.85-1.85c-2-0.4-4.05-0.517-6.15-0.351
		c-1.1,0.066-3.183,0.684-6.25,1.851c-3.285,1.228-5.068,2.178-5.35,2.85c0.633-1.634,0.934-2.567,0.9-2.8
		c-0.1-0.467-0.9-0.75-2.4-0.851c-1.133-0.066-2.517,0.284-4.15,1.051c-1.833,0.966-3.133,1.633-3.9,2
		c-3.033,1.5-5.583,2.983-7.65,4.449c-2.367,1.667-4.517,3.617-6.45,5.851c0-0.2,0.05-1.134,0.15-2.8c0.067-1.167,0-2.101-0.2-2.801
		c-0.7,0.134-1.35,0.65-1.95,1.551c-0.167,0.199-0.633,1-1.4,2.399c0.233-1.3,0.05-2.383-0.55-3.25l-0.55,0.9
		c0-0.066-1.033,0.166-3.1,0.7c-2.1,0.5-3.283,0.833-3.55,1c-0.3,0.166-2.333,0.933-6.1,2.3c-3.4,1.2-5.133,1.95-5.2,2.25
		c0.033-1.101,0.167-1.9,0.4-2.4c-1.533-0.066-2.95,0.684-4.25,2.25c-1.133,1.4-1.833,2.917-2.1,4.55
		c-1.467-2.5-2.333-5.199-2.6-8.1c-0.433,0.134-1.233,0.483-2.4,1.05c-0.967,0.5-1.767,0.783-2.4,0.851l0.7-1.4
		c-1.033,0.1-2.05,0.55-3.05,1.35c-1.1,0.9-1.7,1.851-1.8,2.851c-1.034-1.267-1.45-3.101-1.25-5.5c-2.667,1.166-3.85,3.566-3.55,7.2
		c0.133,2,0.9,4.85,2.3,8.55c-0.934-0.9-1.967-2.267-3.1-4.101c-1.633-2.633-2.567-4.116-2.8-4.449c-1.533-1.934-2.65-3.4-3.35-4.4
		c-1.267-1.767-2.05-3.417-2.35-4.95c-0.2,3.134,0.433,6.3,1.9,9.5c-1.2-1-2.317-2.366-3.35-4.1c-0.533-0.9-1.35-2.483-2.45-4.75
		c-1.333-2.767-2.15-4.9-2.45-6.4c-0.467-2.233-0.317-4.5,0.45-6.8c1.1-3.4,3.65-7.184,7.65-11.35
		c2.233-2.334,5.683-5.45,10.35-9.351c8.133-6.733,17.466-11.417,28-14.05c3.966-1,8.683-1.917,14.15-2.75
		c3.167-0.5,7.917-1.183,14.25-2.05c18.667-5.833,36.633-8.5,53.9-8c8,0.233,20.817-0.95,38.45-3.55
		c16.6-2.433,29.517-3.316,38.75-2.65c12.666,0.933,26.866,3.7,42.6,8.3c7.434,2.167,21.233,6.8,41.4,13.9l4.7,1.05
		c-0.2,0-0.567,0.067-1.101,0.2l7.65,2.6c3.033,1.034,9.649,3.05,19.85,6.05c9.033,2.667,20.467,7.117,34.3,13.351
		c4.5,2.066,8.134,4.566,10.9,7.5C369.934,214.083,371.634,218.083,371.6,222.45z"/>
</g>
</svg>
