<?xml version="1.0" encoding="iso-8859-1"?>
<!-- Generator: Adobe Illustrator 15.1.0, SVG Export Plug-In . SVG Version: 6.00 Build 0)  -->
<!DOCTYPE svg PUBLIC "-//W3C//DTD SVG 1.1//EN" "http://www.w3.org/Graphics/SVG/1.1/DTD/svg11.dtd">
<svg version="1.1" id="Layer_1" xmlns="http://www.w3.org/2000/svg" xmlns:xlink="http://www.w3.org/1999/xlink" x="0px" y="0px"
	 width="291.25px" height="368.6px" viewBox="0 0 291.25 368.6" style="enable-background:new 0 0 291.25 368.6;"
	 xml:space="preserve">
<symbol  id="FlashAICB_x5F_0_x2F_Layer_1_x2F__x3C_Clip_Group_0_x3E_" viewBox="0.031 -77.45 230.274 77.405">
	<g id="Layer_1_31_">
	</g>
	<g>
		<defs>
			<path id="SVGID_1_" d="M229.65-37.55c-1.3,3-4.566,5.433-9.8,7.3c-5.267,1.867-10.9,3.15-16.9,3.85
				c-2.5,0.267-5.017,0.883-7.55,1.85c-2.566,0.966-4.85,2.183-6.85,3.65c-3.6,2.633-5.533,4.033-5.8,4.2
				c-2.233,1.534-4.317,2.684-6.25,3.45c-6.6,2.633-11.85,4.467-15.75,5.5c-5.467,1.5-12.2,2.683-20.2,3.55
				C128.017-2.867,111.567-3.8,91.2-7c-12.867-2.033-23.35-4.617-31.45-7.75c-4.267-1.767-7.6-3.117-10-4.05
				c-4.167-1.633-8.55-3.083-13.15-4.35c-14.367-3.967-23.3-6.767-26.8-8.4C2.433-34.983-0.767-39.4,0.2-44.8
				c0.233-1.3,0.816-2.583,1.75-3.85c3.2-4.367,9.367-8.184,18.5-11.45c9.1-3.2,18.183-4.8,27.25-4.8c4.5,0,9.3-0.567,14.4-1.7
				c1.833-0.433,6.55-1.717,14.15-3.85c13.533-3.767,26.717-5.8,39.55-6.1c25.467-0.567,46.617,1.617,63.45,6.55
				c5.967,1.733,12.233,4.083,18.8,7.05c3.7,1.633,8.934,4.05,15.7,7.25c4.967,2.233,8.75,4.417,11.35,6.55
				C229.8-45.283,231.317-41.417,229.65-37.55z"/>
		</defs>
		<clipPath id="SVGID_2_">
			<use xlink:href="#SVGID_1_"  style="overflow:visible;"/>
		</clipPath>
		<g id="Layer_3_1_" style="clip-path:url(#SVGID_2_);">
			
				<radialGradient id="SVGID_3_" cx="118.75" cy="-63.5" r="195.45" gradientTransform="matrix(1 0 0 -0.3248 0 -84.1265)" gradientUnits="userSpaceOnUse">
				<stop  offset="0.5843" style="stop-color:#043D4B"/>
				<stop  offset="1" style="stop-color:#084F76"/>
			</radialGradient>
			<path style="fill-rule:evenodd;clip-rule:evenodd;fill:url(#SVGID_3_);" d="M229.65-37.55c1.667-3.867,0.15-7.733-4.55-11.6
				c-2.6-2.133-6.383-4.317-11.35-6.55c-6.767-3.2-12-5.617-15.7-7.25c-6.566-2.966-12.833-5.316-18.8-7.05
				c-16.833-4.933-37.983-7.117-63.45-6.55c-12.833,0.3-26.017,2.333-39.55,6.1c-7.6,2.133-12.317,3.417-14.15,3.85
				c-5.1,1.133-9.9,1.7-14.4,1.7c-9.067,0-18.15,1.6-27.25,4.8c-9.133,3.267-15.3,7.083-18.5,11.45
				C1.017-47.383,0.433-46.1,0.2-44.8c-0.967,5.4,2.233,9.816,9.6,13.25c3.5,1.633,12.434,4.433,26.8,8.4
				c4.6,1.267,8.983,2.717,13.15,4.35c2.4,0.933,5.733,2.283,10,4.05C67.85-11.617,78.333-9.033,91.2-7
				c9.533,1.5,17.7,2.517,24.5,3.05c9.1,0.7,17.283,0.717,24.55,0.05c11.133-1.067,23.217-4.184,36.25-9.35
				c1.933-0.767,4.017-1.917,6.25-3.45c0.267-0.167,2.2-1.566,5.8-4.2c2-1.467,4.284-2.684,6.85-3.65
				c2.533-0.967,5.05-1.583,7.55-1.85c6-0.7,11.633-1.983,16.9-3.85C225.083-32.117,228.35-34.55,229.65-37.55z"/>
			
				<use xlink:href="#FlashAICB_x5F_0_x2F_Layer_1_x2F__x3C_Path_x3E__x5F_14"  width="14.356" height="31.713" y="-31.75" transform="matrix(1 0 0 1 49.0498 -13.7002)" style="overflow:visible;opacity:0.4805;enable-background:new    ;"/>
			
				<use xlink:href="#FlashAICB_x5F_0_x2F_Layer_1_x2F__x3C_Path_x3E__x5F_13"  width="15.609" height="36.104" x="-0.025" y="-36.15" transform="matrix(1 0 0 1 125.9502 0)" style="overflow:visible;opacity:0.4805;enable-background:new    ;"/>
			
				<use xlink:href="#FlashAICB_x5F_0_x2F_Layer_1_x2F__x3C_Path_x3E__x5F_12"  width="11.071" height="31.723" x="-0.009" y="-31.75" transform="matrix(1 0 0 1 150.5 -1.1001)" style="overflow:visible;opacity:0.4805;enable-background:new    ;"/>
			
				<linearGradient id="SVGID_4_" gradientUnits="userSpaceOnUse" x1="13259.1934" y1="-18022.0332" x2="13308.2217" y2="-18022.0332" gradientTransform="matrix(-0.953 -0.3029 0.3029 -0.953 18141.2246 -13200.541)">
				<stop  offset="0.3333" style="stop-color:#033143"/>
				<stop  offset="1" style="stop-color:#084F76"/>
			</linearGradient>
			<path style="fill-rule:evenodd;clip-rule:evenodd;fill:url(#SVGID_4_);" d="M41.2-25.45c0-0.233-0.1-1.1-0.3-2.6
				c-0.3-3.633-0.45-9.7-0.45-18.2c0-1.867-0.05-4.65-0.15-8.35c0-0.9,0.15-2.3,0.45-4.2c0.333-1.867,0.483-3.25,0.45-4.15
				c0-0.533,0.05-0.933,0.15-1.2c0-0.067-0.267-0.217-0.8-0.45c-0.3-0.133-0.95-0.083-1.95,0.15c-1.067,0.233-1.75,0.383-2.05,0.45
				c-2.966,0.433-6.017,1.033-9.15,1.8c-5.633,1.467-10.267,3.05-13.9,4.75c-5.233,2.434-9.083,5.367-11.55,8.8
				C1.017-47.383,0.433-46.1,0.2-44.8c-1.034,5.667,2.667,10.316,11.1,13.95c3.567,1.533,8.45,3.1,14.65,4.7
				C33.383-24.217,38.3-22.833,40.7-22C41.167-22.833,41.333-23.983,41.2-25.45z"/>
			<linearGradient id="SVGID_5_" gradientUnits="userSpaceOnUse" x1="191.4873" y1="-39.2827" x2="230.0123" y2="-39.2827">
				<stop  offset="0.5843" style="stop-color:#033143"/>
				<stop  offset="1" style="stop-color:#084F76"/>
			</linearGradient>
			<path style="fill-rule:evenodd;clip-rule:evenodd;fill:url(#SVGID_5_);" d="M229.65-37.55c0.633-1.4,0.533-3.333-0.3-5.8
				c-0.8-2.433-1.95-4.217-3.45-5.35c-2.6-1.966-5.417-3.517-8.45-4.65c-3.167-1.2-5.284-1.45-6.35-0.75
				c-1.4,0.867-2.567,2.85-3.5,5.95c-0.767,2.467-2.083,3.667-3.95,3.6c-0.7-0.034-2.633-0.967-5.8-2.8
				c-2.667-1.533-4.233-1.933-4.7-1.2c-0.4,0.667-0.733,3.25-1,7.75c-0.333,5-0.533,7.7-0.6,8.1c-0.233,0.934-0.1,2.6,0.4,5
				c0.533,2.6,1.167,3.8,1.9,3.6c1.133-0.3,2.816-0.767,5.05-1.4c1.867-0.533,3.217-0.833,4.05-0.9c6-0.7,11.633-1.983,16.9-3.85
				C225.083-32.117,228.35-34.55,229.65-37.55z"/>
			<path style="fill-rule:evenodd;clip-rule:evenodd;fill:#0E6BA1;" d="M210.7-40c4.267-0.633,7.583-1.433,9.95-2.4
				c2.467-1.033,4.117-2.1,4.95-3.2c1.066-1.367,0.75-2.683-0.95-3.95c-1.233-0.867-3.033-1.7-5.4-2.5
				c-3.1-1.034-4.833-1.633-5.2-1.8c-6.767-3.2-12-5.617-15.7-7.25c-6.567-2.933-12.833-5.283-18.8-7.05
				c-16.833-4.9-37.983-7.067-63.45-6.5c-12.833,0.267-26.017,2.3-39.55,6.1C68.917-66.383,64.2-65.1,62.4-64.7
				C57.3-63.567,52.5-63,48-63c-9.867,0-18.667,0.983-26.4,2.95C12.867-57.783,7-54.583,4-50.45c0.1,3.5,2.517,6.434,7.25,8.8
				c3.433,1.733,9.133,3.55,17.1,5.45c4.967,1.2,9.833,2.7,14.6,4.5c2.8,1.034,6.783,2.633,11.95,4.8
				c10.067,4.066,21.333,7.066,33.8,9c15.233,2.4,30.867,2.816,46.9,1.25c6.267-0.6,12.75-1.667,19.45-3.2
				c7.067-1.6,13.383-3.517,18.95-5.75c3.5-1.4,8.283-4.316,14.35-8.75c1.967-1.4,3.867-2.433,5.7-3.1c1.7-0.566,3.833-1,6.4-1.3
				C206.75-39.483,210.167-39.9,210.7-40z"/>
			
				<radialGradient id="SVGID_6_" cx="113.7085" cy="-92.0498" r="150.5389" gradientTransform="matrix(1 0 0 -0.5849 0 -145.8857)" gradientUnits="userSpaceOnUse">
				<stop  offset="0" style="stop-color:#36B7D9"/>
				<stop  offset="0.1294" style="stop-color:#32AED7"/>
				<stop  offset="0.349" style="stop-color:#2995D2"/>
				<stop  offset="0.6118" style="stop-color:#1D6FCB"/>
				<stop  offset="1" style="stop-color:#053E66"/>
			</radialGradient>
			<path style="fill-rule:evenodd;clip-rule:evenodd;fill:url(#SVGID_6_);" d="M217.35-44.7c1.933-0.8,3.316-1.867,4.15-3.2
				c0.667-1.133,0.833-2.2,0.5-3.2c-2.3-1.633-5.05-3.167-8.25-4.6c-6.767-3.2-12-5.617-15.7-7.25
				c-6.566-2.966-12.833-5.316-18.8-7.05c-16.833-4.933-37.983-7.117-63.45-6.55c-12.833,0.3-26.017,2.333-39.55,6.1
				c-7.6,2.133-12.317,3.417-14.15,3.85c-5.1,1.133-9.9,1.7-14.4,1.7c-9.6,0-18.133,1.05-25.6,3.15C13.9-59.45,8.283-56.2,5.25-52
				c0.1,3.333,3.217,6.267,9.35,8.8c2.7,1.133,9.1,3.083,19.2,5.85c4.6,1.267,8.983,2.717,13.15,4.35
				c2.4,0.933,5.75,2.283,10.05,4.05c8.1,3.133,18.567,5.717,31.4,7.75c14.133,2.233,30.217,2.5,48.25,0.8
				c8.133-0.767,14.4-1.517,18.8-2.25c7.066-1.167,13.15-2.767,18.25-4.8c1.933-0.767,4.017-1.917,6.25-3.45
				c0.267-0.167,2.2-1.567,5.8-4.2c2.033-1.433,4.317-2.65,6.85-3.65c2.566-0.967,5.083-1.583,7.55-1.85
				C206.983-41.4,212.717-42.767,217.35-44.7z"/>
			
				<use xlink:href="#FlashAICB_x5F_0_x2F_Layer_1_x2F__x3C_Path_x3E__x5F_7"  width="30.74" height="26.75" y="-26.75" transform="matrix(1 0 0 1 191.5498 -38.75)" style="overflow:visible;opacity:0.1016;enable-background:new    ;"/>
			
				<use xlink:href="#FlashAICB_x5F_0_x2F_Layer_1_x2F__x3C_Path_x3E__x5F_6"  width="15.762" height="57.651" x="0.038" y="-57.65" transform="matrix(1 0 0 1 126.8501 -18.9502)" style="overflow:visible;opacity:0.1016;enable-background:new    ;"/>
			
				<use xlink:href="#FlashAICB_x5F_0_x2F_Layer_1_x2F__x3C_Path_x3E__x5F_5"  width="39.3" height="53.809" y="-53.8" transform="matrix(1 0 0 1 148.25 -21.0498)" style="overflow:visible;opacity:0.1016;enable-background:new    ;"/>
			
				<use xlink:href="#FlashAICB_x5F_0_x2F_Layer_1_x2F__x3C_Path_x3E__x5F_4"  width="7.966" height="42.8" y="-42.8" transform="matrix(1 0 0 1 153.5996 -22.7002)" style="overflow:visible;opacity:0.1016;enable-background:new    ;"/>
			
				<use xlink:href="#FlashAICB_x5F_0_x2F_Layer_1_x2F__x3C_Path_x3E__x5F_3"  width="36.656" height="29.174" x="-0.056" y="-29.174" transform="matrix(1 0 0 1 5.7002 -35.9502)" style="overflow:visible;opacity:0.1016;enable-background:new    ;"/>
			
				<use xlink:href="#FlashAICB_x5F_0_x2F_Layer_1_x2F__x3C_Path_x3E__x5F_2"  width="14.319" height="38.528" x="0.012" y="-38.2" transform="matrix(1 0 0 1 49.0498 -27.2998)" style="overflow:visible;opacity:0.1016;enable-background:new    ;"/>
			
				<use xlink:href="#FlashAICB_x5F_0_x2F_Layer_1_x2F__x3C_Path_x3E__x5F_1"  width="183.45" height="24.651" y="-24.65" transform="matrix(1 0 0 1 22.6001 -40.1001)" style="overflow:visible;opacity:0.5195;enable-background:new    ;"/>
			
				<use xlink:href="#FlashAICB_x5F_0_x2F_Layer_1_x2F__x3C_Path_x3E_"  width="176.85" height="16.712" y="-16.7" transform="matrix(1 0 0 1 49.1499 -60.75)" style="overflow:visible;opacity:0.5195;enable-background:new    ;"/>
		</g>
	</g>
	<g id="Layer_4_1_">
	</g>
</symbol>
<symbol  id="FlashAICB_x5F_0_x2F_Layer_1_x2F__x3C_Path_x3E_" viewBox="0 -16.7 176.85 16.712">
	<g id="Layer_1_14_">
		
			<radialGradient id="SVGID_7_" cx="150.0498" cy="-15.9502" r="468.475" gradientTransform="matrix(1 0 0 -0.4161 0 -22.5874)" gradientUnits="userSpaceOnUse">
			<stop  offset="0" style="stop-color:#1FBCDC"/>
			<stop  offset="0.1451" style="stop-color:#1DB3D3"/>
			<stop  offset="0.3843" style="stop-color:#1899BB"/>
			<stop  offset="0.6902" style="stop-color:#106F94"/>
			<stop  offset="1" style="stop-color:#053E66"/>
		</radialGradient>
		<path style="fill-rule:evenodd;clip-rule:evenodd;fill:url(#SVGID_7_);" d="M127-10.95c-4.567,1.967-8.3,3.434-11.2,4.4
			C104.633-2.817,92.217-1.133,78.55-1.5C56.517-2.067,37.7-4.317,22.1-8.25C14.267-10.217,8.65-12.133,5.25-14L0-12.65
			c4.467,1.8,9.05,3.45,13.75,4.95c9.133,2.867,19.783,4.934,31.95,6.2c14.933,1.533,29.117,1.9,42.55,1.1
			c13.7-0.867,23.95-2.8,30.75-5.8c6.467-2.867,12.267-4.783,17.4-5.75c4-0.733,9.783-1.2,17.35-1.4c9.2-0.2,16.9-0.017,23.1,0.55
			c-8.434-1.7-13.75-3-15.95-3.9c-2.7,0.034-5.8,0.184-9.3,0.45c-6.967,0.5-12.434,1.25-16.4,2.25
			C133.6-13.6,130.867-12.583,127-10.95z"/>
	</g>
</symbol>
<symbol  id="FlashAICB_x5F_0_x2F_Layer_1_x2F__x3C_Path_x3E__x5F_0" viewBox="0 -33.907 69.25 33.914">
	<g id="Layer_1_25_">
		<path style="fill-rule:evenodd;clip-rule:evenodd;fill:#22777F;" d="M48.35-33.2C31.383-35.033,15.267-33.3,0-28
			c1.867,4.4,4.55,8.867,8.05,13.4c7,9.067,14.567,13.917,22.7,14.55s17-3.983,26.6-13.85c4.767-4.934,8.733-9.934,11.9-15
			C63.817-30.867,56.85-32.3,48.35-33.2z"/>
	</g>
</symbol>
<symbol  id="FlashAICB_x5F_0_x2F_Layer_1_x2F__x3C_Path_x3E__x5F_1" viewBox="0 -24.65 183.45 24.651">
	<g id="Layer_1_13_">
		
			<radialGradient id="SVGID_8_" cx="155.6499" cy="-23.5" r="485.975" gradientTransform="matrix(1 0 0 -0.5848 0 -37.2432)" gradientUnits="userSpaceOnUse">
			<stop  offset="0" style="stop-color:#1FBCDC"/>
			<stop  offset="0.1451" style="stop-color:#1DB3D3"/>
			<stop  offset="0.3843" style="stop-color:#1899BB"/>
			<stop  offset="0.6902" style="stop-color:#106F94"/>
			<stop  offset="1" style="stop-color:#053E66"/>
		</radialGradient>
		<path style="fill-rule:evenodd;clip-rule:evenodd;fill:url(#SVGID_8_);" d="M164.8-20.6c-3.1-0.133-5.933,0.583-8.5,2.15
			c-3.2,2.267-6.25,4.133-9.15,5.6C130.717-4.617,109.7-1.517,84.1-3.55C68.767-4.75,56.2-7.1,46.4-10.6
			c-7.233-2.566-11.117-4.767-11.65-6.6c-0.133-0.433-1.25-0.733-3.35-0.9c-3-0.133-5.383-0.3-7.15-0.5
			c-7.133-0.733-11.483-2.75-13.05-6.05c-4.767,0.633-8.5,1.467-11.2,2.5c1.867,1.633,3.833,2.867,5.9,3.7
			c6.7,2.667,12.283,4.117,16.75,4.35c3,0.133,5.217,0.417,6.65,0.85c1.2,0.367,2.617,1.117,4.25,2.25
			c2.067,1.467,5.417,2.933,10.05,4.4C49.767-4.633,57.067-3.1,65.5-2c10.3,1.367,20.017,2.033,29.15,2
			c10.434-0.033,19.45-1,27.05-2.9c9.3-2.333,16.35-4.25,21.15-5.75c6.167-1.9,9.967-3.5,11.4-4.8c1.533-1.367,3.233-2.433,5.1-3.2
			c1.8-0.733,3.417-1.017,4.85-0.85c3.033,0.333,6.083,0.433,9.15,0.3c5-0.2,8.367-1.033,10.1-2.5l-5.3-2.45
			c-0.933,0.3-2.183,0.6-3.75,0.9C171.267-20.683,168.067-20.467,164.8-20.6z"/>
	</g>
</symbol>
<symbol  id="FlashAICB_x5F_0_x2F_Layer_1_x2F__x3C_Path_x3E__x5F_10" viewBox="0 -15.35 14.65 15.35">
	<g id="Layer_1_16_">
		<path style="fill-rule:evenodd;clip-rule:evenodd;fill:#C6DEE3;" d="M14.65-7.7c0-2.133-0.717-3.933-2.15-5.4
			c-1.433-1.5-3.15-2.25-5.15-2.25c-2.033,0-3.767,0.75-5.2,2.25C0.717-11.633,0-9.833,0-7.7s0.717,3.95,2.15,5.45
			C3.583-0.75,5.317,0,7.35,0c2,0,3.717-0.75,5.15-2.25S14.65-5.567,14.65-7.7z"/>
	</g>
</symbol>
<symbol  id="FlashAICB_x5F_0_x2F_Layer_1_x2F__x3C_Path_x3E__x5F_11" viewBox="0 -9.9 10.9 9.9">
	<g id="Layer_1_15_">
		<path style="fill-rule:evenodd;clip-rule:evenodd;fill:#C6DEE3;" d="M10.9-4.95c0-1.367-0.533-2.533-1.6-3.5
			C8.233-9.417,6.95-9.9,5.45-9.9S2.667-9.417,1.6-8.45C0.533-7.483,0-6.317,0-4.95s0.533,2.534,1.6,3.5C2.667-0.483,3.95,0,5.45,0
			S8.233-0.483,9.3-1.45C10.367-2.417,10.9-3.583,10.9-4.95z"/>
	</g>
</symbol>
<symbol  id="FlashAICB_x5F_0_x2F_Layer_1_x2F__x3C_Path_x3E__x5F_12" viewBox="-0.009 -31.75 11.071 31.723">
	<g id="Layer_1_6_">
		
			<linearGradient id="SVGID_9_" gradientUnits="userSpaceOnUse" x1="10062.9512" y1="-19162.375" x2="10106.7822" y2="-19162.375" gradientTransform="matrix(-0.8202 -0.5721 0.5721 -0.8202 19227.7832 -9970.749)">
			<stop  offset="0.3333" style="stop-color:#033143"/>
			<stop  offset="1" style="stop-color:#084F76"/>
		</linearGradient>
		<path style="fill-rule:evenodd;clip-rule:evenodd;fill:url(#SVGID_9_);" d="M8.2-11.1c0.133-0.867,0.633-3.283,1.5-7.25
			c0.733-3.433,1.167-5.85,1.3-7.25c0.133-1.133,0.05-2.117-0.25-2.95c-0.167-0.5-0.5-1.184-1-2.05
			c-0.167-0.333-0.567-0.55-1.2-0.65c-0.733-0.067-1.2-0.233-1.4-0.5c-0.267,0.8-0.566,2.017-0.9,3.65
			c-0.4,2.033-0.667,3.317-0.8,3.85c-0.434,1.7-1.367,5.65-2.8,11.85C1.083-5.733,0.2-1.783,0-0.55c-0.1,0.6,0.6,0.683,2.1,0.25
			c1.667-0.467,2.6-0.6,2.8-0.4c0.733,0.8,1.417-0.833,2.05-4.9C7.017-6.067,7.433-7.9,8.2-11.1z"/>
	</g>
</symbol>
<symbol  id="FlashAICB_x5F_0_x2F_Layer_1_x2F__x3C_Path_x3E__x5F_13" viewBox="-0.025 -36.15 15.609 36.104">
	<g id="Layer_1_5_">
		
			<linearGradient id="SVGID_10_" gradientUnits="userSpaceOnUse" x1="12229.7969" y1="-18537.3984" x2="12296.0479" y2="-18537.3984" gradientTransform="matrix(-0.9173 -0.3981 0.3981 -0.9173 18616.4609 -12148.5879)">
			<stop  offset="0.3333" style="stop-color:#033143"/>
			<stop  offset="1" style="stop-color:#084F76"/>
		</linearGradient>
		<path style="fill-rule:evenodd;clip-rule:evenodd;fill:url(#SVGID_10_);" d="M15.55-13.85c-0.133-1.1-0.133-3.85,0-8.25
			c0.1-3.933-0.017-6.667-0.35-8.2c-0.267-1.267-0.983-2.317-2.15-3.15c-0.7-0.5-1.917-1.183-3.65-2.05
			c-0.6-0.333-1.75-0.467-3.45-0.4c-1.833,0.1-3.083,0.017-3.75-0.25c-0.333,0.933-0.483,2.333-0.45,4.2c0,2.333-0.033,3.8-0.1,4.4
			c-0.233,1.767-0.583,6.267-1.05,13.5C0.1-6.45-0.1-1.933,0-0.5c0.067,0.667,1.883,0.6,5.45-0.2c4.066-0.867,6.4-1.216,7-1.05
			c1.233,0.367,2.066-0.133,2.5-1.5c0.367-1.1,0.45-2.533,0.25-4.3C15.133-8.05,15.25-10.15,15.55-13.85z"/>
	</g>
</symbol>
<symbol  id="FlashAICB_x5F_0_x2F_Layer_1_x2F__x3C_Path_x3E__x5F_14" viewBox="0 -31.75 14.356 31.713">
	<g id="Layer_1_4_">
		
			<linearGradient id="SVGID_11_" gradientUnits="userSpaceOnUse" x1="12229.1895" y1="-18537.3633" x2="12294.623" y2="-18537.3633" gradientTransform="matrix(-0.9173 -0.3981 0.3981 -0.9173 18616.4883 -12148.5166)">
			<stop  offset="0.3333" style="stop-color:#033143"/>
			<stop  offset="1" style="stop-color:#084F76"/>
		</linearGradient>
		<path style="fill-rule:evenodd;clip-rule:evenodd;fill:url(#SVGID_11_);" d="M12.1-0.3c1.267,0.367,2,0.35,2.2-0.05
			c0.1-0.233,0.067-1.167-0.1-2.8l-0.25-2.3c-0.534-4.867-1.15-8.983-1.85-12.35c-0.2-1-0.583-3.4-1.15-7.2
			c-0.633-3.467-1.483-5.5-2.55-6.1c-0.6-0.333-1.75-0.467-3.45-0.4c-1.833,0.1-3.083,0.017-3.75-0.25
			c-0.333,0.9-0.483,2.3-0.45,4.2c0,2.333-0.033,3.8-0.1,4.4c-0.533,4.066-0.733,7.133-0.6,9.2C0.017-12.15,0-10.7,0-9.6
			c0,2.1,0.183,3.45,0.55,4.05c0.367,0.566,1.133,1.066,2.3,1.5c0.633,0.233,1.533,0.533,2.7,0.9c0.567,0.233,1.667,0.733,3.3,1.5
			C10.217-1.017,11.3-0.567,12.1-0.3z"/>
	</g>
</symbol>
<symbol  id="FlashAICB_x5F_0_x2F_Layer_1_x2F__x3C_Path_x3E__x5F_15" viewBox="0 -7.862 16.304 7.862">
	<g id="Layer_1_30_">
		<path style="fill-rule:evenodd;clip-rule:evenodd;fill:#22777F;" d="M0-7.25c1,0.067,2.05,0.3,3.15,0.7
			c2.2,0.733,3.567,1.833,4.1,3.3C8.383-3.617,9.6-3.767,10.9-3.7c2.633,0.167,4.417,1.4,5.35,3.7c0.167-1-0.05-1.95-0.65-2.85
			c-1.2-1.8-3.733-2.433-7.6-1.9c-0.533-0.8-1.267-1.5-2.2-2.1C3.9-8.05,1.967-8.183,0-7.25z"/>
	</g>
</symbol>
<symbol  id="FlashAICB_x5F_0_x2F_Layer_1_x2F__x3C_Path_x3E__x5F_1_x5F_0" viewBox="-0.162 -19.65 10.217 19.695">
	<g id="Layer_1_24_">
		<path style="fill-rule:evenodd;clip-rule:evenodd;fill:#22777F;" d="M4.4-0.5c1.434-0.833,2.684-2.3,3.75-4.4
			c2.667-5.3,2.533-9.9-0.4-13.8c-1.767-2.333-3.733-0.367-5.9,5.9C-0.317-6.5-0.733-2.567,0.6-1C1.633,0.2,2.9,0.367,4.4-0.5z"/>
	</g>
</symbol>
<symbol  id="FlashAICB_x5F_0_x2F_Layer_1_x2F__x3C_Path_x3E__x5F_1_x5F_1" viewBox="-0.042 -11 4.142 11">
	<g id="Layer_1_29_">
		<path style="fill-rule:evenodd;clip-rule:evenodd;fill:#22777F;" d="M0.95-8.6C-0.683-6.3-0.3-3.433,2.1,0
			C1.633-1.333,1.367-2.8,1.3-4.4C1.2-7.567,2.133-9.767,4.1-11C2.8-10.533,1.75-9.733,0.95-8.6z"/>
	</g>
</symbol>
<symbol  id="FlashAICB_x5F_0_x2F_Layer_1_x2F__x3C_Path_x3E__x5F_2" viewBox="0.012 -38.2 14.319 38.528">
	<g id="Layer_1_12_">
		
			<radialGradient id="SVGID_12_" cx="11.5" cy="-36.5" r="47.075" gradientTransform="matrix(1 0 0 -0.585 0 -57.8511)" gradientUnits="userSpaceOnUse">
			<stop  offset="0" style="stop-color:#1FBCDC"/>
			<stop  offset="0.1451" style="stop-color:#1DB3D3"/>
			<stop  offset="0.3843" style="stop-color:#1899BB"/>
			<stop  offset="0.6902" style="stop-color:#106F94"/>
			<stop  offset="1" style="stop-color:#053E66"/>
		</radialGradient>
		<path style="fill-rule:evenodd;clip-rule:evenodd;fill:url(#SVGID_12_);" d="M1.65-18.45c-0.167,1.434-0.617,4.667-1.35,9.7
			c-0.367,2.333-0.383,3.767-0.05,4.3c0.767,1.267,3.3,2.4,7.6,3.4c5.867,1.4,7.75,1.733,5.65,1c-0.2-0.067-0.733-2.583-1.6-7.55
			c-1.033-6.167-1.967-10.783-2.8-13.85c-0.967-3.6-1.533-7.466-1.7-11.6c-0.066-2.067-0.05-3.784,0.05-5.15L2.35-38
			C2.517-30.7,2.283-24.183,1.65-18.45z"/>
	</g>
</symbol>
<symbol  id="FlashAICB_x5F_0_x2F_Layer_1_x2F__x3C_Path_x3E__x5F_24" viewBox="0.005 -34.95 28.111 34.922">
	<g id="Layer_1_3_">
		<path style="fill-rule:evenodd;clip-rule:evenodd;fill:#22777F;" d="M28-8.95c-0.333-2.667-1.333-4.667-3-6
			c-0.567-0.466-1.55-0.85-2.95-1.15c-1.367-0.3-2.4-0.717-3.1-1.25c-0.7-0.566-1.483-1.617-2.35-3.15
			c-0.833-1.467-1.583-2.45-2.25-2.95c-0.533,2-0.9,3.717-1.1,5.15c-1.4-1.4-2.283-4.034-2.65-7.9c-0.467-5.2-0.8-8.117-1-8.75
			c-0.767,1.2-1.483,3.167-2.15,5.9c-0.667,2.833-1.333,4.85-2,6.05c-2.1,3.6-3.617,7.067-4.55,10.4c-1.3,4.5-1.183,7.767,0.35,9.8
			C2.617-0.933,5.133-0.183,8.8-0.55c1.7-0.167,4.833,0,9.4,0.5c4.1,0.167,6.867-0.617,8.3-2.35C27.867-4.067,28.367-6.25,28-8.95z"
			/>
	</g>
</symbol>
<symbol  id="FlashAICB_x5F_0_x2F_Layer_1_x2F__x3C_Path_x3E__x5F_25" viewBox="0.054 -109.75 263.444 109.753">
	<g id="Layer_1_2_">
		<path style="fill-rule:evenodd;clip-rule:evenodd;fill:#22777F;" d="M259.85-18.05c-0.067-0.133-0.317-0.5-0.75-1.1
			c-0.3-0.434-0.517-0.833-0.65-1.2c-0.167-0.433-0.534-1.566-1.1-3.4c-0.4-1.4-0.817-2.533-1.25-3.4c-0.6-1.3-1.517-3.3-2.75-6
			c-1-2.333-1.633-4.417-1.9-6.25c0.133,1.8,0.15,3.967,0.05,6.5c-0.1,2.9-0.183,5.083-0.25,6.55c-0.7-0.867-1.367-1.316-2-1.35
			c-0.733-0.033-1.35,0.45-1.85,1.45c-2.6-1.4-4.417-4.55-5.45-9.45c-0.403-1.912-0.678-4.045-0.825-6.4
			c0.046,1.229,0.104,2.646,0.175,4.25c0.199,3.849,0.232,6.923,0.1,9.225c0.021-0.704-0.379-1.695-1.2-2.975
			c-1.067-1.633-1.667-2.6-1.8-2.9c-1.047-2.572-1.656-4.705-1.825-6.4c0.118,1.588-0.124,3.521-0.725,5.8
			c-0.333,1.267-1,3.217-2,5.85c-0.567-1.467-1.75-3.35-3.55-5.65c-1.867-2.4-3.1-4.267-3.7-5.6c0,1.339,0.167,2.706,0.5,4.1
			c-0.49-1.358-1.64-2.608-3.45-3.75c-0.433-0.267-2.267-1.167-5.5-2.7c-1.367-0.633-2.2-1.066-2.5-1.3
			c-0.7-0.467-1.267-1.15-1.7-2.05c-0.862-1.918-1.362-4.102-1.5-6.55c0.024,1.267,0.024,2.267,0,3
			c-0.067,1.767-0.317,3.233-0.75,4.4c-0.867,2.3-2.333,3.383-4.4,3.25c-1.6-0.1-3.4-0.917-5.4-2.45c-0.3,0.5-0.633,1.2-1,2.1
			c-2.133-2.066-3.6-5.433-4.4-10.1c-0.567-3.3-0.783-7.05-0.65-11.25c-0.233,1.233-0.617,3.667-1.15,7.3
			c-0.467,3.033-0.917,5.433-1.35,7.2c-0.333-3.833-0.567-9.617-0.7-17.35c-0.033-0.533,0.017-3.767,0.15-9.7
			c0.1-3.967-0.133-7.15-0.7-9.55c-0.2,0.833-0.283,1.9-0.25,3.2c0.033,1.934,0.05,3.017,0.05,3.25c-0.066,1.2-0.233,2.817-0.5,4.85
			c-0.367,2.434-0.583,4.067-0.65,4.9c-0.433,4.167-0.65,6.267-0.65,6.3c-0.3,2.4-0.684,4.483-1.15,6.25c-0.633,2.4-1,3.867-1.1,4.4
			c-0.367,1.8-0.483,3.333-0.35,4.6c-0.367-0.467-0.883-1.033-1.55-1.7l-1.65-1.65c0.534,1.5,0.6,2.883,0.2,4.15
			c-0.233-1.433-1.05-2.85-2.45-4.25c-0.9-0.867-2.233-1.883-4-3.05c-1.7-0.967-3.233-1.867-4.6-2.7
			c-2.667-1.6-3.883-2.55-3.65-2.85c-0.5,0.534-0.9,0.983-1.2,1.35c-0.533,0.667-0.833,1.15-0.9,1.45
			c0.267-1.6,0.333-3.583,0.2-5.95c-2.333,2.267-4.133,4.017-5.4,5.25c-2.333,2.2-4.467,3.217-6.4,3.05
			c-0.067-0.8-0.1-2.05-0.1-3.75c-0.467,0.433-1,1.183-1.6,2.25c-0.633,1.066-1.15,1.8-1.55,2.2c-0.7-1.066-1.983-2.316-3.85-3.75
			c-0.833-0.633-2.267-1.633-4.3-3c0,2.067-0.034,3.617-0.1,4.65c-3.3-3.367-5.3-5.533-6-6.5c-1.8-2.667-2.417-5.433-1.85-8.3
			c-0.867,1.233-1.717,2.767-2.55,4.6c-0.9,2.1-1.6,3.7-2.1,4.8c-0.067-1.767,0.2-3.95,0.8-6.55c0.767-3.233,1.2-5.367,1.3-6.4
			c-0.8,2.667-2.833,6.233-6.1,10.7c-1.167,1.667-2.167,3.017-3,4.05c-1.5,1.9-2.65,2.933-3.45,3.1c-0.066-0.833-0.1-2.1-0.1-3.8
			c-0.667,1.633-1.233,2.8-1.7,3.5c-0.833,1.3-1.867,1.633-3.1,1c-1.4-0.767-2.45-2.6-3.15-5.5c-0.367-1.6-0.733-3.767-1.1-6.5
			c-0.333,1.167-0.483,2.65-0.45,4.45c0.033,1.574,0.191,3.065,0.475,4.475c-0.172-0.728-0.597-1.786-1.275-3.175
			c-0.667-1.333-1.083-2.417-1.25-3.25c-0.067-0.267-0.233-1.267-0.5-3c-0.233-1.2-0.45-2.2-0.65-3c-0.733-2.8-1.167-6.35-1.3-10.65
			c-0.066-2.4-0.133-5.983-0.2-10.75c-0.767,2.467-1.25,5.683-1.45,9.65l-0.075,5.675c-0.015-1.907-0.056-4.282-0.125-7.125
			c-0.133-4.7-0.034-8.45,0.3-11.25c0.167-1.466,0.45-3.716,0.85-6.75c0.3-2.667,0.383-4.933,0.25-6.8
			c-2.033,7.567-3.45,13.25-4.25,17.05c-1.4,6.567-1.75,12.35-1.05,17.35c0.3,1.767,0.45,2.684,0.45,2.75
			c0.1,1.033,0.017,1.934-0.25,2.7s-0.883,2.217-1.85,4.35c-0.833,1.8-1.383,3.3-1.65,4.5c0,0.033-0.15,1.267-0.45,3.7
			c-0.2,1.9-0.5,3.067-0.9,3.5c-0.4,0.434-1.417,0.833-3.05,1.2c-1.7,0.4-2.783,0.45-3.25,0.15c-0.4-0.3-0.717-0.95-0.95-1.95
			c-0.2-0.867-0.283-1.617-0.25-2.25c-0.633,0.9-1.15,2.284-1.55,4.15c-0.367,2.1-0.667,3.583-0.9,4.45
			c-1.267-3.433-1.8-7.417-1.6-11.95c0.1-2.867,0.6-6.833,1.5-11.9c-1.467,2.833-2.483,7.184-3.05,13.05
			c-0.6,6.233-1.433,10.6-2.5,13.1c-0.8-1.167-1.417-2.717-1.85-4.65c-0.267-1.1-0.567-2.75-0.9-4.95
			c-0.033,0.667,0.1,2.433,0.4,5.3c0.233,2.3,0.167,4-0.2,5.1c-0.567,1.733-1.9,2.55-4,2.45c-2.433-0.534-4.117-0.817-5.05-0.85
			c-1.434-0.1-2.967-0.017-4.6,0.25c-2.33,0.426-3.43,1.16-3.3,2.2c-0.219-1.485,0.297-3.052,1.55-4.7c-0.8,0-1.717,0.333-2.75,1
			c-1.1,0.833-1.934,1.4-2.5,1.7c-0.934,0.4-1.617,0.7-2.05,0.9c-0.7,0.367-1.283,0.833-1.75,1.4c-1.167-0.7-1.783-2.217-1.85-4.55
			c-0.434,1.4-0.733,2.233-0.9,2.5c-1.966-0.933-3.05-2.7-3.25-5.3c-0.066-0.7,0.067-2.883,0.4-6.55c0.233-2.5,0.566-6.233,1-11.2
			c0.333-2.7,0.583-6.267,0.75-10.7c0.2-6.233,0.35-10.267,0.45-12.1c-0.566,2.267-1,3.966-1.3,5.1c-0.5,2-0.85,3.717-1.05,5.15
			c-0.333,2.233-0.883,4.333-1.65,6.3c-0.6,1.6-1.533,3.517-2.8,5.75c-1,1.833-1.6,4.333-1.8,7.5c-0.3,4.667-0.5,7.233-0.6,7.7
			c-0.367,2.1-1.184,4.6-2.45,7.5c-1.5,3.367-2.917,5.417-4.25,6.15c-0.033-0.8-0.05-2-0.05-3.6c0-1.4-0.083-2.583-0.25-3.55
			c-0.967,2.566-1.85,4.667-2.65,6.3c-1.533,3.133-2.733,4.117-3.6,2.95c-0.567,0.5-0.817,1.216-0.75,2.15
			c-1.034-0.934-1.917-2.367-2.65-4.3c-0.433-1.066-0.983-2.667-1.65-4.8c-0.533,1.333-0.917,2.333-1.15,3
			c-0.433,1.2-0.683,2.267-0.75,3.2c-0.8-0.6-1.7-1.5-2.7-2.7c-0.533-0.7-1.333-1.7-2.4-3c-0.1,1.033,0.05,2.217,0.45,3.55
			c0.533,1.534,0.917,2.667,1.15,3.4c-2.1-0.767-3.367-2.333-3.8-4.7c-0.133-0.7-0.184-2.833-0.15-6.4
			c-0.4,0.733-0.716,1.883-0.95,3.45c-0.3,1.667-0.583,2.817-0.85,3.45c-0.433-1-0.717-2.367-0.85-4.1
			c-0.066-1-0.117-2.433-0.15-4.3c-0.067-1.833-0.067-5.517,0-11.05c-0.9,2.534-1.5,6.383-1.8,11.55
			c-0.333,5.3-0.883,9.15-1.65,11.55c-0.466-1.033-0.633-2.617-0.5-4.75c0.167-2.933,0.233-4.566,0.2-4.9
			c-0.767,1.667-1.267,3.983-1.5,6.95c-0.3,4.2-0.5,6.583-0.6,7.15c-0.1,0.5-0.283,1.117-0.55,1.85
			c-0.367,0.867-0.583,1.433-0.65,1.7c-0.167,0.6-0.284,1.45-0.35,2.55c-0.067,1.2-0.167,2.066-0.3,2.6
			c-0.133,0.534-0.95,2.4-2.45,5.6c-1.1,2.3-1.5,4.3-1.2,6c1,0.2,2.117,0.033,3.35-0.5c0.733-0.333,1.783-0.85,3.15-1.55
			c1.7-0.733,4.067-1.35,7.1-1.85c3.567-0.567,5.983-1.05,7.25-1.45c1.133-0.333,3-1.05,5.6-2.15c2.4-0.967,4.283-1.633,5.65-2
			c0.867-0.233,1.783-0.433,2.75-0.6c1.067-0.233,4.133-0.716,9.2-1.45c3.767-0.567,6.816-1.217,9.15-1.95
			c1.4-0.433,3.583-1.333,6.55-2.7c2.767-1.3,4.95-2.167,6.55-2.6c2.3-0.633,5.3-0.95,9-0.95c4.933-0.033,7.95-0.1,9.05-0.2
			c1.633-0.167,3.433-0.633,5.4-1.4c1.1-0.433,2.817-1.1,5.15-2c4.1-1.333,9.983-1.85,17.65-1.55c9.133,0.367,15.133,0.35,18-0.05
			c9-1.233,16.45-1.833,22.35-1.8c22.867,0.1,42.417,3.667,58.65,10.7c3.233,1.367,8.15,3.367,14.75,6
			c5.733,2.4,10.433,4.816,14.1,7.25c1.1,0.7,4.284,3.367,9.55,8c5.133,4.1,8.583,5.867,10.35,5.3c2.667-0.833,3.583-3.633,2.75-8.4
			C262.567-12.033,261.45-15.217,259.85-18.05z"/>
	</g>
</symbol>
<symbol  id="FlashAICB_x5F_0_x2F_Layer_1_x2F__x3C_Path_x3E__x5F_2_x5F_0" viewBox="0.001 -59.345 28.349 59.348">
	<g id="Layer_1_23_">
		<path style="fill-rule:evenodd;clip-rule:evenodd;fill:#22777F;" d="M5.35-4c2.3,2.567,4.816,3.9,7.55,4
			c2.633,0.067,5.117-1.033,7.45-3.3c5.333-5.1,8-13.3,8-24.6c0-14.733-2.967-24.533-8.9-29.4c-2.5-2.067-5.05-2.567-7.65-1.5
			c-2.7,1.133-4.95,3.767-6.75,7.9C1.017-41.567-0.6-31.783,0.2-21.55C0.833-13.05,2.55-7.2,5.35-4z"/>
	</g>
</symbol>
<symbol  id="FlashAICB_x5F_0_x2F_Layer_1_x2F__x3C_Path_x3E__x5F_2_x5F_1" viewBox="-0.044 -16.668 9.544 16.668">
	<g id="Layer_1_28_">
		<path style="fill-rule:evenodd;clip-rule:evenodd;fill:#22777F;" d="M3.75,0c-0.633-1.333-1.167-2.85-1.6-4.55
			C1.217-7.917,1.167-10.483,2-12.25s2.333-2.8,4.5-3.1c1.1-0.133,2.1-0.1,3,0.1c-1.133-0.7-2.35-1.15-3.65-1.35
			c-2.633-0.367-4.417,0.75-5.35,3.35S-0.167-7.667,1.3-4.3C2.033-2.6,2.85-1.167,3.75,0z"/>
	</g>
</symbol>
<symbol  id="FlashAICB_x5F_0_x2F_Layer_1_x2F__x3C_Path_x3E__x5F_3" viewBox="-0.056 -29.174 36.656 29.174">
	<g id="Layer_1_11_">
		
			<radialGradient id="SVGID_13_" cx="31.0498" cy="-27.7998" r="99.7375" gradientTransform="matrix(1 0 0 -0.5848 0 -44.0576)" gradientUnits="userSpaceOnUse">
			<stop  offset="0" style="stop-color:#1FBCDC"/>
			<stop  offset="0.1451" style="stop-color:#1DB3D3"/>
			<stop  offset="0.3843" style="stop-color:#1899BB"/>
			<stop  offset="0.6902" style="stop-color:#106F94"/>
			<stop  offset="1" style="stop-color:#053E66"/>
		</radialGradient>
		<path style="fill-rule:evenodd;clip-rule:evenodd;fill:url(#SVGID_13_);" d="M35,0c-0.6-0.833-0.817-3.433-0.65-7.8
			c0.1-3.133,0.383-6.667,0.85-10.6l1.4-10.7c-2.7-0.167-5.883-0.05-9.55,0.35c-7.333,0.767-13.383,2.517-18.15,5.25
			C-2.733-16.867-3.033-11.6,8-7.7C15.433-5.067,24.433-2.5,35,0z"/>
	</g>
</symbol>
<symbol  id="FlashAICB_x5F_0_x2F_Layer_1_x2F__x3C_Path_x3E__x5F_3_x5F_0" viewBox="-0.069 -136.703 80.025 136.733">
	<g id="Layer_1_22_">
		<path style="fill-rule:evenodd;clip-rule:evenodd;fill:#22777F;" d="M50.5-15.8C60.9-14.233,69.517-26.3,76.35-52
			c2.5-9.333,3.7-19.133,3.6-29.4c-0.067-9.7-1.233-18.783-3.5-27.25c-2.3-8.434-5.383-15.133-9.25-20.1
			c-4.1-5.233-8.6-7.883-13.5-7.95c-8.167-0.133-14.184,4.117-18.05,12.75c-1.2,2.7-2.117,5.684-2.75,8.95l-0.6,4.05
			c-0.867-0.167-2.283,0.083-4.25,0.75c-3.9,1.367-8.5,4.117-13.8,8.25c-5.867,4.6-10.017,12.3-12.45,23.1
			c-2.167,9.533-2.45,18.083-0.85,25.65c1.133,5.567,2.667,10.284,4.6,14.15l2.5,4.15c-1.4,2.133-2.566,4.833-3.5,8.1
			c-1.933,6.5-1.8,12.6,0.4,18.3c1.2,3.067,3.25,5.383,6.15,6.95c3.033,1.633,6.2,2,9.5,1.1c8.367-2.233,13.816-10.716,16.35-25.45
			c0.966,1.467,2.25,3,3.85,4.6C44.033-18.133,47.267-16.3,50.5-15.8z"/>
	</g>
</symbol>
<symbol  id="FlashAICB_x5F_0_x2F_Layer_1_x2F__x3C_Path_x3E__x5F_4" viewBox="0 -42.8 7.966 42.8">
	<g id="Layer_1_10_">
		
			<radialGradient id="SVGID_14_" cx="6.75" cy="-40.8501" r="40.0875" gradientTransform="matrix(1 0 0 -0.585 0 -64.7461)" gradientUnits="userSpaceOnUse">
			<stop  offset="0" style="stop-color:#1FBCDC"/>
			<stop  offset="0.1451" style="stop-color:#1DB3D3"/>
			<stop  offset="0.3843" style="stop-color:#1899BB"/>
			<stop  offset="0.6902" style="stop-color:#106F94"/>
			<stop  offset="1" style="stop-color:#053E66"/>
		</radialGradient>
		<path style="fill-rule:evenodd;clip-rule:evenodd;fill:url(#SVGID_14_);" d="M0,0l6.5-1.6c0.167-3.566,0.483-8.066,0.95-13.5
			c0.466-5.433,0.617-14.667,0.45-27.7C6.8-35.533,6.017-27.933,5.55-20c-0.267,4.933-1.267,9.75-3,14.45
			C1.683-3.217,0.833-1.367,0,0z"/>
	</g>
</symbol>
<symbol  id="FlashAICB_x5F_0_x2F_Layer_1_x2F__x3C_Path_x3E__x5F_4_x5F_0" viewBox="-0.011 -29.01 12.508 29.011">
	<g id="Layer_1_21_">
		<path style="fill-rule:evenodd;clip-rule:evenodd;fill:#22777F;" d="M7.35-0.35c1.733-0.8,3.1-2.767,4.1-5.9
			c1-3.167,1.283-6.55,0.85-10.15c-0.433-4-1.716-7.35-3.85-10.05c-2.1-2.667-3.867-3.25-5.3-1.75
			c-1.233,1.233-2.117,3.784-2.65,7.65c-0.5,3.4-0.633,6.933-0.4,10.6c0.233,3.667,0.75,6.034,1.55,7.1
			C3.55-0.283,5.45,0.55,7.35-0.35z"/>
	</g>
</symbol>
<symbol  id="FlashAICB_x5F_0_x2F_Layer_1_x2F__x3C_Path_x3E__x5F_5" viewBox="0 -53.8 39.3 53.809">
	<g id="Layer_1_9_">
		
			<radialGradient id="SVGID_15_" cx="33.3501" cy="-51.3501" r="112.6" gradientTransform="matrix(1 0 0 -0.5848 0 -81.3804)" gradientUnits="userSpaceOnUse">
			<stop  offset="0" style="stop-color:#1FBCDC"/>
			<stop  offset="0.1451" style="stop-color:#1DB3D3"/>
			<stop  offset="0.3843" style="stop-color:#1899BB"/>
			<stop  offset="0.6902" style="stop-color:#106F94"/>
			<stop  offset="1" style="stop-color:#053E66"/>
		</radialGradient>
		<path style="fill-rule:evenodd;clip-rule:evenodd;fill:url(#SVGID_15_);" d="M34.85-12.05c1.767-1.367,3.25-2.633,4.45-3.8
			c-0.3-6.2-0.683-11.167-1.15-14.9c-0.467-3.7-1.316-9.2-2.55-16.5c-1.4-0.333-4.033-1.117-7.9-2.35
			c-2.434-0.767-4.9-1.417-7.4-1.95c-2.767-0.567-4.883-1-6.35-1.3c-2.934-0.633-5.8-0.95-8.6-0.95
			c-0.333,4.966-0.567,10.017-0.7,15.15c-0.066,4-0.15,6.767-0.25,8.3c-0.167,2.2-0.55,5.25-1.15,9.15
			c-0.3,1.8-0.983,5.967-2.05,12.5C0.467-4.5,0.067-1.917,0-0.95V0c0.967,0.1,4.617-0.633,10.95-2.2c6.466-1.6,11.3-3,14.5-4.2
			C28.217-7.433,31.35-9.317,34.85-12.05z"/>
	</g>
</symbol>
<symbol  id="FlashAICB_x5F_0_x2F_Layer_1_x2F__x3C_Path_x3E__x5F_5_x5F_0" viewBox="-0.017 -73.238 32.117 73.394">
	<g id="Layer_1_20_">
		<path style="fill-rule:evenodd;clip-rule:evenodd;fill:#22777F;" d="M30.25-0.45c-0.267-5.566-0.033-18.617,0.7-39.15
			c0.367-10.267,0.75-19.983,1.15-29.15c-4.5-2.7-9.2-4.183-14.1-4.45C8.233-73.767,2.383-68.033,0.45-56
			c-2,12.333,2.417,25.783,13.25,40.35c3.733,5.066,7.5,9.267,11.3,12.6C28.567,0.017,30.317,0.883,30.25-0.45z"/>
	</g>
</symbol>
<symbol  id="FlashAICB_x5F_0_x2F_Layer_1_x2F__x3C_Path_x3E__x5F_6" viewBox="0.038 -57.65 15.762 57.651">
	<g id="Layer_1_8_">
		
			<radialGradient id="SVGID_16_" cx="13.3999" cy="-55" r="62.0875" gradientTransform="matrix(1 0 0 -0.5849 0 -87.167)" gradientUnits="userSpaceOnUse">
			<stop  offset="0" style="stop-color:#1FBCDC"/>
			<stop  offset="0.1451" style="stop-color:#1DB3D3"/>
			<stop  offset="0.3843" style="stop-color:#1899BB"/>
			<stop  offset="0.6902" style="stop-color:#106F94"/>
			<stop  offset="1" style="stop-color:#053E66"/>
		</radialGradient>
		<path style="fill-rule:evenodd;clip-rule:evenodd;fill:url(#SVGID_16_);" d="M0.2,0c2.5-0.633,7.7-1.333,15.6-2.1
			c-0.3-2.5-0.617-6.3-0.95-11.4c-0.067-1.333-0.434-4.95-1.1-10.85c-0.633-5.767-1.033-10.3-1.2-13.6
			c-0.1-1.933-0.233-6.25-0.4-12.95c-0.1-4.233-0.283-6.434-0.55-6.6c-0.467-0.3-2.567-0.15-6.3,0.45
			c-0.367-0.167-0.75-0.167-1.15,0C3.383-56.717,3-55.783,3-54.25c0,7-0.317,16.083-0.95,27.25c-0.167,3.2-0.667,9.267-1.5,18.2
			C0.017-2.867-0.1,0.067,0.2,0z"/>
	</g>
</symbol>
<symbol  id="FlashAICB_x5F_0_x2F_Layer_1_x2F__x3C_Path_x3E__x5F_6_x5F_0" viewBox="-0.043 -177.402 110.754 177.425">
	<g id="Layer_1_19_">
		<path style="fill-rule:evenodd;clip-rule:evenodd;fill:#22777F;" d="M81.85-14.75l4.4-1.55c3.567-1.534,6.833-3.55,9.8-6.05
			c9.534-8,14.417-19.267,14.65-33.8c0.233-12.6-3.333-21.267-10.7-26c-3.7-2.4-7.417-3.517-11.15-3.35
			c0.767-7.767-0.867-13.117-4.9-16.05c-2.034-1.467-4.133-2.167-6.3-2.1c1.067-8.233-1.133-19.383-6.6-33.45
			c-6-15.433-13.566-27.4-22.7-35.9c-8.867-8.233-18.1-4.917-27.7,9.95c-8,12.4-13.983,28.167-17.95,47.3
			c-3.2,15.6-3.6,32.017-1.2,49.25c2.333,16.8,6.933,31.567,13.8,44.3C21.533-10.6,29.917-3.5,40.45-0.9
			c4.367,1.1,8.583,1.217,12.65,0.35c3.933-0.867,7.15-2.483,9.65-4.85c3.1-6.033,7.217-9.4,12.35-10.1
			C77.667-15.867,79.917-15.617,81.85-14.75z"/>
	</g>
</symbol>
<symbol  id="FlashAICB_x5F_0_x2F_Layer_1_x2F__x3C_Path_x3E__x5F_7" viewBox="0 -26.75 30.74 26.75">
	<g id="Layer_1_7_">
		
			<radialGradient id="SVGID_17_" cx="10.8501" cy="-29.4502" r="36.0375" gradientTransform="matrix(1 0 0 -0.5848 0 -46.6729)" gradientUnits="userSpaceOnUse">
			<stop  offset="0" style="stop-color:#1FBCDC"/>
			<stop  offset="0.1451" style="stop-color:#1DB3D3"/>
			<stop  offset="0.3843" style="stop-color:#1899BB"/>
			<stop  offset="0.6902" style="stop-color:#106F94"/>
			<stop  offset="1" style="stop-color:#053E66"/>
		</radialGradient>
		<path style="fill-rule:evenodd;clip-rule:evenodd;fill:url(#SVGID_17_);" d="M20.6-3.6c5.533-1.2,8.75-2.8,9.65-4.8
			c0.933-2.1,0.533-3.767-1.2-5c-0.733-0.5-3.833-1.934-9.3-4.3C14.017-20.167,7.433-23.183,0-26.75c0.6,2.167,0.9,5.417,0.9,9.75
			c0.033,4.767,0.05,8.25,0.05,10.45C0.983-2.75,0.9-0.567,0.7,0c3.566-1.233,6.583-1.933,9.05-2.1
			C13.65-2.367,17.267-2.867,20.6-3.6z"/>
	</g>
</symbol>
<symbol  id="FlashAICB_x5F_0_x2F_Layer_1_x2F__x3C_Path_x3E__x5F_7_x5F_0" viewBox="0 -14.633 9.172 14.633">
	<g id="Layer_1_27_">
		<path style="fill-rule:evenodd;clip-rule:evenodd;fill:#22777F;" d="M4.5,0c3.933-3.4,5.383-6.55,4.35-9.45
			c-0.4-1.066-1.083-1.9-2.05-2.5c-0.933-0.566-1.816-0.75-2.65-0.55c-0.4-1.6-1.217-2.3-2.45-2.1c-0.6,0.1-1.167,0.367-1.7,0.8
			c1.1-0.434,2.017-0.117,2.75,0.95l0.75,1.7c1-0.2,1.95,0.017,2.85,0.65C7.317-9.833,7.8-8.933,7.8-7.8
			c0,1.633-0.55,3.433-1.65,5.4C5.617-1.433,5.067-0.633,4.5,0z"/>
	</g>
</symbol>
<symbol  id="FlashAICB_x5F_0_x2F_Layer_1_x2F__x3C_Path_x3E__x5F_8" viewBox="0 -5.1 5 5.1">
	<g id="Layer_1_18_">
		<path style="fill-rule:evenodd;clip-rule:evenodd;fill:#C6DEE3;" d="M5-2.55c0-0.7-0.233-1.3-0.7-1.8C3.8-4.85,3.2-5.1,2.5-5.1
			c-0.667,0-1.25,0.25-1.75,0.75S0-3.25,0-2.55c0,0.7,0.25,1.3,0.75,1.8S1.833,0,2.5,0c0.7,0,1.3-0.25,1.8-0.75
			C4.767-1.25,5-1.85,5-2.55z"/>
	</g>
</symbol>
<symbol  id="FlashAICB_x5F_0_x2F_Layer_1_x2F__x3C_Path_x3E__x5F_8_x5F_0" viewBox="0 -12.45 4.513 12.489">
	<g id="Layer_1_26_">
		<path style="fill-rule:evenodd;clip-rule:evenodd;fill:#22777F;" d="M1.1-0.15c0.933-0.5,1.85-1.817,2.75-3.95
			s0.883-4.167-0.05-6.1c-0.466-0.966-1.017-1.716-1.65-2.25c0.3,0.4,0.583,0.934,0.85,1.6c0.533,1.333,0.75,2.7,0.65,4.1
			c-0.066,1.4-0.7,2.933-1.9,4.6C1.183-1.35,0.6-0.667,0-0.1C0.3,0.1,0.667,0.083,1.1-0.15z"/>
	</g>
</symbol>
<symbol  id="FlashAICB_x5F_0_x2F_Layer_1_x2F__x3C_Path_x3E__x5F_9" viewBox="0 -5.75 6.3 5.75">
	<g id="Layer_1_17_">
		<path style="fill-rule:evenodd;clip-rule:evenodd;fill:#C6DEE3;" d="M6.3-2.9c0-0.767-0.316-1.434-0.95-2
			c-0.6-0.567-1.333-0.85-2.2-0.85S1.533-5.467,0.9-4.9C0.3-4.333,0-3.667,0-2.9c0,0.8,0.3,1.483,0.9,2.05
			C1.533-0.283,2.283,0,3.15,0s1.6-0.283,2.2-0.85C5.983-1.417,6.3-2.1,6.3-2.9z"/>
	</g>
</symbol>
<g>
	<g>
		
			<linearGradient id="SVGID_18_" gradientUnits="userSpaceOnUse" x1="9.208" y1="181.2485" x2="259.2347" y2="181.2485" gradientTransform="matrix(1 0.0037 -0.0037 1 1.528026e-004 2.023813e-004)">
			<stop  offset="0" style="stop-color:#22777F"/>
			<stop  offset="0.1059" style="stop-color:#1E616D"/>
			<stop  offset="0.2667" style="stop-color:#194758"/>
			<stop  offset="0.4078" style="stop-color:#16364A"/>
			<stop  offset="0.5137" style="stop-color:#153146"/>
			<stop  offset="0.6902" style="stop-color:#14364A"/>
			<stop  offset="0.902" style="stop-color:#114455"/>
			<stop  offset="1" style="stop-color:#0F4E5D"/>
		</linearGradient>
		<path style="fill-rule:evenodd;clip-rule:evenodd;fill:url(#SVGID_18_);" d="M273.2,55.35c0,2.7-0.233,7.35-0.7,13.95
			c-0.467,6.767-0.7,12.133-0.7,16.1c0,21.367,0.017,33.4,0.05,36.1c0.101,17.167,0.4,30.733,0.9,40.7l4.7,94.55
			c0.566,11.1,1.8,22.75,3.7,34.95c1.733,11,2.6,17.733,2.6,20.2c0,3.166-3.333,6.733-10,10.699c-7.566,4.5-17.066,7.834-28.5,10
			c-1.866,0.367-3.116,1.117-3.75,2.25c-0.366,0.733-0.8,2.15-1.3,4.25c-1.601,4.967-6.267,9.634-14,14
			c-11.967,6.7-25.167,10.184-39.601,10.45c-12.533,0.233-23.866-1.866-34-6.3c-4.833-2.1-11.133-3.65-18.899-4.65
			c-14.467-1.566-29.317-3.316-44.55-5.25c-25.833-3.233-45.55-10.233-59.15-21c-4.333-3.399-7.85-7.066-10.55-11
			c-1.967-3.399-3.05-5.25-3.25-5.55c-0.7-1.033-1.083-5.5-1.15-13.399c-0.1-8.733,0.284-18.233,1.15-28.5
			c1.4-16.167,2.2-26.034,2.4-29.601c0.633-10.899,0.867-24.316,0.7-40.25c-0.133-14.533-0.333-27.983-0.6-40.35
			c-0.267-12.2-0.467-21.717-0.6-28.55c-0.233-11.933-0.6-21.3-1.1-28.1c-0.4-5.533-1.183-13.133-2.35-22.8
			c-1.667-9.933-2.7-17.017-3.1-21.25c-0.7-7.167,0.233-12.4,2.8-15.7c4.6-5.9,14.533-11.15,29.8-15.75
			c3.567-1.066,9.733-2.75,18.5-5.05c7.267-1.867,12.434-3.35,15.5-4.45c13.267-4.8,24.633-8.3,34.1-10.5
			c14.333-3.367,28.883-5.15,43.65-5.35c6.3-0.1,15.55,1.233,27.75,4c12.267,2.767,22.1,5.783,29.5,9.05
			c3.033,1.333,12.767,4.683,29.199,10.05c11.467,3.767,19.267,7.5,23.4,11.2C270.684,38.9,273.167,45.85,273.2,55.35z"/>
		
			<linearGradient id="SVGID_19_" gradientUnits="userSpaceOnUse" x1="21.3867" y1="194.2969" x2="85.0871" y2="194.2969" gradientTransform="matrix(1 0.0035 -0.0035 1 -8.499087e-005 -8.185580e-005)">
			<stop  offset="0" style="stop-color:#22777F"/>
			<stop  offset="0.1059" style="stop-color:#1E616D"/>
			<stop  offset="0.2667" style="stop-color:#194758"/>
			<stop  offset="0.4078" style="stop-color:#16364A"/>
			<stop  offset="0.5137" style="stop-color:#153146"/>
			<stop  offset="0.6902" style="stop-color:#14364A"/>
			<stop  offset="0.902" style="stop-color:#114455"/>
			<stop  offset="1" style="stop-color:#0F4E5D"/>
		</linearGradient>
		<path style="fill-rule:evenodd;clip-rule:evenodd;fill:url(#SVGID_19_);" d="M50.15,45.55c4.333,0.267,6.783,0.6,7.35,1
			c1.233,0.833,3.183,7.1,5.85,18.8c3.033,13.267,5.517,27.717,7.45,43.35c1.8,14.9,3.034,30.983,3.7,48.25
			c0.233,5.433,0.617,21.7,1.15,48.8c0.233,12.267,0.9,36.134,2,71.6c1,32.101,1.5,49.667,1.5,52.7c0,3.467-0.083,5.75-0.25,6.851
			c-0.367,2.267-1.217,3.933-2.55,5c-3.267,2.633-10.717,2.416-22.35-0.65c-14.267-3.767-25.25-8.65-32.95-14.65
			c-4.8-3.733-8.433-8.1-10.9-13.1c-0.8-1.634-0.65-6.2,0.45-13.7c1.633-10.767,2.566-18.3,2.8-22.6c1-15.033,1.967-31.634,2.9-49.8
			c0.934-14.534,1.483-24.483,1.65-29.851c0.267-8.066-0.05-17.667-0.95-28.8c-0.633-7.767-1.017-17.567-1.15-29.4
			c-0.1-10.1-0.65-19.383-1.65-27.85c-1.167-10.167-1.467-22.633-0.9-37.4c0.4-10.867,0.934-18.417,1.6-22.65
			c0.6-3.633,7.617-5.667,21.05-6.1C40.717,45.183,45.45,45.25,50.15,45.55z"/>
		
			<linearGradient id="SVGID_20_" gradientUnits="userSpaceOnUse" x1="64.4307" y1="197.708" x2="139.711" y2="197.708" gradientTransform="matrix(0.9999 0.012 -0.012 0.9999 2.460368e-004 8.169934e-005)">
			<stop  offset="0" style="stop-color:#22777F"/>
			<stop  offset="0.1059" style="stop-color:#1E616D"/>
			<stop  offset="0.2667" style="stop-color:#194758"/>
			<stop  offset="0.4078" style="stop-color:#16364A"/>
			<stop  offset="0.5137" style="stop-color:#153146"/>
			<stop  offset="0.6902" style="stop-color:#14364A"/>
			<stop  offset="0.902" style="stop-color:#114455"/>
			<stop  offset="1" style="stop-color:#0F4E5D"/>
		</linearGradient>
		<path style="fill-rule:evenodd;clip-rule:evenodd;fill:url(#SVGID_20_);" d="M123.85,51.45c1.533,6.6,1.883,18.65,1.05,36.15
			c-1.1,23.333-1.45,40.617-1.05,51.85c0.5,14.4,2.4,35.7,5.7,63.899c3.534,30.567,5.583,50.45,6.15,59.65
			c0.466,7.434,2.25,25.616,5.35,54.55c2.167,20.367,2.717,31.75,1.65,34.15c-0.7,1.566-3.617,3.033-8.75,4.399
			c-5.1,1.334-11.233,2.284-18.4,2.851c-17.533,1.399-31.983,0.149-43.35-3.75c-7.733-2.634-12.95-5.733-15.65-9.3
			c-2.167-2.834-3.25-6.95-3.25-12.351c0-3.333,0.767-13.133,2.3-29.399c1.933-20.467,3.267-36.034,4-46.7
			c2.333-27.934,3.8-47.634,4.4-59.101c0.9-18.066,0.6-38.633-0.9-61.7c-1.667-25.5-3.684-44.767-6.05-57.8
			c-1.9-10.5-5.466-23.833-10.7-40c12.233-0.934,24.633-1.1,37.2-0.5C108.683,39.517,122.117,43.883,123.85,51.45z"/>
		
			<linearGradient id="SVGID_21_" gradientUnits="userSpaceOnUse" x1="-273.1875" y1="-191.1465" x2="-204.2927" y2="-191.1465" gradientTransform="matrix(-0.9997 0.0239 -0.0239 -0.9997 -4.962459e-005 -3.833454e-004)">
			<stop  offset="0" style="stop-color:#22777F"/>
			<stop  offset="0.1059" style="stop-color:#1E616D"/>
			<stop  offset="0.2667" style="stop-color:#194758"/>
			<stop  offset="0.4078" style="stop-color:#16364A"/>
			<stop  offset="0.5137" style="stop-color:#153146"/>
			<stop  offset="0.6902" style="stop-color:#14364A"/>
			<stop  offset="0.902" style="stop-color:#114455"/>
			<stop  offset="1" style="stop-color:#0F4E5D"/>
		</linearGradient>
		<path style="fill-rule:evenodd;clip-rule:evenodd;fill:url(#SVGID_21_);" d="M272.6,78.55c-0.633,28.067-0.716,48.667-0.25,61.8
			c0.467,13.033,1.167,32.883,2.101,59.55c1,22.066,2.399,38.767,4.2,50.1c1.399,8.833,3.899,22.184,7.5,40.05
			c2.399,14.233,2.449,23.217,0.149,26.95c-2.3,3.8-8.283,6.95-17.95,9.45l-13.8,2.649c-3.3-9.333-6.85-19.783-10.649-31.35
			c-7.567-23.1-12.517-40.184-14.851-51.25c-2.533-12.066-4.616-34.333-6.25-66.8c-1.399-27.4-2.1-52.617-2.1-75.65
			c0-25.6,0.233-46.316,0.7-62.15h50.949C273.05,43.767,273.134,55.983,272.6,78.55z"/>
		
			<linearGradient id="SVGID_22_" gradientUnits="userSpaceOnUse" x1="-206.1475" y1="-220.0171" x2="-162.4199" y2="-220.0171" gradientTransform="matrix(-0.9897 0.1435 -0.1435 -0.9897 7.650256e-004 2.213567e-004)">
			<stop  offset="0" style="stop-color:#22777F"/>
			<stop  offset="0.1059" style="stop-color:#1E616D"/>
			<stop  offset="0.2667" style="stop-color:#194758"/>
			<stop  offset="0.4078" style="stop-color:#16364A"/>
			<stop  offset="0.5137" style="stop-color:#153146"/>
			<stop  offset="0.6902" style="stop-color:#14364A"/>
			<stop  offset="0.902" style="stop-color:#114455"/>
			<stop  offset="1" style="stop-color:#0F4E5D"/>
		</linearGradient>
		<path style="fill-rule:evenodd;clip-rule:evenodd;fill:url(#SVGID_22_);" d="M222.3,46.55c0.467,5.267,1.117,21.733,1.95,49.4
			c0.866,30.733,1.15,52.433,0.85,65.1c-0.466,18.867-0.233,34.667,0.7,47.4c1.4,19.133,4.434,36.166,9.101,51.1
			c3.5,11.167,9.083,26.816,16.75,46.95c5.3,14.934,6.699,23.25,4.199,24.95c-2.633,1.767-6.333,3.116-11.1,4.05l-6.4,0.85
			c-5.233-9.433-10.633-20.716-16.199-33.85c-11.167-26.3-17.634-48.767-19.4-67.4c-1.733-18.633-2.483-56-2.25-112.1
			c0.1-28.033,0.384-54.217,0.85-78.55l20.25-2.1L222.3,46.55z"/>
		
			<linearGradient id="SVGID_23_" gradientUnits="userSpaceOnUse" x1="103.9072" y1="217.0781" x2="205.9442" y2="217.0781" gradientTransform="matrix(0.9977 -0.0681 0.0681 0.9977 -2.888590e-004 2.552345e-004)">
			<stop  offset="0" style="stop-color:#22777F"/>
			<stop  offset="0.1059" style="stop-color:#1E616D"/>
			<stop  offset="0.2667" style="stop-color:#194758"/>
			<stop  offset="0.4078" style="stop-color:#16364A"/>
			<stop  offset="0.5137" style="stop-color:#153146"/>
			<stop  offset="0.6902" style="stop-color:#14364A"/>
			<stop  offset="0.902" style="stop-color:#114455"/>
			<stop  offset="1" style="stop-color:#0F4E5D"/>
		</linearGradient>
		<path style="fill-rule:evenodd;clip-rule:evenodd;fill:url(#SVGID_23_);" d="M204.85,165.95c0.4,16.8,2.75,37.166,7.051,61.1
			c3.466,19.3,7.399,36.884,11.8,52.75c3.7,13.334,9.483,30.417,17.35,51.25c2.167,5.634,3.417,9.65,3.75,12.05
			c0.467,3-0.05,5.4-1.55,7.2c-2.866,3.5-7.167,6.767-12.9,9.8c-6.8,3.534-14.35,5.983-22.649,7.351
			c-21.8,3.533-44.4-1.017-67.8-13.65c-1.867-34-3.267-64.267-4.2-90.8c-0.467-13.4-2.85-32.3-7.15-56.7
			c-4.533-25.9-7.267-46.566-8.2-62c-1.067-18.066-1-38.716,0.2-61.95c1.067-20.8,1.467-32.033,1.2-33.7
			c-0.567-3.8,12.533-5.633,39.3-5.5c13.367,0.067,26.8,0.5,40.3,1.3C202.75,84.483,203.917,124.983,204.85,165.95z"/>
		
			<use xlink:href="#FlashAICB_x5F_0_x2F_Layer_1_x2F__x3C_Path_x3E__x5F_25"  width="263.444" height="109.753" x="0.054" y="-109.75" transform="matrix(1 0 0 -1 11.7002 45.25)" style="overflow:visible;opacity:0.5313;enable-background:new    ;"/>
		
			<use xlink:href="#FlashAICB_x5F_0_x2F_Layer_1_x2F__x3C_Path_x3E__x5F_24"  width="28.111" height="34.922" x="0.005" y="-34.95" transform="matrix(1 0 0 -1 109.9502 77.2998)" style="overflow:visible;opacity:0.5313;enable-background:new    ;"/>
		
			<linearGradient id="SVGID_24_" gradientUnits="userSpaceOnUse" x1="-4.2783" y1="-144.166" x2="91.2657" y2="-144.166" gradientTransform="matrix(-0.0304 0.9995 -0.9995 -0.0304 -1.802891e-004 -2.005883e-004)">
			<stop  offset="0" style="stop-color:#3FA8A9"/>
			<stop  offset="0.1647" style="stop-color:#3AA1A7"/>
			<stop  offset="0.6196" style="stop-color:#2F93A2"/>
			<stop  offset="1" style="stop-color:#2C8EA1"/>
		</linearGradient>
		<path style="fill-rule:evenodd;clip-rule:evenodd;fill:url(#SVGID_24_);" d="M276.65,47.85c-0.034,0.767-0.067,2.95-0.101,6.55
			c-0.2,3.3-0.833,5.184-1.899,5.65c-1.067,0.467-1.851,0.05-2.351-1.25c-0.366-1.667-0.633-2.733-0.8-3.2
			c-1.066,0.433-1.733,1.7-2,3.8c-0.066,0.6-0.1,2.133-0.1,4.6c0,3.167-0.017,5-0.051,5.5c-0.199,2.1-0.783,3.833-1.75,5.2
			c-1.399,1.966-2.566,2.383-3.5,1.25c-0.666-0.733-1.383-2.583-2.149-5.55c-0.9-3.533-1.566-5.767-2-6.7
			c-0.9-2.067-1.967-2.833-3.2-2.3c-0.434,0.2-0.934,0.684-1.5,1.45s-1.083,1.233-1.55,1.4c-0.367,0.133-0.884,0.133-1.55,0
			c-0.834-0.167-1.367-0.25-1.601-0.25c-2.133,0.1-4.066,0.733-5.8,1.9c-1.467,0.967-2.95,2.434-4.45,4.4
			c-1.533,2.4-2.733,4.133-3.6,5.2c-1.533,1.867-3.25,2.983-5.15,3.35c-1.3,0.233-2.916,0.2-4.85-0.1
			c-2.134-0.433-3.733-0.733-4.8-0.9c-4.5-0.6-9.517,0.367-15.051,2.9c-4.366,1.967-8.75,4.767-13.149,8.4
			c-2.767,2.233-6.283,3.55-10.55,3.95c-1.134,0.1-2.551-0.1-4.25-0.6c-1.9-0.567-3.267-0.867-4.101-0.9
			c-0.899-0.033-1.816,0.167-2.75,0.6c-1,0.566-1.833,0.966-2.5,1.2c-1.399,0.5-2.983,0.783-4.75,0.85
			c-1.7,0.067-3.316-0.083-4.85-0.45c-1.2-0.5-2-0.816-2.4-0.95c-0.633-0.2-1.5,0.033-2.6,0.7c-0.867,0.5-1.9,1.517-3.101,3.05
			c-1.267,1.566-2.3,2.6-3.1,3.1c-1.3,0.8-2.816,1.2-4.55,1.2c-1.067,0-2.667-0.2-4.8-0.6c-3.233-0.6-6.316-2.017-9.25-4.25
			c-3.3-2.867-5.917-5.066-7.85-6.6c-2.2-1.767-4.167-2.733-5.9-2.9c-0.867-0.066-2.933,0.184-6.2,0.75
			c-2.434,0.4-5.15-0.333-8.15-2.2c-3.233-2.333-5.667-3.917-7.3-4.75c-4.2-2.1-7.95-3.467-11.25-4.1
			c-1.533-0.267-3.383-0.333-5.55-0.2c-3.233,0.233-5.05,0.35-5.45,0.35c-3.4-0.033-7.283-0.35-11.65-0.95
			c-2.5-0.367-6.35-1.034-11.55-2c-1.033-0.2-2.433-0.034-4.2,0.5c-1.8,0.5-3.133,0.7-4,0.6c-1.067-0.133-2.067-0.7-3-1.7
			c-1-1.2-1.783-2.083-2.35-2.65c-1.2-1.2-1.817-1.817-1.85-1.85c-0.733-0.434-1.55-0.25-2.45,0.55c-0.667,0.6-1.25,1.85-1.75,3.75
			c-0.5,1.967-1.067,3.25-1.7,3.85c-3.1,2.933-5.85,1.717-8.25-3.65c-2.033-6.5-3.35-10.333-3.95-11.5c-0.433-0.8-0.7-1.25-0.8-1.35
			l-1.35-0.2c-1.733-0.133-2.867-0.316-3.4-0.55c-0.8-0.367-1.3-1.433-1.5-3.2c-0.6-5.367,1.1-10.367,5.1-15
			c3.133-3.6,7.533-6.85,13.2-9.75c4.1-2.033,9.184-3.9,15.25-5.6c3.5-1,8.767-2.367,15.8-4.1c4.033-1.067,11.717-3.717,23.05-7.95
			c12.6-4.367,25.567-7.917,38.9-10.65c14.233-2.933,29.65-3.7,46.25-2.3c15,1.233,27.667,3.867,38,7.9
			c5.167,2,11.95,4.85,20.351,8.55c7.966,3.267,16.699,6.15,26.199,8.65c8.334,2.2,14.184,4.383,17.551,6.55
			C274.134,36.05,276.884,41.217,276.65,47.85z"/>
		<path style="fill-rule:evenodd;clip-rule:evenodd;fill:#64D4C5;" d="M167.3,81.8c1.467-0.3,3.351-0.45,5.65-0.45
			c1.967,0,4.383,0.05,7.25,0.15c2.366,0.033,4.717-0.217,7.05-0.75c1.866-0.4,4.717-0.95,8.55-1.65
			c3.267-0.667,5.584-1.367,6.95-2.1c3.366-1.767,6.55-3.05,9.55-3.85c3.033-0.8,3.566-0.45,1.601,1.05
			c-1.634,1.267-3.467,2.2-5.5,2.8c-2.733,0.633-5.134,1.267-7.2,1.9c-1.533,0.467-3.851,1.25-6.95,2.35
			c-2.1,0.767-4.033,1.317-5.8,1.65c-3.2,0.667-5.267,1.067-6.2,1.2c-2.2,0.367-4.884,0.7-8.05,1c-2.233,0.2-4.9,0.1-8-0.3
			c-2.934-0.333-5.75-0.35-8.45-0.05c-3.333,0.4-6.184,0.383-8.55-0.05c-3.533-0.667-3.584-0.85-0.15-0.55
			c1.5,0.133,3.217,0.083,5.15-0.15c0.366-0.033,2.783-0.4,7.25-1.1C162.283,82.767,164.233,82.4,167.3,81.8z"/>
		<path style="fill-rule:evenodd;clip-rule:evenodd;fill:#64D4C5;" d="M222.9,69.55c1.466-0.533,3.383-1.466,5.75-2.8
			c1.366-0.767,3.283-1.9,5.75-3.4c2.533-1.5,5.033-2.617,7.5-3.35c2.466-0.733,2.55-0.45,0.25,0.85
			c-1.7,0.967-3.233,1.717-4.601,2.25c-2.267,0.9-3.733,1.5-4.399,1.8c-1.4,0.633-2.9,1.684-4.5,3.15
			c-1.733,1.567-3.233,2.7-4.5,3.4c-1.967,1.033-3.101,1.15-3.4,0.35C220.417,70.967,221.134,70.217,222.9,69.55z"/>
		<path style="fill-rule:evenodd;clip-rule:evenodd;fill:#63B9C4;" d="M249.2,27.65c9.3,2.8,13.85,6.6,13.649,11.4
			c-0.133,2.367-1.183,4.467-3.149,6.3c0.934-0.934,1.649-2.083,2.149-3.45c1-2.767,0.434-5.267-1.699-7.5
			c-1.334-1.4-3.767-2.683-7.301-3.85c-4.066-1.167-6.933-2.017-8.6-2.55c-0.833-0.267-3.783-1-8.85-2.2
			c-3.534-0.8-5.45-1.5-5.75-2.1c-0.233-0.467,0.933-0.5,3.5-0.1C236.684,24.133,242.033,25.483,249.2,27.65z"/>
		<path style="fill-rule:evenodd;clip-rule:evenodd;fill:#64D4C5;" d="M135.1,2.85c-4.867,0.433-11.383,1.767-19.55,4
			c-2.867,0.8-8.017,1.967-15.45,3.5l-10.025,2.025c1.564-0.368,5.806-1.51,12.725-3.425c7.833-2.167,13.117-3.583,15.85-4.25
			c5.833-1.4,9.233-2.184,10.2-2.35c3.367-0.633,6.683-0.883,9.95-0.75c3.3,0.133,4.434,0.3,3.4,0.5
			C141.8,2.167,139.433,2.417,135.1,2.85z"/>
		<path style="fill-rule:evenodd;clip-rule:evenodd;fill:#64D4C5;" d="M189.7,5.95c1.666,0.833-0.601,0.733-6.8-0.3
			c-6.167-1.033-10.2-2.066-12.101-3.1c-2.166-1.167-0.316-1.267,5.55-0.3C182.217,3.183,186.667,4.417,189.7,5.95z"/>
		<path style="fill-rule:evenodd;clip-rule:evenodd;fill:#64D4C5;" d="M141.3,83.2c2.233,1.133,1.55,1.55-2.05,1.25
			c-3.233-0.267-6.383-0.784-9.45-1.55c-2.833-0.733-2.167-1.15,2-1.25C135.8,81.517,138.967,82.033,141.3,83.2z"/>
		
			<use xlink:href="#FlashAICB_x5F_0_x2F_Layer_1_x2F__x3C_Clip_Group_0_x3E_"  width="230.274" height="77.405" x="0.031" y="-77.45" transform="matrix(1 0 0 -1 26.5 2.6499)" style="overflow:visible;"/>
		<path style="fill-rule:evenodd;clip-rule:evenodd;fill:#64D4C5;" d="M82,69.25c3.567,0.133,7.883,1.15,12.95,3.05
			c5.433,2.034,6.7,2.784,3.8,2.25c-2.7-0.8-5.083-1.5-7.15-2.1c-3.967-1.133-6.85-1.733-8.65-1.8l-21.1-0.75
			c-12.167-2.066-21.3-5.233-27.4-9.5c-1.9-1.333-3.383-2.683-4.45-4.05l-0.925-1.5c2.543,3.883,8.251,7.2,17.125,9.95
			c6.8,2.1,13.25,3.383,19.35,3.85C71.15,69.05,76.633,69.25,82,69.25z"/>
		<path style="fill-rule:evenodd;clip-rule:evenodd;fill:#63B9C4;" d="M27.55,37c-0.933,0.667-1.7,1.717-2.3,3.15
			c-0.6,1.434-0.867,2.8-0.8,4.1c0.066,1.4,0.017,2.283-0.15,2.65c-0.233,0.367-0.5-0.15-0.8-1.55c-0.3-1.5-0.067-3.05,0.7-4.65
			C24.967,39.067,26.083,37.833,27.55,37z"/>
		<path style="fill-rule:evenodd;clip-rule:evenodd;fill:#63B9C4;" d="M227.35,22.3c0.134,0.267,0.117,0.517-0.05,0.75
			c-0.267,0.434-1.033,0.5-2.3,0.2c-1.6-0.367-2.05-0.783-1.35-1.25C224.35,21.533,225.583,21.633,227.35,22.3z"/>
		<path style="fill-rule:evenodd;clip-rule:evenodd;fill:#3688B4;" d="M218.75,41.85c0.366-0.1,0.634,0.167,0.8,0.8
			c0.2,0.633,0.233,1.45,0.101,2.45c-0.134,1.4-0.367,5.833-0.7,13.3c-0.233-1.833-0.417-3.883-0.55-6.15
			C218.134,47.65,218.25,44.183,218.75,41.85z"/>
		<path style="fill-rule:evenodd;clip-rule:evenodd;fill:#3688B4;" d="M66.5,38.15l1.4-0.95c-0.2,0.466-0.133,5.133,0.2,14
			c0.167,4.4,0.35,8.767,0.55,13.1c-1.033-6.066-1.7-12.25-2-18.55L66.5,38.15z"/>
		
			<use xlink:href="#FlashAICB_x5F_0_x2F_Layer_1_x2F__x3C_Path_x3E__x5F_11"  width="10.9" height="9.9" y="-9.9" transform="matrix(1 0 0 -1 136 67.3999)" style="overflow:visible;opacity:0.3008;enable-background:new    ;"/>
		
			<use xlink:href="#FlashAICB_x5F_0_x2F_Layer_1_x2F__x3C_Path_x3E__x5F_10"  width="14.65" height="15.35" y="-15.35" transform="matrix(1 0 0 -1 163.4502 38.6001)" style="overflow:visible;opacity:0.3008;enable-background:new    ;"/>
		
			<use xlink:href="#FlashAICB_x5F_0_x2F_Layer_1_x2F__x3C_Path_x3E__x5F_9"  width="6.3" height="5.75" y="-5.75" transform="matrix(1 0 0 -1 149.5996 61.1001)" style="overflow:visible;opacity:0.3008;enable-background:new    ;"/>
		
			<use xlink:href="#FlashAICB_x5F_0_x2F_Layer_1_x2F__x3C_Path_x3E__x5F_8"  width="5" height="5.1" y="-5.1" transform="matrix(1 0 0 -1 103.7002 56.1499)" style="overflow:visible;opacity:0.3008;enable-background:new    ;"/>
		
			<linearGradient id="SVGID_25_" gradientUnits="userSpaceOnUse" x1="94.2388" y1="270.8086" x2="131.5689" y2="270.8086" gradientTransform="matrix(0.9972 -0.075 0.075 0.9972 -1.328364e-004 -1.979694e-004)">
			<stop  offset="0" style="stop-color:#22777F"/>
			<stop  offset="0.1059" style="stop-color:#1E616D"/>
			<stop  offset="0.2667" style="stop-color:#194758"/>
			<stop  offset="0.4078" style="stop-color:#16364A"/>
			<stop  offset="0.5137" style="stop-color:#153146"/>
			<stop  offset="0.6902" style="stop-color:#14364A"/>
			<stop  offset="0.902" style="stop-color:#114455"/>
			<stop  offset="1" style="stop-color:#0F4E5D"/>
		</linearGradient>
		<path style="fill-rule:evenodd;clip-rule:evenodd;fill:url(#SVGID_25_);" d="M125.4,274.7c-0.467-4.4-0.7-11.483-0.7-21.25
			c0-6.634,0.316-18.134,0.95-34.5c0.6-16.367,0.9-24.733,0.9-25.101l5.65,26.101c3.8,19.533,5.8,34.733,6,45.6
			c0.3,17.4,0.45,38.667,0.45,63.8c-1.867-8.399-4.667-18.949-8.4-31.649C127.717,288.934,126.1,281.267,125.4,274.7z"/>
		
			<use xlink:href="#FlashAICB_x5F_0_x2F_Layer_1_x2F__x3C_Path_x3E__x5F_6_x5F_0"  width="110.754" height="177.425" x="-0.043" y="-177.402" transform="matrix(1 0 0 -1 143.8501 167.5)" style="overflow:visible;opacity:0.2813;enable-background:new    ;"/>
		
			<use xlink:href="#FlashAICB_x5F_0_x2F_Layer_1_x2F__x3C_Path_x3E__x5F_5_x5F_0"  width="32.117" height="73.394" x="-0.017" y="-73.238" transform="matrix(1 0 0 -1 240.75 103.8501)" style="overflow:visible;opacity:0.1914;enable-background:new    ;"/>
		
			<use xlink:href="#FlashAICB_x5F_0_x2F_Layer_1_x2F__x3C_Path_x3E__x5F_4_x5F_0"  width="12.508" height="29.011" x="-0.011" y="-29.01" transform="matrix(1 0 0 -1 235.25 91.8501)" style="overflow:visible;opacity:0.2813;enable-background:new    ;"/>
		
			<use xlink:href="#FlashAICB_x5F_0_x2F_Layer_1_x2F__x3C_Path_x3E__x5F_3_x5F_0"  width="80.025" height="136.733" x="-0.069" y="-136.703" transform="matrix(1 0 0 -1 27.7002 128.7002)" style="overflow:visible;opacity:0.2813;enable-background:new    ;"/>
		
			<use xlink:href="#FlashAICB_x5F_0_x2F_Layer_1_x2F__x3C_Path_x3E__x5F_2_x5F_0"  width="28.349" height="59.348" x="0.001" y="-59.345" transform="matrix(1 0 0 -1 127.8501 127)" style="overflow:visible;opacity:0.1914;enable-background:new    ;"/>
		
			<use xlink:href="#FlashAICB_x5F_0_x2F_Layer_1_x2F__x3C_Path_x3E__x5F_1_x5F_0"  width="10.217" height="19.695" x="-0.162" y="-19.65" transform="matrix(1 0 0 -1 154.3496 122.25)" style="overflow:visible;opacity:0.2813;enable-background:new    ;"/>
		
			<use xlink:href="#FlashAICB_x5F_0_x2F_Layer_1_x2F__x3C_Path_x3E__x5F_0"  width="69.25" height="33.914" y="-33.907" transform="matrix(1 0 0 -1 68.6499 325.25)" style="overflow:visible;opacity:0.1914;enable-background:new    ;"/>
	</g>
	<path style="fill-rule:evenodd;clip-rule:evenodd;fill:#142823;" d="M11.8,192.65c0.967,4.033,2.633,7.716,5,11.05
		c2.167,3.033,4.333,5.017,6.5,5.95l1.3,2.5c0.533,1.933,0.017,3.6-1.55,5c-0.267,0.233-0.95,0.116-2.05-0.351
		c-1.3-0.533-2.617-1.399-3.95-2.6c-3.9-3.467-6.7-8.517-8.4-15.15c-1.3-5.1-1.517-10.383-0.65-15.85
		c0.333-1.934,1.35-5.867,3.05-11.8c1.067-3.633,1.517-6.816,1.35-9.55c-0.133-2.233-0.75-4.717-1.85-7.45l2.2,4.15
		c1.333,3.567,1.683,7.434,1.05,11.6c-0.433,2.9-1.15,6.767-2.15,11.6C11.017,185.816,11.067,189.45,11.8,192.65z"/>
	<path style="fill-rule:evenodd;clip-rule:evenodd;fill:#142823;" d="M2.15,196.55c0.7,3.367,1.817,6.2,3.35,8.5
		c1.633,2.434,3.9,4.5,6.8,6.2c1.233,0.7,2.784,1.116,4.65,1.25c1.367,0.134,2.216,0.6,2.55,1.4c1.433,3.366,1.2,5.25-0.7,5.649
		c-1.466,0.334-3.35-0.133-5.65-1.399c-2.8-1.567-5.3-3.934-7.5-7.101c-2.233-3.2-3.783-6.533-4.65-10c-0.667-2.666-1-5.767-1-9.3
		c0-2.5,0.133-5.384,0.4-8.65l0.4-4.2l0.15,6.2C1.183,189.833,1.583,193.65,2.15,196.55z"/>
	<path style="fill-rule:evenodd;clip-rule:evenodd;fill:#091E18;" d="M111.35,281.2c2.566,3.566,6.167,6.583,10.8,9.05
		c1.934,1.033,4.4,1.667,7.4,1.9c2.1,0.166,3.434,0.833,4,2c2.3,4.899,1.95,7.649-1.05,8.25c-2.4,0.466-5.417-0.233-9.05-2.101
		c-4.434-2.233-8.383-5.666-11.85-10.3c-3.533-4.667-6-9.55-7.4-14.65c-1.067-3.899-1.6-8.416-1.6-13.55
		c0-3.633,0.217-7.85,0.65-12.649l0.65-6.051l0.2,9.051c0.333,6.899,0.983,12.466,1.95,16.699
		C107.15,273.75,108.917,277.866,111.35,281.2z"/>
	<path style="fill-rule:evenodd;clip-rule:evenodd;fill:#142823;" d="M34.75,196.9c1.3,1.533,1.983,2.816,2.05,3.85
		c0.1,1.267-0.033,2.25-0.4,2.95c-0.333,0.666-0.75,0.899-1.25,0.7c-2.1-0.767-3.767-1.817-5-3.15c-1.933-2.134-3.6-5.533-5-10.2
		c-1.3-4.333-1.883-9.316-1.75-14.95c0.4-5.667,0.6-9.45,0.6-11.35c0-2.367-0.05-4.467-0.15-6.3l-0.2-2.05l0.65,2.75
		c0.5,2.9,0.9,6.983,1.2,12.25c0.467,9.333,2.067,16,4.8,20C30.933,192.3,32.417,194.134,34.75,196.9z"/>
	
		<use xlink:href="#FlashAICB_x5F_0_x2F_Layer_1_x2F__x3C_Path_x3E__x5F_8_x5F_0"  width="4.513" height="12.489" y="-12.45" transform="matrix(1 0 0 -1 35.1499 194.2998)" style="overflow:visible;opacity:0.5313;enable-background:new    ;"/>
	
		<use xlink:href="#FlashAICB_x5F_0_x2F_Layer_1_x2F__x3C_Path_x3E__x5F_7_x5F_0"  width="9.172" height="14.633" y="-14.633" transform="matrix(1 0 0 -1 19 207.75)" style="overflow:visible;opacity:0.5313;enable-background:new    ;"/>
	<path style="fill-rule:evenodd;clip-rule:evenodd;fill:#142823;" d="M268.8,243.4c4.434,13.767,5.667,24.883,3.7,33.35
		c-1.167,4.9-2.233,8.483-3.2,10.75c-0.2,0.467-1.033,1.983-2.5,4.55c-0.934,1.7-2.517,2.351-4.75,1.95
		c-2.133-0.366-3.649-1.35-4.55-2.95c-0.833-1.5-1.184-2.666-1.05-3.5c0.233-1.6,1.684-3.883,4.35-6.85
		c3-3.334,5.033-8.334,6.101-15c1.066-6.733,0.933-13.834-0.4-21.3c-0.967-5.334-1.316-10.767-1.05-16.301l0.7-6.699l0.35,7.85
		C266.934,235.217,267.7,239.934,268.8,243.4z"/>
	<path style="fill-rule:evenodd;clip-rule:evenodd;fill:#142823;" d="M291.1,246.5c0.534,7.767-0.449,15.4-2.949,22.9
		c-2.334,7-5.067,12.25-8.2,15.75c-2.334,2.6-4.601,4.017-6.8,4.25c-1.534,0.166-2.084-1.134-1.65-3.9
		c0.4-2.667,1.167-4.483,2.3-5.45c1.467-0.767,3.101-2.116,4.9-4.05c3.633-3.9,6.35-8.767,8.149-14.6
		c1.601-5.134,2.517-10.733,2.75-16.801l-0.1-7.55l0.65,2.5C290.583,241.717,290.9,244.033,291.1,246.5z"/>
	<path style="fill-rule:evenodd;clip-rule:evenodd;fill:#0C211C;" d="M257.5,191.4c-0.4-3.467-0.35-7.517,0.15-12.15l0.85-5.85
		l0.1,6c0.334,5.333,1.184,11.333,2.551,18c1.399,6.666,0.649,12.733-2.25,18.199c-1.434,2.7-3.017,4.75-4.75,6.15
		c-1.601,2.2-3.384,3.05-5.351,2.55c-1.7-0.399-2.684-1.25-2.95-2.55c-0.566-2.4,0.267-4.8,2.5-7.2
		c1.267-1.333,3.2-3.05,5.801-5.149c1.533-1.5,2.6-3.834,3.199-7C257.95,199.2,258,195.533,257.5,191.4z"/>
	<path style="fill-rule:evenodd;clip-rule:evenodd;fill:#0C211C;" d="M120.2,259.75c0.466,2.9,1.1,5.434,1.9,7.6
		c0.8,2.134,1.65,3.65,2.55,4.551c0.6,0.6,1.733,1.583,3.4,2.949c1.367,1.434,2.133,3,2.3,4.7c0.066,0.934-0.217,1.634-0.85,2.101
		c-0.767,0.533-1.683,0.116-2.75-1.25c-0.967-0.767-2-2.017-3.1-3.75c-2.167-3.467-3.517-7.584-4.05-12.351
		c-0.533-4.733-1.167-8.967-1.9-12.7l-1-4.199l1.4,4C119.1,254.533,119.8,257.316,120.2,259.75z"/>
	
		<use xlink:href="#FlashAICB_x5F_0_x2F_Layer_1_x2F__x3C_Path_x3E__x5F_2_x5F_1"  width="9.544" height="16.668" x="-0.044" y="-16.668" transform="matrix(1 0 0 -1 242.7998 211.1504)" style="overflow:visible;opacity:0.5313;enable-background:new    ;"/>
	
		<use xlink:href="#FlashAICB_x5F_0_x2F_Layer_1_x2F__x3C_Path_x3E__x5F_1_x5F_1"  width="4.142" height="11" x="-0.042" y="-11" transform="matrix(1 0 0 -1 252.9502 283.6504)" style="overflow:visible;opacity:0.5313;enable-background:new    ;"/>
	
		<use xlink:href="#FlashAICB_x5F_0_x2F_Layer_1_x2F__x3C_Path_x3E__x5F_15"  width="16.304" height="7.862" y="-7.862" transform="matrix(1 0 0 -1 262.5498 288.9004)" style="overflow:visible;opacity:0.5313;enable-background:new    ;"/>
</g>
</svg>
