<?xml version="1.0" encoding="iso-8859-1"?>
<!-- Generator: Adobe Illustrator 15.1.0, SVG Export Plug-In . SVG Version: 6.00 Build 0)  -->
<!DOCTYPE svg PUBLIC "-//W3C//DTD SVG 1.1//EN" "http://www.w3.org/Graphics/SVG/1.1/DTD/svg11.dtd">
<svg version="1.1" id="Layer_3" xmlns="http://www.w3.org/2000/svg" xmlns:xlink="http://www.w3.org/1999/xlink" x="0px" y="0px"
	 width="346.8px" height="114.35px" viewBox="0 0 346.8 114.35" style="enable-background:new 0 0 346.8 114.35;"
	 xml:space="preserve">
<symbol  id="flash0.ai_x2F_Layer_3_x2F__x3C_Clip_Group_0_x3E_" viewBox="-0.017 -91.593 315.417 91.564">
	<g id="Layer_1_76_">
	</g>
	<g>
		<defs>
			<path id="SVGID_1_" d="M308.8-10.85c-4.233,0.3-6.633,0.5-7.2,0.6c-3.6,0.667-10.367,2.367-20.3,5.1
				c-8.433,2.333-15.216,3.783-20.35,4.35c-5.534,0.6-12.567,0.85-21.1,0.75c-13.767-0.133-20.8-0.2-21.1-0.2
				c-4.367,0.1-9.25,0.033-14.65-0.2c-3.6-0.133-9-0.4-16.2-0.8c-7.2-0.4-12.583-0.65-16.15-0.75c-8.2-0.267-21.75-1.767-40.65-4.5
				c-17.333-2.5-30.883-3.683-40.65-3.55c-18.5,1.6-34.95,2.633-49.35,3.1C13.133-5.983-0.567-8.033,0-13.1
				c0.233-1.967,1.583-3.517,4.05-4.65c1.367-0.667,3.333-1.467,5.9-2.4c0.7-0.4,2.466-2.667,5.3-6.8c2-2.966,3.883-3.7,5.65-2.2
				c0.767-0.5,2.633-1.467,5.6-2.9c2.233-1.034,3.95-2.2,5.15-3.5c2.7-2.9,5.967-5.25,9.8-7.05c0.066-0.033,2.033-0.767,5.9-2.2
				c2.433-0.9,4.2-1.95,5.3-3.15c2.167-2.367,5.233-4.633,9.2-6.8c0.9-0.5,2.517-1.25,4.85-2.25c2.133-0.9,3.7-1.65,4.7-2.25
				c1.333-0.767,3.267-1.483,5.8-2.15c2.933-0.8,5-1,6.2-0.6c1.367,0.467,1.217,1.8-0.45,4c-2,2.633-2.883,4.35-2.65,5.15
				c0.3-0.167,2.35-1.533,6.15-4.1c2.433-1.6,4.633-2.65,6.6-3.15c1.133-0.3,3.167-0.5,6.1-0.6c2.733-0.133,4.717-0.417,5.95-0.85
				c1.367-0.5,2.717-1.25,4.05-2.25c0.8-0.567,1.983-1.45,3.55-2.65c1.033-0.733,2.117-1.233,3.25-1.5
				c0.733-0.167,1.917-0.316,3.55-0.45c4.033-0.333,8.6-0.533,13.7-0.6c1.933-0.033,6.483-0.05,13.65-0.05
				c2.4-0.034,6.667-1.367,12.8-4c6.467-2.767,10.55-4.25,12.25-4.45c1.633-0.2,2.6,1,2.9,3.6c0.1,1.1,0.267,1.767,0.5,2
				c0.367,0.333,1.05,0.066,2.05-0.8c0.967-0.8,2.2-3.533,3.7-8.2c1.3-4,3.1-6.267,5.4-6.8c2.2-0.533,5.316,1.233,9.35,5.3
				c2.167,2.167,4.817,4.983,7.95,8.45c2.133,1.8,4.9,3.833,8.3,6.1c1.9,1.267,4.717,3.133,8.45,5.6
				c0.933-1.3,5.117-1.517,12.55-0.65c7.133,0.833,11.75,1.883,13.85,3.15c2.5,1.433,7.383,4.517,14.65,9.25
				c5.9,3.867,10.784,6.75,14.65,8.65c1.867,0.934,3.816,2.383,5.85,4.35c1.2,1.167,2.9,2.95,5.1,5.35
				c2.6,2.767,5.467,4.717,8.6,5.85c0.6,0.233,0.983,0.367,1.15,0.4c0.233,0.033,0.517-0.017,0.85-0.15
				c-0.067-0.767-0.467-1.617-1.2-2.55c-0.8-1.066-1.333-1.867-1.6-2.4c-0.1-0.167-0.467-1.117-1.1-2.85
				c-0.033-0.133-0.167-0.433-0.4-0.9c-0.2-0.433-0.267-0.717-0.2-0.85c0.1-0.233,0.367-0.25,0.8-0.05
				c0.233,0.1,0.534,0.267,0.9,0.5c0.466,0.233,1.466,0.933,3,2.1c3.5,2.133,6.55,4.783,9.15,7.95c2.467,3,4.05,5.017,4.75,6.05
				c1.767,2.5,2.95,4.783,3.55,6.85C314.1-11.5,311.9-11.05,308.8-10.85z"/>
		</defs>
		<clipPath id="SVGID_2_">
			<use xlink:href="#SVGID_1_"  style="overflow:visible;"/>
		</clipPath>
		<g id="Layer_3_1_" style="clip-path:url(#SVGID_2_);">
			
				<use xlink:href="#flash0.ai_x2F_Layer_3_x2F__x3C_Group_x3E__x5F_1"  width="308.769" height="74.892" y="-74.892" transform="matrix(1 0 0 1 2.7998 -16.7002)" style="overflow:visible;enable-background:new    ;"/>
			<g>
				
					<use xlink:href="#flash0.ai_x2F_Layer_3_x2F__x3C_Path_x3E__x5F_0"  width="-32766" height="-32766" x="16383" y="16383" transform="matrix(1 0 0 1 55.3999 -44.6001)" style="overflow:visible;opacity:0.3398;enable-background:new    ;"/>
				
					<use xlink:href="#flash0.ai_x2F_Layer_3_x2F__x3C_Compound_Path_x3E_"  width="311.155" height="78.706" x="0.009" y="-78.75" transform="matrix(1 0 0 1 2.2998 -5.5)" style="overflow:visible;opacity:0.1797;enable-background:new    ;"/>
			</g>
		</g>
	</g>
	<g id="Layer_4_1_">
	</g>
</symbol>
<symbol  id="flash0.ai_x2F_Layer_3_x2F__x3C_Compound_Path_x3E_" viewBox="0.009 -78.75 311.155 78.706">
	<g id="Layer_1_4_">
		
			<linearGradient id="SVGID_3_" gradientUnits="userSpaceOnUse" x1="15790.0059" y1="-42.9004" x2="15900.8506" y2="-42.9004" gradientTransform="matrix(0.0284 0.9996 -0.9996 0.0284 -339.5996 -15918.6074)">
			<stop  offset="0" style="stop-color:#472725"/>
			<stop  offset="1" style="stop-color:#201312"/>
		</linearGradient>
		<path style="fill-rule:evenodd;clip-rule:evenodd;fill:url(#SVGID_3_);" d="M185.1-41.35L184.25-36
			c-0.6-1.333-1.667-3.55-3.2-6.65c-1.133-3.033-1.367-6.167-0.7-9.4c0.367-1.733,1.066-6.25,2.1-13.55
			c0.667-4.767,1.1-6.45,1.3-5.05c0.6,4.367,1.2,10.667,1.8,18.9C185.783-48.917,185.633-45.45,185.1-41.35z M311.15-12.25
			c0.067-0.367-0.1-0.767-0.5-1.2c-0.533-0.466-0.9-0.816-1.1-1.05l-0.6,0.5c-0.133-0.3-0.467-0.75-1-1.35
			c-0.2,0.5-0.317,0.883-0.35,1.15c-0.9-0.433-1.533-0.783-1.9-1.05c-0.067,0.067-0.05,0.167,0.05,0.3
			c-0.333-0.167-1.1-0.65-2.3-1.45c0.367,0.767,0.8,1.45,1.3,2.05c-0.333-0.233-0.933-0.717-1.8-1.45
			c-0.733-0.633-1.333-1.067-1.8-1.3c0.167,0.267,0.283,0.617,0.35,1.05c-1.533,0.066-2.883-0.15-4.05-0.65
			c-0.467-0.2-1.667-0.867-3.6-2c-3.067-1.8-5.333-3.167-6.8-4.1c-2.5-1.534-4.683-3.067-6.55-4.6c-6.5-5.233-11.3-11.067-14.4-17.5
			c-1.967-0.6-3.45-1.05-4.45-1.35c-1.767-0.567-3.2-1.167-4.3-1.8c0.333,0.966,0.95,2.1,1.85,3.4c0.5,0.733,1.283,1.783,2.35,3.15
			c1.7,2.333,4.017,4.833,6.95,7.5c1.667,1.533,4.217,3.8,7.65,6.8c2.5,2.3,4.167,4.45,5,6.45c1.033,2.533-0.533,3.033-4.7,1.5
			l-0.15,0.4c-1.533-0.767-2.367-1.283-2.5-1.55c0.133,0.6,0.267,1.05,0.4,1.35c-2.934-1.3-5.067-2.333-6.4-3.1
			c0.333,0.467,0.833,1.217,1.5,2.25c-2-0.667-4.017-1.9-6.05-3.7c-1.3-1.133-2.917-2.217-4.85-3.25c-2.267-1.167-4-2.083-5.2-2.75
			c-1.167-0.7-2.983-2.25-5.45-4.65c-2.2-2.167-4.05-3.567-5.55-4.2c1.333,1.6,3.267,4,5.8,7.2c0.567,0.7,1.967,2.017,4.2,3.95
			c2.633,2.3,4.517,4.15,5.65,5.55c0.167,0.2,0.833,1.433,2,3.7c1.066,2.066,1.683,3.117,1.85,3.15c-0.9-0.133-1.567-0.567-2-1.3
			c-0.633-1.066-1.083-1.7-1.35-1.9c-1.633-1.4-4.7-2.333-9.2-2.8c-4.233-0.434-7.217-1.667-8.95-3.7
			c0.133-0.1,0.283-0.233,0.45-0.4c0.2-0.133,0.383-0.233,0.55-0.3c-1.167-0.733-3.5-1.817-7-3.25c-3-1.267-5.233-2.5-6.7-3.7
			c-0.733-0.6-1.467-1.417-2.2-2.45c-0.8-1.2-1.433-2.083-1.9-2.65c-2.1-2.667-4.667-5.4-7.7-8.2c-0.4-0.367-3.233-3.233-8.5-8.6
			c-3.434-3.5-6.467-6.167-9.1-8c1,1.566,3.1,4.15,6.3,7.75c1.6,1.8,3.65,4.65,6.15,8.55c2.4,3.833,4.483,6.7,6.25,8.6
			c1.067,1.133,2.167,2.767,3.3,4.9c1.233,2.3,2.217,3.883,2.95,4.75c-0.4,0.467-1.267,0.917-2.6,1.35c-1.2,0.367-1.9,0.833-2.1,1.4
			c-1.233-0.2-2.617-0.9-4.15-2.1c-2.034-1.566-3.317-2.483-3.85-2.75c-0.5,0.8-1.667,0.733-3.5-0.2c-2.033-1.2-3.35-1.9-3.95-2.1
			c0.333,1.767,1,4.1,2,7c1.2,3.367,1.95,5.667,2.25,6.9c-0.967-0.233-1.7-1.05-2.2-2.45c-0.267-0.767-0.583-1.9-0.95-3.4
			c-0.133-0.367-0.483-0.883-1.05-1.55c-0.5-0.633-0.817-1.183-0.95-1.65c-0.167-0.7-0.3-1.467-0.4-2.3
			c-0.133-0.7-0.467-1.433-1-2.2c-1.633-2.233-2.733-3.867-3.3-4.9c-0.9-1.667-1.566-3.534-2-5.6c-1.066-4.934-1.633-7.567-1.7-7.9
			c-1-3.434-2.184-5.65-3.55-6.65c0.567,3.167,0.95,5.784,1.15,7.85c0.367,3.867,0,6.033-1.1,6.5
			c-0.833-2.867-1.517-6.583-2.05-11.15c-0.267-2.567-0.65-6.367-1.15-11.4c-0.566-4.8-0.9-7.45-1-7.95
			c-0.8-3.667-2.033-5.633-3.7-5.9c-0.034,0.933-0.5,2.217-1.4,3.85c-1.233,2.167-1.917,3.4-2.05,3.7c-0.267,0.7-0.683,2.034-1.25,4
			c-0.5,1.7-0.967,3-1.4,3.9c-0.333,0.7-1.167,1.833-2.5,3.4c-1.167,1.4-1.9,2.583-2.2,3.55c-0.267,0.833-0.383,2.2-0.35,4.1
			c0,1.833-0.167,3.2-0.5,4.1c-0.7,1.933-1.6,3.75-2.7,5.45c-1.267,1.934-2.633,3.417-4.1,4.45c-2.433,1.7-4.55,3.933-6.35,6.7
			c-0.133,0.2-0.667,2.233-1.6,6.1c-0.7,2.934-1.75,4.367-3.15,4.3c0-2.833,0.55-5.483,1.65-7.95c0.167-0.367,0.917-1.833,2.25-4.4
			c0.934-1.8,1.583-3.333,1.95-4.6c-1.667,1.333-3.333,2.917-5,4.75c-0.567,0.633-2.033,2.383-4.4,5.25
			c-1.033-0.9-1.583-2.667-1.65-5.3c0-0.4,0.083-2.35,0.25-5.85c0.2-5.1,1.167-8.733,2.9-10.9c-0.033,0.333,0.017,0.733,0.15,1.2
			c0.133,0.5,0.217,0.883,0.25,1.15c0.733-1.4,1.833-3.034,3.3-4.9c0.833-1.033,2.083-2.55,3.75-4.55
			c-0.2,1.733-0.35,3.05-0.45,3.95c-0.167,1.633-0.184,3-0.05,4.1c0.6-2.4,1.733-5.533,3.4-9.4c1.867-4.333,3.083-7.383,3.65-9.15
			c-1.067,0.567-2.233,1.317-3.5,2.25c-0.1,0.067-1.2,0.917-3.3,2.55c-7.066,5.6-11.3,12.083-12.7,19.45
			c-0.267,1.267-0.434,3.317-0.5,6.15c-0.067,2.7-0.267,4.717-0.6,6.05c-0.8-0.1-1.4-0.15-1.8-0.15c-0.7-0.033-1.3,0.034-1.8,0.2
			c-0.333,5.8-0.95,9.05-1.85,9.75c-0.7-0.667-0.966-1.667-0.8-3c0.1-0.733,0.267-1.817,0.5-3.25c0-0.9-0.133-2.15-0.4-3.75
			c-0.333-1.8-0.517-3.067-0.55-3.8c-0.066-1.333,0.034-2.6,0.3-3.8c0.167-0.833,0.533-2.05,1.1-3.65c0.333-0.9,0.433-2.05,0.3-3.45
			c-0.133-1.433-0.067-2.533,0.2-3.3c0.633-1.833,1.8-3.967,3.5-6.4c2.267-3.2,3.617-5.2,4.05-6c-0.8,0.033-1.567,0.417-2.3,1.15
			c-0.767,0.933-1.367,1.6-1.8,2c-0.6,0.567-1.583,1.333-2.95,2.3c-1.333,0.967-2.3,1.733-2.9,2.3c-0.966,0.933-2.167,2.533-3.6,4.8
			c-1.467,2.3-2.684,3.934-3.65,4.9c-0.667,0.667-1.6,1.967-2.8,3.9c-1.167,1.8-2.15,3.066-2.95,3.8
			c-0.833,0.767-2.383,1.367-4.65,1.8c-1.967,0.367-3.367,1.184-4.2,2.45c1.3-2.067,1.017-3.083-0.85-3.05
			c-1.633,0.033-3.167,0.517-4.6,1.45c-0.033-0.1-0.05-0.383-0.05-0.85c-0.8,0.534-1.233,0.817-1.3,0.85c0.267-0.5,0.5-1.3,0.7-2.4
			c-1.934,0.733-2.883,0.6-2.85-0.4c0-0.767,0.517-1.9,1.55-3.4c0.167-0.233,0.667-1.15,1.5-2.75c0.6-1.167,1.15-1.967,1.65-2.4
			c0.2-0.2,0.816-0.617,1.85-1.25c0.7-0.4,1.267-1,1.7-1.8c0.6-1.133,1.45-2.95,2.55-5.45c1.067-2.2,2.1-3.85,3.1-4.95
			c-0.633,0.3-1.3,0.85-2,1.65c-0.9,1.033-1.5,1.683-1.8,1.95c-3.567,2.867-6.15,5.233-7.75,7.1c-0.667,0.767-1.517,2.2-2.55,4.3
			c-0.966,1.933-1.85,3.316-2.65,4.15c-0.7,0.7-1.95,1.333-3.75,1.9c-1.7,0.567-2.933,1.333-3.7,2.3c-1.2,1.5-2.083,2.2-2.65,2.1
			c-0.133-0.033-1.066-0.733-2.8-2.1c-1.2,1.2-1.783,1.867-1.75,2c-0.033-0.233-0.217-0.75-0.55-1.55
			c-1.133,0.934-1.983,1.617-2.55,2.05c0.133-0.267,0.35-0.784,0.65-1.55c-0.833,0.533-2.183,0.934-4.05,1.2
			c-1.967,0.233-3.333,0.583-4.1,1.05c0.167-0.6,0.5-1.5,1-2.7c-1,0.233-1.983,0.833-2.95,1.8c0.267-2.533,1.133-5.133,2.6-7.8
			c0.934-1.767,2.333-3.867,4.2-6.3c-1.033,0.2-2.45,0.95-4.25,2.25c-0.7,0.5-1.933,1.483-3.7,2.95c-0.566,0.467-1.617,1.7-3.15,3.7
			c-1.333,1.733-2.333,2.767-3,3.1c0.267-2,0.6-3.633,1-4.9c0.533-1.7,1.283-3.167,2.25-4.4c0.333-0.4,1.2-1.75,2.6-4.05
			c1.167-1.933,2.217-3.3,3.15-4.1c-2.5,0.966-5.033,2.85-7.6,5.65c-3.267,3.566-5.483,5.767-6.65,6.6
			c-0.933,0.667-2.433,1.533-4.5,2.6c-2.066,1.034-3.583,1.9-4.55,2.6c-0.967,0.7-2.333,1.85-4.1,3.45
			c-2.249,2.083-3.232,3.35-2.95,3.8c-0.592-0.877,0.024-2.711,1.85-5.5c0.967-1.5,2.283-3.333,3.95-5.5c-2.1,1.6-3.767,3-5,4.2
			c-0.367,0.367-1.717,1.95-4.05,4.75c-1.667,1.967-3.2,3.333-4.6,4.1c-1.367,0.733-3.25,0.85-5.65,0.35
			c-2.466-0.566-4.383-0.533-5.75,0.1c-2.767,1.167-4.767,2.067-6,2.7c-0.767,0.367-1.566,1.066-2.4,2.1
			c-0.933,1.167-1.683,1.95-2.25,2.35c-1.167,0.833-1.833,1-2,0.5c-0.1-0.4-0.233-1.466-0.4-3.2c-0.833,0.733-1.767,1.983-2.8,3.75
			c-1.133,1.867-2.05,3.167-2.75,3.9c-0.633,0.767-1.083,1.25-1.35,1.45c-0.333,0.333-0.983,0.617-1.95,0.85
			c-1.133,0.1-1.983,0.184-2.55,0.25c-0.967,0.133-1.65,0.517-2.05,1.15C0.95-9.767,0.533-9.55,0.3-9.15
			c-0.267,0.367-0.35,0.867-0.25,1.5C1.017-7.617,2.5-7.333,4.5-6.8c1.933,0.5,3.45,0.75,4.55,0.75c0.333,0,2.267-0.383,5.8-1.15
			c2.566-0.566,4.433-0.5,5.6,0.2c0.4,0.233,0.783,0.717,1.15,1.45c0.367,0.8,0.7,1.333,1,1.6c0.8,0.7,1.883,1.067,3.25,1.1
			c0.633,0,1.816-0.117,3.55-0.35c4.633-0.667,10.217-1,16.75-1c3.7,0,9.3,0.034,16.8,0.1c2.4-0.033,5.083-0.25,8.05-0.65
			C72.8-4.983,75.483-5.4,79.05-6c2.233-0.367,4.467-0.533,6.7-0.5c1.167,0.033,3.383,0.2,6.65,0.5c4.2,0.4,9.867,0.683,17,0.85
			c8.434,0.2,14.117,0.383,17.05,0.55c5.167,0.3,12.883,1.017,23.15,2.15s17.967,1.867,23.1,2.2c6.9,0.433,14.55,0.183,22.95-0.75
			c5.733-0.667,13.283-1.867,22.65-3.6c8.034-1.467,15.333-2.533,21.9-3.2c7.433-0.767,14.767-1.1,22-1
			c1.966,0.033,4.966,0.017,9-0.05c3.633-0.033,6.633,0.117,9,0.45c0.333,0.033,1.733-0.017,4.2-0.15
			c1.833-0.167,6.017-0.617,12.55-1.35c0.367-0.067,1.133-0.083,2.3-0.05c2.067,0.034,3.233,0.05,3.5,0.05
			C307.983-9.9,310.783-10.683,311.15-12.25z"/>
	</g>
</symbol>
<symbol  id="flash0.ai_x2F_Layer_3_x2F__x3C_Compound_Path_x3E__x5F_0" viewBox="-0.056 -5.263 6.66 5.33">
	<g id="Layer_1_26_">
		<path style="fill-rule:evenodd;clip-rule:evenodd;fill:#2B9A9D;" d="M3.95-2.05c0.094,0.22,0.294,0.487,0.6,0.8
			c-0.279-0.271-0.512-0.438-0.7-0.5C3.217-1.95,2.733-1.967,2.4-1.8L1.75-1.1c0-0.066,0.117-0.3,0.35-0.7
			c0.167-0.333,0.1-0.617-0.2-0.85C1.7-2.783,1.4-2.983,1-3.25c0.067,0,0.267,0.067,0.6,0.2c0.267,0.1,0.467,0.133,0.6,0.1
			c0.4-0.1,0.633-0.3,0.7-0.6C3-4.083,3.067-4.367,3.1-4.4c0,0.5,0.05,0.833,0.15,1l0.1-0.2C3.283-3.2,3.583-3,4.25-3
			c0.333-0.033,0.767-0.083,1.3-0.15c-0.533,0.1-0.9,0.217-1.1,0.35c-0.133,0.066-0.233,0.2-0.3,0.4c-0.133,0.2-0.1,0.316,0.1,0.35
			H3.95z M6.6-3.05C6.567-3.483,6.367-3.8,6-4C5.567-4.267,5-4.183,4.3-3.75c0.233-1.1-0.216-1.6-1.35-1.5s-1.4,0.7-0.8,1.8
			c-1.033-0.966-1.733-1-2.1-0.1c-0.333,0.933,0.117,1.4,1.35,1.4c-1.233,0.566-1.283,1.2-0.15,1.9c1.067,0.667,1.733,0.283,2-1.15
			C3.983,0,4.717,0.367,5.45-0.3C6.217-1.033,6.033-1.65,4.9-2.15c0.434,0.1,0.817,0.083,1.15-0.05C6.45-2.367,6.633-2.65,6.6-3.05z
			"/>
	</g>
</symbol>
<symbol  id="flash0.ai_x2F_Layer_3_x2F__x3C_Compound_Path_x3E__x5F_1" viewBox="-0.056 -5.263 6.66 5.375">
	<g id="Layer_1_53_">
		<path style="fill-rule:evenodd;clip-rule:evenodd;fill:#2B9A9D;" d="M4.45-2.8c-0.133,0.066-0.233,0.2-0.3,0.4
			C4.017-2.167,4.05-2.033,4.25-2h-0.3c0.1,0.2,0.316,0.467,0.65,0.8L3.85-1.75c-0.167-0.067-0.4-0.1-0.7-0.1
			c-0.367,0-0.617,0.033-0.75,0.1l-0.7,0.7c0.033-0.133,0.167-0.367,0.4-0.7c0.167-0.333,0.083-0.633-0.25-0.9
			C1.683-2.783,1.4-2.983,1-3.25C1.133-3.217,1.333-3.133,1.6-3c0.233,0.1,0.433,0.133,0.6,0.1C2.6-3,2.833-3.2,2.9-3.5
			C3-4.033,3.067-4.317,3.1-4.35c0,0.467,0.05,0.8,0.15,1l0.1-0.25C3.283-3.2,3.567-3,4.2-3c0.313,0,0.73-0.033,1.25-0.1
			C4.971-3.025,4.638-2.925,4.45-2.8z M6.6-3.05C6.567-3.45,6.367-3.767,6-4C5.567-4.267,5-4.183,4.3-3.75
			c0.233-1.1-0.233-1.6-1.4-1.5c-1.133,0.1-1.4,0.7-0.8,1.8C1.067-4.383,0.383-4.4,0.05-3.5C-0.283-2.567,0.167-2.117,1.4-2.15
			C0.167-1.55,0.117-0.9,1.25-0.2c1.067,0.667,1.733,0.267,2-1.2C3.983,0,4.717,0.367,5.45-0.3C6.217-1,6.033-1.617,4.9-2.15
			c0.467,0.1,0.85,0.083,1.15-0.05C6.45-2.333,6.633-2.617,6.6-3.05z"/>
	</g>
</symbol>
<symbol  id="flash0.ai_x2F_Layer_3_x2F__x3C_Compound_Path_x3E__x5F_2" viewBox="-0.069 -5.3 6.623 5.365">
	<g id="Layer_1_55_">
		<path style="fill-rule:evenodd;clip-rule:evenodd;fill:#2B9A9D;" d="M4.4-2.75C4.267-2.65,4.15-2.533,4.05-2.4
			C3.883-2.167,3.9-2.033,4.1-2H3.8c0.1,0.2,0.3,0.483,0.6,0.85c-0.3-0.3-0.533-0.5-0.7-0.6C3.533-1.85,3.3-1.917,3-1.95
			C2.633-1.983,2.383-1.967,2.25-1.9c-0.067,0.033-0.2,0.133-0.4,0.3C1.617-1.4,1.5-1.283,1.5-1.25c0.033-0.2,0.183-0.433,0.45-0.7
			c0.233-0.333,0.2-0.633-0.1-0.9C1.683-2.983,1.417-3.2,1.05-3.5C1.283-3.4,1.467-3.317,1.6-3.25C1.833-3.117,2.033-3.067,2.2-3.1
			c0.4-0.066,0.65-0.25,0.75-0.55c0.2-0.5,0.3-0.767,0.3-0.8C3.183-3.983,3.2-3.633,3.3-3.4l0.1-0.25C3.3-3.25,3.567-3.033,4.2-3
			c0.333,0.033,0.767,0.033,1.3,0C5-2.933,4.633-2.85,4.4-2.75z M5.9-2c0.4-0.133,0.617-0.4,0.65-0.8
			c0.034-0.434-0.117-0.767-0.45-1C5.667-4.1,5.083-4.067,4.35-3.7c0.367-1.066-0.033-1.6-1.2-1.6c-1.133,0-1.467,0.566-1,1.7
			C1.217-4.633,0.533-4.717,0.1-3.85c-0.434,0.9-0.033,1.383,1.2,1.45C0.033-1.9-0.1-1.25,0.9-0.45c1,0.767,1.717,0.434,2.15-1
			C3.617-0.017,4.3,0.4,5.1-0.2c0.867-0.633,0.767-1.267-0.3-1.9C5.2-1.967,5.567-1.933,5.9-2z"/>
	</g>
</symbol>
<symbol  id="flash0.ai_x2F_Layer_3_x2F__x3C_Compound_Path_x3E__x5F_3" viewBox="-0.083 -7.574 9.635 7.686">
	<g id="Layer_1_57_">
		<path style="fill-rule:evenodd;clip-rule:evenodd;fill:#2B9A9D;" d="M6.65-1.75C6.183-2.15,5.833-2.4,5.6-2.5
			S5.017-2.667,4.55-2.7c-0.5-0.033-0.85,0-1.05,0.1C3.4-2.533,3.217-2.367,2.95-2.1C2.669-1.819,2.519-1.644,2.5-1.575
			C2.521-1.66,2.704-2.002,3.05-2.6C3.317-3.1,3.2-3.517,2.7-3.85C2.433-4.05,2.017-4.333,1.45-4.7c0.033,0,0.316,0.1,0.85,0.3
			C2.7-4.233,3-4.183,3.2-4.25c0.566-0.133,0.9-0.417,1-0.85c0.167-0.767,0.267-1.167,0.3-1.2c0,0.667,0.083,1.15,0.25,1.45L4.8-5.2
			C4.733-4.633,5.167-4.35,6.1-4.35C6.6-4.35,7.233-4.4,8-4.5C7.267-4.367,6.733-4.217,6.4-4.05C6.2-3.917,6.05-3.733,5.95-3.5
			c-0.167,0.333-0.1,0.517,0.2,0.55H5.7C5.867-2.65,6.183-2.25,6.65-1.75z M7.85-0.45c0.4-0.333,0.55-0.767,0.45-1.3
			c-0.1-0.6-0.5-1.067-1.2-1.4C7.733-3.017,8.283-3.033,8.75-3.2c0.567-0.2,0.833-0.6,0.8-1.2C9.483-5,9.2-5.45,8.7-5.75
			c-0.667-0.367-1.5-0.267-2.5,0.3c0.333-1.566-0.317-2.267-1.95-2.1C2.617-7.417,2.233-6.567,3.1-5c-1.5-1.367-2.5-1.4-3-0.1
			c-0.533,1.367,0.1,2.033,1.9,2C1.233-2.733,0.867-2.25,0.9-1.65c0.033,0.533,0.333,0.967,0.9,1.3C3.367,0.617,4.333,0.067,4.7-2
			C5.733,0,6.783,0.517,7.85-0.45z"/>
	</g>
</symbol>
<symbol  id="flash0.ai_x2F_Layer_3_x2F__x3C_Compound_Path_x3E__x5F_4" viewBox="-0.012 -7.565 9.565 7.723">
	<g id="Layer_1_59_">
		<path style="fill-rule:evenodd;clip-rule:evenodd;fill:#2B9A9D;" d="M6.65-1.7C6.183-2.1,5.833-2.367,5.6-2.5
			C5.367-2.6,5.017-2.65,4.55-2.65c-0.5-0.033-0.85,0-1.05,0.1c-0.1,0.033-0.283,0.2-0.55,0.5C2.681-1.811,2.53-1.652,2.5-1.575
			C2.538-1.733,2.604-1.891,2.7-2.05c0.1-0.133,0.216-0.3,0.35-0.5C3.317-3.05,3.2-3.467,2.7-3.8C2.433-4,2.017-4.283,1.45-4.65
			c0.033,0,0.316,0.1,0.85,0.3C2.7-4.183,3-4.133,3.2-4.2c0.566-0.133,0.9-0.417,1-0.85c0.167-0.8,0.267-1.217,0.3-1.25
			c0,0.7,0.083,1.183,0.25,1.45l0.05-0.3C4.733-4.583,5.167-4.3,6.1-4.3C6.6-4.333,7.233-4.4,8-4.5C7.267-4.367,6.733-4.2,6.4-4
			C6.2-3.867,6.05-3.683,5.95-3.45c-0.167,0.333-0.1,0.517,0.2,0.55H5.7C5.867-2.6,6.183-2.2,6.65-1.7z M7.85-0.45
			c0.4-0.333,0.55-0.767,0.45-1.3C8.2-2.317,7.8-2.767,7.1-3.1c0.633,0.133,1.183,0.117,1.65-0.05c0.567-0.2,0.833-0.6,0.8-1.2
			C9.483-4.983,9.2-5.45,8.7-5.75C8.033-6.117,7.2-6,6.2-5.4c0.333-1.567-0.317-2.283-1.95-2.15C2.617-7.383,2.233-6.517,3.1-4.95
			c-1.5-1.367-2.5-1.417-3-0.15c-0.2,0.5-0.133,0.95,0.2,1.35C0.633-3.317,1.2-3.1,2-3.1C1.233-2.733,0.867-2.233,0.9-1.6
			c0.033,0.533,0.333,0.967,0.9,1.3C3.333,0.667,4.3,0.1,4.7-2C5.733,0,6.783,0.517,7.85-0.45z"/>
	</g>
</symbol>
<symbol  id="flash0.ai_x2F_Layer_3_x2F__x3C_Compound_Path_x3E__x5F_5" viewBox="-0.113 -7.524 9.616 7.681">
	<g id="Layer_1_61_">
		<path style="fill-rule:evenodd;clip-rule:evenodd;fill:#2B9A9D;" d="M6.65-1.7c-0.467-0.4-0.833-0.667-1.1-0.8
			C5.317-2.6,4.967-2.65,4.5-2.65c-0.5-0.033-0.85,0-1.05,0.1c-0.1,0.066-0.284,0.233-0.55,0.5C2.659-1.779,2.526-1.604,2.5-1.525
			C2.537-1.715,2.604-1.89,2.7-2.05c0.1-0.133,0.216-0.3,0.35-0.5C3.317-3.05,3.2-3.467,2.7-3.8C2.433-4,2.017-4.283,1.45-4.65
			c0.066,0,0.35,0.1,0.85,0.3C2.667-4.183,2.95-4.133,3.15-4.2C3.717-4.333,4.067-4.617,4.2-5.05c0.2-0.8,0.3-1.217,0.3-1.25
			C4.467-5.6,4.533-5.117,4.7-4.85l0.1-0.3C4.733-4.583,5.15-4.3,6.05-4.3C6.55-4.333,7.2-4.4,8-4.5C7.233-4.333,6.7-4.167,6.4-4
			C6.233-3.867,6.083-3.683,5.95-3.45C5.783-3.117,5.833-2.933,6.1-2.9H5.7C5.833-2.6,6.15-2.2,6.65-1.7z M7.85-0.45
			c0.4-0.333,0.55-0.767,0.45-1.3C8.2-2.317,7.8-2.767,7.1-3.1c0.6,0.133,1.133,0.117,1.6-0.05c0.566-0.2,0.833-0.6,0.8-1.2
			c-0.033-0.633-0.3-1.1-0.8-1.4C8.033-6.117,7.2-6,6.2-5.4c0.333-1.567-0.333-2.267-2-2.1C2.567-7.367,2.183-6.517,3.05-4.95
			c-1.5-1.4-2.5-1.45-3-0.15C-0.45-3.733,0.2-3.067,2-3.1C1.233-2.733,0.867-2.233,0.9-1.6c0.033,0.533,0.317,0.967,0.85,1.3
			c1.533,0.966,2.5,0.4,2.9-1.7C5.717,0,6.783,0.517,7.85-0.45z"/>
	</g>
</symbol>
<symbol  id="flash0.ai_x2F_Layer_3_x2F__x3C_Compound_Path_x3E__x5F_6" viewBox="0 -6.655 7 6.681">
	<g id="Layer_1_66_">
		<path style="fill-rule:evenodd;clip-rule:evenodd;fill:#2B9A9D;" d="M1.85-5.7C1.45-5.9,1.033-5.833,0.6-5.5
			C0.2-5.167,0-4.783,0-4.35C0-3.817,0.45-3.433,1.35-3.2c-1.3,0.633-1.533,1.35-0.7,2.15c0.833,0.8,1.633,0.566,2.4-0.7
			C2.717-0.25,3.133,0.3,4.3-0.1c1.2-0.4,1.4-1.083,0.6-2.05C6.3-1.617,7-2.05,7-3.45c0-1.3-0.833-1.517-2.5-0.65
			c1-1.6,0.917-2.45-0.25-2.55C2.983-6.717,2.433-6.117,2.6-4.85C2.467-5.25,2.217-5.533,1.85-5.7z M5.25-3.15
			c0.298,0,0.474-0.017,0.525-0.05C5.68-3.132,5.522-3.082,5.3-3.05c-0.267,0.066-0.433,0.1-0.5,0.1
			c-0.466,0.1-0.716,0.367-0.75,0.8c0.034,0.533,0,0.917-0.1,1.15c-0.034-0.133-0.067-0.35-0.1-0.65C3.783-1.917,3.683-2.1,3.55-2.2
			C3.183-2.433,2.833-2.467,2.5-2.3C1.867-2,1.517-1.85,1.45-1.85c0.6-0.5,0.917-0.783,0.95-0.85L2.1-2.55
			c0.467-0.267,0.5-0.633,0.1-1.1c-0.233-0.267-0.567-0.583-1-0.95C1.467-4.5,1.817-4.3,2.25-4C2.417-3.967,2.633-3.983,2.9-4.05
			c0.3-0.067,0.4-0.2,0.3-0.4L3.4-4.2c0.133-0.233,0.283-0.6,0.45-1.1c-0.1,0.433-0.133,0.75-0.1,0.95
			C3.783-4.183,3.9-3.967,4.1-3.7c0.2,0.3,0.383,0.467,0.55,0.5C4.717-3.167,4.917-3.15,5.25-3.15z"/>
	</g>
</symbol>
<symbol  id="flash0.ai_x2F_Layer_3_x2F__x3C_Group_x3E_" viewBox="0 -6.655 7 6.681">
	<g id="Layer_1_75_">
		<g>
			
				<use xlink:href="#flash0.ai_x2F_Layer_3_x2F__x3C_Compound_Path_x3E__x5F_6"  width="7" height="6.681" y="-6.655" style="overflow:visible;opacity:0.5195;enable-background:new    ;"/>
			
				<use xlink:href="#flash0.ai_x2F_Layer_3_x2F__x3C_Path_x3E__x5F_53"  width="0.969" height="0.923" x="-0.046" y="-0.9" transform="matrix(1 0 0 1 2.8999 -2.7998)" style="overflow:visible;opacity:0.6602;enable-background:new    ;"/>
		</g>
	</g>
</symbol>
<symbol  id="flash0.ai_x2F_Layer_3_x2F__x3C_Group_x3E__x5F_1" viewBox="0 -74.892 308.769 74.892">
	<g id="Layer_1_68_">
		<g>
			
				<use xlink:href="#flash0.ai_x2F_Layer_3_x2F__x3C_Path_x3E_"  width="308.769" height="74.892" y="-74.892" style="overflow:visible;opacity:0.3398;enable-background:new    ;"/>
		</g>
	</g>
</symbol>
<symbol  id="flash0.ai_x2F_Layer_3_x2F__x3C_Group_x3E__x5F_1_x5F_0" viewBox="-0.113 -7.524 9.616 7.681">
	<g id="Layer_1_74_">
		<g>
			
				<use xlink:href="#flash0.ai_x2F_Layer_3_x2F__x3C_Compound_Path_x3E__x5F_5"  width="9.616" height="7.681" x="-0.113" y="-7.524" style="overflow:visible;opacity:0.5195;enable-background:new    ;"/>
			
				<use xlink:href="#flash0.ai_x2F_Layer_3_x2F__x3C_Path_x3E__x5F_51"  width="1.322" height="1.078" x="-0.01" y="-1.062" transform="matrix(1 0 0 1 3.9502 -3.1001)" style="overflow:visible;opacity:0.6602;enable-background:new    ;"/>
		</g>
	</g>
</symbol>
<symbol  id="flash0.ai_x2F_Layer_3_x2F__x3C_Group_x3E__x5F_2" viewBox="-0.012 -7.565 9.565 7.723">
	<g id="Layer_1_73_">
		<g>
			
				<use xlink:href="#flash0.ai_x2F_Layer_3_x2F__x3C_Compound_Path_x3E__x5F_4"  width="9.565" height="7.723" x="-0.012" y="-7.565" style="overflow:visible;opacity:0.5195;enable-background:new    ;"/>
			
				<use xlink:href="#flash0.ai_x2F_Layer_3_x2F__x3C_Path_x3E__x5F_50"  width="1.325" height="1.081" x="-0.013" y="-1.065" transform="matrix(1 0 0 1 3.9502 -3.1001)" style="overflow:visible;opacity:0.6602;enable-background:new    ;"/>
		</g>
	</g>
</symbol>
<symbol  id="flash0.ai_x2F_Layer_3_x2F__x3C_Group_x3E__x5F_3" viewBox="-0.083 -7.574 9.635 7.686">
	<g id="Layer_1_72_">
		<g>
			
				<use xlink:href="#flash0.ai_x2F_Layer_3_x2F__x3C_Compound_Path_x3E__x5F_3"  width="9.635" height="7.686" x="-0.083" y="-7.574" style="overflow:visible;opacity:0.5195;enable-background:new    ;"/>
			
				<use xlink:href="#flash0.ai_x2F_Layer_3_x2F__x3C_Path_x3E__x5F_49"  width="1.32" height="1.1" x="-0.01" y="-1.1" transform="matrix(1 0 0 1 3.9502 -3.1001)" style="overflow:visible;opacity:0.6602;enable-background:new    ;"/>
		</g>
	</g>
</symbol>
<symbol  id="flash0.ai_x2F_Layer_3_x2F__x3C_Group_x3E__x5F_4" viewBox="-0.069 -5.3 6.623 5.365">
	<g id="Layer_1_71_">
		<g>
			
				<use xlink:href="#flash0.ai_x2F_Layer_3_x2F__x3C_Compound_Path_x3E__x5F_2"  width="6.623" height="5.365" x="-0.069" y="-5.3" style="overflow:visible;opacity:0.5195;enable-background:new    ;"/>
			
				<use xlink:href="#flash0.ai_x2F_Layer_3_x2F__x3C_Path_x3E__x5F_48"  width="0.918" height="0.742" y="-0.77" transform="matrix(1 0 0 1 2.6499 -2.2002)" style="overflow:visible;opacity:0.6602;enable-background:new    ;"/>
		</g>
	</g>
</symbol>
<symbol  id="flash0.ai_x2F_Layer_3_x2F__x3C_Group_x3E__x5F_5" viewBox="-0.056 -5.263 6.66 5.375">
	<g id="Layer_1_70_">
		<g>
			
				<use xlink:href="#flash0.ai_x2F_Layer_3_x2F__x3C_Compound_Path_x3E__x5F_1"  width="6.66" height="5.375" x="-0.056" y="-5.263" style="overflow:visible;opacity:0.5195;enable-background:new    ;"/>
			
				<use xlink:href="#flash0.ai_x2F_Layer_3_x2F__x3C_Path_x3E__x5F_47"  width="0.905" height="0.75" x="-0.005" y="-0.75" transform="matrix(1 0 0 1 2.75 -2.1499)" style="overflow:visible;opacity:0.6602;enable-background:new    ;"/>
		</g>
	</g>
</symbol>
<symbol  id="flash0.ai_x2F_Layer_3_x2F__x3C_Group_x3E__x5F_6" viewBox="-0.056 -5.263 6.66 5.33">
	<g id="Layer_1_69_">
		<g>
			
				<use xlink:href="#flash0.ai_x2F_Layer_3_x2F__x3C_Compound_Path_x3E__x5F_0"  width="6.66" height="5.33" x="-0.056" y="-5.263" style="overflow:visible;opacity:0.5195;enable-background:new    ;"/>
			
				<use xlink:href="#flash0.ai_x2F_Layer_3_x2F__x3C_Path_x3E__x5F_3"  width="0.905" height="0.75" x="-0.005" y="-0.75" transform="matrix(1 0 0 1 2.75 -2.1499)" style="overflow:visible;opacity:0.6602;enable-background:new    ;"/>
		</g>
	</g>
</symbol>
<symbol  id="flash0.ai_x2F_Layer_3_x2F__x3C_Path_x3E_" viewBox="0 -74.892 308.769 74.892">
	<g id="Layer_1_2_">
		<path style="fill-rule:evenodd;clip-rule:evenodd;fill:#473024;" d="M306.4-9.3c-2.267-2.667-3.667-4.3-4.2-4.9
			c-1.633-1.966-3.8-3.917-6.5-5.85c-0.934-0.667-3.367-2.284-7.3-4.85c-2.4-1.567-5.917-2.934-10.55-4.1
			c-5.767-1.467-9.45-2.533-11.05-3.2c-1.167-0.466-2.533-1.216-4.1-2.25c-2-1.3-3.317-2.117-3.95-2.45
			c-1.433-0.767-3.267-1.967-5.5-3.6c-2.567-1.833-4.367-3.067-5.4-3.7c-3.6-2.2-8.017-4.233-13.25-6.1c-3.167-1.133-8.5-2.6-16-4.4
			c-2.5-0.533-4.367-0.95-5.6-1.25c-2.2-0.5-3.983-1.083-5.35-1.75c-2.566-1.233-4.45-3-5.65-5.3c-0.667-1.433-1.15-2.483-1.45-3.15
			c-0.566-1.167-1.25-2.1-2.05-2.8c-2.467-2.233-5.75-3.983-9.85-5.25c-3.2-1-5.566-0.917-7.1,0.25c-0.7,0.534-1.433,1.883-2.2,4.05
			c-0.633,1.9-1.617,3.083-2.95,3.55c-2.533,0.867-4.467,1.6-5.8,2.2c-1.967,0.9-4.667,1.667-8.1,2.3
			c-4.333,0.767-7.1,1.333-8.3,1.7c-3.5,1.033-7.7,1.783-12.6,2.25c-5.567,0.367-9.817,0.717-12.75,1.05
			c-8.167,0.934-16.25,3.717-24.25,8.35c-2.167,1.267-4.867,2.15-8.1,2.65c-4.333,0.667-7.1,1.184-8.3,1.55
			c-1.067,0.333-2.434,0.933-4.1,1.8c-2.133,1.133-3.45,1.817-3.95,2.05c2.4-3.633,1.783-6.05-1.85-7.25
			c-3.1-1.033-6.483-0.983-10.15,0.15c-1.333,0.433-2.6,1.2-3.8,2.3c-0.1,0.1-1.133,1.2-3.1,3.3c-3.267,3.6-6.633,6.367-10.1,8.3
			c-1.8,1-4.417,2.1-7.85,3.3c-3.8,1.333-6.466,2.383-8,3.15c-1.767,0.867-3.966,2.45-6.6,4.75c-2.7,2.367-4.867,3.983-6.5,4.85
			c-0.534,0.267-1.35,0.95-2.45,2.05c-0.967,0.966-1.783,1.55-2.45,1.75c-0.5,0.167-1.55,0.25-3.15,0.25
			c-1-0.034-1.933,0.45-2.8,1.45c-0.367,0.434-1.317,1.717-2.85,3.85C7.367-6.717,6.3-5.5,5.3-4.6C5.2-4.533,4.217-3.833,2.35-2.5
			C1.117-1.6,0.333-0.767,0,0c0.7-0.333,2.2-0.783,4.5-1.35C6.533-1.85,7.95-2.4,8.75-3c0.733-0.533,1.783-1.9,3.15-4.1
			c1.233-1.933,2.434-3.1,3.6-3.5c-1.067,1.467-1.55,2.85-1.45,4.15c0.267-0.233,1.4-1.433,3.4-3.6c1.3-1.4,2.633-2.367,4-2.9
			c1.6-0.633,4.267-2.517,8-5.65c3.233-2.733,6.033-4.217,8.4-4.45c-2.2,2.267-3.467,4.333-3.8,6.2
			c-0.033,0.167,0.034,0.517,0.2,1.05c0.1,0.466,0.067,0.917-0.1,1.35c-0.133,0.3-0.483,0.7-1.05,1.2
			c-0.533,0.433-0.833,0.883-0.9,1.35c1.733-1,2.9-1.95,3.5-2.85c0.333-0.533,0.55-1.133,0.65-1.8c0.167-1,0.3-1.65,0.4-1.95
			c0.6-1.833,2.75-4.133,6.45-6.9c0.033,0,1.5-0.717,4.4-2.15c2.128-1.015,3.245-1.948,3.35-2.8c-0.045,0.483-0.245,0.983-0.6,1.5
			c-0.067,0.133-0.417,0.6-1.05,1.4c1-0.466,2.267-1.583,3.8-3.35c1.467-1.667,2.783-2.75,3.95-3.25c0.534-0.233,1.3-0.417,2.3-0.55
			c1.1-0.133,1.867-0.267,2.3-0.4c0.434-0.133,1.2-0.533,2.3-1.2c0.9-0.566,1.7-0.9,2.4-1c-0.633,1-1.783,2.083-3.45,3.25
			c-2.233,1.567-3.517,2.5-3.85,2.8c3.133-0.1,6.7-2.15,10.7-6.15c0.167-0.167,1.567-1.5,4.2-4c2.633-2.233,4.117-2.85,4.45-1.85
			c0.3,0.933,0,2.3-0.9,4.1c-1,1.966-1.45,3.433-1.35,4.4c1.467-0.033,3.233-0.75,5.3-2.15c1.167-0.767,2.75-1.917,4.75-3.45
			c1.4-0.933,3.25-1.533,5.55-1.8c1.3-0.133,3.317-0.167,6.05-0.1c1.767,0.033,3.667-0.483,5.7-1.55
			c-0.267,1.6-1.233,3.017-2.9,4.25c-2.1,1.267-3.617,2.2-4.55,2.8c-1.233,0.767-2.683,2.033-4.35,3.8
			c-1.8,1.967-3.15,3.383-4.05,4.25c-1.033,0.8-1.816,1.434-2.35,1.9c-0.933,0.767-1.533,1.5-1.8,2.2c1.067,0,2.567-1.017,4.5-3.05
			c2.667-2.833,4.083-4.3,4.25-4.4c0.867-0.667,2.4-1.466,4.6-2.4c2.133-0.9,3.65-1.733,4.55-2.5c-0.933,1.633-1.633,2.9-2.1,3.8
			c-0.867,1.633-1.367,2.966-1.5,4c0.633-0.333,1.383-1.067,2.25-2.2c1.3-1.667,1.967-2.517,2-2.55c1-1.067,2.534-2.567,4.6-4.5
			c0.8-0.833,1.817-2.217,3.05-4.15c1.233-1.966,2.233-3.35,3-4.15c1.1-1.1,2.05-1.9,2.85-2.4c1.067-0.667,2.2-1.017,3.4-1.05
			c1.466-0.133,2.383-0.034,2.75,0.3c0.616,1.2,0.808,1.733,0.575,1.6c0.994,0.594,2.269,0.461,3.825-0.4
			c1.933-1.034,3.2-1.567,3.8-1.6c1.567-0.067,3.7,0.05,6.4,0.35c3.133,0.367,5.267,0.566,6.4,0.6c-0.133,0.4-0.5,1.034-1.1,1.9
			c-0.533,0.8-0.867,1.466-1,2c0.6-0.367,1.183-0.983,1.75-1.85c0.733-1.033,1.25-1.7,1.55-2c1.9-1.767,2.95-1.917,3.15-0.45
			c0.133,1.2-0.2,2.717-1,4.55c-1,2.1-1.7,3.7-2.1,4.8c-0.7,1.9-1,3.6-0.9,5.1c0.434-0.833,0.967-2.133,1.6-3.9
			c0.6-1.733,1.133-3.034,1.6-3.9c3.233-5.8,6.967-9.85,11.2-12.15c3.6-1.867,6.533-3.017,8.8-3.45c3.667-0.667,4.5,0.966,2.5,4.9
			c-1.267,2.5-1.95,3.9-2.05,4.2c-0.667,1.534-1.067,2.967-1.2,4.3c-0.2,2.333-0.417,4.033-0.65,5.1
			c0.633-0.733,1.117-1.983,1.45-3.75c0.367-1.934,0.75-3.233,1.15-3.9c0.533-1,1.4-1.867,2.6-2.6c1.833-1.167,2.85-1.833,3.05-2
			c1.4-1.167,2.55-3.067,3.45-5.7c1.434-4.233,2.167-6.367,2.2-6.4c1.067-2.2,2.583-3.117,4.55-2.75c1.367,0.2,2.3,0.816,2.8,1.85
			c0.066,0.133,0.4,1.267,1,3.4c0.533,2.1,0.967,3.633,1.3,4.6c0.567,1.667,1.317,3.05,2.25,4.15c0.333,0.367,0.917,0.95,1.75,1.75
			c0.767,0.733,1.35,1.316,1.75,1.75c0.233,0.233,0.883,1,1.95,2.3c0.767,0.967,1.45,1.7,2.05,2.2c0.033-1.434-0.917-3.4-2.85-5.9
			c-1.966-2.534-2.966-4.583-3-6.15c1.1,0.534,2.567,1.684,4.4,3.45c1.966,1.867,3.45,3.1,4.45,3.7c0.2,0.1,1.267,0.867,3.2,2.3
			c1.467,1.1,2.533,1.683,3.2,1.75c-0.566-1-1.75-2.35-3.55-4.05c-1.767-1.667-2.95-3.05-3.55-4.15
			c-0.133-0.233,0.783,0.067,2.75,0.9c1.933,0.8,3.083,1.35,3.45,1.65c3.633,2.767,5.717,4.383,6.25,4.85
			c0.633,0.533,2.75,2.483,6.35,5.85c2.567,2.367,4.767,4.217,6.6,5.55c1.433,1.033,3.217,2.783,5.35,5.25
			c2.3,2.633,4.066,4.45,5.3,5.45c2.333,1.9,4.1,3.083,5.3,3.55c-1.367-1.3-3.45-3.417-6.25-6.35c-2.667-2.8-4.767-4.9-6.3-6.3
			c-1.533-1.3-2.717-2.333-3.55-3.1c-1.534-1.367-2.534-2.55-3-3.55c-0.7-1.466-0.667-2.417,0.1-2.85c0.733-0.4,1.8-0.25,3.2,0.45
			c1,0.5,2.417,1.533,4.25,3.1c1.733,1.5,3.2,2.5,4.4,3c-0.833-0.367-2-1.333-3.5-2.9c-1.633-1.7-2.367-2.917-2.2-3.65
			c0.433-1.867,2.433-2.117,6-0.75c1.533,0.566,3.733,1.667,6.6,3.3c0.767,0.4,1.9,0.85,3.4,1.35c1.6,0.533,2.733,0.967,3.4,1.3
			c1.7,0.833,3.55,2.467,5.55,4.9c2.5,3.034,4.15,4.9,4.95,5.6c3.9,3.333,7.316,6.567,10.25,9.7c0.566,0.566,1.417,1.483,2.55,2.75
			c1.033,1.066,1.967,1.867,2.8,2.4c-0.833-2.367-2.95-5.05-6.35-8.05c-3.833-3.333-6.233-5.833-7.2-7.5
			c-0.8-1.633-1.467-2.867-2-3.7l2.55,0.9c1.8,0.633,2.9,1.117,3.3,1.45c0.633,0.566,1.517,1.417,2.65,2.55
			c1.033,0.934,2.067,1.617,3.1,2.05c1.233,0.566,2,0.933,2.3,1.1c0.8,0.434,1.5,0.934,2.1,1.5c0.333,0.3,0.883,1.05,1.65,2.25
			c0.767,0.934,1.417,1.184,1.95,0.75c1.033,0.8,2.6,2.267,4.7,4.4c1.9,1.966,3.483,3.383,4.75,4.25
			c2.933,1.966,5.233,3.283,6.9,3.95c1.8,0.667,2.533,0.467,2.2-0.6c-0.2-0.633-0.816-1.767-1.85-3.4
			c-0.867-1.4-1.517-2.45-1.95-3.15c-0.8-1.267-1.25-2.4-1.35-3.4c1.033,0.167,2.367,0.917,4,2.25c0.867,0.7,2.05,1.8,3.55,3.3
			c0.667,0.667,1.6,1.7,2.8,3.1c1.233,1.4,2.167,2.417,2.8,3.05c0.733,0.667,1.934,1.3,3.6,1.9C309.083-4.9,308.333-6.733,306.4-9.3
			z"/>
	</g>
</symbol>
<symbol  id="flash0.ai_x2F_Layer_3_x2F__x3C_Path_x3E__x5F_0">
	<g id="Layer_1_3_">
	</g>
</symbol>
<symbol  id="flash0.ai_x2F_Layer_3_x2F__x3C_Path_x3E__x5F_1" viewBox="0 -20.25 23.95 20.25">
	<g id="Layer_1_5_">
		
			<linearGradient id="SVGID_4_" gradientUnits="userSpaceOnUse" x1="7130.8145" y1="3237.7256" x2="7158.8101" y2="3237.7256" gradientTransform="matrix(0.7644 0.6447 -0.6447 0.7644 -3355.0547 -7086.5322)">
			<stop  offset="0" style="stop-color:#61463D"/>
			<stop  offset="1" style="stop-color:#201312"/>
		</linearGradient>
		<path style="fill-rule:evenodd;clip-rule:evenodd;fill:url(#SVGID_4_);" d="M21.4-15.6c1.267-1.633,2.117-3.183,2.55-4.65
			c-0.3,0.133-0.6,0.35-0.9,0.65c-2.867,2.6-4.75,4.217-5.65,4.85c-0.633,0.433-1.65,0.85-3.05,1.25c-1.467,0.4-2.5,0.8-3.1,1.2
			c-1.167,0.767-2.567,1.966-4.2,3.6C5.217-6.867,3.867-5.533,3-4.7C2.1-3.867,1.1-2.85,0-1.65c1.167-0.4,3.467-1.767,6.9-4.1
			c2.833-1.933,5.233-2.917,7.2-2.95c0.267,0-0.05,0.684-0.95,2.05L12-5c-1.167,1.8-1.733,3.467-1.7,5
			c1.633-1.033,3.1-2.817,4.4-5.35c1.867-3.566,2.983-5.6,3.35-6.1C18.75-12.417,19.867-13.8,21.4-15.6z"/>
	</g>
</symbol>
<symbol  id="flash0.ai_x2F_Layer_3_x2F__x3C_Path_x3E__x5F_10" viewBox="-0.008 -1.561 2.165 1.573">
	<g id="Layer_1_45_">
		<path style="fill-rule:evenodd;clip-rule:evenodd;fill:#2B9A9D;" d="M2.15-0.85C2.083-1.383,1.7-1.617,1-1.55
			c-0.733,0.133-1.067,0.433-1,0.9C0.067-0.15,0.45,0.067,1.15,0C1.45-0.033,1.7-0.133,1.9-0.3C2.1-0.467,2.183-0.65,2.15-0.85z"/>
	</g>
</symbol>
<symbol  id="flash0.ai_x2F_Layer_3_x2F__x3C_Path_x3E__x5F_11" viewBox="-0.007 -1.562 2.164 1.572">
	<g id="Layer_1_44_">
		<path style="fill-rule:evenodd;clip-rule:evenodd;fill:#2B9A9D;" d="M2.15-0.9C2.083-1.4,1.7-1.617,1-1.55
			c-0.3,0.033-0.55,0.133-0.75,0.3S-0.033-0.9,0-0.7c0.033,0.233,0.167,0.417,0.4,0.55S0.9,0.033,1.2,0
			c0.267-0.033,0.5-0.133,0.7-0.3C2.1-0.467,2.183-0.667,2.15-0.9z"/>
	</g>
</symbol>
<symbol  id="flash0.ai_x2F_Layer_3_x2F__x3C_Path_x3E__x5F_12" viewBox="-0.007 -1.562 2.165 1.573">
	<g id="Layer_1_43_">
		<path style="fill-rule:evenodd;clip-rule:evenodd;fill:#2B9A9D;" d="M2.15-0.9C2.083-1.4,1.7-1.617,1-1.55
			c-0.3,0.033-0.55,0.133-0.75,0.3S-0.033-0.9,0-0.7C0.067-0.167,0.45,0.067,1.15,0C1.883-0.133,2.217-0.433,2.15-0.9z"/>
	</g>
</symbol>
<symbol  id="flash0.ai_x2F_Layer_3_x2F__x3C_Path_x3E__x5F_13" viewBox="-0.007 -1.583 2.166 1.546">
	<g id="Layer_1_42_">
		<path style="fill-rule:evenodd;clip-rule:evenodd;fill:#2B9A9D;" d="M2.15-0.9C2.117-1.133,2-1.317,1.8-1.45
			C1.567-1.583,1.3-1.617,1-1.55c-0.3,0.033-0.55,0.133-0.75,0.3S-0.033-0.9,0-0.7c0.033,0.233,0.167,0.417,0.4,0.55
			c0.233,0.1,0.5,0.133,0.8,0.1C1.9-0.117,2.217-0.4,2.15-0.9z"/>
	</g>
</symbol>
<symbol  id="flash0.ai_x2F_Layer_3_x2F__x3C_Path_x3E__x5F_14" viewBox="-0.007 -1.562 2.165 1.572">
	<g id="Layer_1_41_">
		<path style="fill-rule:evenodd;clip-rule:evenodd;fill:#2B9A9D;" d="M2.15-0.9C2.083-1.4,1.7-1.617,1-1.55
			c-0.3,0.033-0.55,0.133-0.75,0.3S-0.033-0.9,0-0.7c0.033,0.233,0.167,0.417,0.4,0.55S0.883,0.033,1.15,0
			C1.883-0.133,2.217-0.433,2.15-0.9z"/>
	</g>
</symbol>
<symbol  id="flash0.ai_x2F_Layer_3_x2F__x3C_Path_x3E__x5F_15" viewBox="-0.004 -1.783 3.958 1.767">
	<g id="Layer_1_40_">
		<path style="fill-rule:evenodd;clip-rule:evenodd;fill:#2B9A9D;" d="M3.95-1.05C3.917-1.283,3.7-1.483,3.3-1.65
			c-0.4-0.133-0.883-0.167-1.45-0.1c-0.567,0.067-1.017,0.2-1.35,0.4C0.133-1.15-0.033-0.933,0-0.7c0.033,0.267,0.25,0.45,0.65,0.55
			c0.4,0.133,0.867,0.167,1.4,0.1c0.567-0.067,1.034-0.184,1.4-0.35C3.817-0.6,3.983-0.817,3.95-1.05z"/>
	</g>
</symbol>
<symbol  id="flash0.ai_x2F_Layer_3_x2F__x3C_Path_x3E__x5F_16" viewBox="-0.004 -1.733 3.958 1.743">
	<g id="Layer_1_39_">
		<path style="fill-rule:evenodd;clip-rule:evenodd;fill:#2B9A9D;" d="M3.95-1.05C3.917-1.317,3.7-1.5,3.3-1.6
			C2.867-1.733,2.383-1.767,1.85-1.7C1.317-1.667,0.867-1.55,0.5-1.35C0.133-1.15-0.033-0.933,0-0.7
			c0.033,0.233,0.25,0.417,0.65,0.55C1.017-0.017,1.483,0.033,2.05,0c0.567-0.067,1.034-0.2,1.4-0.4
			C3.817-0.6,3.983-0.817,3.95-1.05z"/>
	</g>
</symbol>
<symbol  id="flash0.ai_x2F_Layer_3_x2F__x3C_Path_x3E__x5F_17" viewBox="-0.004 -1.783 3.958 1.746">
	<g id="Layer_1_38_">
		<path style="fill-rule:evenodd;clip-rule:evenodd;fill:#2B9A9D;" d="M3.95-1.1C3.917-1.333,3.7-1.517,3.3-1.65
			c-0.433-0.133-0.917-0.167-1.45-0.1C1.317-1.717,0.867-1.583,0.5-1.35C0.133-1.15-0.033-0.933,0-0.7
			c0.033,0.233,0.25,0.417,0.65,0.55c0.367,0.1,0.833,0.133,1.4,0.1c0.567-0.067,1.034-0.2,1.4-0.4C3.817-0.65,3.983-0.867,3.95-1.1
			z"/>
	</g>
</symbol>
<symbol  id="flash0.ai_x2F_Layer_3_x2F__x3C_Path_x3E__x5F_18" viewBox="-0.004 -1.783 3.958 1.767">
	<g id="Layer_1_37_">
		<path style="fill-rule:evenodd;clip-rule:evenodd;fill:#2B9A9D;" d="M3.95-1.05C3.917-1.317,3.7-1.517,3.3-1.65
			c-0.367-0.133-0.833-0.167-1.4-0.1c-0.533,0.033-1,0.167-1.4,0.4C0.133-1.15-0.033-0.933,0-0.7c0.033,0.233,0.25,0.417,0.65,0.55
			s0.883,0.167,1.45,0.1C2.633-0.117,3.083-0.233,3.45-0.4C3.817-0.6,3.983-0.817,3.95-1.05z"/>
	</g>
</symbol>
<symbol  id="flash0.ai_x2F_Layer_3_x2F__x3C_Path_x3E__x5F_19" viewBox="-0.004 -1.783 3.958 1.767">
	<g id="Layer_1_36_">
		<path style="fill-rule:evenodd;clip-rule:evenodd;fill:#2B9A9D;" d="M3.95-1.05C3.917-1.317,3.7-1.517,3.3-1.65
			c-0.367-0.133-0.833-0.167-1.4-0.1c-0.533,0.033-1,0.167-1.4,0.4C0.133-1.15-0.033-0.933,0-0.7c0.033,0.233,0.25,0.417,0.65,0.55
			s0.867,0.167,1.4,0.1c0.567-0.067,1.034-0.184,1.4-0.35C3.817-0.6,3.983-0.817,3.95-1.05z"/>
	</g>
</symbol>
<symbol  id="flash0.ai_x2F_Layer_3_x2F__x3C_Path_x3E__x5F_1_x5F_0" viewBox="0 -1.558 2.157 1.567">
	<g id="Layer_1_64_">
		<path style="fill-rule:evenodd;clip-rule:evenodd;fill:#2B9A9D;" d="M2.15-0.75C2.183-0.95,2.1-1.133,1.9-1.3
			C1.7-1.467,1.45-1.55,1.15-1.55c-0.3-0.034-0.566,0.033-0.8,0.2C0.15-1.217,0.033-1.05,0-0.85C0-0.35,0.333-0.067,1,0
			c0.3,0.033,0.567-0.033,0.8-0.2C2-0.333,2.117-0.517,2.15-0.75z"/>
	</g>
</symbol>
<symbol  id="flash0.ai_x2F_Layer_3_x2F__x3C_Path_x3E__x5F_2" viewBox="0.066 -23.523 27.716 23.518">
	<g id="Layer_1_6_">
		
			<linearGradient id="SVGID_5_" gradientUnits="userSpaceOnUse" x1="7109.0479" y1="3235.8301" x2="7217.6089" y2="3235.8301" gradientTransform="matrix(0.7645 0.6446 -0.6446 0.7645 -3354.8193 -7083.9692)">
			<stop  offset="0" style="stop-color:#61463D"/>
			<stop  offset="1" style="stop-color:#201312"/>
		</linearGradient>
		<path style="fill-rule:evenodd;clip-rule:evenodd;fill:url(#SVGID_5_);" d="M26.25-0.5c1.9,0.967,2.033,0.517,0.4-1.35
			c-3.3-4-6.617-7.85-9.95-11.55c-2.333-2.6-4.067-4.3-5.2-5.1c-0.8-0.533-2.55-1.367-5.25-2.5c-1.667-0.7-3.517-1.5-5.55-2.4
			c-1-0.367-0.817,0.083,0.55,1.35c1.567,1.433,2.883,2.867,3.95,4.3c1.066,1.4,2.45,3.55,4.15,6.45c1.3,2.233,2.95,3.683,4.95,4.35
			c2.934,1,4.867,1.833,5.8,2.5C22.6-2.617,24.65-1.3,26.25-0.5z"/>
	</g>
</symbol>
<symbol  id="flash0.ai_x2F_Layer_3_x2F__x3C_Path_x3E__x5F_20" viewBox="0 -2.5 5.8 2.506">
	<g id="Layer_1_35_">
		<path style="fill-rule:evenodd;clip-rule:evenodd;fill:#2B9A9D;" d="M5.8-1.2c0-0.333-0.283-0.633-0.85-0.9
			C4.383-2.333,3.7-2.467,2.9-2.5c-0.8,0-1.483,0.117-2.05,0.35C0.283-1.917,0-1.633,0-1.3c0,0.333,0.283,0.617,0.85,0.85
			C1.417-0.183,2.1-0.033,2.9,0c0.8,0.033,1.483-0.067,2.05-0.3C5.483-0.533,5.767-0.833,5.8-1.2z"/>
	</g>
</symbol>
<symbol  id="flash0.ai_x2F_Layer_3_x2F__x3C_Path_x3E__x5F_21" viewBox="0 -2.805 5.75 2.811">
	<g id="Layer_1_34_">
		<path style="fill-rule:evenodd;clip-rule:evenodd;fill:#2B9A9D;" d="M5.75-1.35c0-0.367-0.283-0.7-0.85-1
			c-0.566-0.267-1.233-0.417-2-0.45C2.1-2.833,1.417-2.717,0.85-2.45C0.283-2.183,0-1.85,0-1.45c0,0.367,0.283,0.7,0.85,1
			C1.383-0.15,2.05,0,2.85,0c0.8,0.033,1.483-0.083,2.05-0.35C5.467-0.617,5.75-0.95,5.75-1.35z"/>
	</g>
</symbol>
<symbol  id="flash0.ai_x2F_Layer_3_x2F__x3C_Path_x3E__x5F_22" viewBox="-0.003 -2.9 5.706 2.93">
	<g id="Layer_1_33_">
		<path style="fill-rule:evenodd;clip-rule:evenodd;fill:#2B9A9D;" d="M5.7-1.05c0.033-0.4-0.217-0.767-0.75-1.1
			C4.45-2.517,3.8-2.75,3-2.85C2.233-2.95,1.55-2.9,0.95-2.7C0.383-2.5,0.067-2.217,0-1.85c-0.033,0.367,0.2,0.733,0.7,1.1
			c0.533,0.367,1.183,0.6,1.95,0.7c0.767,0.133,1.45,0.1,2.05-0.1C5.333-0.35,5.667-0.65,5.7-1.05z"/>
	</g>
</symbol>
<symbol  id="flash0.ai_x2F_Layer_3_x2F__x3C_Path_x3E__x5F_23" viewBox="-0.003 -2.875 5.764 2.87">
	<g id="Layer_1_32_">
		<path style="fill-rule:evenodd;clip-rule:evenodd;fill:#2B9A9D;" d="M5.75-1.7C5.717-2.1,5.4-2.417,4.8-2.65
			c-0.6-0.2-1.283-0.267-2.05-0.2c-0.8,0.067-1.467,0.267-2,0.6S-0.033-1.55,0-1.15c0.067,0.367,0.383,0.667,0.95,0.9
			c0.6,0.233,1.3,0.3,2.1,0.2C3.817-0.117,4.467-0.317,5-0.65C5.567-0.983,5.817-1.333,5.75-1.7z"/>
	</g>
</symbol>
<symbol  id="flash0.ai_x2F_Layer_3_x2F__x3C_Path_x3E__x5F_24" viewBox="-0.007 -1.683 2.812 1.693">
	<g id="Layer_1_31_">
		<path style="fill-rule:evenodd;clip-rule:evenodd;fill:#2B9A9D;" d="M2.8-0.7c0.034-0.233-0.083-0.45-0.35-0.65
			C2.183-1.517,1.867-1.617,1.5-1.65c-0.4-0.067-0.75-0.033-1.05,0.1C0.183-1.417,0.033-1.233,0-1c-0.067,0.533,0.367,0.867,1.3,1
			c0.4,0.033,0.75-0.017,1.05-0.15C2.617-0.283,2.767-0.467,2.8-0.7z"/>
	</g>
</symbol>
<symbol  id="flash0.ai_x2F_Layer_3_x2F__x3C_Path_x3E__x5F_25" viewBox="-0.006 -1.683 2.811 1.693">
	<g id="Layer_1_30_">
		<path style="fill-rule:evenodd;clip-rule:evenodd;fill:#2B9A9D;" d="M2.8-0.7c0.034-0.233-0.083-0.45-0.35-0.65
			C2.183-1.517,1.867-1.617,1.5-1.65c-0.367-0.067-0.7-0.033-1,0.1S0.033-1.233,0-1s0.083,0.45,0.35,0.65
			C0.617-0.183,0.933-0.067,1.3,0c0.4,0.033,0.75-0.017,1.05-0.15C2.617-0.283,2.767-0.467,2.8-0.7z"/>
	</g>
</symbol>
<symbol  id="flash0.ai_x2F_Layer_3_x2F__x3C_Path_x3E__x5F_26" viewBox="-0.003 -2.479 5.415 2.504">
	<g id="Layer_1_29_">
		<path style="fill-rule:evenodd;clip-rule:evenodd;fill:#2B9A9D;" d="M5.4-0.95C5.467-1.283,5.25-1.6,4.75-1.9
			c-0.533-0.3-1.167-0.483-1.9-0.55C2.083-2.517,1.433-2.467,0.9-2.3C0.367-2.1,0.067-1.833,0-1.5c-0.033,0.333,0.2,0.633,0.7,0.9
			C1.2-0.3,1.833-0.1,2.6,0c0.733,0.067,1.383,0,1.95-0.2C5.083-0.367,5.367-0.617,5.4-0.95z"/>
	</g>
</symbol>
<symbol  id="flash0.ai_x2F_Layer_3_x2F__x3C_Path_x3E__x5F_27" viewBox="-0.004 -2.475 4.058 2.483">
	<g id="Layer_1_28_">
		<path style="fill-rule:evenodd;clip-rule:evenodd;fill:#2B9A9D;" d="M4.05-1c0.034-0.367-0.133-0.683-0.5-0.95
			c-0.367-0.3-0.833-0.466-1.4-0.5c-0.566-0.066-1.066,0-1.5,0.2C0.25-2.05,0.033-1.783,0-1.45c-0.033,0.333,0.133,0.633,0.5,0.9
			C0.867-0.25,1.333-0.067,1.9,0c0.533,0.033,1.017-0.033,1.45-0.2C3.783-0.4,4.017-0.667,4.05-1z"/>
	</g>
</symbol>
<symbol  id="flash0.ai_x2F_Layer_3_x2F__x3C_Path_x3E__x5F_28" viewBox="0 -3.155 6.852 3.155">
	<g id="Layer_1_25_">
		<path style="fill-rule:evenodd;clip-rule:evenodd;fill:#2B9A9D;" d="M6.85-1.65c0-0.434-0.333-0.8-1-1.1
			c-0.7-0.3-1.517-0.433-2.45-0.4c-0.933,0-1.733,0.167-2.4,0.5c-0.667,0.3-1,0.667-1,1.1c0.033,0.433,0.383,0.8,1.05,1.1
			C1.717-0.15,2.533,0,3.5,0c0.933-0.033,1.733-0.217,2.4-0.55C6.567-0.85,6.883-1.217,6.85-1.65z"/>
	</g>
</symbol>
<symbol  id="flash0.ai_x2F_Layer_3_x2F__x3C_Path_x3E__x5F_29" viewBox="-0.004 -2.256 3.954 2.262">
	<g id="Layer_1_24_">
		<path style="fill-rule:evenodd;clip-rule:evenodd;fill:#2B9A9D;" d="M3.95-1.1c0-0.333-0.184-0.6-0.55-0.8
			C3.033-2.133,2.567-2.25,2-2.25c-0.533-0.033-1,0.067-1.4,0.3C0.2-1.717,0-1.45,0-1.15c-0.033,0.333,0.133,0.6,0.5,0.8
			C0.867-0.117,1.333,0,1.9,0c0.533,0.033,1-0.067,1.4-0.3C3.7-0.5,3.917-0.767,3.95-1.1z"/>
	</g>
</symbol>
<symbol  id="flash0.ai_x2F_Layer_3_x2F__x3C_Path_x3E__x5F_2_x5F_0" viewBox="-0.004 -2.329 4.417 2.337">
	<g id="Layer_1_63_">
		<path style="fill-rule:evenodd;clip-rule:evenodd;fill:#2B9A9D;" d="M4.4-0.95c0.067-0.333-0.117-0.633-0.55-0.9
			c-0.4-0.267-0.9-0.417-1.5-0.45c-0.6-0.067-1.133-0.017-1.6,0.15C0.317-1.95,0.067-1.7,0-1.4c-0.033,0.333,0.15,0.633,0.55,0.9
			c0.4,0.267,0.9,0.433,1.5,0.5c0.6,0.033,1.133-0.033,1.6-0.2C4.117-0.367,4.367-0.617,4.4-0.95z"/>
	</g>
</symbol>
<symbol  id="flash0.ai_x2F_Layer_3_x2F__x3C_Path_x3E__x5F_3" viewBox="-0.005 -0.75 0.905 0.75">
	<g id="Layer_1_27_">
		<path style="fill-rule:evenodd;clip-rule:evenodd;fill:#2B9A9D;" d="M0.9-0.35c0-0.2-0.133-0.333-0.4-0.4
			c-0.333,0-0.5,0.1-0.5,0.3C-0.033-0.217,0.1-0.067,0.4,0C0.667,0,0.833-0.117,0.9-0.35z"/>
	</g>
</symbol>
<symbol  id="flash0.ai_x2F_Layer_3_x2F__x3C_Path_x3E__x5F_30" viewBox="0 -2.3 4 2.3">
	<g id="Layer_1_23_">
		<path style="fill-rule:evenodd;clip-rule:evenodd;fill:#2B9A9D;" d="M4-1.1c0-0.333-0.183-0.617-0.55-0.85
			c-0.367-0.2-0.833-0.316-1.4-0.35c-0.533,0-1,0.117-1.4,0.35C0.25-1.75,0.033-1.483,0-1.15c0,0.333,0.183,0.6,0.55,0.8
			C0.95-0.117,1.417,0,1.95,0c0.533,0,1-0.117,1.4-0.35C3.75-0.55,3.967-0.8,4-1.1z"/>
	</g>
</symbol>
<symbol  id="flash0.ai_x2F_Layer_3_x2F__x3C_Path_x3E__x5F_31" viewBox="-0.007 -1.583 2.165 1.595">
	<g id="Layer_1_22_">
		<path style="fill-rule:evenodd;clip-rule:evenodd;fill:#2B9A9D;" d="M2.15-0.9C2.117-1.133,2-1.317,1.8-1.45
			C1.567-1.583,1.3-1.617,1-1.55c-0.3,0.033-0.55,0.133-0.75,0.3S-0.033-0.9,0-0.7C0.067-0.167,0.45,0.067,1.15,0
			C1.883-0.133,2.217-0.433,2.15-0.9z"/>
	</g>
</symbol>
<symbol  id="flash0.ai_x2F_Layer_3_x2F__x3C_Path_x3E__x5F_32" viewBox="-0.007 -1.561 2.164 1.573">
	<g id="Layer_1_21_">
		<path style="fill-rule:evenodd;clip-rule:evenodd;fill:#2B9A9D;" d="M2.15-0.85C2.083-1.383,1.7-1.617,1-1.55
			c-0.3,0.033-0.55,0.133-0.75,0.3S-0.033-0.883,0-0.65C0.067-0.15,0.45,0.067,1.15,0C1.45-0.033,1.7-0.133,1.9-0.3
			C2.1-0.467,2.183-0.65,2.15-0.85z"/>
	</g>
</symbol>
<symbol  id="flash0.ai_x2F_Layer_3_x2F__x3C_Path_x3E__x5F_33" viewBox="-0.007 -1.56 2.164 1.571">
	<g id="Layer_1_20_">
		<path style="fill-rule:evenodd;clip-rule:evenodd;fill:#2B9A9D;" d="M2.15-0.9c-0.033-0.2-0.167-0.367-0.4-0.5
			s-0.5-0.184-0.8-0.15c-0.267,0.033-0.5,0.133-0.7,0.3S-0.033-0.9,0-0.7C0.067-0.167,0.45,0.067,1.15,0
			C1.45-0.033,1.7-0.133,1.9-0.3C2.1-0.467,2.183-0.667,2.15-0.9z"/>
	</g>
</symbol>
<symbol  id="flash0.ai_x2F_Layer_3_x2F__x3C_Path_x3E__x5F_34" viewBox="-0.007 -1.561 2.164 1.571">
	<g id="Layer_1_19_">
		<path style="fill-rule:evenodd;clip-rule:evenodd;fill:#2B9A9D;" d="M2.15-0.85C2.083-1.383,1.7-1.617,1-1.55
			c-0.3,0.033-0.55,0.133-0.75,0.3S-0.033-0.883,0-0.65c0.033,0.2,0.167,0.367,0.4,0.5S0.883,0.033,1.15,0
			C1.45-0.033,1.7-0.133,1.9-0.3C2.1-0.467,2.183-0.65,2.15-0.85z"/>
	</g>
</symbol>
<symbol  id="flash0.ai_x2F_Layer_3_x2F__x3C_Path_x3E__x5F_35" viewBox="-0.007 -1.561 2.164 1.571">
	<g id="Layer_1_18_">
		<path style="fill-rule:evenodd;clip-rule:evenodd;fill:#2B9A9D;" d="M2.15-0.85C2.083-1.383,1.7-1.617,1-1.55
			c-0.3,0.033-0.55,0.133-0.75,0.3S-0.033-0.883,0-0.65c0.033,0.2,0.167,0.367,0.4,0.5S0.883,0.033,1.15,0
			C1.45-0.033,1.7-0.133,1.9-0.3C2.1-0.467,2.183-0.65,2.15-0.85z"/>
	</g>
</symbol>
<symbol  id="flash0.ai_x2F_Layer_3_x2F__x3C_Path_x3E__x5F_36" viewBox="-0.007 -1.583 2.164 1.546">
	<g id="Layer_1_17_">
		<path style="fill-rule:evenodd;clip-rule:evenodd;fill:#2B9A9D;" d="M2.15-0.9C2.117-1.133,2-1.317,1.8-1.45
			C1.567-1.583,1.3-1.617,1-1.55c-0.3,0.033-0.55,0.133-0.75,0.3S-0.033-0.9,0-0.7c0.033,0.233,0.167,0.417,0.4,0.55
			c0.233,0.1,0.5,0.133,0.8,0.1c0.267-0.034,0.5-0.133,0.7-0.3C2.1-0.517,2.183-0.7,2.15-0.9z"/>
	</g>
</symbol>
<symbol  id="flash0.ai_x2F_Layer_3_x2F__x3C_Path_x3E__x5F_37" viewBox="-0.007 -1.609 2.132 1.622">
	<g id="Layer_1_16_">
		<path style="fill-rule:evenodd;clip-rule:evenodd;fill:#2B9A9D;" d="M2.1-1C1.967-1.533,1.567-1.717,0.9-1.55
			C0.633-1.517,0.417-1.4,0.25-1.2C0.05-1-0.033-0.783,0-0.55c0.133,0.5,0.533,0.667,1.2,0.5C1.5-0.117,1.733-0.233,1.9-0.4
			C2.1-0.6,2.167-0.8,2.1-1z"/>
	</g>
</symbol>
<symbol  id="flash0.ai_x2F_Layer_3_x2F__x3C_Path_x3E__x5F_38" viewBox="0 -3.567 9.752 3.572">
	<g id="Layer_1_15_">
		<path style="fill-rule:evenodd;clip-rule:evenodd;fill:#2B9A9D;" d="M9.75-1.6C9.783-2.067,9.333-2.5,8.4-2.9
			C7.433-3.3,6.283-3.517,4.95-3.55C3.583-3.617,2.433-3.483,1.5-3.15c-0.967,0.3-1.467,0.7-1.5,1.2c0,0.5,0.467,0.934,1.4,1.3
			C2.333-0.283,3.467-0.067,4.8,0c1.367,0.033,2.517-0.1,3.45-0.4C9.217-0.7,9.717-1.1,9.75-1.6z"/>
	</g>
</symbol>
<symbol  id="flash0.ai_x2F_Layer_3_x2F__x3C_Path_x3E__x5F_39" viewBox="0 -6.053 21.4 6.055">
	<g id="Layer_1_14_">
		<path style="fill-rule:evenodd;clip-rule:evenodd;fill:#2B9A9D;" d="M21.4-2.9c0-0.833-1.05-1.567-3.15-2.2
			c-2.067-0.6-4.583-0.917-7.55-0.95c-2.967-0.034-5.483,0.233-7.55,0.8C1.05-4.65,0-3.933,0-3.1c0,0.833,1.033,1.55,3.1,2.15
			C5.2-0.35,7.717-0.033,10.65,0c2.934,0.033,5.45-0.233,7.55-0.8C20.3-1.367,21.367-2.067,21.4-2.9z"/>
	</g>
</symbol>
<symbol  id="flash0.ai_x2F_Layer_3_x2F__x3C_Path_x3E__x5F_3_x5F_0" viewBox="-0.008 -1.35 1.666 1.363">
	<g id="Layer_1_52_">
		<path style="fill-rule:evenodd;clip-rule:evenodd;fill:#2B9A9D;" d="M1.65-0.75c-0.066-0.4-0.367-0.6-0.9-0.6
			C0.517-1.317,0.333-1.233,0.2-1.1C0.033-0.933-0.033-0.767,0-0.6C0.067-0.133,0.367,0.067,0.9,0
			c0.233-0.033,0.417-0.117,0.55-0.25C1.617-0.417,1.683-0.583,1.65-0.75z"/>
	</g>
</symbol>
<symbol  id="flash0.ai_x2F_Layer_3_x2F__x3C_Path_x3E__x5F_4" viewBox="-0.008 -1.313 1.669 1.326">
	<g id="Layer_1_51_">
		<path style="fill-rule:evenodd;clip-rule:evenodd;fill:#2B9A9D;" d="M1.65-0.75C1.583-1.183,1.283-1.367,0.75-1.3
			c-0.233,0-0.417,0.066-0.55,0.2C0.033-0.933-0.033-0.767,0-0.6C0.067-0.133,0.367,0.067,0.9,0C1.467-0.067,1.717-0.317,1.65-0.75z
			"/>
	</g>
</symbol>
<symbol  id="flash0.ai_x2F_Layer_3_x2F__x3C_Path_x3E__x5F_40" viewBox="-0.001 -4.117 15.702 4.101">
	<g id="Layer_1_13_">
		<path style="fill-rule:evenodd;clip-rule:evenodd;fill:#2B9A9D;" d="M15.7-1.75c0.033-0.567-0.7-1.083-2.2-1.55
			c-1.533-0.467-3.383-0.733-5.55-0.8c-2.2-0.066-4.067,0.067-5.6,0.4C0.817-3.367,0.033-2.917,0-2.35
			c-0.033,0.567,0.717,1.067,2.25,1.5c1.533,0.467,3.383,0.733,5.55,0.8c2.133,0.1,3.983-0.017,5.55-0.35
			C14.883-0.733,15.667-1.183,15.7-1.75z"/>
	</g>
</symbol>
<symbol  id="flash0.ai_x2F_Layer_3_x2F__x3C_Path_x3E__x5F_41" viewBox="0 -3.404 5.37 3.409">
	<g id="Layer_1_12_">
		<path style="fill-rule:evenodd;clip-rule:evenodd;fill:#2B9A9D;" d="M5.3-2.8C5.133-3.167,4.75-3.367,4.15-3.4
			c-0.633-0.033-1.3,0.117-2,0.45c-0.733,0.3-1.3,0.684-1.7,1.15c-0.4,0.466-0.534,0.867-0.4,1.2C0.217-0.233,0.6-0.033,1.2,0
			c0.633,0.033,1.3-0.117,2-0.45c0.733-0.3,1.3-0.683,1.7-1.15C5.333-2.067,5.467-2.467,5.3-2.8z"/>
	</g>
</symbol>
<symbol  id="flash0.ai_x2F_Layer_3_x2F__x3C_Path_x3E__x5F_42" viewBox="-0.02 -6.074 11.19 6.047">
	<g id="Layer_1_11_">
		<path style="fill-rule:evenodd;clip-rule:evenodd;fill:#2B9A9D;" d="M11.1-4.9c-0.233-0.667-0.967-1.05-2.2-1.15
			C7.667-6.15,6.283-5.933,4.75-5.4C3.25-4.867,2.033-4.183,1.1-3.35c-0.934,0.833-1.283,1.567-1.05,2.2
			c0.233,0.633,0.967,1,2.2,1.1c1.2,0.1,2.567-0.117,4.1-0.65c1.533-0.5,2.767-1.167,3.7-2C10.983-3.533,11.333-4.267,11.1-4.9z"/>
	</g>
</symbol>
<symbol  id="flash0.ai_x2F_Layer_3_x2F__x3C_Path_x3E__x5F_43" viewBox="-0.002 -3.273 8.804 3.296">
	<g id="Layer_1_10_">
		<path style="fill-rule:evenodd;clip-rule:evenodd;fill:#2B9A9D;" d="M8.8-2.05c-0.033-0.434-0.5-0.767-1.4-1
			C6.5-3.283,5.45-3.333,4.25-3.2C3.05-3.1,2.033-2.85,1.2-2.45C0.367-2.083-0.033-1.683,0-1.25C0.067-0.783,0.533-0.433,1.4-0.2
			c0.9,0.233,1.95,0.284,3.15,0.15C5.75-0.15,6.767-0.4,7.6-0.8C8.433-1.2,8.833-1.617,8.8-2.05z"/>
	</g>
</symbol>
<symbol  id="flash0.ai_x2F_Layer_3_x2F__x3C_Path_x3E__x5F_44" viewBox="-0.002 -3.617 10.603 3.622">
	<g id="Layer_1_9_">
		<path style="fill-rule:evenodd;clip-rule:evenodd;fill:#2B9A9D;" d="M10.6-1.6c0.033-0.5-0.467-0.933-1.5-1.3
			c-1-0.4-2.25-0.633-3.75-0.7c-1.467-0.066-2.733,0.067-3.8,0.4C0.517-2.867,0-2.467,0-2c-0.033,0.5,0.467,0.95,1.5,1.35
			C2.533-0.283,3.783-0.067,5.25,0C6.717,0.033,7.967-0.1,9-0.4C10.067-0.7,10.6-1.1,10.6-1.6z"/>
	</g>
</symbol>
<symbol  id="flash0.ai_x2F_Layer_3_x2F__x3C_Path_x3E__x5F_45" viewBox="-0.001 -4.779 20.254 4.757">
	<g id="Layer_1_8_">
		<path style="fill-rule:evenodd;clip-rule:evenodd;fill:#2B9A9D;" d="M20.25-3.4C20.183-4,19.133-4.417,17.1-4.65
			c-2-0.2-4.4-0.167-7.2,0.1C7.1-4.25,4.733-3.8,2.8-3.2C0.9-2.567-0.033-1.95,0-1.35c0.067,0.567,1.117,0.967,3.15,1.2
			c2,0.2,4.4,0.167,7.2-0.1C13.15-0.55,15.5-1,17.4-1.6C19.367-2.233,20.317-2.833,20.25-3.4z"/>
	</g>
</symbol>
<symbol  id="flash0.ai_x2F_Layer_3_x2F__x3C_Path_x3E__x5F_46" viewBox="0 -4.35 27.55 4.35">
	<g id="Layer_1_7_">
		<path style="fill-rule:evenodd;clip-rule:evenodd;fill:#2B9A9D;" d="M27.55-2.2c0-0.6-1.35-1.117-4.05-1.55
			c-2.667-0.4-5.917-0.6-9.75-0.6c-3.8,0-7.033,0.2-9.7,0.6C1.35-3.317,0-2.8,0-2.2c0,0.6,1.35,1.117,4.05,1.55
			C6.717-0.217,9.95,0,13.75,0s7.05-0.217,9.75-0.65C26.2-1.083,27.55-1.6,27.55-2.2z"/>
	</g>
</symbol>
<symbol  id="flash0.ai_x2F_Layer_3_x2F__x3C_Path_x3E__x5F_47" viewBox="-0.005 -0.75 0.905 0.75">
	<g id="Layer_1_54_">
		<path style="fill-rule:evenodd;clip-rule:evenodd;fill:#2B9A9D;" d="M0.9-0.3c0-0.233-0.15-0.383-0.45-0.45
			C0.15-0.75,0-0.633,0-0.4C-0.033-0.2,0.1-0.067,0.4,0C0.7,0,0.867-0.1,0.9-0.3z"/>
	</g>
</symbol>
<symbol  id="flash0.ai_x2F_Layer_3_x2F__x3C_Path_x3E__x5F_48" viewBox="0 -0.77 0.918 0.742">
	<g id="Layer_1_56_">
		<path style="fill-rule:evenodd;clip-rule:evenodd;fill:#2B9A9D;" d="M0.9-0.3c0.067-0.233-0.05-0.383-0.35-0.45
			C0.25-0.817,0.067-0.717,0-0.45c0,0.267,0.133,0.4,0.4,0.4C0.667,0.017,0.833-0.067,0.9-0.3z"/>
	</g>
</symbol>
<symbol  id="flash0.ai_x2F_Layer_3_x2F__x3C_Path_x3E__x5F_49" viewBox="-0.01 -1.1 1.32 1.1">
	<g id="Layer_1_58_">
		<path style="fill-rule:evenodd;clip-rule:evenodd;fill:#2B9A9D;" d="M1.3-0.5c0.034-0.133-0.017-0.267-0.15-0.4
			C1.017-1,0.867-1.067,0.7-1.1C0.3-1.1,0.067-0.933,0-0.6c-0.033,0.133,0.017,0.25,0.15,0.35C0.283-0.117,0.433-0.033,0.6,0
			C1.067,0,1.3-0.167,1.3-0.5z"/>
	</g>
</symbol>
<symbol  id="flash0.ai_x2F_Layer_3_x2F__x3C_Path_x3E__x5F_5" viewBox="0 -1.363 1.708 1.326">
	<g id="Layer_1_50_">
		<path style="fill-rule:evenodd;clip-rule:evenodd;fill:#2B9A9D;" d="M1.7-0.75c-0.067-0.467-0.367-0.667-0.9-0.6
			C0.267-1.283,0-1.033,0-0.6c0.067,0.434,0.383,0.617,0.95,0.55c0.233,0,0.417-0.067,0.55-0.2C1.667-0.417,1.733-0.583,1.7-0.75z"
			/>
	</g>
</symbol>
<symbol  id="flash0.ai_x2F_Layer_3_x2F__x3C_Path_x3E__x5F_50" viewBox="-0.013 -1.065 1.325 1.081">
	<g id="Layer_1_60_">
		<path style="fill-rule:evenodd;clip-rule:evenodd;fill:#2B9A9D;" d="M0-0.6C-0.067-0.267,0.133-0.067,0.6,0s0.7-0.083,0.7-0.45
			c0.067-0.333-0.133-0.533-0.6-0.6C0.3-1.117,0.067-0.967,0-0.6z"/>
	</g>
</symbol>
<symbol  id="flash0.ai_x2F_Layer_3_x2F__x3C_Path_x3E__x5F_51" viewBox="-0.01 -1.062 1.322 1.078">
	<g id="Layer_1_62_">
		<path style="fill-rule:evenodd;clip-rule:evenodd;fill:#2B9A9D;" d="M0.6,0C1,0.067,1.233-0.083,1.3-0.45
			c0.067-0.333-0.133-0.533-0.6-0.6c-0.167-0.034-0.333,0-0.5,0.1C0.067-0.85,0-0.733,0-0.6c-0.033,0.133,0.017,0.267,0.15,0.4
			S0.433,0,0.6,0z"/>
	</g>
</symbol>
<symbol  id="flash0.ai_x2F_Layer_3_x2F__x3C_Path_x3E__x5F_52" viewBox="-0.045 -2.041 2.259 2.041">
	<g id="Layer_1_65_">
		<path style="fill-rule:evenodd;clip-rule:evenodd;fill:#2B9A9D;" d="M2.1-0.25C2.233-0.417,2.25-0.633,2.15-0.9S1.867-1.4,1.6-1.6
			C0.967-2.133,0.467-2.183,0.1-1.75c-0.3,0.4-0.133,0.867,0.5,1.4C0.867-0.15,1.15-0.033,1.45,0C1.75,0,1.967-0.083,2.1-0.25z"/>
	</g>
</symbol>
<symbol  id="flash0.ai_x2F_Layer_3_x2F__x3C_Path_x3E__x5F_53" viewBox="-0.046 -0.9 0.969 0.923">
	<g id="Layer_1_67_">
		<path style="fill-rule:evenodd;clip-rule:evenodd;fill:#2B9A9D;" d="M0.2-0.85c-0.267,0.2-0.317,0.417-0.15,0.65
			c0.1,0.233,0.317,0.284,0.65,0.15c0.233-0.2,0.283-0.417,0.15-0.65C0.683-0.9,0.467-0.95,0.2-0.85z"/>
	</g>
</symbol>
<symbol  id="flash0.ai_x2F_Layer_3_x2F__x3C_Path_x3E__x5F_6" viewBox="-0.011 -1.313 1.671 1.323">
	<g id="Layer_1_49_">
		<path style="fill-rule:evenodd;clip-rule:evenodd;fill:#2B9A9D;" d="M1.65-0.75C1.583-1.183,1.283-1.367,0.75-1.3
			C0.183-1.233-0.067-0.983,0-0.55c0,0.167,0.1,0.3,0.3,0.4C0.467-0.017,0.667,0.033,0.9,0C1.467-0.067,1.717-0.317,1.65-0.75z"/>
	</g>
</symbol>
<symbol  id="flash0.ai_x2F_Layer_3_x2F__x3C_Path_x3E__x5F_7" viewBox="-0.007 -1.562 2.165 1.572">
	<g id="Layer_1_48_">
		<path style="fill-rule:evenodd;clip-rule:evenodd;fill:#2B9A9D;" d="M2.15-0.9C2.083-1.4,1.7-1.617,1-1.55
			c-0.3,0.033-0.55,0.133-0.75,0.3S-0.033-0.9,0-0.7c0.033,0.233,0.167,0.417,0.4,0.55S0.883,0.033,1.15,0
			C1.883-0.133,2.217-0.433,2.15-0.9z"/>
	</g>
</symbol>
<symbol  id="flash0.ai_x2F_Layer_3_x2F__x3C_Path_x3E__x5F_8" viewBox="-0.007 -1.561 2.164 1.571">
	<g id="Layer_1_47_">
		<path style="fill-rule:evenodd;clip-rule:evenodd;fill:#2B9A9D;" d="M2.15-0.85C2.083-1.383,1.7-1.617,1-1.55
			c-0.3,0.033-0.55,0.133-0.75,0.3S-0.033-0.883,0-0.65c0.033,0.2,0.167,0.367,0.4,0.5S0.883,0.033,1.15,0
			C1.45-0.033,1.7-0.133,1.9-0.3C2.1-0.467,2.183-0.65,2.15-0.85z"/>
	</g>
</symbol>
<symbol  id="flash0.ai_x2F_Layer_3_x2F__x3C_Path_x3E__x5F_9" viewBox="-0.007 -1.562 2.165 1.572">
	<g id="Layer_1_46_">
		<path style="fill-rule:evenodd;clip-rule:evenodd;fill:#2B9A9D;" d="M2.15-0.9C2.083-1.4,1.7-1.617,1-1.55
			c-0.3,0.033-0.55,0.133-0.75,0.3S-0.033-0.9,0-0.7c0.033,0.233,0.167,0.417,0.4,0.55S0.883,0.033,1.15,0
			C1.883-0.133,2.217-0.433,2.15-0.9z"/>
	</g>
</symbol>
<g>
	<g>
		
			<linearGradient id="SVGID_6_" gradientUnits="userSpaceOnUse" x1="10.1987" y1="37.4487" x2="47.6715" y2="37.4487" gradientTransform="matrix(0.9961 -0.0887 0.0887 0.9961 -1.530647e-004 1.521111e-004)">
			<stop  offset="0" style="stop-color:#674D4B"/>
			<stop  offset="0.2235" style="stop-color:#4B3836"/>
			<stop  offset="0.4549" style="stop-color:#342625"/>
			<stop  offset="0.6" style="stop-color:#2C201F"/>
		</linearGradient>
		<path style="fill-rule:evenodd;clip-rule:evenodd;fill:url(#SVGID_6_);" d="M29.8,24.55c0.333,1.233,0.284,2.75-0.15,4.55
			c-0.333,1.4-0.533,2.3-0.6,2.7c-0.167,1-0.2,1.934-0.1,2.8c0.267,2.033,1.583,4.816,3.95,8.35c2.333,3.5,3.617,6.216,3.85,8.15
			c-1.6-0.367-3.333-1.083-5.2-2.15c-1.066-0.633-2.633-1.667-4.7-3.1c-0.934-0.633-2.5-1.3-4.7-2c-2.1-0.667-3.617-1.35-4.55-2.05
			c-0.833-0.6-1.867-1.566-3.1-2.9c-1.567-1.7-2.55-2.733-2.95-3.1c-1.7-1.333-2.933-2.316-3.7-2.95
			c-1.367-1.1-2.35-2.283-2.95-3.55c-2.1-4.333-0.066-7.316,6.1-8.95c5.433-1.434,10.017-1.467,13.75-0.1
			C27.55,21.25,29.233,22.683,29.8,24.55z"/>
		
			<linearGradient id="SVGID_7_" gradientUnits="userSpaceOnUse" x1="-25.6162" y1="36.7173" x2="5.3588" y2="36.7173" gradientTransform="matrix(0.6707 -0.7417 0.7417 0.6707 4.997253e-004 2.937913e-004)">
			<stop  offset="0" style="stop-color:#674D4B"/>
			<stop  offset="0.2235" style="stop-color:#4B3836"/>
			<stop  offset="0.4549" style="stop-color:#342625"/>
			<stop  offset="0.6" style="stop-color:#2C201F"/>
		</linearGradient>
		<path style="fill-rule:evenodd;clip-rule:evenodd;fill:url(#SVGID_7_);" d="M29.8,23.85c0.367,1.2,0.333,2.617-0.1,4.25
			c-0.467,1.8-0.667,3.333-0.6,4.6c0.1,1.466,0.55,2.95,1.35,4.45c0.167,0.267,0.733,1.417,1.7,3.45c0.967,1.9,1.567,2.833,1.8,2.8
			c-0.733,0.1-1.684,0-2.85-0.3c-1.3-0.434-2.267-0.733-2.9-0.9c-0.534-0.167-1.383-0.35-2.55-0.55c-1.167-0.2-2.033-0.383-2.6-0.55
			c-0.9-0.267-1.55-0.667-1.95-1.2c-0.434-0.7-0.9-1.3-1.4-1.8c-0.7-0.733-2-1.817-3.9-3.25c-1.667-1.3-2.883-2.417-3.65-3.35
			l-0.35,0.85c-0.633-0.533-1.1-0.95-1.4-1.25c-0.5-0.469-0.9-0.894-1.2-1.275c0.1,0.94,0.15,1.848,0.15,2.725
			c-2.567-2.033-4.2-3.75-4.9-5.15c-1.133-2.167-0.483-3.983,1.95-5.45c2.567-1.534,5.567-2.5,9-2.9c3.467-0.433,6.6-0.167,9.4,0.8
			C27.633,20.817,29.3,22.15,29.8,23.85z"/>
		<linearGradient id="SVGID_8_" gradientUnits="userSpaceOnUse" x1="-41.5498" y1="66.6602" x2="336.0502" y2="66.6602">
			<stop  offset="0" style="stop-color:#674D4B"/>
			<stop  offset="0.1882" style="stop-color:#523E3B"/>
			<stop  offset="0.4392" style="stop-color:#3B2D29"/>
			<stop  offset="0.6" style="stop-color:#332723"/>
			<stop  offset="0.7961" style="stop-color:#46322F"/>
			<stop  offset="1" style="stop-color:#5E413F"/>
		</linearGradient>
		<path style="fill-rule:evenodd;clip-rule:evenodd;fill:url(#SVGID_8_);" d="M324.75,33.6c3.1,0.2,5.3,0.65,6.6,1.35
			c-0.6,2.066-1.783,4.35-3.55,6.85c-0.7,1.034-2.283,3.05-4.75,6.05c-2.6,3.167-5.649,5.816-9.149,7.95
			c-1.534,1.167-2.534,1.867-3,2.1c-0.367,0.234-0.667,0.4-0.9,0.5c-0.434,0.199-0.7,0.183-0.8-0.051
			c-0.033-0.1,0.166-0.683,0.6-1.75c0.634-1.733,1-2.684,1.101-2.85c0.267-0.533,0.8-1.333,1.6-2.4
			c0.733-0.934,1.134-1.783,1.2-2.55c-0.334-0.133-0.617-0.183-0.851-0.15c-0.166,0.033-0.55,0.167-1.149,0.4
			c-3.134,1.133-6,3.083-8.601,5.85c-2.199,2.4-3.899,4.183-5.1,5.35c-2.033,1.967-3.983,3.417-5.85,4.35
			c-3.867,1.9-8.75,4.784-14.65,8.65c-7.267,4.733-12.15,7.816-14.65,9.25c-2.1,1.267-6.716,2.316-13.85,3.15
			c-7.434,0.866-11.616,0.649-12.55-0.65c-3.733,2.467-6.55,4.333-8.45,5.6c-3.4,2.267-6.167,4.301-8.3,6.101
			c-3.134,3.467-5.783,6.283-7.95,8.45c-4.033,4.066-7.15,5.833-9.35,5.3c-2.301-0.533-4.101-2.8-5.4-6.8
			c-1.5-4.667-2.733-7.4-3.7-8.2c-1-0.867-1.684-1.134-2.05-0.8c-0.233,0.233-0.4,0.899-0.5,2c-0.3,2.6-1.267,3.8-2.9,3.6
			c-1.699-0.2-5.783-1.684-12.25-4.45c-6.133-2.633-10.399-3.967-12.8-4c-7.167,0-11.716-0.017-13.65-0.05
			c-5.1-0.066-9.667-0.267-13.7-0.6c-1.633-0.134-2.817-0.284-3.55-0.45c-1.133-0.267-2.217-0.767-3.25-1.5
			c-1.566-1.2-2.75-2.084-3.55-2.65c-1.333-1-2.684-1.75-4.05-2.25c-1.233-0.434-3.216-0.717-5.95-0.85
			c-2.934-0.101-4.967-0.3-6.1-0.601c-1.967-0.5-4.167-1.55-6.6-3.149c-3.8-2.566-5.85-3.934-6.15-4.101
			c-0.233,0.801,0.65,2.517,2.65,5.15c1.667,2.2,1.817,3.533,0.45,4c-1.2,0.4-3.267,0.2-6.2-0.6c-2.533-0.667-4.467-1.384-5.8-2.15
			c-1-0.6-2.567-1.35-4.7-2.25c-2.333-1-3.95-1.75-4.85-2.25c-3.966-2.167-7.033-4.434-9.2-6.8c-1.1-1.2-2.867-2.25-5.3-3.15
			c-3.867-1.434-5.833-2.166-5.9-2.2c-3.833-1.8-7.1-4.149-9.8-7.05c-1.2-1.3-2.917-2.466-5.15-3.5c-2.967-1.433-4.833-2.4-5.6-2.9
			c-1.767,1.5-3.65,0.767-5.65-2.2c-2.833-4.133-4.6-6.4-5.3-6.8c-2.566-0.933-4.533-1.733-5.9-2.4
			c-2.467-1.133-3.817-2.683-4.05-4.65c-0.567-5.067,13.133-7.117,41.1-6.15c14.4,0.466,30.85,1.5,49.35,3.1
			c9.767,0.133,23.317-1.05,40.65-3.55c18.9-2.733,32.45-4.233,40.65-4.5c3.566-0.1,8.95-0.35,16.149-0.75
			c7.2-0.4,12.601-0.667,16.2-0.8c5.4-0.233,10.283-0.3,14.65-0.2c0.3,0,7.333-0.067,21.1-0.2c8.533-0.1,15.566,0.15,21.101,0.75
			c5.133,0.567,11.916,2.017,20.35,4.35c9.934,2.733,16.7,4.434,20.3,5.1C318.116,33.1,320.517,33.3,324.75,33.6z"/>
		
			<linearGradient id="SVGID_9_" gradientUnits="userSpaceOnUse" x1="89.436" y1="0.5391" x2="102.0639" y2="0.5391" gradientTransform="matrix(0.9938 0.1109 -0.1109 0.9938 6.355345e-005 -4.318133e-004)">
			<stop  offset="0" style="stop-color:#674D4B"/>
			<stop  offset="0.2235" style="stop-color:#4B3836"/>
			<stop  offset="0.4549" style="stop-color:#342625"/>
			<stop  offset="0.6" style="stop-color:#2C201F"/>
		</linearGradient>
		<path style="fill-rule:evenodd;clip-rule:evenodd;fill:url(#SVGID_9_);" d="M113.1,9c0.066,1.2-0.95,2.583-3.05,4.15
			c-1.5,1.133-3.633,2.15-6.4,3.05c-3.167,0.933-5.45,1.6-6.85,2c-3,0.933-4.85,1.233-5.55,0.9c-0.867-0.367-1.433-1.934-1.7-4.7
			c-0.333-3.066-0.5-4.617-0.5-4.65c0.1-1.367,0.817-2.533,2.15-3.5c2.333-1.633,5.033-2.55,8.1-2.75
			c2.833-0.2,5.65,0.217,8.45,1.25C111.283,6.05,113.067,7.467,113.1,9z"/>
		
			<use xlink:href="#flash0.ai_x2F_Layer_3_x2F__x3C_Clip_Group_0_x3E_"  width="315.417" height="91.564" x="-0.017" y="-91.593" transform="matrix(1 0 0 -1 15.9502 22.75)" style="overflow:visible;"/>
		<g>
			
				<linearGradient id="SVGID_10_" gradientUnits="userSpaceOnUse" x1="-4.1592" y1="-173.8667" x2="50.0983" y2="-173.8667" gradientTransform="matrix(-0.0166 0.9999 -0.9999 -0.0166 4.043560e-004 1.387671e-004)">
				<stop  offset="0" style="stop-color:#7CD491"/>
				<stop  offset="1" style="stop-color:#2B9A9D"/>
			</linearGradient>
			<path style="fill-rule:evenodd;clip-rule:evenodd;fill:url(#SVGID_10_);" d="M331.35,20.6c1.467,0.933,2.684,1.566,3.65,1.9
				c0.333,0.133,1.333,0.4,3,0.8c1.267,0.333,2.217,0.684,2.85,1.05c-0.333,0.066-0.983,0.117-1.949,0.15
				c-0.801,0-1.417,0.1-1.851,0.3c0.233,0.1,0.684,0.2,1.351,0.3c0.6,0.1,1.066,0.233,1.399,0.4h-0.524
				c1.116,0.025,2.407,0.592,3.875,1.7c1.433,1.066,2.35,2.133,2.75,3.2c-1-0.4-1.617-0.617-1.851-0.65
				c0.334,0.333,0.867,0.783,1.601,1.35c0.633,0.533,1.017,1.066,1.149,1.6c-0.366-0.067-0.833-0.217-1.399-0.45
				c-0.801-0.333-1.267-0.517-1.4-0.55c0.167,0.9,0.2,1.85,0.1,2.85c-0.033,0.267-0.166,1.217-0.399,2.85c-0.2-1-0.384-1.7-0.55-2.1
				v1.1c-0.034,0.434-0.084,0.783-0.15,1.05c-0.3-0.434-0.517-0.767-0.65-1c0.067,0.333,0.184,0.8,0.351,1.4
				c0.133,0.566,0.184,1.05,0.149,1.45c-0.399-0.867-0.933-1.833-1.6-2.9c-0.8-1.2-1.417-2.133-1.85-2.8
				c0.433,1.7,0.666,2.767,0.699,3.2c0.2,1.333,0.134,2.4-0.199,3.2c-0.334-1-0.584-1.75-0.75-2.25
				c-0.301-0.833-0.667-1.55-1.101-2.15c0.134,1.7,0.017,2.9-0.35,3.6c-0.164-0.753-0.214-1.586-0.15-2.5
				c-0.133,0.566-0.399,0.983-0.8,1.25c-0.566,0.3-1.017,0.533-1.35,0.7c-1.96,0.997-2.994,1.697-3.101,2.1
				c0.168-0.702,0.435-1.435,0.8-2.2c-0.366,0.567-0.949,1.25-1.75,2.05c-1.1,1.033-1.75,1.667-1.949,1.9
				c0.267-1.1,0.383-1.983,0.35-2.65c-0.434,0.5-0.967,1.35-1.6,2.55c-0.634,1.233-1.184,2.1-1.65,2.6c0.434-1,0.733-2,0.9-3
				c0.1-0.7,0.166-1.733,0.199-3.1c-1.033,1.567-1.649,2.467-1.85,2.7c-0.328-0.329-0.32-0.962,0.025-1.9
				c-0.075,0.17-0.417,0.62-1.025,1.35c-0.634,0.767-1.017,1.2-1.15,1.3c0.434-1.333,0.084-2.133-1.05-2.4
				c-1.399-0.067-2.3-0.117-2.7-0.15c0.301-0.933-0.066-1.2-1.1-0.8c-1.062,0.418-1.595,0.802-1.6,1.15
				c-0.03-0.845,0.053-1.662,0.25-2.45c-1,1.667-1.517,2.517-1.551,2.55c-0.866,1.233-1.767,2.1-2.699,2.6
				c0.633-0.767,0.966-1.583,1-2.45c-0.067-0.767-0.101-1.217-0.101-1.35c-0.2,0.034-0.45,0.15-0.75,0.35
				c-0.333,0.2-0.566,0.317-0.7,0.35c-0.033-0.533-0.017-0.9,0.051-1.1c-0.267,0.267-0.467,0.467-0.601,0.6
				c-0.267,0.267-0.5,0.433-0.7,0.5l0.15-1.3c-1.066,1-2.134,1.716-3.2,2.15c-0.399-1.333-0.7-2.2-0.899-2.6
				c-0.101,0.267-0.267,1.383-0.5,3.35c-0.2,1.767-0.483,2.883-0.851,3.35c0.066-1.434-0.083-2.75-0.45-3.95
				c-0.466-1.1-0.767-1.833-0.899-2.2c0,0.5-0.134,0.934-0.4,1.3l-1-1.55c-0.1,1.4,0.167,2.7,0.8,3.9
				c-0.5-0.133-1.267-0.633-2.3-1.5c-1.066-1-1.783-1.633-2.149-1.9c-0.034,0.434,0.083,0.983,0.35,1.65
				c-0.733-0.267-1.316-0.85-1.75-1.75c0.333,0.8,0.1,1.35-0.7,1.65c-0.8,0.333-1.366,0.066-1.7-0.8c0.034,0.1,0.267,0.65,0.7,1.65
				c0.334,0.8,0.533,1.35,0.601,1.65c-0.634-0.9-2.067-2.067-4.301-3.5c0.534,0.667,0.784,1.267,0.75,1.8
				c-0.584-0.067-1.051-0.284-1.399-0.65c0.087,0.207,0.154,0.44,0.2,0.7c-0.601-0.467-1.45-0.8-2.551-1
				c-1.633,0-2.466-0.034-2.5-0.1c0.267,0.5,0.567,0.933,0.9,1.3c-0.866-0.467-1.533-0.816-2-1.05c-0.767-0.4-1.434-0.684-2-0.85
				l1,0.85c-0.7-0.3-1.217-0.5-1.55-0.6c-0.634-0.2-1.167-0.233-1.601-0.1c0.101,0.033,0.534,0.383,1.301,1.05
				c0.733,0.6,1.183,0.917,1.35,0.95c-0.634,0.133-1.833-0.05-3.6-0.55c-1.9-0.567-3.084-0.833-3.551-0.8
				c0.167,0.067,0.45,0.25,0.851,0.55l-2.15-0.15c0.7,0.633,1.4,1.066,2.101,1.3c-1.034,0.1-2.117,0.05-3.25-0.15
				c-1.301-0.233-2.317-0.633-3.051-1.2c0.467,0.833,1.034,1.583,1.7,2.25c-1.267-0.5-1.983-0.783-2.149-0.85
				c-0.834-0.4-1.417-0.867-1.75-1.4c-0.167,0.467-0.801,0.717-1.9,0.75c-1.066,0-1.65,0.2-1.75,0.6
				c0.033-0.3,0.083-0.517,0.15-0.65c-0.4,0.167-0.801,0.6-1.2,1.3c-0.267-0.767-0.5-1.3-0.7-1.6c-0.3,1.667-0.45,2.8-0.45,3.4
				c-0.967-1.567-1.566-2.633-1.8-3.2c-0.1,0.467-0.384,1.133-0.85,2l0.05-1.75c-0.5,0.967-1.517,2-3.05,3.1
				c-1.834,1.333-2.967,2.267-3.4,2.8c0.566-0.733,1.1-1.633,1.6-2.7c0-0.034,0.384-1,1.15-2.9c-0.233,0.534-0.733,1.133-1.5,1.8
				c-0.843,0.713-1.435,1.221-1.775,1.525c0.291-0.27,0.55-0.711,0.775-1.325c0.267-0.933,0.434-1.45,0.5-1.55
				c-0.4,0.667-1.1,1.067-2.1,1.2c-0.467,0.066-1.301,0.083-2.5,0.05c-3.034-0.067-5.301,0.167-6.801,0.7l0.2-0.5
				c-0.6,0.1-1.149,0.267-1.649,0.5l0.6-0.6c-1,0.167-1.816,0.367-2.45,0.6c-0.7,0.233-1.434,0.617-2.2,1.15
				c0.034-0.3,0.2-0.617,0.5-0.95c0.167-0.2,0.417-0.483,0.75-0.85c-0.8,0.4-1.383,0.7-1.75,0.9l0.7-1.25
				c-0.333,0.367-1.233,0.466-2.7,0.3c-1.408-0.164-2.042-0.372-1.899-0.625c-0.171,0.282-0.388,0.391-0.65,0.325
				c-0.233-0.1-0.45-0.3-0.649-0.6c0,0.3-0.067,0.783-0.2,1.45c-0.566-0.367-1.25-1.066-2.05-2.1L230.75,43
				c-0.434-0.3-0.733-0.533-0.9-0.7l-0.449,0.75c0-0.433,0.017-0.75,0.05-0.95c-0.733,0-1.533,0.117-2.4,0.35
				c-0.166-0.633-0.25-1.034-0.25-1.2L226.65,42c-0.601-0.3-1.301-0.55-2.101-0.75c-0.934-0.2-1.666-0.383-2.2-0.55
				c0.567,0.533,1.417,1.316,2.551,2.35l0.449,0.45c0.4,0.533,0.967,1.35,1.7,2.45c-0.166-0.2-0.517-0.417-1.05-0.65
				c0.434,0.767,0.717,1.883,0.85,3.35c-0.133-0.133-0.399-0.517-0.8-1.15c-0.333-0.467-0.649-0.8-0.95-1l-0.199,0.05
				c0.366,0.633,0.583,1.083,0.649,1.35L224,47.2l0.5,1.65l-0.55-0.25l0.649,1c-0.633-0.533-1.333-0.8-2.1-0.8
				c0.434,1.034,0.634,1.717,0.6,2.05c-0.699-0.934-1.433-1.633-2.199-2.1c0.533,1.633,0.566,3.033,0.1,4.2
				c-0.434-2.034-1.384-3.6-2.85-4.7l-0.4,1.9l-1.1-1.55c0.233,0.7,0.25,1.367,0.05,2c-0.334-0.7-0.95-1.6-1.851-2.7
				c0.2,0.733-0.017,1.684-0.649,2.85c-0.134-0.4-0.334-0.817-0.601-1.25c0.034,0.4-0.166,0.967-0.6,1.7v0.05l-0.35-1.8
				c-0.367,0.633-1.284,1.133-2.75,1.5c-1.134,0.3-2.2,0.45-3.2,0.45v-0.45c-0.533,0.167-1.017,0.417-1.45,0.75l0.05-0.7
				c-0.333,0.167-0.816,0.317-1.45,0.45c-0.699,0.167-1.199,0.316-1.5,0.45c0-0.633-0.149-1.15-0.449-1.55
				c0.066,1-0.134,1.95-0.601,2.85c0.167-0.7,0.134-1.65-0.1-2.85c-0.267,0.3-0.684,0.6-1.25,0.9c-0.634,0.333-1.066,0.6-1.3,0.8
				c0.199-0.2,0.35-0.55,0.449-1.05c-0.945,0.554-1.653,1.013-2.125,1.375c0.651-0.524,1.01-1.033,1.075-1.525
				c-0.233,0.267-0.633,0.383-1.2,0.35c-0.633-0.067-1.017-0.05-1.149,0.05c-0.434,0.1-0.717,0.2-0.851,0.3
				c0.067-0.167,0.15-0.417,0.25-0.75l-2,1.15c0.4-0.467,0.634-1.05,0.7-1.75c-0.6,0.433-1.25,0.65-1.95,0.65l0.101-0.3
				c-0.5,0.167-0.851,0.333-1.05,0.5V50c-0.934,0.767-1.667,1.25-2.2,1.45c-0.134-0.5-0.184-0.833-0.15-1
				c-0.5,0.466-0.916,0.383-1.25-0.25l0.101,0.55c-0.467,0-1.051-0.15-1.75-0.45c-0.867-0.367-1.417-0.583-1.65-0.65
				c0,0.867-0.033,1.417-0.1,1.65c-0.367-0.133-0.75-0.417-1.15-0.85c-0.4-0.434-0.684-0.833-0.85-1.2
				c-0.034,0.167-0.15,0.417-0.351,0.75c-0.3-0.433-0.467-0.75-0.5-0.95c-0.1,0.1-0.1,0.2,0,0.3c-0.633-0.067-1.55-0.25-2.75-0.55
				c-1.557-0.397-2.34-0.764-2.35-1.1c0.001,0.27,0.084,0.586,0.25,0.95c0.1,0.2,0.267,0.517,0.5,0.95
				c-0.233-0.233-0.684-0.583-1.351-1.05c-0.6-0.433-1.033-0.833-1.3-1.2c0.167,0.733,0.316,1.833,0.45,3.3
				c-0.333-0.4-0.667-1.066-1-2c-0.333-0.933-0.683-1.6-1.05-2c-0.2,0.367-0.267,1.083-0.2,2.15c-0.1-0.233-0.283-1.066-0.55-2.5
				l-0.35,0.25c-0.267-0.633-0.583-1.033-0.95-1.2c0,0.767,0.017,1.217,0.05,1.35c-0.733-0.667-1.4-1.434-2-2.3
				c0.066,0.133,0.133,0.567,0.2,1.3c-0.3-0.434-0.517-0.767-0.65-1c-0.3-0.367-0.583-0.65-0.85-0.85
				c0.067,0.3,0.15,0.717,0.25,1.25c-1.167-0.7-1.95-1.3-2.35-1.8c0.034,0.133,0.034,0.383,0,0.75l-0.85-0.85
				c0.133,0.167,0.267,0.566,0.4,1.2c-1.333-0.8-2.283-1.316-2.85-1.55c-1.267-0.533-2.333-0.617-3.2-0.25
				c-0.4-0.167-0.7-0.3-0.9-0.4l0.1,0.4c-0.367-0.367-0.7-0.517-1-0.45c-0.367,0.1-0.417,0.4-0.15,0.9c-0.533-0.3-0.934-0.5-1.2-0.6
				c-0.5-0.233-0.933-0.35-1.3-0.35l0.15,0.6c-1.1-0.467-1.883-0.75-2.35-0.85c0.8,1.066,1.233,1.7,1.3,1.9
				c-1.967-0.4-3.684-0.95-5.15-1.65l0.25,0.5c-0.367-0.167-0.65-0.333-0.85-0.5c0.133,0.2,0.233,0.55,0.3,1.05
				c-0.933-0.4-1.883-0.566-2.85-0.5c-0.759,0.066-1.7,0.299-2.825,0.7c0.381-0.124,1.056-0.041,2.025,0.25
				c0.533,0.133,1.217,0.35,2.05,0.65c1.733,0.467,3.434,1.05,5.1,1.75c1.767,0.733,3.267,1.533,4.5,2.4
				c1.867,1.367,2.667,2.7,2.4,4c-0.25-0.375-0.408-0.691-0.475-0.95c0.277,1.244,0.186,2.244-0.275,3
				c-0.2-0.567-0.467-1.083-0.8-1.55c-0.267,0.467-0.5,1.267-0.7,2.4c-0.167,1.067-0.4,1.85-0.7,2.35
				c0.066-1.633-0.117-2.9-0.55-3.8c-0.2,1-0.4,1.683-0.6,2.05l-0.65-1.85c-0.3,0.667-0.867,1.25-1.7,1.75
				c-0.867,0.567-1.65,0.784-2.35,0.65l0.1-0.15c-0.534,0.133-0.9,0.25-1.1,0.35l0.05-0.75c-0.4,0.3-0.717,0.533-0.95,0.7
				c-0.367,0.267-0.633,0.533-0.8,0.8c-0.066-0.667-0.183-1.267-0.35-1.8c-0.066,0.4-0.233,0.883-0.5,1.45
				c-0.566-0.867-0.933-1.566-1.1-2.1c-0.133,0.5-0.534,1.017-1.2,1.55c-0.8,0.567-1.367,0.967-1.7,1.2l0.3-0.75l-1.1,0.8l0.35-0.85
				c-0.367,0.333-0.883,0.617-1.55,0.85c-0.733,0.267-1.267,0.45-1.6,0.55c0.566-0.367,0.85-0.917,0.85-1.65
				c-1.966,0.967-3.417,1.317-4.35,1.05l0.25-0.45c-0.434,0.2-0.75,0.383-0.95,0.55c-0.033,0.034-0.583,0.351-1.65,0.95
				c0.033-0.134,0.35-0.483,0.95-1.05c0.633-0.6,0.95-0.95,0.95-1.05c-0.333,0.6-1.217,0.983-2.65,1.15c-1.033,0.1-2.067,0.1-3.1,0
				c-0.9-0.3-1.317-0.45-1.25-0.45c-0.7,0.2-1.7,0.167-3-0.1c-0.133,0.567-0.367,0.75-0.7,0.55c-0.3-0.167-0.466-0.5-0.5-1
				c-0.733,0.633-1.483,1.067-2.25,1.3c-1.033,0.301-1.583,0-1.65-0.899c-0.167,0.667-0.533,0.916-1.1,0.75
				c-0.5-0.133-0.95-0.45-1.35-0.95c0.133,0.2,0.216,0.733,0.25,1.6c0.2,0.9,0.75,1.733,1.65,2.5c-0.6,0.034-1.467-0.483-2.6-1.55
				c-1.133-1.033-1.8-1.9-2-2.6c0.033,0.133,0.017,0.55-0.05,1.25c0,0.899,0.233,1.833,0.7,2.8c-0.267-0.3-0.7-0.983-1.3-2.05
				c-0.632-1.054-0.907-1.67-0.825-1.85c-0.351,0.394-0.992,0.511-1.925,0.35c-1.367-0.2-2.1-0.3-2.2-0.3
				c-0.633,0.133-1.133,0.2-1.5,0.2c-0.7,0.033-1.183-0.117-1.45-0.45l-0.3,0.6c-0.267-0.367-0.4-0.817-0.4-1.35
				c-0.7,0.8-1.233,1.233-1.6,1.3c-0.533,0.1-0.883-0.367-1.05-1.4l-0.75,1.1l-0.1-1.45c-0.5,0.1-0.917,0.367-1.25,0.8
				c-0.367,0.6-0.65,1.05-0.85,1.35c-0.333-0.733-0.467-1.533-0.4-2.4c-0.267,0.533-0.617,1.1-1.05,1.7l-0.2-1.8
				c-0.667,0.333-1.667,0.55-3,0.65c-1.433,0.1-2.433,0.25-3,0.45c0-0.5,0-0.883,0-1.15c-0.033-0.466-0.133-0.85-0.3-1.15
				c-0.534,0.367-0.95,0.934-1.25,1.7c-0.633-0.833-1.083-1.467-1.35-1.9c0.033,0.267,0.183,1.05,0.45,2.35
				c0.2,1.233,0.267,2,0.2,2.3c-0.7-2.233-1.617-3.616-2.75-4.149c-0.967-0.4-1.683-0.7-2.15-0.9c-0.867-0.4-1.533-0.833-2-1.3
				c0.3,1,0.6,1.617,0.9,1.85c-1.1-0.267-1.933-0.983-2.5-2.15c-0.033,0.1-0.45,0.383-1.25,0.85
				c-0.636,0.394-0.911,0.703-0.825,0.925c-0.287-0.539-0.479-1.081-0.575-1.625c-0.5,0.566-0.833,1.233-1,2l-0.6-1.65
				c-0.233,0.767-0.417,1.65-0.55,2.65c-0.067-0.533-0.35-1.167-0.85-1.9c-0.733-1.167-1.117-1.767-1.15-1.8
				c0.1,0.467,0.15,0.9,0.15,1.3c-0.633-0.633-1.817-1.184-3.55-1.65c-1.8-0.5-3.017-1-3.65-1.5c0.167,0.3,0.5,0.75,1,1.35
				c-1.167-0.367-2.25-0.883-3.25-1.55c0.249,0.552,0.557,0.935,0.925,1.15c-0.503-0.231-1.711-0.764-3.625-1.6
				c-1.567-0.667-2.75-1.4-3.55-2.2c0.167,0.3,0.367,0.95,0.6,1.95l-3.6-2.85l0.55,1.55c-0.333-0.233-1.15-0.667-2.45-1.3
				c-1.4-0.667-2.217-0.95-2.45-0.85c-0.566,0.233-0.933,0.667-1.1,1.3c-0.1,0.4-0.133,1-0.1,1.8c-0.6-1.133-1-2.2-1.2-3.2
				c-0.1,0.2-0.3,0.483-0.6,0.85c-0.066-0.534-0.167-0.967-0.3-1.3c-1.033,0.3-1.833,0.85-2.4,1.65c-0.1-0.466-0.117-0.833-0.05-1.1
				c-0.733,0.267-1.216,0.933-1.45,2c-0.367-1.034-0.55-1.733-0.55-2.1c-0.667,1.133-0.983,2.3-0.95,3.5
				c-0.667-1.434-1.617-2.833-2.85-4.2c0,0.033,0.217,0.633,0.65,1.8c-0.233-0.267-0.633-0.617-1.2-1.05c-0.7-0.5-1.15-0.833-1.35-1
				l1.15,1.6c-2.567-1.867-4.25-3.15-5.05-3.85c0.133,0.434,0.2,0.983,0.2,1.65c-0.4-0.3-0.85-0.733-1.35-1.3
				c-0.7-0.733-1.133-1.183-1.3-1.35l0.1,0.6c-0.167-0.167-0.833-0.533-2-1.1c-1.133-0.5-1.717-0.816-1.75-0.95
				c0.175,0.585,0.417,1.001,0.725,1.25c-0.281-0.188-0.889-0.572-1.825-1.15c-0.767-0.466-1.333-0.966-1.7-1.5
				c0,0.2-0.083,0.517-0.25,0.95l-0.7-1.1l-0.4,0.95c-0.133-0.467-0.15-1.017-0.05-1.65c-0.267,0.233-0.7,0.5-1.3,0.8
				s-1.033,0.583-1.3,0.85l0.05-1.95c-0.533,0.3-0.95,0.483-1.25,0.55c0.066-0.534,0.15-0.867,0.25-1
				c-0.667,0.367-1.083,0.933-1.25,1.7c-0.333-0.9-0.517-1.767-0.55-2.6c-0.433,0.467-0.716,1.317-0.85,2.55
				c-0.633-0.767-1.017-1.467-1.15-2.1c-0.133,0.767-0.033,1.6,0.3,2.5c-1.7-1.8-2.333-3.3-1.9-4.5
				c-0.567,0.767-1.067,1.733-1.5,2.9c-0.133-1.433,0.267-2.566,1.2-3.4c-0.6,0.267-1.117,0.633-1.55,1.1
				c0.833-1.133,1.85-1.983,3.05-2.55c0.9-0.4,2.2-0.75,3.9-1.05c0.7-0.1,1.967-0.25,3.8-0.45c1.667-0.233,2.867-0.583,3.6-1.05
				c-0.6-0.067-1.083-0.133-1.45-0.2c-0.7-0.1-1.033-0.35-1-0.75c-0.067,0.133-0.233,0.367-0.5,0.7
				c-0.533-0.267-0.95-0.483-1.25-0.65c-0.5-0.233-0.867-0.5-1.1-0.8c0.033,0.534,0.267,1.15,0.7,1.85
				c-0.434-0.033-0.833-0.233-1.2-0.6c-0.191-0.175-0.341-0.359-0.45-0.55c0.016,0.094,0.032,0.194,0.05,0.3
				c0.067,0.2,0.133,0.517,0.2,0.95c-0.4-0.2-0.784-0.517-1.15-0.95c-0.367-0.533-0.65-0.933-0.85-1.2c0,0.367-0.133,0.7-0.4,1
				c-0.267,0.3-0.566,0.5-0.9,0.6c-0.167-0.3-0.233-0.483-0.2-0.55c-0.1,0.167-0.317,0.417-0.65,0.75
				c-0.167-0.467-0.167-0.95,0-1.45c-0.333,0.167-0.667,0.45-1,0.85c-0.167,0.2-0.433,0.534-0.8,1c-0.333-0.466-0.5-0.85-0.5-1.15
				h-0.25c0.067,0.267,0.083,0.667,0.05,1.2c-0.534,0-0.992-0.25-1.375-0.75l0.625,0.85c-1.066,0.066-1.95-0.383-2.65-1.35
				c0.067,0.333,0.3,0.833,0.7,1.5c-0.533,0.033-1.033-0.15-1.5-0.55c-0.4-0.367-0.684-0.833-0.85-1.4c-0.2,0.8-0.4,1.417-0.6,1.85
				l-0.6-1.2c-0.066,0.233-0.216,0.55-0.45,0.95c0-0.8,0.033-1.4,0.1-1.8C7.4,28.217,6.833,28.433,6,28.6
				c-0.767,0.167-1.3,0.4-1.6,0.7c-0.033-0.533-0.017-0.933,0.05-1.2c-0.5,0.333-0.767,0.75-0.8,1.25c-0.5-0.633-0.833-1.133-1-1.5
				c-0.033,0.5-0.017,1.25,0.05,2.25c-0.833-1.167-1.233-2.15-1.2-2.95c-0.133,0.367-0.2,1.117-0.2,2.25
				c-0.4-0.5-0.633-1.183-0.7-2.05c-0.033-0.934,0.15-1.6,0.55-2C0.55,25.783,0.167,26.267,0,26.8c-0.033-0.566,0.2-1.2,0.7-1.9
				c0.4-0.533,0.883-1.017,1.45-1.45L0.9,24.2c0.867-1,1.9-1.9,3.1-2.7c1.4-0.933,2.65-1.45,3.75-1.55c-0.533,0-0.933,0.033-1.2,0.1
				c0.313-0.156,0.704-0.289,1.175-0.4L6.75,19.8c2.7-1.367,4.35-2.167,4.95-2.4l5.15-1.6c1.733-0.5,3.566-0.767,5.5-0.8
				c-0.567-0.333-1.383-0.483-2.45-0.45c-1.2,0.1-2.066,0.15-2.6,0.15c1.867-0.5,3.75-0.8,5.65-0.9c1.1-0.033,2.733-0.05,4.9-0.05
				c-0.567-0.267-1-0.433-1.3-0.5c2.267-0.067,4.3,0.117,6.1,0.55c-1.033-0.5-2.217-0.833-3.55-1c3.6-0.233,9.033-0.683,16.3-1.35
				c6.467-0.5,11.9-0.7,16.3-0.6c4.667,0.133,10.733,0.3,18.2,0.5c6.267,0.167,12.083,0.233,17.45,0.2c-1.1-0.1-2.567-0.367-4.4-0.8
				c-0.7-0.2-1.3-0.367-1.8-0.5c-1-0.233-1.583-0.283-1.75-0.15c0.567-0.5,0.867-0.75,0.9-0.75c-0.533-0.067-1.566,0.05-3.1,0.35
				c0.033-0.434,0.233-0.85,0.6-1.25c-0.867,0.1-1.583,0.517-2.15,1.25c0-0.934,0.533-1.767,1.6-2.5c-1,0.4-1.983,1.117-2.95,2.15
				c0.7-1.5,1.917-2.65,3.65-3.45c1.1-0.533,2.716-1,4.85-1.4c-0.7-0.2-1.45-0.183-2.25,0.05c1.125-0.438,2.117-0.67,2.975-0.7
				c-1.208,0.009-2.433,0.109-3.675,0.3c1.3-0.6,2.95-0.983,4.95-1.15c1.167-0.1,2.883-0.167,5.15-0.2
				c-0.367-0.167-1.133-0.25-2.3-0.25c2.434-0.5,5.45-0.9,9.05-1.2c2.066-0.167,5.117-0.383,9.15-0.65
				c7.467-0.633,14.816-0.833,22.05-0.6c4.2,0.167,10.9,0.617,20.1,1.35c0.533,0.033,2.517,0.183,5.95,0.45
				c2.35,0.164,4.284,0.338,5.8,0.525c-0.483-0.075-1.1-0.3-1.85-0.675c0.533,0,1.517,0.217,2.95,0.65
				c1.233,0.367,2.183,0.483,2.85,0.35c-1.168-0.508-2.085-0.991-2.75-1.45c0.608,0.4,1.375,0.75,2.3,1.05
				c1.2,0.433,2.217,0.617,3.05,0.55c-0.434-0.133-0.85-0.4-1.25-0.8c0.867,0.5,1.783,0.767,2.75,0.8
				c1.066,0.067,1.967-0.167,2.7-0.7c-0.134,0.5-0.267,0.85-0.4,1.05c0.334-0.067,0.75-0.25,1.25-0.55
				c0.534-0.367,0.917-0.583,1.15-0.65c-0.066,0.5-0.15,0.833-0.25,1c0.233-0.066,1.05-0.233,2.45-0.5
				c0.955-0.191,1.681-0.424,2.175-0.7c-0.69,0.41-1.149,0.777-1.375,1.1c2.3-0.233,6.533-0.284,12.7-0.15
				c1.133,0.034,2.916-0.1,5.35-0.4c2.334-0.267,4.134-0.367,5.4-0.3c-1.2,0.167-2.117,0.55-2.75,1.15
				c0.366-0.333,1.3-0.517,2.8-0.55c0.833,0,1.866,0,3.1,0c1.034-0.133,2.317-0.2,3.851-0.2c0.866,0,2.166,0.017,3.899,0.05
				c6.101-0.066,11.25,0.067,15.45,0.4c-0.7-0.3-1.184-0.567-1.45-0.8c0.367,0.033,0.917,0.167,1.65,0.4
				c0.733,0.233,1.267,0.367,1.6,0.4c0.233,0.033,0.584,0,1.051-0.1c0.433-0.067,0.8-0.05,1.1,0.05l-0.4-0.25
				c0.7-0.066,1.9,0.017,3.601,0.25C241.384,2.533,240.6,2.233,240.1,2c2.534,0.433,5.483,0.783,8.851,1.05
				c1.967,0.167,4.934,0.367,8.899,0.6c1.134,0.067,3.017,0.217,5.65,0.45c2.333,0.066,4.167-0.217,5.5-0.85
				c-0.4,0.333-0.717,0.583-0.95,0.75c-0.278,0.203-0.537,0.361-0.774,0.475c1.099-0.415,2.49-0.606,4.175-0.575
				c1.033,0,2.55,0.083,4.55,0.25c-1.5,0.167-2.833,0.417-4,0.75c2.167-0.133,4.233-0.017,6.2,0.35c-0.5,0-0.934,0.15-1.3,0.45
				c0.699-0.133,1.583-0.083,2.649,0.15c1.566,0.333,2.434,0.517,2.601,0.55c0.767,0.067,1.716,0.083,2.85,0.05
				c0.634-0.034,1.583-0.083,2.85-0.15c-0.285,0.052-0.785,0.194-1.5,0.425c0.487-0.046,1.188,0.013,2.101,0.175
				c0.8,0.133,1.75,0.333,2.85,0.6l5.55,1c3.067,0.6,5.884,1.217,8.45,1.85c0.9,0.233,2.25,0.6,4.05,1.1
				c1.634,0.433,3.017,0.65,4.15,0.65c-1,0.267-1.767,0.433-2.3,0.5c2.6,0,5.267,0.55,8,1.65c-0.412-0.146-1.004-0.237-1.775-0.275
				c0.903,0.108,2.062,0.45,3.476,1.025c-0.467-0.133-1.034-0.167-1.7-0.1c2.3,0.3,5.166,1.45,8.6,3.45
				C328.566,18.783,329.75,19.533,331.35,20.6z"/>
		</g>
		
			<use xlink:href="#flash0.ai_x2F_Layer_3_x2F__x3C_Path_x3E__x5F_1"  width="23.95" height="20.25" y="-20.25" transform="matrix(1 0 0 -1 129.6001 66.8496)" style="overflow:visible;opacity:0.1602;enable-background:new    ;"/>
		
			<use xlink:href="#flash0.ai_x2F_Layer_3_x2F__x3C_Path_x3E__x5F_2"  width="27.716" height="23.518" x="0.066" y="-23.523" transform="matrix(1 0 0 -1 255.2002 56.6499)" style="overflow:visible;opacity:0.1602;enable-background:new    ;"/>
	</g>
	<g>
		
			<use xlink:href="#flash0.ai_x2F_Layer_3_x2F__x3C_Path_x3E__x5F_46"  width="27.55" height="4.35" y="-4.35" transform="matrix(1 0 0 -1 206.5498 3.9502)" style="overflow:visible;opacity:0.3516;enable-background:new    ;"/>
		
			<use xlink:href="#flash0.ai_x2F_Layer_3_x2F__x3C_Path_x3E__x5F_45"  width="20.254" height="4.757" x="-0.001" y="-4.779" transform="matrix(1 0 0 -1 190.3496 6.5498)" style="overflow:visible;opacity:0.3516;enable-background:new    ;"/>
		
			<use xlink:href="#flash0.ai_x2F_Layer_3_x2F__x3C_Path_x3E__x5F_44"  width="10.603" height="3.622" x="-0.002" y="-3.617" transform="matrix(1 0 0 -1 212.4004 9.9502)" style="overflow:visible;opacity:0.3516;enable-background:new    ;"/>
		
			<use xlink:href="#flash0.ai_x2F_Layer_3_x2F__x3C_Path_x3E__x5F_43"  width="8.804" height="3.296" x="-0.002" y="-3.273" transform="matrix(1 0 0 -1 179.6504 4.8501)" style="overflow:visible;opacity:0.3516;enable-background:new    ;"/>
		
			<use xlink:href="#flash0.ai_x2F_Layer_3_x2F__x3C_Path_x3E__x5F_42"  width="11.19" height="6.047" x="-0.02" y="-6.074" transform="matrix(1 0 0 -1 308.75 13.9502)" style="overflow:visible;opacity:0.3516;enable-background:new    ;"/>
		
			<use xlink:href="#flash0.ai_x2F_Layer_3_x2F__x3C_Path_x3E__x5F_41"  width="5.37" height="3.409" x="0" y="-3.404" transform="matrix(1 0 0 -1 322.6504 18.7002)" style="overflow:visible;opacity:0.3516;enable-background:new    ;"/>
		
			<use xlink:href="#flash0.ai_x2F_Layer_3_x2F__x3C_Path_x3E__x5F_40"  width="15.702" height="4.101" x="-0.001" y="-4.117" transform="matrix(1 0 0 -1 59 12.4502)" style="overflow:visible;opacity:0.3516;enable-background:new    ;"/>
		
			<use xlink:href="#flash0.ai_x2F_Layer_3_x2F__x3C_Path_x3E__x5F_39"  width="21.4" height="6.055" y="-6.053" transform="matrix(1 0 0 -1 75.5498 14.6499)" style="overflow:visible;opacity:0.3516;enable-background:new    ;"/>
		
			<use xlink:href="#flash0.ai_x2F_Layer_3_x2F__x3C_Path_x3E__x5F_38"  width="9.752" height="3.572" y="-3.567" transform="matrix(1 0 0 -1 94.5498 12.25)" style="overflow:visible;opacity:0.3516;enable-background:new    ;"/>
		
			<use xlink:href="#flash0.ai_x2F_Layer_3_x2F__x3C_Path_x3E__x5F_37"  width="2.132" height="1.622" x="-0.007" y="-1.609" transform="matrix(1 0 0 -1 89.8999 38.6499)" style="overflow:visible;opacity:0.3516;enable-background:new    ;"/>
		
			<use xlink:href="#flash0.ai_x2F_Layer_3_x2F__x3C_Path_x3E__x5F_36"  width="2.164" height="1.546" x="-0.007" y="-1.583" transform="matrix(1 0 0 -1 102.9502 47.8999)" style="overflow:visible;opacity:0.3516;enable-background:new    ;"/>
		
			<use xlink:href="#flash0.ai_x2F_Layer_3_x2F__x3C_Path_x3E__x5F_35"  width="2.164" height="1.571" x="-0.007" y="-1.561" transform="matrix(1 0 0 -1 181.5 38.7002)" style="overflow:visible;opacity:0.3516;enable-background:new    ;"/>
		
			<use xlink:href="#flash0.ai_x2F_Layer_3_x2F__x3C_Path_x3E__x5F_34"  width="2.164" height="1.571" x="-0.007" y="-1.561" transform="matrix(1 0 0 -1 288.25 28.2002)" style="overflow:visible;opacity:0.3516;enable-background:new    ;"/>
		
			<use xlink:href="#flash0.ai_x2F_Layer_3_x2F__x3C_Path_x3E__x5F_33"  width="2.164" height="1.571" x="-0.007" y="-1.56" transform="matrix(1 0 0 -1 138.2002 33.3999)" style="overflow:visible;opacity:0.3516;enable-background:new    ;"/>
		
			<use xlink:href="#flash0.ai_x2F_Layer_3_x2F__x3C_Path_x3E__x5F_32"  width="2.164" height="1.573" x="-0.007" y="-1.561" transform="matrix(1 0 0 -1 159.75 35.3501)" style="overflow:visible;opacity:0.3516;enable-background:new    ;"/>
		
			<use xlink:href="#flash0.ai_x2F_Layer_3_x2F__x3C_Path_x3E__x5F_31"  width="2.165" height="1.595" x="-0.007" y="-1.583" transform="matrix(1 0 0 -1 316.6504 31)" style="overflow:visible;opacity:0.3516;enable-background:new    ;"/>
		
			<use xlink:href="#flash0.ai_x2F_Layer_3_x2F__x3C_Path_x3E__x5F_30"  width="4" height="2.3" y="-2.3" transform="matrix(1 0 0 -1 46.7998 33.4502)" style="overflow:visible;opacity:0.3516;enable-background:new    ;"/>
		
			<use xlink:href="#flash0.ai_x2F_Layer_3_x2F__x3C_Path_x3E__x5F_29"  width="3.954" height="2.262" x="-0.004" y="-2.256" transform="matrix(1 0 0 -1 286 31.7998)" style="overflow:visible;opacity:0.3516;enable-background:new    ;"/>
		
			<use xlink:href="#flash0.ai_x2F_Layer_3_x2F__x3C_Path_x3E__x5F_28"  width="6.852" height="3.155" y="-3.155" transform="matrix(1 0 0 -1 165.8501 35.1001)" style="overflow:visible;opacity:0.3516;enable-background:new    ;"/>
		
			<use xlink:href="#flash0.ai_x2F_Layer_3_x2F__x3C_Group_x3E__x5F_6"  width="6.66" height="5.33" x="-0.056" y="-5.263" transform="matrix(1 0 0 -1 175.6504 32.0498)" style="overflow:visible;opacity:0.3516;enable-background:new    ;"/>
		
			<use xlink:href="#flash0.ai_x2F_Layer_3_x2F__x3C_Path_x3E__x5F_27"  width="4.058" height="2.483" x="-0.004" y="-2.475" transform="matrix(1 0 0 -1 98.5 39.5498)" style="overflow:visible;opacity:0.3516;enable-background:new    ;"/>
		
			<use xlink:href="#flash0.ai_x2F_Layer_3_x2F__x3C_Path_x3E__x5F_26"  width="5.415" height="2.504" x="-0.003" y="-2.479" transform="matrix(1 0 0 -1 52.8999 30.2002)" style="overflow:visible;opacity:0.3516;enable-background:new    ;"/>
		
			<use xlink:href="#flash0.ai_x2F_Layer_3_x2F__x3C_Path_x3E__x5F_25"  width="2.811" height="1.693" x="-0.006" y="-1.683" transform="matrix(1 0 0 -1 109.6499 37.6001)" style="overflow:visible;opacity:0.3516;enable-background:new    ;"/>
		
			<use xlink:href="#flash0.ai_x2F_Layer_3_x2F__x3C_Path_x3E__x5F_24"  width="2.812" height="1.693" x="-0.007" y="-1.683" transform="matrix(1 0 0 -1 72.4502 36.8501)" style="overflow:visible;opacity:0.3516;enable-background:new    ;"/>
		
			<use xlink:href="#flash0.ai_x2F_Layer_3_x2F__x3C_Path_x3E__x5F_23"  width="5.764" height="2.87" x="-0.003" y="-2.875" transform="matrix(1 0 0 -1 74.2002 31.0498)" style="overflow:visible;opacity:0.3516;enable-background:new    ;"/>
		
			<use xlink:href="#flash0.ai_x2F_Layer_3_x2F__x3C_Path_x3E__x5F_22"  width="5.706" height="2.93" x="-0.003" y="-2.9" transform="matrix(1 0 0 -1 101.75 33.3999)" style="overflow:visible;opacity:0.3516;enable-background:new    ;"/>
		
			<use xlink:href="#flash0.ai_x2F_Layer_3_x2F__x3C_Path_x3E__x5F_21"  width="5.75" height="2.811" y="-2.805" transform="matrix(1 0 0 -1 196.5 37.6499)" style="overflow:visible;opacity:0.3516;enable-background:new    ;"/>
		
			<use xlink:href="#flash0.ai_x2F_Layer_3_x2F__x3C_Path_x3E__x5F_20"  width="5.8" height="2.506" y="-2.5" transform="matrix(1 0 0 -1 305.4004 29.75)" style="overflow:visible;opacity:0.3516;enable-background:new    ;"/>
		
			<use xlink:href="#flash0.ai_x2F_Layer_3_x2F__x3C_Path_x3E__x5F_19"  width="3.958" height="1.767" x="-0.004" y="-1.783" transform="matrix(1 0 0 -1 47.3501 29.5)" style="overflow:visible;opacity:0.3516;enable-background:new    ;"/>
		
			<use xlink:href="#flash0.ai_x2F_Layer_3_x2F__x3C_Path_x3E__x5F_18"  width="3.958" height="1.767" x="-0.004" y="-1.783" transform="matrix(1 0 0 -1 224 34.5498)" style="overflow:visible;opacity:0.3516;enable-background:new    ;"/>
		
			<use xlink:href="#flash0.ai_x2F_Layer_3_x2F__x3C_Path_x3E__x5F_17"  width="3.958" height="1.746" x="-0.004" y="-1.783" transform="matrix(1 0 0 -1 192.9502 34.75)" style="overflow:visible;opacity:0.3516;enable-background:new    ;"/>
		
			<use xlink:href="#flash0.ai_x2F_Layer_3_x2F__x3C_Path_x3E__x5F_16"  width="3.958" height="1.743" x="-0.004" y="-1.733" transform="matrix(1 0 0 -1 244.4502 36.6001)" style="overflow:visible;opacity:0.3516;enable-background:new    ;"/>
		
			<use xlink:href="#flash0.ai_x2F_Layer_3_x2F__x3C_Path_x3E__x5F_15"  width="3.958" height="1.767" x="-0.004" y="-1.783" transform="matrix(1 0 0 -1 310.5498 27.6499)" style="overflow:visible;opacity:0.3516;enable-background:new    ;"/>
		
			<use xlink:href="#flash0.ai_x2F_Layer_3_x2F__x3C_Path_x3E__x5F_14"  width="2.165" height="1.572" x="-0.007" y="-1.562" transform="matrix(1 0 0 -1 102.1499 37.8501)" style="overflow:visible;opacity:0.3516;enable-background:new    ;"/>
		
			<use xlink:href="#flash0.ai_x2F_Layer_3_x2F__x3C_Path_x3E__x5F_13"  width="2.166" height="1.546" x="-0.007" y="-1.583" transform="matrix(1 0 0 -1 204.2998 36.1499)" style="overflow:visible;opacity:0.3516;enable-background:new    ;"/>
		
			<use xlink:href="#flash0.ai_x2F_Layer_3_x2F__x3C_Path_x3E__x5F_12"  width="2.165" height="1.573" x="-0.007" y="-1.562" transform="matrix(1 0 0 -1 249.7998 34.6499)" style="overflow:visible;opacity:0.3516;enable-background:new    ;"/>
		
			<use xlink:href="#flash0.ai_x2F_Layer_3_x2F__x3C_Path_x3E__x5F_11"  width="2.164" height="1.572" x="-0.007" y="-1.562" transform="matrix(1 0 0 -1 302.1504 23.4502)" style="overflow:visible;opacity:0.3516;enable-background:new    ;"/>
		
			<use xlink:href="#flash0.ai_x2F_Layer_3_x2F__x3C_Path_x3E__x5F_10"  width="2.165" height="1.573" x="-0.008" y="-1.561" transform="matrix(1 0 0 -1 56.5498 33.5498)" style="overflow:visible;opacity:0.3516;enable-background:new    ;"/>
		
			<use xlink:href="#flash0.ai_x2F_Layer_3_x2F__x3C_Path_x3E__x5F_9"  width="2.165" height="1.572" x="-0.007" y="-1.562" transform="matrix(1 0 0 -1 112.8999 36.3501)" style="overflow:visible;opacity:0.3516;enable-background:new    ;"/>
		
			<use xlink:href="#flash0.ai_x2F_Layer_3_x2F__x3C_Path_x3E__x5F_8"  width="2.164" height="1.571" x="-0.007" y="-1.561" transform="matrix(1 0 0 -1 126.3501 44.5)" style="overflow:visible;opacity:0.3516;enable-background:new    ;"/>
		
			<use xlink:href="#flash0.ai_x2F_Layer_3_x2F__x3C_Path_x3E__x5F_7"  width="2.165" height="1.572" x="-0.007" y="-1.562" transform="matrix(1 0 0 -1 110.3999 43.8999)" style="overflow:visible;opacity:0.3516;enable-background:new    ;"/>
		
			<use xlink:href="#flash0.ai_x2F_Layer_3_x2F__x3C_Path_x3E__x5F_6"  width="1.671" height="1.323" x="-0.011" y="-1.313" transform="matrix(1 0 0 -1 86.3999 33.8999)" style="overflow:visible;opacity:0.3516;enable-background:new    ;"/>
		
			<use xlink:href="#flash0.ai_x2F_Layer_3_x2F__x3C_Path_x3E__x5F_5"  width="1.708" height="1.326" y="-1.363" transform="matrix(1 0 0 -1 276.5 31.7998)" style="overflow:visible;opacity:0.3516;enable-background:new    ;"/>
		
			<use xlink:href="#flash0.ai_x2F_Layer_3_x2F__x3C_Path_x3E__x5F_4"  width="1.669" height="1.326" x="-0.008" y="-1.313" transform="matrix(1 0 0 -1 333.6504 28.4502)" style="overflow:visible;opacity:0.3516;enable-background:new    ;"/>
		
			<use xlink:href="#flash0.ai_x2F_Layer_3_x2F__x3C_Path_x3E__x5F_3_x5F_0"  width="1.666" height="1.363" x="-0.008" y="-1.35" transform="matrix(1 0 0 -1 185.4004 35.1499)" style="overflow:visible;opacity:0.3516;enable-background:new    ;"/>
		
			<use xlink:href="#flash0.ai_x2F_Layer_3_x2F__x3C_Group_x3E__x5F_5"  width="6.66" height="5.375" x="-0.056" y="-5.263" transform="matrix(1 0 0 -1 113.75 38.1001)" style="overflow:visible;opacity:0.3516;enable-background:new    ;"/>
		
			<use xlink:href="#flash0.ai_x2F_Layer_3_x2F__x3C_Group_x3E__x5F_4"  width="6.623" height="5.365" x="-0.069" y="-5.3" transform="matrix(1 0 0 -1 205.1504 38.5498)" style="overflow:visible;opacity:0.3516;enable-background:new    ;"/>
		
			<use xlink:href="#flash0.ai_x2F_Layer_3_x2F__x3C_Group_x3E__x5F_3"  width="9.635" height="7.686" x="-0.083" y="-7.574" transform="matrix(1 0 0 -1 60.0498 28.3999)" style="overflow:visible;opacity:0.3516;enable-background:new    ;"/>
		
			<use xlink:href="#flash0.ai_x2F_Layer_3_x2F__x3C_Group_x3E__x5F_2"  width="9.565" height="7.723" x="-0.012" y="-7.565" transform="matrix(1 0 0 -1 125.5 34.4502)" style="overflow:visible;opacity:0.3516;enable-background:new    ;"/>
		
			<use xlink:href="#flash0.ai_x2F_Layer_3_x2F__x3C_Group_x3E__x5F_1_x5F_0"  width="9.616" height="7.681" x="-0.113" y="-7.524" transform="matrix(1 0 0 -1 292.4004 26.0498)" style="overflow:visible;opacity:0.3516;enable-background:new    ;"/>
		
			<use xlink:href="#flash0.ai_x2F_Layer_3_x2F__x3C_Path_x3E__x5F_2_x5F_0"  width="4.417" height="2.337" x="-0.004" y="-2.329" transform="matrix(1 0 0 -1 30 25.6499)" style="overflow:visible;opacity:0.3516;enable-background:new    ;"/>
		
			<use xlink:href="#flash0.ai_x2F_Layer_3_x2F__x3C_Path_x3E__x5F_1_x5F_0"  width="2.157" height="1.567" y="-1.558" transform="matrix(1 0 0 -1 81.5 34.8501)" style="overflow:visible;opacity:0.3516;enable-background:new    ;"/>
		
			<use xlink:href="#flash0.ai_x2F_Layer_3_x2F__x3C_Path_x3E__x5F_52"  width="2.259" height="2.041" x="-0.045" y="-2.041" transform="matrix(1 0 0 -1 14.1499 22.3999)" style="overflow:visible;opacity:0.3516;enable-background:new    ;"/>
		
			<use xlink:href="#flash0.ai_x2F_Layer_3_x2F__x3C_Group_x3E_"  width="7" height="6.681" y="-6.655" transform="matrix(1 0 0 -1 33.6499 27.7998)" style="overflow:visible;opacity:0.3516;enable-background:new    ;"/>
	</g>
</g>
</svg>
