<?xml version="1.0" encoding="iso-8859-1"?>
<!-- Generator: Adobe Illustrator 15.1.0, SVG Export Plug-In . SVG Version: 6.00 Build 0)  -->
<!DOCTYPE svg PUBLIC "-//W3C//DTD SVG 1.1//EN" "http://www.w3.org/Graphics/SVG/1.1/DTD/svg11.dtd">
<svg version="1.1" id="Layer_3" xmlns="http://www.w3.org/2000/svg" xmlns:xlink="http://www.w3.org/1999/xlink" x="0px" y="0px"
	 width="55.85px" height="53.5px" viewBox="0 0 55.85 53.5" style="enable-background:new 0 0 55.85 53.5;" xml:space="preserve">
<g>
	<g>
		<g>
			
				<radialGradient id="SVGID_1_" cx="46.7002" cy="-36.5" r="77.2375" gradientTransform="matrix(1 0 0 -1 0 -73)" gradientUnits="userSpaceOnUse">
				<stop  offset="0" style="stop-color:#DE7500"/>
				<stop  offset="1" style="stop-color:#1F1A00"/>
			</radialGradient>
			<path style="fill-rule:evenodd;clip-rule:evenodd;fill:url(#SVGID_1_);" d="M34.05,9.9h3.05l0.4,2.65
				c0.1,2.434-0.233,5.367-1,8.8c-0.8,3.5-2.434,6.633-4.9,9.4c-1.466,1.634-3.85,3.917-7.149,6.85
				c-2.034,2.034-3.417,5.25-4.15,9.65c-0.367,2.233-0.533,4.25-0.5,6.05h-5.6c0.133-0.934,0.383-2.083,0.75-3.45
				c0.767-2.733,1.716-5.199,2.85-7.399c1.5-2.834,3.617-5.566,6.35-8.2c3.367-3.267,5.667-5.767,6.9-7.5
				c2.033-2.733,3.134-6.367,3.3-10.9C34.45,13.583,34.35,11.6,34.05,9.9z"/>
			
				<radialGradient id="SVGID_2_" cx="35.8496" cy="10.2002" r="59.425" gradientTransform="matrix(1 0 0 -1.4745 0 25.2409)" gradientUnits="userSpaceOnUse">
				<stop  offset="0" style="stop-color:#EADFBF"/>
				<stop  offset="1" style="stop-color:#CDB067"/>
			</radialGradient>
			<path style="fill-rule:evenodd;clip-rule:evenodd;fill:url(#SVGID_2_);" d="M52.45,9.6c0.833,0.433,1.366,0.733,1.6,0.9
				c0.634,0.4,1.084,0.85,1.351,1.35c0.8,1.3,0.517,2.233-0.851,2.8c-1.8,0.4-2.95,0.684-3.45,0.85s-0.85,0.717-1.05,1.65
				c-0.133,0.7-0.8,0.934-2,0.7c-0.5-0.1-1.55-0.5-3.149-1.2c-1.301-0.566-2.4-0.816-3.301-0.75c-0.933,0.067-2.116,0.6-3.55,1.6
				c-1.399,1.033-2.533,1.567-3.399,1.6c-0.5,0.033-1.184-0.184-2.051-0.65c-0.866-0.5-1.55-0.75-2.05-0.75
				c-0.233,0-0.55,0.1-0.95,0.3c-0.399,0.2-0.683,0.283-0.85,0.25c-0.566-0.033-0.934-0.233-1.1-0.6L27,16.25
				c-0.6-0.9-1.683-1.167-3.25-0.8c-1.667,0.367-2.8,0.283-3.4-0.25c-0.967-0.8-0.85-1.75,0.35-2.85c0.267-0.233,1.25-0.9,2.95-2
				c0.867-0.567,1.367-1.434,1.5-2.6c0.133-1.3,0.417-2.2,0.85-2.7c0.467-0.533,1.2-0.816,2.2-0.85c0.566-0.034,1.399-0.067,2.5-0.1
				c0.866-0.167,1.633-0.55,2.3-1.15c0.3-0.3,0.85-0.967,1.65-2c0.933-1.2,2.433-1.233,4.5-0.1c2.166,1.167,3.5,1.5,4,1
				c1.6-1.567,3.267-0.983,5,1.75C50.55,7.333,51.983,9.333,52.45,9.6z"/>
			<path style="fill-rule:evenodd;clip-rule:evenodd;fill:#6EB899;" d="M42.3,6.1c0.134,0.167,0.233,0.333,0.3,0.5
				c0.067,0.066,0.25,0.05,0.551-0.05c0.767-0.233,1.35-0.333,1.75-0.3c0.666,0,1.133,0.333,1.399,1c0.101,0.233,0.2,0.617,0.3,1.15
				c0.101,0.533,0.217,0.917,0.351,1.15c0.166,0.267,0.649,0.767,1.45,1.5c0.633,0.767,0.75,1.4,0.35,1.9
				c-0.434,0.533-1.233,0.533-2.4,0c-1.533-0.733-2.383-1.1-2.55-1.1c-0.467,0-1.1,0.35-1.899,1.05c-0.767,0.633-1.4,0.9-1.9,0.8
				c-0.134-0.034-0.384-0.133-0.75-0.3c-0.333-0.167-0.6-0.233-0.8-0.2c-0.3,0.066-0.634,0.283-1,0.65
				c-0.533,0.566-0.834,0.867-0.9,0.9c-0.833,0.6-1.717,0.517-2.649-0.25c-1.367-1.133-2.184-1.733-2.45-1.8
				c-0.934,0.133-1.717,0.233-2.351,0.3c-1.233,0.133-1.833-0.117-1.8-0.75c0.033-0.3,0.217-0.55,0.55-0.75
				c0.167-0.133,0.417-0.3,0.75-0.5c0.267-0.2,0.483-0.483,0.65-0.85l0.25-0.6c0.3-0.9,1.217-1.333,2.75-1.3
				c1.467,0.033,2.333-0.483,2.6-1.55C34.917,6.367,34.967,6.133,35,6c0.066-0.2,0.217-0.367,0.45-0.5
				c0.467-0.267,0.983-0.217,1.55,0.15c0.434,0.267,1,0.684,1.7,1.25c0.6,0.3,1.166,0.133,1.7-0.5C41.167,5.567,41.8,5.467,42.3,6.1
				z"/>
		</g>
		<g>
			
				<radialGradient id="SVGID_3_" cx="4" cy="-8.2002" r="36.4375" gradientTransform="matrix(-1 0 0 -1.281 8 -18.7043)" gradientUnits="userSpaceOnUse">
				<stop  offset="0" style="stop-color:#DE7500"/>
				<stop  offset="1" style="stop-color:#1F1A00"/>
			</radialGradient>
			<path style="fill-rule:evenodd;clip-rule:evenodd;fill:url(#SVGID_3_);" d="M9.95,19.85l-0.15,3.6c0.1,2.7,0.617,4.899,1.55,6.6
				c0.667,1.134,1.783,2.467,3.35,4c1.3,1.3,2.3,2.783,3,4.45c0.867,2.134,1.417,4.65,1.65,7.55H16.7c0-1.1-0.083-2.316-0.25-3.649
				c-0.367-2.667-1.017-4.601-1.95-5.801c-1.567-1.8-2.7-3.183-3.4-4.149c-1.167-1.667-1.934-3.566-2.3-5.7
				c-0.367-2.067-0.517-3.833-0.45-5.3l0.15-1.6H9.95z"/>
			
				<radialGradient id="SVGID_4_" cx="4.1001" cy="15.1001" r="15.65" gradientTransform="matrix(-1 0 0 -1.4665 8.2002 37.2437)" gradientUnits="userSpaceOnUse">
				<stop  offset="0" style="stop-color:#EADFBF"/>
				<stop  offset="1" style="stop-color:#CDB067"/>
			</radialGradient>
			<path style="fill-rule:evenodd;clip-rule:evenodd;fill:url(#SVGID_4_);" d="M7.1,18.35c0.267,0.1,0.5,0.15,0.7,0.15
				c0.467,0.067,1.017-0.067,1.65-0.4c0.667-0.333,1.167-0.517,1.5-0.55c0.7-0.033,1.3,0.45,1.8,1.45c0.6,1.2,1.083,1.917,1.45,2.15
				l1.75,0.7c0.566,0.233,1,0.633,1.3,1.2c0.033,0.034,0.05,0.133,0.05,0.3c0.034,0.167,0.083,0.3,0.15,0.4
				c0.167,0.2,0.433,0.467,0.8,0.8c0.167,0.267-0.033,0.534-0.6,0.8c-0.2,0.1-0.533,0.117-1,0.05c-0.5-0.066-0.85-0.066-1.05,0
				c-0.3,0.067-0.717,0.267-1.25,0.6s-0.967,0.533-1.3,0.6c-0.4,0.1-0.95,0-1.65-0.3c-0.667-0.3-1.2-0.4-1.6-0.3
				c-0.267,0.067-0.833,0.433-1.7,1.1c-0.667,0.5-1.333,0.65-2,0.45c-0.434-0.1-0.967-0.467-1.6-1.1c-0.633-0.633-1.2-1-1.7-1.1
				c-0.7-0.067-1.233-0.15-1.6-0.25c-0.667-0.167-1.05-0.467-1.15-0.9c-0.167-0.667,0.184-1.284,1.05-1.85
				c1.033-0.533,1.683-0.934,1.95-1.2c0.267-0.233,0.55-0.683,0.85-1.35c0.267-0.633,0.55-1.066,0.85-1.3
				c0.333-0.267,0.733-0.4,1.2-0.4C6.083,18.1,6.467,18.183,7.1,18.35z"/>
			<path style="fill-rule:evenodd;clip-rule:evenodd;fill:#489EB3;" d="M9.2,20.55c0.333,0.133,0.667,0.184,1,0.15
				c0.233-0.034,0.55-0.133,0.95-0.3c0.333-0.1,0.65-0.033,0.95,0.2c0.2,0.133,0.35,0.417,0.45,0.85c0.133,0.4,0.284,0.667,0.45,0.8
				c0.133,0.133,0.317,0.2,0.55,0.2c0.133,0.033,0.35,0.066,0.65,0.1c0.233,0.034,0.417,0.117,0.55,0.25
				c0.2,0.133,0.333,0.317,0.4,0.55c0.067,0.267,0.033,0.5-0.1,0.7c-0.167,0.233-0.35,0.317-0.55,0.25c-0.3-0.066-0.467-0.1-0.5-0.1
				c-0.233,0.033-0.667,0.167-1.3,0.4c-0.6,0.2-1.05,0.283-1.35,0.25c-0.667-0.167-1.117-0.267-1.35-0.3
				C9.567,24.483,9.117,24.633,8.65,25c-0.733,0.533-1.133,0.817-1.2,0.85c-0.467,0.2-0.934,0.167-1.4-0.1
				C5.783,25.617,5.467,25.3,5.1,24.8c-0.333-0.4-0.717-0.617-1.15-0.65c-0.567,0.067-0.983,0.1-1.25,0.1
				c-0.434-0.033-0.617-0.267-0.55-0.7c0.067-0.466,0.517-0.8,1.35-1c0.967-0.233,1.533-0.466,1.7-0.7
				c0.5-0.867,0.883-1.417,1.15-1.65c0.4-0.4,1.033-0.417,1.9-0.05C8.517,20.25,8.833,20.383,9.2,20.55z"/>
		</g>
	</g>
	
		<radialGradient id="SVGID_5_" cx="29.7998" cy="19.4502" r="34.2153" gradientTransform="matrix(-0.9984 -0.0557 0.0474 -0.8494 58.6321 37.6306)" gradientUnits="userSpaceOnUse">
		<stop  offset="0" style="stop-color:#DE7500"/>
		<stop  offset="1" style="stop-color:#1F1A00"/>
	</radialGradient>
	<path style="fill-rule:evenodd;clip-rule:evenodd;fill:url(#SVGID_5_);" d="M30.8,43.95c0.5-1.967,1.184-3.667,2.05-5.101L34,37.3
		l-0.6,2.25c-0.4,1.767-0.65,3.4-0.75,4.9c-0.067,1.5,0.233,3.467,0.899,5.899c0.334,1.2,0.684,2.25,1.05,3.15h-4.5
		C29.733,50.3,29.967,47.116,30.8,43.95z"/>
</g>
</svg>
