<?xml version="1.0" encoding="iso-8859-1"?>
<!-- Generator: Adobe Illustrator 15.1.0, SVG Export Plug-In . SVG Version: 6.00 Build 0)  -->
<!DOCTYPE svg PUBLIC "-//W3C//DTD SVG 1.1//EN" "http://www.w3.org/Graphics/SVG/1.1/DTD/svg11.dtd">
<svg version="1.1" id="Layer_3" xmlns="http://www.w3.org/2000/svg" xmlns:xlink="http://www.w3.org/1999/xlink" x="0px" y="0px"
	 width="393.15px" height="111.15px" viewBox="0 0 393.15 111.15" style="enable-background:new 0 0 393.15 111.15;"
	 xml:space="preserve">
<linearGradient id="SVGID_1_" gradientUnits="userSpaceOnUse" x1="-3.5322" y1="-98.3262" x2="42.7678" y2="-98.3262" gradientTransform="matrix(-0.0032 2 -2 0.0034 0.0506 -3.918149e-004)">
	<stop  offset="0" style="stop-color:#4AC48F"/>
	<stop  offset="1" style="stop-color:#217387"/>
</linearGradient>
<path style="fill-rule:evenodd;clip-rule:evenodd;fill:url(#SVGID_1_);" d="M381.149,93.2c-16.533,7.333-46,12.267-88.399,14.8
	c-29.8,1.8-59.533,2.833-89.2,3.1c-46.733,0.334-87.967-1.333-123.7-5c-18.934-2-37.2-5.899-54.8-11.699
	C3.316,87.2-4.283,80.267,2.25,73.6C48.983,25.467,90.184,0.934,125.85,0c9.733-0.267,19.134,2.066,28.2,7
	c0.733,0.4,8.333,5.533,22.8,15.4c9.334,6.333,18.2,10.466,26.601,12.399c11.533,2.667,24.733,2.066,39.6-1.8
	c14.6-3.8,32.634-0.333,54.1,10.4c5.867,2.866,14.7,7.399,26.5,13.6c10.4,5,19.667,8.333,27.801,10c16.399,3.333,28.267,7,35.6,11
	c3.667,2,5.699,3.667,6.1,5C393.417,86.134,389.416,89.533,381.149,93.2z"/>
</svg>
