<?xml version="1.0" encoding="iso-8859-1"?>
<!-- Generator: Adobe Illustrator 15.1.0, SVG Export Plug-In . SVG Version: 6.00 Build 0)  -->
<!DOCTYPE svg PUBLIC "-//W3C//DTD SVG 1.1//EN" "http://www.w3.org/Graphics/SVG/1.1/DTD/svg11.dtd">
<svg version="1.1" id="Layer_3" xmlns="http://www.w3.org/2000/svg" xmlns:xlink="http://www.w3.org/1999/xlink" x="0px" y="0px"
	 width="589px" height="115.9px" viewBox="0 0 589 115.9" style="enable-background:new 0 0 589 115.9;" xml:space="preserve">
<g>
	
		<linearGradient id="SVGID_1_" gradientUnits="userSpaceOnUse" x1="-15.0781" y1="-147.6621" x2="92.9027" y2="-147.6621" gradientTransform="matrix(-0.0208 1.9999 -2.0004 0.03 4.527979e-004 5.749613e-005)">
		<stop  offset="0" style="stop-color:#4AC48F"/>
		<stop  offset="1" style="stop-color:#217387"/>
	</linearGradient>
	<path style="fill-rule:evenodd;clip-rule:evenodd;fill:url(#SVGID_1_);" d="M368.1,113c-34.6,1.934-59.933,2.9-76,2.9
		c-30.466,0-53.433-0.334-68.899-1c-23.8-1-52.566-3.301-86.3-6.9c-51.667-5.467-81.801-8.9-90.4-10.3
		C10.366,91.967-4.7,85.167,1.3,77.3c32.667-23.2,66.4-41.533,101.2-55C140.233,7.767,176.066,0.333,210,0
		c15.134-0.134,35.767,2.4,61.9,7.6c17.066,3.334,45.033,9.733,83.899,19.2C450,49.733,525.134,65.566,581.2,74.3
		c24.733,11.134-9.533,21.3-102.8,30.5C445.333,108.066,408.566,110.8,368.1,113z"/>
	
		<linearGradient id="SVGID_2_" gradientUnits="userSpaceOnUse" x1="13.9932" y1="-144.9541" x2="79.7469" y2="-144.9541" gradientTransform="matrix(-0.0213 1.9999 -2.0004 0.0306 -5.589537e-004 -4.007965e-004)">
		<stop  offset="0" style="stop-color:#4AC48F"/>
		<stop  offset="1" style="stop-color:#217387"/>
	</linearGradient>
	<path style="fill-rule:evenodd;clip-rule:evenodd;fill:url(#SVGID_2_);" d="M458.7,108.5c-62.267,4.667-121.566,6.4-177.9,5.2
		c-31.8-0.4-54.8-0.733-69-1c-24.066-0.467-46.8-1.634-68.2-3.5c-37.133-3.334-62.633-6.066-76.5-8.2
		c-27.133-4.2-38-8.967-32.6-14.3C63.967,65.767,95.066,50.066,127.8,39.6c29.066-9.267,58.7-14.199,88.9-14.8
		c15.267-0.333,33.166,1.3,53.7,4.9c14.133,2.467,36.033,7.233,65.699,14.3c78.334,18.467,144.667,31.934,199,40.4
		C560.767,94.733,535.3,102.767,458.7,108.5z"/>
</g>
</svg>
