<?xml version="1.0" encoding="iso-8859-1"?>
<!-- Generator: Adobe Illustrator 15.1.0, SVG Export Plug-In . SVG Version: 6.00 Build 0)  -->
<!DOCTYPE svg PUBLIC "-//W3C//DTD SVG 1.1//EN" "http://www.w3.org/Graphics/SVG/1.1/DTD/svg11.dtd">
<svg version="1.1" id="Layer_1" xmlns="http://www.w3.org/2000/svg" xmlns:xlink="http://www.w3.org/1999/xlink" x="0px" y="0px"
	 width="166.75px" height="218.95px" viewBox="0 0 166.75 218.95" style="enable-background:new 0 0 166.75 218.95;"
	 xml:space="preserve">
<g>
	<g>
		<path style="fill-rule:evenodd;clip-rule:evenodd;fill:#706359;" d="M140.025,0c2.722,0.367,5.43,0.533,8.125,0.5
			c1.199,0.433,1.416,2.717,0.649,6.85c-1.267,6.733-2.017,14.767-2.25,24.1c-0.033,0.966,0.033,2.65,0.2,5.05
			c0.134,2.167,0.15,3.833,0.05,5c-0.066,1.2-0.416,3.117-1.05,5.75c-0.6,2.433-0.917,4.35-0.95,5.75
			c-0.033,0.8,0.117,1.833,0.45,3.1c0.333,1.4,0.517,2.417,0.55,3.05c0.066,1.967-0.267,4.95-1,8.95c-0.7,3.833-0.967,6.833-0.8,9
			c0.566,7.367,0.05,14.65-1.55,21.85c-0.767,3.333-1.15,6.4-1.15,9.2c0.233-0.3,0.634-0.8,1.2-1.5c0.434-0.633,0.7-1.2,0.8-1.7
			c0.4,0.8,0.3,2.083-0.3,3.85c-0.333,0.967-0.85,2.434-1.55,4.4c-0.8,3.399-1.184,7.533-1.15,12.399c0,2.334,0.167,6.5,0.5,12.5
			c0.434,8.667-0.133,15.317-1.7,19.95c-0.267,0.8-0.449,1.601-0.55,2.4c-0.033,0.533-0.066,1.383-0.1,2.55
			c-0.066,0.967-0.283,1.767-0.65,2.4c-0.233,0.366-0.717,1-1.45,1.899c-1.066,1.5-1.916,3.884-2.55,7.15
			c-0.733,3.866-1.35,6.383-1.85,7.55c-0.233,0.566-1.267,2.566-3.101,6c-1.333,2.5-2.183,4.533-2.55,6.1
			c0.867-0.033,1.65-0.366,2.351-1c0.626-0.54,1.001-1.165,1.125-1.875c-0.168,1.237-0.676,2.296-1.525,3.176
			c-0.566,0.566-1.6,1.383-3.1,2.449c-0.867,0.667-1.767,1.733-2.7,3.2c-1.467,2.3-2.217,3.483-2.25,3.55
			c-2.134,2.867-3.983,5.184-5.55,6.95c-5.367,5.934-11.034,8.717-17,8.351c-9.267-0.567-19.2-8.75-29.8-24.551
			c-2.167-3.199-4.467-7.983-6.9-14.35c-1.633-4.333-2.55-6.75-2.75-7.25c-0.633-1.2-1.133-2.15-1.5-2.85
			c-0.683-1.236-1.05-2.186-1.1-2.851c0.057,1.044-0.209,1.894-0.8,2.55c0.4-2.267-0.333-4.949-2.2-8.05
			c-2.333-3.366-3.917-5.8-4.75-7.3c-0.2-0.333-0.617-1.366-1.25-3.1c-0.533-1.334-1.067-2.284-1.6-2.851
			c0.067,1.7,0.317,2.967,0.75,3.8c-1.5-1.366-2.633-3.699-3.4-7c-0.667-3.733-1.217-6.35-1.65-7.85c-1.467-4.967-3.167-12-5.1-21.1
			c-3.3-15.4-5.117-23.851-5.45-25.351c-2.3-9.833-4.7-18.1-7.2-24.8c-1.5-4.067-3.767-9.467-6.8-16.2
			C12.65,42,10.3,36.633,9.1,33.7c-2.567-6.434-4.417-12.05-5.55-16.85c-0.433-2.9-0.867-5.467-1.3-7.7
			C1.454,4.807,0.704,2.523,0,2.3c1.271,0.367,2.554,0.5,3.85,0.4c0.7-0.034,1.583-0.117,2.65-0.25
			C7.967,2.383,9.117,3.733,9.95,6.5c0.7,2.3,1.45,5.567,2.25,9.8c0.833,4.567,1.517,7.833,2.05,9.8
			c0.767,2.833,2.133,6.55,4.1,11.15c2.4,5.6,3.917,9.283,4.55,11.05c0.767,2.133,2.15,4.934,4.15,8.4
			c2.133,3.633,3.55,6.35,4.25,8.15c-0.233-1.533-1.25-9.967-3.05-25.3c-1.2-10.2-2.633-18.566-4.3-25.1
			c-0.267-1.1-0.483-3.117-0.65-6.05c-0.133-2.566-0.466-4.5-1-5.8c0.967-0.1,2.4,0.233,4.3,1c-0.133,4.566,0.467,10.4,1.8,17.5
			c1.667,8.667,2.617,14.45,2.85,17.35c0.033,0.233,0.217,3.216,0.55,8.95c0.2,3.633,0.467,6.6,0.8,8.9
			c1.267,8.4,2.033,13.883,2.3,16.45c0.233,2.1,0.817,4.883,1.75,8.35c1.1,3.967,1.783,6.7,2.05,8.2c0.1,0.633,0.767,4.583,2,11.85
			c0.8,4.733,1.517,8.65,2.15,11.75c0.6,3.066,0.917,4.666,0.95,4.8c0.4,1.8,0.883,3.35,1.45,4.649c1.2,2.733,1.95,4.551,2.25,5.45
			c0.833,2.3,0.917,3.4,0.25,3.3c-0.3-0.1-0.5-0.133-0.6-0.1c0.733,3.833,1.65,7.2,2.75,10.1c1.267,3.367,3.067,6.934,5.4,10.7
			c2.133,3.467,4.55,8.384,7.25,14.75c0.534,1.267,1.383,3.5,2.55,6.7c1.167,2.8,2.4,4.8,3.7,6c0.733,0.667,1.45,0.934,2.15,0.8
			c0.733-0.133,0.633-0.6-0.3-1.399c0.6,0.433,0.967,1.017,1.1,1.75c0.1,0.666-0.017,1.333-0.35,2c-0.033,0-0.333-0.017-0.9-0.051
			c-0.302,0-0.577-0.1-0.825-0.3c1.326,1.133,3.084,4.282,5.275,9.45c1.933,4.634,4.15,7.35,6.65,8.15l-0.95,0.5
			c-0.066,0.333-0.066,0.483,0,0.449c0.3-0.233,1.45,0.884,3.45,3.351c1.034,1.233,2.184,2.649,3.45,4.25c3,2.934,6,4.533,9,4.8
			c2.233,0.233,4.75-0.3,7.55-1.6c3.31-1.508,4.526-3.399,3.65-5.676c0.497,1.21,0.697,2.218,0.6,3.025
			c0.067-0.333,0.684-1.1,1.851-2.3c1.366-1.4,2.116-2.2,2.25-2.4c1.5-2.1,2.866-4.233,4.1-6.399c0.9-1.634,1.934-3.65,3.101-6.051
			c1.3-2.733,2.283-4.783,2.949-6.149c1-2.033,2.367-5.367,4.101-10c1.666-4.4,3.083-7.717,4.25-9.95
			c0.934-1.767,1.684-3.833,2.25-6.2c0.533-2.267,0.833-4.467,0.899-6.6c0.067-2-0.05-6.117-0.35-12.351
			c-0.066-0.933-0.616-3.116-1.65-6.55c-0.833-2.8-1.05-4.983-0.649-6.55c0.066,1.2,0.316,2.283,0.75,3.25
			c0.533,1.333,1.267,1.983,2.2,1.95c-0.233-3.134-0.384-5.434-0.45-6.9c-0.134-2.467-0.167-4.517-0.101-6.149
			c0.134-2.733,0.834-8.051,2.101-15.95c0.934-5.833,1.467-9.383,1.6-10.65c0.533-4.066,0.75-7.633,0.65-10.7
			c-0.033-0.8,0.116-2.017,0.45-3.65c0.366-1.6,0.517-2.817,0.449-3.65c-0.1-0.833-0.166-1.433-0.199-1.8
			c-0.067-0.6,0.017-1.183,0.25-1.75c0.6-1.433,0.767-2.533,0.5-3.3c-0.334-0.867-1.25-1.45-2.75-1.75
			c-0.034,0-0.233,0.05-0.601,0.15c-0.2,0.033-0.3-0.067-0.3-0.3c0.033-0.4,0.467-0.667,1.3-0.8c0.467-0.067,1.05,0,1.75,0.2
			c0.367,0.1,0.917,0.283,1.65,0.55c0.066-0.8,0.033-1.983-0.101-3.55c-0.1-1.633-0.133-2.833-0.1-3.6
			c0.167-3.3,0.283-5.783,0.35-7.45c0.733-10.033,1.217-19.1,1.45-27.2C142.799,8.375,142.04,0.309,140.025,0z"/>
	</g>
	<g>
		
			<radialGradient id="SVGID_1_" cx="161.5498" cy="176.3496" r="28.3045" gradientTransform="matrix(0.8188 -0.5741 0.5317 0.7583 -64.4887 135.377)" gradientUnits="userSpaceOnUse">
			<stop  offset="0" style="stop-color:#88CAB2"/>
			<stop  offset="0.2235" style="stop-color:#7EC3AD"/>
			<stop  offset="0.6" style="stop-color:#64AFA0"/>
			<stop  offset="1" style="stop-color:#42958F"/>
		</radialGradient>
		<path style="fill-rule:evenodd;clip-rule:evenodd;fill:url(#SVGID_1_);" d="M164.55,167.6c0.934,1.267,1.667,2.351,2.2,3.25
			c-1.733-1.733-3.85-2.616-6.35-2.649c-1.567,0-4.483,0.467-8.75,1.399c-3.534,0.767-6.65,0.4-9.351-1.1
			c-2.066-1.2-3.666-2.884-4.8-5.05c0.066-0.733,0.35-1.533,0.85-2.4c1-1.767,2.617-3.05,4.851-3.85c3.1-1.066,6.033-1.117,8.8-0.15
			c2.1,0.7,4.434,2.184,7,4.45C160.866,163.1,162.717,165.134,164.55,167.6z"/>
		
			<radialGradient id="SVGID_2_" cx="154.9502" cy="169.2998" r="22.2739" gradientTransform="matrix(0.8188 -0.574 0.5315 0.7581 -61.9099 129.8957)" gradientUnits="userSpaceOnUse">
			<stop  offset="0" style="stop-color:#88CAB2"/>
			<stop  offset="0.2784" style="stop-color:#80C0AD"/>
			<stop  offset="0.7412" style="stop-color:#6AA6A1"/>
			<stop  offset="1" style="stop-color:#5B9599"/>
		</radialGradient>
		<path style="fill-rule:evenodd;clip-rule:evenodd;fill:url(#SVGID_2_);" d="M144.95,158.15c1.233-0.233,2.483-0.284,3.75-0.15
			c1.467,0.167,3.366,0.95,5.7,2.35c1.933,1.134,3.333,2.15,4.199,3.051c0.9,0.899,2.684,2.416,5.351,4.55
			c-1.767-0.767-3.483-1.084-5.15-0.95c-0.434,0.033-1.967,0.333-4.6,0.9c-2.3,0.533-4.25,0.783-5.851,0.75
			c-1.3,0-2.649-0.284-4.05-0.851c-1.533-0.6-2.649-1.383-3.35-2.35c-0.2-0.3-0.4-0.667-0.601-1.101
			c1.2,0.634,2.634,1.117,4.301,1.45c1.033,0.2,2.866,0.267,5.5,0.2c0.966-0.066,1.666-0.15,2.1-0.25
			c-2.533-0.333-4.384-0.634-5.55-0.9c-2.101-0.466-3.8-1.116-5.101-1.949c0.389-0.065,0.896-0.057,1.525,0.024
			c-0.53-0.17-1.006-0.445-1.425-0.825c-0.8-0.699-0.851-1.449-0.15-2.25C142.316,159.017,143.45,158.45,144.95,158.15z"/>
	</g>
	<g>
		
			<radialGradient id="SVGID_3_" cx="131.8496" cy="109.25" r="19.6375" gradientTransform="matrix(-0.8625 -0.506 0.45 -0.767 196.4049 259.77)" gradientUnits="userSpaceOnUse">
			<stop  offset="0" style="stop-color:#88CAB2"/>
			<stop  offset="0.2784" style="stop-color:#80C0AD"/>
			<stop  offset="0.7412" style="stop-color:#6AA6A1"/>
			<stop  offset="1" style="stop-color:#5B9599"/>
		</radialGradient>
		<path style="fill-rule:evenodd;clip-rule:evenodd;fill:url(#SVGID_3_);" d="M130.6,117.2c1.5,1.967,2.184,3.983,2.051,6.05
			c-0.101,1.6-0.667,3.033-1.7,4.3c-0.467,0.167-1.05,0.217-1.75,0.15c-1.4-0.134-2.667-0.8-3.8-2
			c-1.567-1.634-2.467-3.417-2.7-5.351c-0.167-1.5,0.05-3.35,0.649-5.55c0.467-1.566,1.2-3.25,2.2-5.05
			c0.5-0.9,0.95-1.65,1.351-2.25c-0.567,1.533-0.483,3.083,0.25,4.65C127.583,113.116,128.733,114.8,130.6,117.2z"/>
		
			<radialGradient id="SVGID_4_" cx="129.4004" cy="115.25" r="15.4527" gradientTransform="matrix(-0.8624 -0.5063 0.4507 -0.7676 189.0527 269.2309)" gradientUnits="userSpaceOnUse">
			<stop  offset="0" style="stop-color:#88CAB2"/>
			<stop  offset="0.2784" style="stop-color:#80C0AD"/>
			<stop  offset="0.7412" style="stop-color:#6AA6A1"/>
			<stop  offset="1" style="stop-color:#5B9599"/>
		</radialGradient>
		<path style="fill-rule:evenodd;clip-rule:evenodd;fill:url(#SVGID_4_);" d="M125.9,110l0.149,1.2
			c0.167,0.899,0.434,1.649,0.8,2.25c0.167,0.267,0.817,1.133,1.95,2.6c1,1.3,1.733,2.434,2.2,3.4c0.366,0.8,0.583,1.717,0.65,2.75
			c0.066,1.1-0.101,2-0.5,2.7c-0.101,0.267-0.267,0.483-0.5,0.649c0.033-0.899-0.084-1.916-0.351-3.05
			c-0.166-0.634-0.666-1.783-1.5-3.45c-0.399-0.666-0.666-1.066-0.8-1.2c0.566,1.733,0.934,2.95,1.1,3.65
			c0.334,1.434,0.434,2.65,0.301,3.65c-0.134-0.2-0.25-0.467-0.351-0.801c-0.133-0.433-0.233-0.716-0.3-0.85
			c0.267,0.6,0.316,1.217,0.15,1.85c-0.233,0.7-0.684,0.934-1.351,0.7c-1.434-0.467-2.533-1.783-3.3-3.95
			c-0.3-0.966-0.384-2.35-0.25-4.149c0.134-1.5,0.35-2.634,0.65-3.4L125.9,110z"/>
	</g>
	<g>
		
			<radialGradient id="SVGID_5_" cx="167.7109" cy="62.769" r="16.4689" gradientTransform="matrix(0.9807 0.1955 0.1627 -0.8159 -22.4838 112.7699)" gradientUnits="userSpaceOnUse">
			<stop  offset="0" style="stop-color:#88CAB2"/>
			<stop  offset="0.2784" style="stop-color:#80C0AD"/>
			<stop  offset="0.7412" style="stop-color:#6AA6A1"/>
			<stop  offset="1" style="stop-color:#5B9599"/>
		</radialGradient>
		<path style="fill-rule:evenodd;clip-rule:evenodd;fill:url(#SVGID_5_);" d="M156.3,95.95c-0.267,2.233-0.866,4.267-1.8,6.1
			c-0.8,1.6-1.65,2.8-2.55,3.6c-1.233,1-2.8,1.55-4.7,1.65c-1.4,0.1-2.583-0.183-3.55-0.85l-1-1c0.066-1.3,0.5-2.45,1.3-3.45
			c1.033-1.267,2.583-2.067,4.65-2.4c2.433-0.4,4.083-0.767,4.949-1.1C154.9,97.967,155.8,97.117,156.3,95.95z"/>
		
			<radialGradient id="SVGID_6_" cx="166.9434" cy="67.7202" r="12.9633" gradientTransform="matrix(0.9806 0.1958 0.1629 -0.8158 -24.2926 121.6536)" gradientUnits="userSpaceOnUse">
			<stop  offset="0" style="stop-color:#88CAB2"/>
			<stop  offset="0.2784" style="stop-color:#80C0AD"/>
			<stop  offset="0.7412" style="stop-color:#6AA6A1"/>
			<stop  offset="1" style="stop-color:#5B9599"/>
		</radialGradient>
		<path style="fill-rule:evenodd;clip-rule:evenodd;fill:url(#SVGID_6_);" d="M152.35,103.55c-0.866,1.133-1.666,1.883-2.399,2.25
			c-1.667,0.833-3.084,1.017-4.25,0.55c-0.566-0.233-0.717-0.6-0.45-1.1c0.207-0.414,0.516-0.722,0.925-0.925L145,104.85
			c0.767-1.033,2.4-2.2,4.9-3.5l-1.15,0.3c-1.167,0.367-2.116,0.767-2.85,1.2c-0.733,0.467-1.367,1-1.9,1.6
			c-0.033-0.133-0.017-0.367,0.05-0.7c0.134-0.6,0.533-1.2,1.2-1.8c0.566-0.567,1.2-0.983,1.9-1.25c0.833-0.3,1.916-0.567,3.25-0.8
			c1.5-0.267,2.383-0.433,2.649-0.5c0.9-0.267,1.717-0.767,2.45-1.5l-1.65,3.3C153.583,101.8,153.083,102.583,152.35,103.55z"/>
	</g>
	<g>
		
			<radialGradient id="SVGID_7_" cx="59.6001" cy="144.5" r="19.446" gradientTransform="matrix(0.968 -0.2509 0.2203 0.8498 -29.9248 36.6527)" gradientUnits="userSpaceOnUse">
			<stop  offset="0" style="stop-color:#88CAB2"/>
			<stop  offset="0.2784" style="stop-color:#80C0AD"/>
			<stop  offset="0.7412" style="stop-color:#6AA6A1"/>
			<stop  offset="1" style="stop-color:#5B9599"/>
		</radialGradient>
		<path style="fill-rule:evenodd;clip-rule:evenodd;fill:url(#SVGID_7_);" d="M54.95,138.2c-2.467-0.3-4.367-1.233-5.7-2.8
			c-1.033-1.167-1.633-2.551-1.8-4.15c0.2-0.434,0.566-0.866,1.1-1.3c1.1-0.867,2.467-1.283,4.1-1.25
			c2.233,0.033,4.117,0.649,5.65,1.85c1.133,0.9,2.25,2.316,3.35,4.25c1.267,2.233,2.133,4.733,2.6,7.5
			c-0.667-1.434-1.8-2.434-3.4-3C59.883,138.934,57.917,138.566,54.95,138.2z"/>
		
			<radialGradient id="SVGID_8_" cx="57.1001" cy="138.7002" r="15.3015" gradientTransform="matrix(0.968 -0.2509 0.2204 0.8504 -28.7495 35.0724)" gradientUnits="userSpaceOnUse">
			<stop  offset="0" style="stop-color:#88CAB2"/>
			<stop  offset="0.2784" style="stop-color:#80C0AD"/>
			<stop  offset="0.7412" style="stop-color:#6AA6A1"/>
			<stop  offset="1" style="stop-color:#5B9599"/>
		</radialGradient>
		<path style="fill-rule:evenodd;clip-rule:evenodd;fill:url(#SVGID_8_);" d="M51.45,134.3c0.8,0.467,1.95,0.9,3.45,1.3
			c0.6,0.2,1.067,0.317,1.4,0.351c-3.133-1.533-5.167-2.9-6.1-4.101c0.261,0.044,0.586,0.16,0.975,0.351
			c-0.302-0.225-0.544-0.508-0.725-0.851c-0.333-0.6-0.184-1.066,0.45-1.399c0.7-0.334,1.567-0.434,2.6-0.3
			c0.867,0.133,1.683,0.383,2.45,0.75c0.9,0.433,1.917,1.333,3.05,2.699c0.933,1.101,1.583,2.034,1.95,2.801
			c0.333,0.767,1.083,2.1,2.25,4c-0.934-0.867-1.95-1.45-3.05-1.75c-0.3-0.067-1.35-0.217-3.15-0.45c-1.633-0.2-2.95-0.467-3.95-0.8
			c-0.833-0.301-1.617-0.784-2.35-1.45c-0.833-0.7-1.35-1.434-1.55-2.2c-0.066-0.167-0.1-0.434-0.1-0.8
			C49.65,133.083,50.45,133.7,51.45,134.3z"/>
	</g>
	<g>
		
			<radialGradient id="SVGID_9_" cx="142.415" cy="-145.5664" r="31.7179" gradientTransform="matrix(-0.424 0.9057 0.7535 0.3528 241.5172 113.0701)" gradientUnits="userSpaceOnUse">
			<stop  offset="0" style="stop-color:#88CAB2"/>
			<stop  offset="0.2235" style="stop-color:#7EC3AD"/>
			<stop  offset="0.6" style="stop-color:#64AFA0"/>
			<stop  offset="1" style="stop-color:#42958F"/>
		</radialGradient>
		<path style="fill-rule:evenodd;clip-rule:evenodd;fill:url(#SVGID_9_);" d="M55.05,167.85c2.367,0.7,4.284,2.034,5.75,4
			c1.9,2.534,2.7,5.784,2.4,9.75c-0.367,4.834-0.434,8.084-0.2,9.75c0.367,2.7,1.533,4.767,3.5,6.2c-1-0.366-2.2-0.899-3.6-1.6
			c-2.767-1.367-5.1-2.867-7-4.5c-2.633-2.267-4.45-4.434-5.45-6.5c-1.367-2.733-1.7-5.9-1-9.5c0.466-2.634,1.55-4.684,3.25-6.15
			L55.05,167.85z"/>
		
			<radialGradient id="SVGID_10_" cx="140.9639" cy="-135.8682" r="24.9631" gradientTransform="matrix(-0.4237 0.9058 0.7536 0.3525 225.4668 105.4545)" gradientUnits="userSpaceOnUse">
			<stop  offset="0" style="stop-color:#88CAB2"/>
			<stop  offset="0.2784" style="stop-color:#80C0AD"/>
			<stop  offset="0.7412" style="stop-color:#6AA6A1"/>
			<stop  offset="1" style="stop-color:#5B9599"/>
		</radialGradient>
		<path style="fill-rule:evenodd;clip-rule:evenodd;fill:url(#SVGID_10_);" d="M57.55,171.05c1.1,0.533,2.067,1.566,2.9,3.101
			c0.733,1.366,1.183,2.75,1.35,4.149c0.233,1.7,0.25,3.851,0.05,6.45c-0.233,3.033-0.35,4.767-0.35,5.2
			c0.1,1.8,0.667,3.566,1.7,5.3c-2.534-2.366-4.333-3.934-5.4-4.7c-1.033-0.733-2.267-2.017-3.7-3.85
			c-1.7-2.134-2.733-3.967-3.1-5.5c-0.333-1.367-0.45-2.733-0.35-4.101c0.1-1.699,0.517-3.05,1.25-4.05
			c0.7-0.967,1.467-1.1,2.3-0.399c0.608,0.502,1.016,1.144,1.225,1.925c-0.045-0.22-0.104-0.478-0.175-0.775
			c-0.167-0.566-0.233-1.033-0.2-1.399c1.034,1.233,1.934,2.916,2.7,5.05c0.467,1.333,1,3.25,1.6,5.75
			c0.066-0.9,0.05-1.684-0.05-2.351c-0.2-2.6-0.5-4.55-0.9-5.85c-0.667-1.833-1.367-3.267-2.1-4.3
			C56.6,170.733,57.017,170.85,57.55,171.05z"/>
	</g>
	<g>
		
			<radialGradient id="SVGID_11_" cx="131.7002" cy="48.75" r="20.5999" gradientTransform="matrix(-0.9794 -0.2018 0.1598 -0.7754 252.901 113.1322)" gradientUnits="userSpaceOnUse">
			<stop  offset="0" style="stop-color:#88CAB2"/>
			<stop  offset="0.2784" style="stop-color:#80C0AD"/>
			<stop  offset="0.7412" style="stop-color:#6AA6A1"/>
			<stop  offset="1" style="stop-color:#5B9599"/>
		</radialGradient>
		<path style="fill-rule:evenodd;clip-rule:evenodd;fill:url(#SVGID_11_);" d="M137.35,65.4c-0.399,0.3-0.949,0.517-1.649,0.65
			c-1.4,0.267-2.884,0.017-4.45-0.75c-2.134-1-3.65-2.35-4.55-4.05c-0.733-1.3-1.167-3.017-1.3-5.15
			c-0.134-1.533-0.034-3.25,0.3-5.15l0.5-2.35c0.033,1.533,0.684,2.883,1.95,4.05c0.8,0.767,2.517,1.95,5.149,3.55
			c2.2,1.333,3.601,2.95,4.2,4.85C137.967,62.517,137.917,63.967,137.35,65.4z"/>
		
			<radialGradient id="SVGID_12_" cx="131.4473" cy="54.7998" r="16.1989" gradientTransform="matrix(-0.9794 -0.202 0.1599 -0.7756 251.4214 123.8486)" gradientUnits="userSpaceOnUse">
			<stop  offset="0" style="stop-color:#88CAB2"/>
			<stop  offset="0.2784" style="stop-color:#80C0AD"/>
			<stop  offset="0.7412" style="stop-color:#6AA6A1"/>
			<stop  offset="1" style="stop-color:#5B9599"/>
		</radialGradient>
		<path style="fill-rule:evenodd;clip-rule:evenodd;fill:url(#SVGID_12_);" d="M134.9,61.05c-0.5-0.667-1.4-1.55-2.7-2.65
			c-0.5-0.433-0.9-0.733-1.2-0.9c2.3,2.667,3.634,4.733,4,6.2c-0.2-0.133-0.417-0.35-0.65-0.65c-0.116-0.14-0.216-0.256-0.3-0.35
			c0.308,0.4,0.475,0.833,0.5,1.3c0.033,0.667-0.333,1-1.1,1c-1.533-0.033-3.066-0.9-4.601-2.6c-0.633-0.767-1.199-1.983-1.699-3.65
			c-0.4-1.4-0.601-2.483-0.601-3.25c0.033-0.5-0.017-1.383-0.149-2.65l-0.2-1.75l0.55,1c0.467,0.767,0.983,1.367,1.55,1.8
			c0.267,0.2,1.217,0.8,2.851,1.8c1.433,0.867,2.55,1.683,3.35,2.45c0.667,0.6,1.217,1.35,1.65,2.25
			c0.466,0.967,0.633,1.817,0.5,2.55l-0.301,0.75C136.05,62.867,135.566,61.983,134.9,61.05z"/>
	</g>
	<g>
		
			<radialGradient id="SVGID_13_" cx="-146.7134" cy="-0.3779" r="12.7281" gradientTransform="matrix(-0.8632 -0.5049 -0.5233 0.8947 -0.3889 0.6644)" gradientUnits="userSpaceOnUse">
			<stop  offset="0" style="stop-color:#88CAB2"/>
			<stop  offset="0.2784" style="stop-color:#80C0AD"/>
			<stop  offset="0.7412" style="stop-color:#6AA6A1"/>
			<stop  offset="1" style="stop-color:#5B9599"/>
		</radialGradient>
		<path style="fill-rule:evenodd;clip-rule:evenodd;fill:url(#SVGID_13_);" d="M130.6,64.45c1.267-0.667,2.617-0.833,4.051-0.5
			c1.066,0.233,1.85,0.75,2.35,1.55c0.233,0.4,0.366,0.767,0.4,1.1c-0.467,1.133-1.184,2.066-2.15,2.8c-1.2,0.9-2.634,1.267-4.3,1.1
			c-2-0.167-3.367-0.2-4.101-0.1c-1.133,0.167-2.1,0.733-2.899,1.7l1-1.7c0.8-1.333,1.616-2.467,2.45-3.4
			C128.566,65.767,129.634,64.917,130.6,64.45z"/>
		
			<radialGradient id="SVGID_14_" cx="-147.3174" cy="4.3916" r="10.0054" gradientTransform="matrix(-0.8633 -0.5046 -0.5236 0.8957 4.5157 -7.7248)" gradientUnits="userSpaceOnUse">
			<stop  offset="0" style="stop-color:#88CAB2"/>
			<stop  offset="0.2784" style="stop-color:#80C0AD"/>
			<stop  offset="0.7412" style="stop-color:#6AA6A1"/>
			<stop  offset="1" style="stop-color:#5B9599"/>
		</radialGradient>
		<path style="fill-rule:evenodd;clip-rule:evenodd;fill:url(#SVGID_14_);" d="M131.6,68.65c1.067-0.066,1.917-0.217,2.551-0.45
			c0.733-0.267,1.383-0.583,1.949-0.95l-0.25,0.55c-0.3,0.534-0.816,1-1.55,1.4c-0.633,0.367-1.25,0.583-1.85,0.65
			c-0.733,0.1-1.634,0.1-2.7,0c-1.2-0.1-1.917-0.15-2.15-0.15c-0.466,0.033-1.017,0.167-1.649,0.4l-0.75,0.4l2.45-2.6
			c0.399-0.467,1.033-1.05,1.899-1.75c1.033-0.8,1.9-1.283,2.601-1.45c0.566-0.167,1.149-0.233,1.75-0.2
			c0.699,0.067,1.233,0.283,1.6,0.65c0.333,0.333,0.316,0.7-0.05,1.1c-0.334,0.333-0.717,0.533-1.15,0.6
			c0.267-0.033,0.667-0.117,1.2-0.25c-1,0.833-2.634,1.517-4.9,2.05C130.9,68.717,131.233,68.717,131.6,68.65z"/>
	</g>
	<g>
		
			<radialGradient id="SVGID_15_" cx="145.5996" cy="144.0498" r="19.4" gradientTransform="matrix(1 0 0 -1 0 288.0996)" gradientUnits="userSpaceOnUse">
			<stop  offset="0" style="stop-color:#88CAB2"/>
			<stop  offset="0.2784" style="stop-color:#80C0AD"/>
			<stop  offset="0.7412" style="stop-color:#6AA6A1"/>
			<stop  offset="1" style="stop-color:#5B9599"/>
		</radialGradient>
		<path style="fill-rule:evenodd;clip-rule:evenodd;fill:url(#SVGID_15_);" d="M150.75,148.05c-0.066,2.3-0.3,4.334-0.7,6.101
			c-0.566,2.433-1.283,4.316-2.149,5.649c-1.2,1.733-2.884,2.934-5.051,3.601c-1.566,0.5-2.983,0.433-4.25-0.2l-1.399-1.15
			c-0.233-1.8,0.017-3.483,0.75-5.05c0.899-2.1,2.483-3.65,4.75-4.65c2.733-1.233,4.55-2.199,5.45-2.899
			c1.399-1.101,2.25-2.533,2.55-4.3L150.75,148.05z"/>
		
			<radialGradient id="SVGID_16_" cx="144.7002" cy="151.1504" r="15.2625" gradientTransform="matrix(1 0 0 -1 0 302.3008)" gradientUnits="userSpaceOnUse">
			<stop  offset="0" style="stop-color:#88CAB2"/>
			<stop  offset="0.2784" style="stop-color:#80C0AD"/>
			<stop  offset="0.7412" style="stop-color:#6AA6A1"/>
			<stop  offset="1" style="stop-color:#5B9599"/>
		</radialGradient>
		<path style="fill-rule:evenodd;clip-rule:evenodd;fill:url(#SVGID_16_);" d="M143.3,155.15c-1.333,0.899-2.333,1.716-3,2.449
			c-0.767,0.834-1.383,1.733-1.85,2.7l-0.101-0.899c0.034-0.9,0.351-1.867,0.95-2.9c0.566-0.934,1.217-1.667,1.95-2.2
			c0.866-0.666,2.05-1.333,3.55-2c1.667-0.767,2.65-1.25,2.95-1.45c1-0.6,1.833-1.517,2.5-2.75l-1.2,5.051
			c-0.133,0.899-0.517,2.116-1.149,3.649c-0.733,1.8-1.483,3.066-2.25,3.8c-0.667,0.634-1.384,1.134-2.15,1.5
			c-0.967,0.434-1.833,0.567-2.6,0.4c-0.7-0.167-0.967-0.634-0.801-1.4c0.096-0.499,0.304-0.932,0.625-1.3
			c-0.084,0.076-0.176,0.16-0.274,0.25c-0.267,0.3-0.517,0.5-0.75,0.601c0.399-1.034,1.116-2.15,2.149-3.351
			c0.467-0.566,1.384-1.533,2.75-2.899C144.366,154.5,143.934,154.75,143.3,155.15z"/>
	</g>
</g>
</svg>
