<?xml version="1.0" encoding="iso-8859-1"?>
<!-- Generator: Adobe Illustrator 15.1.0, SVG Export Plug-In . SVG Version: 6.00 Build 0)  -->
<!DOCTYPE svg PUBLIC "-//W3C//DTD SVG 1.1//EN" "http://www.w3.org/Graphics/SVG/1.1/DTD/svg11.dtd">
<svg version="1.1" id="flash0.ai" xmlns="http://www.w3.org/2000/svg" xmlns:xlink="http://www.w3.org/1999/xlink" x="0px" y="0px"
	 width="41.35px" height="27.35px" viewBox="0 0 41.35 27.35" style="enable-background:new 0 0 41.35 27.35;" xml:space="preserve"
	>
<symbol  id="flash0.ai_x5F_13_x2F_Layer_64_x2F__x3C_Path_x3E__x5F_7" viewBox="0 -10.256 41.351 10.221">
	<g id="Layer_1_2_">
		<path style="fill-rule:evenodd;clip-rule:evenodd;" d="M40.9-1.9c0.633-0.4,0.6-0.733-0.1-1c-0.966-0.233-1.617-0.417-1.95-0.55
			c-0.367-0.167-0.617-0.333-0.75-0.5c-0.434-0.367-0.667-0.566-0.7-0.6c-1.066-1-1.933-1.75-2.6-2.25
			c-0.3-0.2-0.733-0.417-1.3-0.65c-0.667-0.233-1.35-0.566-2.05-1c-0.733-0.466-1.583-0.7-2.55-0.7
			c-1.767,0.033-2.933,0.017-3.5-0.05c-2.7-0.3-4.433-0.45-5.2-0.45c-1.167,0-2.333-0.15-3.5-0.45c-0.7-0.167-1.25-0.2-1.65-0.1
			c-1.433,0.4-2.2,0.617-2.3,0.65c-0.667,0.133-1.967,0.35-3.9,0.65C7.683-8.833,6.7-8.683,5.9-8.45c-0.367,0.133-1.15,0.6-2.35,1.4
			c-1.133,0.767-1.917,1.2-2.35,1.3C0.8-5.683,0.483-5.467,0.25-5.1C0.083-4.833,0-4.6,0-4.4c0,0.133,0.2,0.316,0.6,0.55
			c0.367,0.2,0.7,0.333,1,0.4c0.367,0.067,1.183,0.8,2.45,2.2l11.45,0.1c1.033,0,4.1,0.2,9.2,0.6c4.8,0.4,8.1,0.566,9.9,0.5
			c3.2-0.133,4.283-0.284,3.25-0.45c0.8-0.133,1.333-0.267,1.6-0.4C39.683-1.033,40.167-1.367,40.9-1.9z"/>
	</g>
</symbol>
<use xlink:href="#flash0.ai_x5F_13_x2F_Layer_64_x2F__x3C_Path_x3E__x5F_7"  width="41.351" height="10.221" y="-10.256" transform="matrix(1 0 0 -1 0 17.0996)" style="overflow:visible;opacity:0.1406;enable-background:new    ;"/>
<path style="fill-rule:evenodd;clip-rule:evenodd;fill:#9F9FA1;" d="M30.5,7.65c2.4,3.3,4.65,7.333,6.75,12.1
	c-0.6,0.9-2.25,1.95-4.95,3.15c-2.233,1-4.133,1.683-5.7,2.05c-1.966,0.434-4.416,0.649-7.35,0.649c-7.4,0-12.033-0.75-13.9-2.25
	C4.417,22.616,3.617,21.5,2.95,20L2.2,17.95c1.833-2.134,3.367-4.383,4.6-6.75c0.867-1.633,1.733-2.667,2.6-3.1
	c1.8-0.9,3.6-1.35,5.4-1.35l2.35-0.15c1.633-0.233,2.633-0.633,3-1.2c0.6-0.9,2.399-2.7,5.399-5.4C26.45,1.8,28.1,4.35,30.5,7.65z"
	/>
<path style="fill-rule:evenodd;clip-rule:evenodd;fill:#858687;" d="M28.9,4.4c0.666,0.867,1.8,2.533,3.399,5
	c1.066,1.367,1.983,2.967,2.75,4.8c0.4,0.866,0.834,1.666,1.3,2.399c0.367,0.667,0.801,1.717,1.301,3.15
	c-1.9,2.066-3.617,3.35-5.15,3.85c-2.8,0.9-4.616,1.417-5.45,1.551c0.233,0.133-0.684,0.3-2.75,0.5c-0.5,0.033-1.434,0.149-2.8,0.35
	c-0.566,0.066-1.4,0.066-2.5,0c-3-0.233-4.9-0.35-5.7-0.35c-1.4-0.067-2.667-0.184-3.8-0.351c-1.267-0.2-1.933-0.399-2-0.6
	c-0.067-0.134-0.383-0.316-0.95-0.55c-0.7-0.301-1.283-0.634-1.75-1c-0.533-0.4-0.917-0.884-1.15-1.45L3.45,21l0.75,0.65
	c0.6,0.433,1.05,0.683,1.35,0.75c0.233,0.066,0.684,0.25,1.35,0.55c0.533,0.233,1,0.35,1.4,0.35c0.067,0,0.6,0.05,1.6,0.15
	c0.6,0.066,1.117,0.017,1.55-0.15c0.9-0.267,1.8-0.816,2.7-1.649c0.2-0.167,0.367-0.417,0.5-0.75c0.167-0.4,0.3-0.733,0.4-1
	c0.567-0.967,0.967-1.7,1.2-2.2l1.1-1.65L17.9,18.9c0.1,0.333,0.184,0.783,0.25,1.35c0.1,0.467,0.367,0.816,0.8,1.05
	c0.633,0.334,1.483,0.533,2.55,0.601c1.3,0.1,2.25-0.101,2.85-0.601c0.7-0.533,1.167-1,1.4-1.399c0.2-0.4,0.3-0.95,0.3-1.65
	c0-0.333-0.233-1.05-0.7-2.15c-0.466-1.066-0.699-2.133-0.699-3.2c0-0.933-0.317-2.183-0.95-3.75c-0.5-1.233-0.617-2.017-0.351-2.35
	c0.334-0.367,0.567-0.767,0.7-1.2c0.134-0.533,0.217-0.833,0.25-0.9c0.066-0.133,0.084-0.4,0.05-0.8c-0.033-0.4,0.034-0.75,0.2-1.05
	c0.3-0.567,0.634-1.517,1-2.85L28.9,4.4z"/>
<path style="fill-rule:evenodd;clip-rule:evenodd;fill:#B8B8BA;" d="M21.1,5.85c-0.133,0.066-0.283,0.233-0.449,0.5
	c-0.134,0.233-0.284,0.383-0.45,0.45c-0.101,0.067-0.35,0.15-0.75,0.25C19.083,7.117,18.8,7.233,18.6,7.4
	c-0.733,0.6-1.167,0.967-1.3,1.1c-0.7,0.767-1.117,1.267-1.25,1.5c-0.333,0.767-0.483,1.267-0.45,1.5l0.2,1.3
	c-0.2-0.6-0.383-1.05-0.55-1.35c-0.467-0.5-1.017-0.9-1.65-1.2c-0.567-0.367-1.167-0.617-1.8-0.75C10.6,9.167,9.95,9,9.85,9
	l-1.9,0.15C8.35,8.617,8.933,8.167,9.7,7.8c0.033,0,0.433-0.2,1.2-0.6c0.333-0.167,0.684-0.267,1.05-0.3l2.85-0.15
	c0.7-0.067,1.3-0.117,1.8-0.15c0.5-0.1,1.133-0.217,1.9-0.35c0.6-0.167,1.033-0.417,1.3-0.75L22,3.1c0.3-0.3,0.65-0.667,1.05-1.1
	l2.5-2c-0.033,0.8-0.166,1.467-0.399,2c-0.334,0.8-0.5,1.467-0.5,2c0,0.233,0.017,0.483,0.05,0.75c0,0.2-0.117,0.45-0.351,0.75
	L23.4,7.1c-0.101,0.1-0.167,0.183-0.2,0.25c-0.066,0.1-0.05,0.267,0.05,0.5c0.167,0.4,0.366,0.983,0.6,1.75
	c0.334,0.633,0.5,1.05,0.5,1.25c0,0.133,0.067,0.35,0.2,0.65c-0.566-0.767-0.916-1.3-1.05-1.6c-0.366-0.333-0.583-0.633-0.65-0.9
	c-0.199-0.733-0.3-1.133-0.3-1.2V7.05l0.3-0.6c0.2-0.167,0.351-0.483,0.45-0.95l0.05-1.05l-0.8,0.4L21.1,5.85z"/>
<path style="fill-rule:evenodd;clip-rule:evenodd;fill:#B8B8BA;" d="M9.1,15.7c-0.167,0-0.583,0.066-1.25,0.2
	c-0.267,0.066-0.617,0.35-1.05,0.85l-1.4,1.4c0.133-0.5,0.283-0.884,0.45-1.15l0.9-1.4c0.167-0.267,0.717-0.683,1.65-1.25
	c0.4-0.233,0.7-0.3,0.9-0.199c0.633,0.267,0.983,0.399,1.05,0.399c0-0.066,0.017-0.116,0.05-0.149
	c0.067-0.101,0.217-0.134,0.45-0.101c0.633,0.066,1.183,0.066,1.65,0c0.367-0.033,0.7,0,1,0.101c0.167,0.066,0.5,0.216,1,0.449
	c0.633,0.2,1.217,0.467,1.75,0.801l-3.1-0.351L11.5,15.65l-0.6,0.199c-0.033-0.033-0.167-0.05-0.4-0.05L9.1,15.7z"/>
<path style="fill-rule:evenodd;clip-rule:evenodd;fill:#B8B8BA;" d="M20.6,13.25C20.7,13.083,21.134,13,21.9,13
	c0.699,0.267,0.916,0.467,0.649,0.6c-0.3,0.133-0.666,0.2-1.1,0.2c-0.3,0.034-0.434,0.083-0.4,0.15v0.2L20.1,15.05
	c-0.266,0.267-0.55,0.483-0.85,0.65L20.6,13.25z"/>
<path style="fill-rule:evenodd;clip-rule:evenodd;fill:#9F9FA1;" d="M30.4,9.1l1.25,0.5L31.6,10c-0.399,0.233-0.816,0.4-1.25,0.5
	c-0.199,0.067-0.433,0.167-0.699,0.3c-0.301,0.534-0.5,0.883-0.601,1.05c-0.1,0.1-0.283,0.917-0.55,2.45v0.9
	c-0.167-0.566-0.3-1.184-0.4-1.85c-0.066-0.333-0.116-0.533-0.149-0.6C27.816,12.617,27.7,12.367,27.6,12
	c-0.133-0.433-0.133-0.733,0-0.9c0.233-0.3,0.384-0.55,0.45-0.75c0.267-0.767,0.667-1.333,1.2-1.7
	C29.45,8.517,29.833,8.667,30.4,9.1z"/>
<path style="fill-rule:evenodd;clip-rule:evenodd;fill:#9F9FA1;" d="M30.1,20.4l0.051-1.351c0.033-0.166,0.083-0.333,0.149-0.5
	c0.134-0.399,0.3-0.666,0.5-0.8c0.167-0.134,0.233-0.316,0.2-0.55c0-0.233,0.017-0.4,0.05-0.5c0.334-0.533,0.684-0.867,1.05-1
	c0.967-0.233,1.65-0.117,2.051,0.35l-0.7,0.2c-0.167,0.033-0.267,0.1-0.3,0.2c-0.067,0.133-0.134,0.233-0.2,0.3l-0.8,0.55
	c-0.101,0.066-0.2,0.184-0.301,0.351c-0.1,0.166-0.183,0.267-0.25,0.3c-0.233,0.3-0.383,0.483-0.449,0.55
	c-0.367,0.467-0.617,0.783-0.75,0.95L30.1,20.4z"/>
</svg>
