<?xml version="1.0" encoding="iso-8859-1"?>
<!-- Generator: Adobe Illustrator 15.1.0, SVG Export Plug-In . SVG Version: 6.00 Build 0)  -->
<!DOCTYPE svg PUBLIC "-//W3C//DTD SVG 1.1//EN" "http://www.w3.org/Graphics/SVG/1.1/DTD/svg11.dtd">
<svg version="1.1" id="flash0.ai" xmlns="http://www.w3.org/2000/svg" xmlns:xlink="http://www.w3.org/1999/xlink" x="0px" y="0px"
	 width="31.4px" height="46.7px" viewBox="0 0 31.4 46.7" style="enable-background:new 0 0 31.4 46.7;" xml:space="preserve">
<symbol  id="flash0.ai_x5F_23_x2F_Layer_114_x2F__x3C_Path_x3E_" viewBox="0 -46.7 28.2 46.7">
	<g id="Layer_1_3_">
		
			<radialGradient id="SVGID_1_" cx="14.1001" cy="-23.3501" r="13.25" gradientTransform="matrix(1 0 0 -1.6198 0 -61.1733)" gradientUnits="userSpaceOnUse">
			<stop  offset="0" style="stop-color:#FFFFFF"/>
			<stop  offset="1" style="stop-color:#FFFFFF;stop-opacity:0"/>
		</radialGradient>
		<path style="fill-rule:evenodd;clip-rule:evenodd;fill:url(#SVGID_1_);" d="M28.2-23.35c0-6.433-1.383-11.933-4.15-16.5
			c-2.767-4.566-6.083-6.85-9.95-6.85c-3.9,0-7.217,2.284-9.95,6.85C1.383-35.317,0-29.817,0-23.35s1.383,11.967,4.15,16.5
			C6.883-2.283,10.2,0,14.1,0c3.867,0,7.183-2.283,9.95-6.85C26.817-11.417,28.2-16.917,28.2-23.35z"/>
	</g>
</symbol>
<symbol  id="flash0.ai_x5F_23_x2F_Layer_114_x2F__x3C_Path_x3E__x5F_3" viewBox="0 -9.64 31.381 9.607">
	<g id="Layer_1_2_">
		<path style="fill-rule:evenodd;clip-rule:evenodd;" d="M30.25-5.05c0,0.133-0.033,0.117-0.1-0.05c-0.467-1.133-1.133-1.967-2-2.5
			c-0.5-0.267-1.033-0.433-1.6-0.5H25.8c-0.767,0-1.867-0.1-3.3-0.3c-0.733-0.133-1.117-0.2-1.15-0.2
			C21.283-8.7,20.833-8.867,20-9.1c-1.033-0.267-2-0.4-2.9-0.4c-0.867,0.067-1.467,0.1-1.8,0.1c-0.233,0-0.533-0.05-0.9-0.15
			c-0.267-0.1-0.683-0.117-1.25-0.05c-1.367,0.167-2.533,0.617-3.5,1.35C9.217-7.95,8.717-7.8,8.15-7.8c-0.533,0-0.867,0.066-1,0.2
			C6.95-7.4,6.667-7.2,6.3-7L5.8-6.75L3.3-6.1C2.2-5.8,1.483-5.517,1.15-5.25C0.783-4.817,0.4-4.367,0-3.9
			c0.433,1.1,0.933,1.933,1.5,2.5c0.533,0.533,1.25,0.8,2.15,0.8H4.8c0.8,0,1.967,0.117,3.5,0.35c1.133,0.1,2.967,0.15,5.5,0.15
			c0.567,0,1.667,0.017,3.3,0.05C18.7-0.017,20-0.033,21-0.1c1.167-0.066,2.267-0.217,3.3-0.45c0.767-0.2,2.333-0.65,4.7-1.35
			c1.767-0.567,2.55-1.067,2.35-1.5c-0.133-0.233-0.483-0.633-1.05-1.2L30.25-5.05z"/>
	</g>
</symbol>
<g>
	
		<use xlink:href="#flash0.ai_x5F_23_x2F_Layer_114_x2F__x3C_Path_x3E__x5F_3"  width="31.381" height="9.607" y="-9.64" transform="matrix(1 0 0 -1 0 35.5996)" style="overflow:visible;opacity:0.1406;enable-background:new    ;"/>
	
		<radialGradient id="SVGID_2_" cx="15.4746" cy="27.5293" r="15.0974" gradientTransform="matrix(1 0 0 -0.8532 0 51.0182)" gradientUnits="userSpaceOnUse">
		<stop  offset="0" style="stop-color:#B4CCDB"/>
		<stop  offset="1" style="stop-color:#99BCD1"/>
	</radialGradient>
	<path style="fill-rule:evenodd;clip-rule:evenodd;fill:url(#SVGID_2_);" d="M22.8,23.7c0.533,1.033,1.434,2.75,2.7,5.149
		C27.167,32.316,28,35.033,28,37c0,0.9,0.1,2.35,0.3,4.35c-0.267,0.267-0.75,0.567-1.45,0.9c-1.333,0.667-3.017,1.15-5.05,1.45
		c-2.8,0.434-4.7,0.7-5.7,0.8c-1.566,0.134-2.833,0.033-3.8-0.3c-0.733-0.3-1.633-0.816-2.7-1.55C8.633,41.983,7.933,41.6,7.5,41.5
		c-0.9-0.2-2.517-1.417-4.85-3.65C4.317,34.95,5.267,33,5.5,32c0.6-3.033,0.933-4.634,1-4.8c0.067-0.267,0.467-0.8,1.2-1.601
		c0.7-0.767,1.133-1.466,1.3-2.1c0.2-0.633,0.317-1.5,0.35-2.6c0.066-1.267,0.117-2,0.15-2.2l1.15-6c0.9,0.1,2.117-0.184,3.65-0.85
		c1.566-0.667,2.8-1.117,3.7-1.35c1.2,2.567,2.134,5.233,2.8,8C21.2,20.2,21.866,21.933,22.8,23.7z"/>
	<g>
		<path style="fill-rule:evenodd;clip-rule:evenodd;fill:#91AEBD;" d="M20.8,18.5c0.4,1.7,1.066,3.433,2,5.2
			c0.533,1.033,1.434,2.75,2.7,5.149C27.167,32.316,28,35.033,28,37c0,0.9,0.1,2.35,0.3,4.35c-0.267,0.267-0.75,0.567-1.45,0.9
			c-1.333,0.667-3.017,1.15-5.05,1.45c-2.8,0.434-4.7,0.7-5.7,0.8c-1.566,0.134-2.833,0.033-3.8-0.3
			c-0.733-0.3-1.633-0.816-2.7-1.55C8.633,41.983,7.933,41.6,7.5,41.5c-0.633-0.134-1.8-0.934-3.5-2.4
			c0.533,0.167,1.05,0.233,1.55,0.2c0.3-0.033,0.883-0.133,1.75-0.3c0.8-0.167,1.467-0.45,2-0.85c0.333-0.267,0.784-0.317,1.35-0.15
			c0.567,0.167,1.15,0.417,1.75,0.75c0.4,0.167,0.7,0.083,0.9-0.25c0.333-0.467,0.567-0.833,0.7-1.1c0.233-0.5,0.4-1.184,0.5-2.051
			c0.167-2.199,0.217-3.75,0.15-4.649l-0.15-2c2.934-2.334,4.267-4.4,4-6.2c-0.134-0.667-0.217-1.017-0.25-1.05
			c-0.134-0.3-0.5-0.667-1.1-1.1c-0.534-0.367-1.034-0.867-1.5-1.5c-0.467-0.6-0.75-0.934-0.851-1c-0.2-0.133-0.367-0.45-0.5-0.95
			l-0.15-0.7l1.4,0.15c1.066-0.033,1.884-0.367,2.45-1c0.434-0.533,0.95-0.883,1.55-1.05C20.05,15.733,20.467,17.133,20.8,18.5z"/>
	</g>
	<path style="fill-rule:evenodd;clip-rule:evenodd;fill:#CCE0ED;" d="M20.8,18.5c0.334,1.367,0.75,2.6,1.25,3.7
		c-0.6,0.6-1.184,1.033-1.75,1.3l-1.649-2.15c-0.2-0.267-0.617-0.567-1.25-0.9c-1.367-0.7-2.167-1.117-2.4-1.25
		c-0.833-0.5-1.417-1.233-1.75-2.2L13,15.7l-1.7-1.2c0,0.567-0.6,1.967-1.8,4.2l1.15-6c0.9,0.1,2.117-0.184,3.65-0.85
		c1.566-0.667,2.8-1.117,3.7-1.35C19.2,13.067,20.134,15.733,20.8,18.5z"/>
	
		<use xlink:href="#flash0.ai_x5F_23_x2F_Layer_114_x2F__x3C_Path_x3E_"  width="28.2" height="46.7" y="-46.7" transform="matrix(1 0 0 -1 1.2998 0)" style="overflow:visible;opacity:0.4805;enable-background:new    ;"/>
</g>
</svg>
