<?xml version="1.0" encoding="iso-8859-1"?>
<!-- Generator: Adobe Illustrator 15.1.0, SVG Export Plug-In . SVG Version: 6.00 Build 0)  -->
<!DOCTYPE svg PUBLIC "-//W3C//DTD SVG 1.1//EN" "http://www.w3.org/Graphics/SVG/1.1/DTD/svg11.dtd">
<svg version="1.1" id="Layer_3" xmlns="http://www.w3.org/2000/svg" xmlns:xlink="http://www.w3.org/1999/xlink" x="0px" y="0px"
	 width="155.6px" height="301.75px" viewBox="0 0 155.6 301.75" style="enable-background:new 0 0 155.6 301.75;"
	 xml:space="preserve">
<symbol  id="FlashAICB_x2F_Layer_3_x2F__x3C_Group_x3E_" viewBox="0.038 -277.995 111.645 277.975">
	<g id="Layer_1_6_">
		<g>
			
				<use xlink:href="#FlashAICB_x2F_Layer_3_x2F__x3C_Path_x3E_"  width="111.645" height="277.975" x="0.038" y="-277.995" style="overflow:visible;opacity:0.1484;enable-background:new    ;"/>
		</g>
	</g>
</symbol>
<symbol  id="FlashAICB_x2F_Layer_3_x2F__x3C_Path_x3E_" viewBox="0.038 -277.995 111.645 277.975">
	<g id="Layer_1_4_">
		<path style="fill-rule:evenodd;clip-rule:evenodd;fill:#90B5B0;" d="M107.15-12.2c3.9-1.966,5.283-4.066,4.15-6.3
			c-0.3-0.567-1.25-2.017-2.85-4.35c-1.2-1.7-1.934-3.25-2.2-4.65c-0.133-0.7-0.283-2-0.45-3.9c-0.133-1.567-0.333-2.867-0.6-3.9
			c-1.934,2.466-3.317,4-4.15,4.6c-1.267,0.934-3.267,0.767-6-0.5c-0.566,1.267-1.95,1.917-4.15,1.95
			c-1.967,0.067-3.6-0.317-4.9-1.15c-1.233-0.767-1.967-1.767-2.2-3c-0.133-0.733-0.25-1.967-0.35-3.7
			c-0.1-0.566-0.684-2.2-1.75-4.9c-0.7-1.867-0.9-3.583-0.6-5.15c-1.3-1.967-1.85-4.05-1.65-6.25c0.2-2.033,1.05-4.033,2.55-6
			c1.267-1.733,2.4-2.7,3.4-2.9c1.233-0.233,2.05,0.75,2.45,2.95c0.133,0.733-0.217,3.133-1.05,7.2c-0.667,3.066-0.2,5.333,1.4,6.8
			c0.167-0.467,0.433-2.433,0.8-5.9c0.3-2.767,0.9-4.55,1.8-5.35c1.4-1.267,2.633-1.217,3.7,0.15c0.6,0.733,1.3,2.05,2.1,3.95
			c0.967-0.3,2.25-1.567,3.85-3.8c2.033-2.767,3.233-4.333,3.6-4.7c-0.566-0.967-2.433-1.633-5.6-2c-4.4-0.5-6.667-0.767-6.8-0.8
			c-3.033-0.867-5.75-3.017-8.15-6.45c-2.067-2.933-3.383-5.933-3.95-9c-0.333-1.767-0.25-3.933,0.25-6.5
			c0.567-3.067,0.833-5.217,0.8-6.45c-0.067-2.2-0.65-5.55-1.75-10.05c-1.033-4.3-1.55-7.667-1.55-10.1
			c0.034-2.6,1.517-11.217,4.45-25.85c2.7-13.333,3.683-21.917,2.95-25.75c-0.567,0.133-1.367,1.483-2.4,4.05
			c0.167-2.8,0.3-7,0.4-12.6c0.3-4.9,1.083-9.083,2.35-12.55c0.567-1.534,0.95-3,1.15-4.4c0.367-2.2,0.483-5.05,0.35-8.55
			c-0.233-4.767-0.333-7.65-0.3-8.65c0.1-4.767-0.367-9.434-1.4-14c-0.267-1.1-1.017-3.45-2.25-7.05
			c-1.033-2.933-1.65-5.283-1.85-7.05c-0.133-1.233,0-2.75,0.4-4.55c0.233-1.034,0.617-2.534,1.15-4.5c0.534-2.1,0.934-4.6,1.2-7.5
			c0.133-1.633,0.333-4.133,0.6-7.5c0.233-2.333,0.6-4.45,1.1-6.35l0.5-0.2c0.6,0.733,0.95,1.867,1.05,3.4
			c0,1.667,0.05,2.85,0.15,3.55c0.767,3.733,1.283,6.55,1.55,8.45c0.267,2.233,1.1,5.417,2.5,9.55c0.267,1.033,0.466,1.816,0.6,2.35
			c0.267,1,0.567,1.716,0.9,2.15c0.267-3.3-0.05-7.5-0.95-12.6c-1.4-7.7-2.133-11.883-2.2-12.55c-0.1-1.1-0.2-2.833-0.3-5.2
			c-0.1-2.233-0.217-3.95-0.35-5.15c-0.033-0.333,0.133-1.317,0.5-2.95c0.233-1.133,0.033-1.983-0.6-2.55
			c-0.7-0.6-3.3-0.95-7.8-1.05c-4-0.1-6.817-0.033-8.45,0.2c-0.133,5.467,0.133,11.067,0.8,16.8c0.233,2,0.667,4.583,1.3,7.75
			c0.333,1.767,0.45,4,0.35,6.7c-0.3,6.3,0.133,14.117,1.3,23.45c0.434,2.733,0.733,4.8,0.9,6.2c0.3,2.467,0.383,4.55,0.25,6.25
			c-0.1,1.233-0.567,3.367-1.4,6.4c-0.733,2.733-1.083,4.883-1.05,6.45c0.033,1.2,0.433,2.967,1.2,5.3
			c0.867,2.567,1.367,4.367,1.5,5.4c0.966,7.3,1.667,15.617,2.1,24.95c0.034,0.6,0,2.2-0.1,4.8c-0.067,2.133,0,3.8,0.2,5
			c0.167,0.966-0.15,2.5-0.95,4.6c-0.967,2.5-1.5,4.083-1.6,4.75c-0.167,1.7-0.3,2.983-0.4,3.85c-0.167,1.467-0.483,2.717-0.95,3.75
			c-3.7-2.5-5.967-5.1-6.8-7.8c-0.7-2.233-0.917-5.05-0.65-8.45c0.133-1.9,0.367-4.733,0.7-8.5c0.033-2.933-0.3-6.417-1-10.45
			c-0.4-2.267-1.067-5.684-2-10.25c-0.467-2.7-0.417-6.467,0.15-11.3c0.6-5.3,0.817-9.066,0.65-11.3
			c-0.667,1.133-1.183,2.7-1.55,4.7c-0.367,2.2-0.683,3.817-0.95,4.85c-0.167,0.733-0.65,2.133-1.45,4.2
			c-0.7,1.833-1.117,3.25-1.25,4.25c-0.267,2.167-0.1,5.316,0.5,9.45c0.667,4.7,1,7.9,1,9.6c-0.033,2.333-0.434,5.3-1.2,8.9
			c-1,4.5-1.583,7.383-1.75,8.65c-0.3,2.4,0.417,5.5,2.15,9.3c2.667,5.767,4.034,8.783,4.1,9.05c1.133,3.5,1.367,7.817,0.7,12.95
			c-0.333,2.767-1.2,7.067-2.6,12.9c-1.133,3-1.933,5.3-2.4,6.9c-0.767,2.8-0.517,5.117,0.75,6.95c-2.533-1.233-4.3-2.3-5.3-3.2
			c-0.1,0.934-0.033,2.067,0.2,3.4c0.333,1.466,0.55,2.566,0.65,3.3c-1.4-1.233-2.433-3-3.1-5.3c-1.433,2.933-2,6.483-1.7,10.65
			c0.3,4.167,1.367,7.65,3.2,10.45c0.867,1.333,2.15,2.983,3.85,4.95c2.033,2.333,3.383,3.933,4.05,4.8
			c2.667,3.5,3.9,7.967,3.7,13.4c-0.2,4.933-1.45,9.45-3.75,13.55c-0.667,1.2-1.2,3.033-1.6,5.5c-0.4,2.567-0.9,4.417-1.5,5.55
			c-2.7,4.967-5,6.034-6.9,3.2c-0.566-0.867-0.867-2.333-0.9-4.4c-0.033-1.1-0.05-2.6-0.05-4.5c-0.267-2.934-0.367-6.8-0.3-11.6
			c0-0.933-0.117-3.117-0.35-6.55c-0.367,0.4-0.85,2.033-1.45,4.9c-1.067,5.066-1.684,7.933-1.85,8.6
			C47.817-26.283,45.567-22.8,43-23.6c-0.867-0.3-1.517-1.117-1.95-2.45c-0.267-0.733-0.533-1.75-0.8-3.05
			c-0.033-0.133-0.967,1.217-2.8,4.05c-0.633,1.2-1.4,2.183-2.3,2.95c-1.566,1.267-2.933,2.083-4.1,2.45
			c-1.566,0.5-3.133,0.383-4.7-0.35c0.267-1.433,0.5-2.55,0.7-3.35c0.867-3.267,1.6-7.367,2.2-12.3c0.433-3.434,1-9.217,1.7-17.35
			c0.233-2.667,0.633-6.683,1.2-12.05c0.367-4.667,0.3-8.667-0.2-12c-0.434-3.067-1.333-7.534-2.7-13.4
			c-0.9-5.167-0.75-9.7,0.45-13.6c1.733-5.6,3.017-10.083,3.85-13.45c1.333-5.2,2.184-9.75,2.55-13.65
			c-2.767,1.8-5.067,5.883-6.9,12.25c-1.534,5.233-2.284,9.833-2.25,13.8c0.033,2.133-0.733,5.217-2.3,9.25
			c-1.6,4.133-2.417,7.267-2.45,9.4c-0.067,1.567-0.133,2.733-0.2,3.5c-0.067,1.434,0.017,2.617,0.25,3.55
			c0.9,2.8,1.417,4.967,1.55,6.5c0.267,3.1,0.067,5.316-0.6,6.65c-1.2,2.5-2.083,5.117-2.65,7.85c-0.8,3.867-1.55,6.917-2.25,9.15
			c-0.9,2.9-1.483,4.85-1.75,5.85c-0.466,1.833-0.25,4.333,0.65,7.5c0.8,2.933,0.867,5.167,0.2,6.7c-0.633,1.5-1.117,3.5-1.45,6
			l-0.3-0.2c-0.767-0.7-1.167-1.7-1.2-3c-0.034-1.633-0.217-2.767-0.55-3.4c-0.7,1.667-1.917,3.1-3.65,4.3
			c-2.1,1.433-3.45,0.95-4.05-1.45c-2,3.3-3.5,5.883-4.5,7.75c-1.833,3.4-2.15,5.967-0.95,7.7C2.483-9.033,6.2-6.983,11.9-5.35
			C14-4.717,18.417-3.767,25.15-2.5c9.8,1.833,19.6,2.65,29.4,2.45c10.633-0.2,18.1-0.567,22.4-1.1
			c8.466-1.067,15.3-3.283,20.5-6.65C98.983-8.8,102.217-10.267,107.15-12.2z"/>
	</g>
</symbol>
<symbol  id="FlashAICB_x2F_Layer_3_x2F__x3C_Path_x3E__x5F_2" viewBox="-0.062 -45.3 48.535 45.278">
	<g id="Layer_1_5_">
		<path style="fill-rule:evenodd;clip-rule:evenodd;fill:#90B5B0;" d="M43.7-26.2c0.048,0.016,0.099,0.032,0.15,0.05
			c-1.1-0.624-1.966-1.207-2.6-1.75c-1.251-1.031-2.21-2.264-2.875-3.7c0.149,0.646,0.241,1.362,0.275,2.15
			c-2.2-2.4-3.3-5.283-3.3-8.65c-0.033,0.367-0.184,1.417-0.45,3.15c-0.233,1.3-0.333,2.367-0.3,3.2c0.033,1.233-0.3,2.467-1,3.7
			c-0.172,0.251-0.339,0.493-0.5,0.725c0.506-0.522,0.989-0.847,1.45-0.975c0.8-0.233,1.667-0.067,2.6,0.5
			c1.267,0.833,2.117,1.3,2.55,1.4c0.4,0.1,1.066,0.117,2,0.05C42.567-26.383,43.233-26.333,43.7-26.2z M46.425-24.525L47.1-24.5
			c-0.475-0.22-0.924-0.437-1.35-0.65C45.992-24.962,46.216-24.754,46.425-24.525L31.55-25.3c0.034-2.367-0.15-4.934-0.55-7.7
			c-0.3,0.6-1.15,1.767-2.55,3.5c-1.148,1.444-1.849,2.661-2.1,3.65c0.466-2.075,0.649-3.641,0.55-4.7
			c-0.933,0.566-1.833,1.466-2.7,2.7c-0.893,1.323-1.293,2.415-1.2,3.275c-0.176-1.254-1.16-2.313-2.95-3.175
			c-2.167-1.033-3.5-1.883-4-2.55c0.333,1.466,0.4,2.65,0.2,3.55c-2.367-2.233-3.9-4.667-4.6-7.3c-0.2-0.8-0.65-2.383-1.35-4.75
			c-0.667-2.367-1.117-4.534-1.35-6.5c-0.233,3.233-0.434,5.683-0.6,7.35c-0.3,2.934-0.8,5.067-1.5,6.4
			c-0.867,1.7-2.067,3.4-3.6,5.1c-1.267,1.4-2.117,2.767-2.55,4.1c-1.2,3.533-0.983,7.233,0.65,11.1
			c1.333,3.133,3.833,5.733,7.5,7.8C12.283-1.517,16.1-0.4,20.3-0.1c3.367,0.267,6.833-0.15,10.4-1.25c3.3-1,6.35-2.467,9.15-4.4
			c4.767-3.333,7.55-6.783,8.35-10.35c0.433-2.066,0.35-4-0.25-5.8C47.599-22.954,47.09-23.829,46.425-24.525z"/>
	</g>
</symbol>
<symbol  id="FlashAICB_x2F_Layer_3_x2F__x3C_Path_x3E__x5F_6">
	<g id="Layer_1_3_">
	</g>
</symbol>
<symbol  id="FlashAICB_x2F_Layer_3_x2F__x3C_Path_x3E__x5F_7" viewBox="0.033 -135.35 34.568 135.35">
	<g id="Layer_1_2_">
		<path style="fill-rule:evenodd;clip-rule:evenodd;fill:#90B5B0;" d="M7.85,0C8.183-0.7,8.467-1.767,8.7-3.2
			c0.5-2.867,0.533-6.183,0.1-9.95c-0.3-3,0.2-6.483,1.5-10.45c1.934-5.933,2.983-9.316,3.15-10.15
			c0.433-2.167,1.45-5.633,3.05-10.4c1.267-4.367,1.7-7.867,1.3-10.5c-0.6-3.867-0.767-7.2-0.5-10
			c0.333-3.333,1.284-6.417,2.85-9.25c0.633-1.1,1.283-2.85,1.95-5.25c0.7-2.4,1.35-4.133,1.95-5.2
			c0.1,7.934,1.017,15.833,2.75,23.7c0-1.533-0.1-4.95-0.3-10.25c-0.167-4.233-0.183-7.65-0.05-10.25c0.133-2.1,0.733-5.133,1.8-9.1
			c1.1-4,1.7-7,1.8-9c0.4-5.9,1.917-17.933,4.55-36.1l-6.65,1.65l-2.3,11.05c-1.367,6.566-2.617,14.783-3.75,24.65
			c-0.6,5.067-1.367,9.217-2.3,12.45c-0.733,2.6-1.85,5.466-3.35,8.6c-1.167,2.434-1.917,5.733-2.25,9.9
			c-0.133,1.433-0.25,4.617-0.35,9.55c-0.1,3.833-0.633,7.217-1.6,10.15c-0.133,0.467-0.767,1.65-1.9,3.55
			c-0.863,1.48-1.33,2.605-1.4,3.375c0.038-0.649,0.171-3.007,0.4-7.075c0.167-3.067,0.017-5.4-0.45-7
			c-0.733,1.933-1.983,5.4-3.75,10.4c-1.534,4.434-2.833,7.917-3.9,10.45c-1.633,3.933-1.3,9.533,1,16.8
			C3.35-12.85,5.283-7.233,7.85,0z"/>
	</g>
</symbol>
<g>
	<path style="fill-rule:evenodd;clip-rule:evenodd;fill:#AFCFB6;" d="M117.35,244.6c0.9,0.733,2.9,1.867,6,3.4
		c2.534,1.5,3.534,2.967,3,4.4c-0.399,1.066-1.449,3.25-3.149,6.55c-1.4,2.767-2.3,4.983-2.7,6.649
		c-0.167,0.634-0.267,1.617-0.3,2.95c-0.066,1.233-0.2,2.2-0.4,2.9c-0.3,0.899-0.616,2.434-0.95,4.6
		c-0.267,1.934-0.633,3.467-1.1,4.601c-1.233,3.233-2.083,5.85-2.55,7.85c-0.4,1.9-0.55,3.667-0.45,5.3
		c0.066,1.066,0.184,2.334,0.35,3.8c0.034,0.934-0.216,1.434-0.75,1.5c-2.366,0.767-4.416,1.317-6.149,1.65
		c-3.334,0.634-4.851,0.15-4.55-1.45c0.233-1.166,0.85-3.767,1.85-7.8l6.95-27.95c0.934-4.2,1.633-7.35,2.1-9.45
		c0.867-3.767,1.783-6.899,2.75-9.399L117.35,244.6z"/>
	
		<linearGradient id="SVGID_1_" gradientUnits="userSpaceOnUse" x1="37.7676" y1="157.6836" x2="154.7651" y2="157.6836" gradientTransform="matrix(0.9992 0.0408 -0.0408 0.9992 -7.214025e-005 2.867356e-004)">
		<stop  offset="0" style="stop-color:#B0CFC5"/>
		<stop  offset="0.0941" style="stop-color:#A2C2B8"/>
		<stop  offset="0.3176" style="stop-color:#86A69B"/>
		<stop  offset="0.451" style="stop-color:#7C9C90"/>
		<stop  offset="1" style="stop-color:#C0D9C5"/>
	</linearGradient>
	<path style="fill-rule:evenodd;clip-rule:evenodd;fill:url(#SVGID_1_);" d="M135.85,33.55c0.101,1.367-0.333,3.2-1.3,5.5
		c-1,2.434-2.2,4.3-3.6,5.6c-1.5,1.434-2.634,3.533-3.4,6.3c-0.833,2.933-1.116,6.267-0.85,10c0.267,3.367,0.217,5.966-0.15,7.8
		c-0.2,1.133-0.684,2.833-1.45,5.1c-0.533,2.133-0.366,4.267,0.5,6.4c0.867,2.1,2.2,3.667,4,4.7c2.367,1.333,3.65,2.1,3.851,2.3
		c0.767,0.667,1.017,1.667,0.75,3c-0.2,0.967-1.117,2.233-2.75,3.8c-1.5,1.467-2.267,2.684-2.3,3.65c-0.067,2.5-0.617,5.9-1.65,10.2
		c-1.2,4.8-1.9,8.2-2.1,10.2c-0.334,3.6-0.551,8.417-0.65,14.45c-0.1,6.967-0.233,11.767-0.4,14.4
		c-0.033,0.667-0.017,2.433,0.051,5.3c0.066,2.2-0.034,3.934-0.301,5.2c-0.3,1.434-1.05,2.8-2.25,4.1
		c-1.899,2.134-2.949,3.351-3.149,3.65c-1.834,2.666-3.084,5.934-3.75,9.8c-0.334,1.9-0.65,5.35-0.95,10.35
		c-0.066,1.801-0.417,4.867-1.05,9.2c-0.3,3.9,0.133,6.884,1.3,8.95c0.233,0.4,1.517,1.167,3.85,2.3
		c2.301,1.101,3.634,1.967,4,2.601c1,1.767,1.301,4.6,0.9,8.5c-0.233,2.166-0.634,5.1-1.2,8.8c-0.533,6.566-2.383,18.583-5.55,36.05
		c-2.733,15.1-4.134,27.15-4.2,36.15c-0.033,3.466-7.399,4.583-22.1,3.35c-4.733-0.4-10-1.017-15.8-1.85
		c-1.133-0.167-3.933-0.617-8.4-1.351c-1.133-0.2-2.167-2.434-3.1-6.7c-0.933-5.366-1.717-9.216-2.35-11.55
		c-1.533-5.033-2.683-8.983-3.45-11.85c-1.367-5.101-2.067-9.45-2.1-13.05c-0.033-3.4-0.767-6.717-2.2-9.95
		c-2.133-4.834-3.316-7.667-3.55-8.5c-0.567-6.533-1.133-12.017-1.7-16.45c-1.033-8.5-2.65-11.9-4.85-10.2
		c-0.434,0.7-0.45,2.533-0.05,5.5c0.3,2.167-0.117,2.917-1.25,2.25c-3.233-4.899-5.65-11.983-7.25-21.25
		c-0.2-1.066-0.333-3.083-0.4-6.05c-0.033-2.566-0.283-4.55-0.75-5.95c-0.633-2-1.883-4.55-3.75-7.649
		c-2.067-3.434-3.35-5.75-3.85-6.95c-2.133-5.167-0.45-9.7,5.05-13.601c1.533-1.1,4.15-2.6,7.85-4.5
		c3.567-1.866,6.167-3.417,7.8-4.649c-0.333-1.3-0.633-3.567-0.9-6.8c-0.233-2.967-0.633-5.267-1.2-6.9
		c-0.267-0.833-0.85-2.033-1.75-3.6c-0.9-1.533-1.483-2.733-1.75-3.6c-0.167-0.566-0.433-1.816-0.8-3.75
		c-0.3-1.533-0.684-2.783-1.15-3.75c-0.833-1.8-2.1-3.883-3.8-6.25c-1.967-2.633-3.4-4.617-4.3-5.95
		c-3.233-4.767-4.7-9.15-4.4-13.15c0-0.167-0.367-2.633-1.1-7.4c-0.534-3.267-0.067-5.483,1.4-6.65c0.6-0.5,1.517,0.533,2.75,3.1
		c1.066,2.233,2.033,2.317,2.9,0.25c1.033-2.4,1.1-5.783,0.2-10.15c-1.267-4.767-2.034-8.15-2.3-10.15
		c-0.467-3.8-1.7-8.25-3.7-13.35c-1.633-4.1-3.284-7.55-4.95-10.35c-2.367-4,4.433-8.083,20.4-12.25
		c14.8-3.867,27.05-5.583,36.75-5.15c8.199,0.4,19.866,2.25,35,5.55C128.184,29.917,135.75,32.217,135.85,33.55z"/>
	
		<use xlink:href="#FlashAICB_x2F_Layer_3_x2F__x3C_Path_x3E__x5F_7"  width="34.568" height="135.35" x="0.033" y="-135.35" transform="matrix(1 0 0 -1 42.75 164.6504)" style="overflow:visible;opacity:0.25;enable-background:new    ;"/>
	
		<use xlink:href="#FlashAICB_x2F_Layer_3_x2F__x3C_Path_x3E__x5F_6"  width="-32766" height="-32766" x="16383" y="16383" transform="matrix(1 0 0 -1 102.75 159.25)" style="overflow:visible;opacity:0.1484;enable-background:new    ;"/>
	<path style="fill-rule:evenodd;clip-rule:evenodd;fill:#D7F1DB;" d="M46.25,147.45c0.233,0.533,0.2,1.216-0.1,2.05
		c-0.467,1.2-0.717,1.884-0.75,2.05c-0.1,0.4-0.083,0.834,0.05,1.3c0.033,0.233,0.133,0.7,0.3,1.4c0.133,0.6,0.217,1.066,0.25,1.4
		c0,1.543-0.567,3.168-1.7,4.875c0.668-1.067,0.352-2.643-0.95-4.726c-0.533,0.2-1.133,0.834-1.8,1.9
		c-0.6,0.899-0.95,1.616-1.05,2.149c-0.1,0.601-0.1,1.334,0,2.2c0.067,0.5,0.15,1.233,0.25,2.2c-0.067-0.4-0.25-0.934-0.55-1.6
		c-0.4-0.801-0.633-1.334-0.7-1.601c-0.433-1.6-0.7-2.517-0.8-2.75c-0.333,0.566-0.717,1.434-1.15,2.601
		c-0.066-0.534-0.066-1.284,0-2.25c0.031-0.966,0.031-1.683,0-2.15c0.018,0.596-0.415,1.463-1.3,2.6
		c-1.033,1.267-1.583,2.2-1.65,2.801c-0.233,1.866-0.617,3.366-1.15,4.5c0.2-0.9-0.133-1.934-1-3.101
		c0.066,0.566-0.184,1.417-0.75,2.55c-0.667,1.233-1.034,2.101-1.1,2.601c-0.1,0.533-0.333,1.267-0.7,2.2
		c-0.367,0.933-0.617,1.8-0.75,2.6c-0.033-1.033-0.433-2.316-1.2-3.85c-0.567,2.533-0.517,4.616,0.15,6.25
		c-0.8-0.834-1.383-1.75-1.75-2.75c-0.3-1.134-0.567-2.017-0.8-2.65c-0.233-0.6-0.417-1.533-0.55-2.8c-0.133-1.3-0.3-2.233-0.5-2.8
		c-0.533,0.966-0.817,2.133-0.85,3.5c0,0.466,0.083,1.666,0.25,3.6c0.3,3.767,1.2,6.967,2.7,9.6c-0.7-0.866-1.383-1.833-2.05-2.899
		c-0.667-1.134-1.15-1.95-1.45-2.45c-3.1-5.1-4.583-9.934-4.45-14.5c0.067-1.667,0.45-3.017,1.15-4.05
		c0.467-0.767,0.817-1.267,1.05-1.5c0.501-0.564,1.076-0.881,1.725-0.95l-1.425,0.1c1.067-0.8,2.4-1.033,4-0.699
		c-0.467-0.301-1.4-0.517-2.8-0.65c1.033-0.333,2.033-0.483,3-0.45c0.5,0,1.167,0.017,2,0.05c0.7,0,1.35-0.083,1.95-0.25
		c1.3-0.333,2.35-0.767,3.15-1.3c1.367-0.933,2.383-1.633,3.05-2.1c1.2-0.833,2.3-1.467,3.3-1.9c0.4-0.133,1.367-0.35,2.9-0.65
		c1.333-0.333,1.966-0.75,1.9-1.25c0.267,0.233,0.55,0.633,0.85,1.2c0.1-0.333,0.233-1.017,0.4-2.05
		c0.167-1.1,0.283-1.783,0.35-2.05c0.133,0.333,0.3,1.083,0.5,2.25C45.9,146.35,46.083,147.083,46.25,147.45z"/>
	<path style="fill-rule:evenodd;clip-rule:evenodd;fill:#D7F1DB;" d="M127.1,209.5c-0.066,0.667-0.25,1.866-0.55,3.6
		c-0.3,2.2-0.983,4.467-2.05,6.801c0.2-2.2,0.3-3.483,0.3-3.851c0-0.133-0.116-0.717-0.35-1.75c-0.233-0.899-0.3-1.434-0.2-1.6
		c-0.233,0.333-0.65,0.883-1.25,1.649c-0.5,0.667-0.684,1.25-0.55,1.75c-0.101-0.199-0.384-1.616-0.851-4.25
		c-0.3-1.8-1.05-3.083-2.25-3.85c-0.1,0.366-0.366,1.25-0.8,2.65c-0.333,1.3-0.35,2.166-0.05,2.6c-2.2-3-3.5-5.434-3.9-7.3
		c-0.066,0.7-0.833,2.116-2.3,4.25c0.233-1.334,0.384-2.334,0.45-3c0.033-0.367-0.017-0.834-0.15-1.4
		c-0.166-0.7-0.25-1.184-0.25-1.45c-0.1-1.199,0.867-1.833,2.9-1.899c2.267-0.101,4.45,0.149,6.55,0.75
		c2.834,0.833,4.517,1.95,5.05,3.35C127.15,207.45,127.233,208.434,127.1,209.5z"/>
	
		<use xlink:href="#FlashAICB_x2F_Layer_3_x2F__x3C_Group_x3E_"  width="111.645" height="277.975" x="0.038" y="-277.995" transform="matrix(1 0 0 -1 20.9502 23.4502)" style="overflow:visible;opacity:0.9297;enable-background:new    ;"/>
	
		<linearGradient id="SVGID_2_" gradientUnits="userSpaceOnUse" x1="107.4824" y1="130.9063" x2="162.9727" y2="130.9063" gradientTransform="matrix(0.984 0.1784 -0.1784 0.984 -7.128716e-005 -3.478080e-004)">
		<stop  offset="0" style="stop-color:#AFCFB6"/>
		<stop  offset="0.0784" style="stop-color:#A7C7AF"/>
		<stop  offset="0.3373" style="stop-color:#91B09D"/>
		<stop  offset="0.502" style="stop-color:#89A896"/>
		<stop  offset="1" style="stop-color:#AFCFB6"/>
	</linearGradient>
	<path style="fill-rule:evenodd;clip-rule:evenodd;fill:url(#SVGID_2_);" d="M129,101.35c3.167,1.033,4.833,1.75,5,2.15
		c0.5,1.1,0.783,2.817,0.85,5.15c0.067,3.333-0.55,6.45-1.85,9.35s-2.233,5.55-2.8,7.95c-0.367,1.5-0.884,4.033-1.55,7.6
		c-0.634,2.833-1.584,5.417-2.851,7.75c-0.399,0.733-2.166,3.5-5.3,8.3c-2.267,3.5-4.55,8.317-6.85,14.45
		c-2.2,5.867-3.851,11.334-4.95,16.4c-0.733,3.333-1.3,8.833-1.7,16.5c-0.333,6.467-0.75,10.017-1.25,10.649
		c-0.634,0.834-1.184-0.35-1.65-3.55c-0.5-4.666-0.916-8.316-1.25-10.95c-0.3-2.733-0.283-5.916,0.051-9.55
		c0.333-3.6,0.383-6.383,0.149-8.35c-0.934-7.9-2.95-14.783-6.05-20.65c-1.7-3.267-2.517-5.816-2.45-7.65
		c0-0.3,0.483-2.267,1.45-5.9c0.533-1.933,0.816-3.95,0.85-6.05c0.067-2.667,0.15-4.383,0.25-5.15c0.301-2.1,0.417-3.816,0.351-5.15
		c-0.101-1.566-0.467-3.183-1.101-4.85c-0.966-2.466-1.633-4.917-2-7.35c-0.533-3.367-0.3-5.8,0.7-7.3
		c3.9-5.8,11.483-7.933,22.75-6.4C121.566,99.25,125.3,100.117,129,101.35z"/>
	
		<use xlink:href="#FlashAICB_x2F_Layer_3_x2F__x3C_Path_x3E__x5F_2"  width="48.535" height="45.278" x="-0.062" y="-45.3" transform="matrix(1 0 0 -1 91.5498 85.3999)" style="overflow:visible;opacity:0.1484;enable-background:new    ;"/>
	
		<linearGradient id="SVGID_3_" gradientUnits="userSpaceOnUse" x1="-45.3999" y1="-154.2554" x2="1.9995" y2="-154.2554" gradientTransform="matrix(-0.7178 0.6962 -0.6962 -0.7178 5.109906e-004 -1.636147e-004)">
		<stop  offset="0" style="stop-color:#D7F1DB"/>
		<stop  offset="1" style="stop-color:#BDDAC3"/>
	</linearGradient>
	<path style="fill-rule:evenodd;clip-rule:evenodd;fill:url(#SVGID_3_);" d="M112.3,79.7c3.167-0.434,6.184-0.733,9.05-0.9
		c0.667-0.033,2.101-0.583,4.301-1.65c1.8-0.833,3.783-1.033,5.949-0.6c-1.066,0-2.25,0.267-3.55,0.8c-1.2,0.533-2.2,1.15-3,1.85
		c2.233-0.467,4.684-0.434,7.351,0.1c2.767,0.534,4.966,1.45,6.6,2.75c-1.6-0.367-2.866-0.566-3.8-0.6
		c-1.4-0.067-2.65,0.133-3.75,0.6c3-0.066,6.217,1.45,9.649,4.55c3.067,2.8,5.017,5.533,5.851,8.2c0.833,2.667,0.6,5.75-0.7,9.25
		c-0.667,1.8-2.15,4.7-4.45,8.7c-0.733,1.3-1.934,3.217-3.6,5.75c-1.667,2.5-2.884,4.4-3.65,5.7c0.267-1.133,0.834-3.217,1.7-6.25
		c0.7-2.534,1.167-4.45,1.4-5.75c-0.601,1.2-1.434,3.017-2.5,5.45c-1.034,2.167-2.034,4.017-3,5.55
		c-1.134,1.466-2.067,2.767-2.801,3.9c-1.399,2.1-2.283,4.133-2.649,6.1c-0.267-3,0.366-6.583,1.899-10.75
		c1.534-4.034,2.167-7.034,1.9-9c-0.5,0.667-1.033,1.533-1.6,2.6c-0.733,1.333-1.367,2.45-1.9,3.35
		c0.267-1.533,0.45-2.683,0.55-3.45c0.167-1.367-0.083-2.483-0.75-3.35c-0.333-0.434-1.133-1.3-2.399-2.6
		c-1.021-1.086-1.763-2.012-2.226-2.775c0.35,0.602,0.491,1.494,0.425,2.675c-0.066,1.5-0.066,2.434,0,2.8
		c-0.433-1.167-1.383-2.517-2.85-4.05c-1.733-1.667-2.95-2.9-3.65-3.7c-0.333,0.5-0.517,0.85-0.55,1.05
		c-0.3-0.733-0.5-1.25-0.6-1.55c-1.9,1.367-2.884,2.65-2.95,3.85c-0.432-0.963-0.615-2.438-0.55-4.425
		c-0.088,1.391-1.987,2.783-5.7,4.175c-3.602,1.355-5.335,2.664-5.2,3.925c-0.095-0.693,0.005-1.334,0.3-1.925
		c-1.3,0.9-2.05,1.434-2.25,1.6c-0.833,0.7-1.366,1.4-1.6,2.1c-0.3-1.633-0.05-3.233,0.75-4.8c-2.129,2.259-3.212,5.143-3.25,8.65
		c-0.606-2.242-2.206-4.709-4.8-7.4c-1.066-1.167-1.783-2.1-2.15-2.8c-0.434-0.9-0.633-1.983-0.6-3.25
		c-0.533,1.333-0.767,2.817-0.7,4.45c-1.3-0.733-2.033-2.117-2.2-4.15c-0.1-1.167,0-2.75,0.3-4.75
		c-1.133,1.466-1.816,3.483-2.05,6.05c-0.833-2.433-0.934-5.067-0.3-7.9c1.167-5.3,4.9-9.55,11.2-12.75
		C98.167,82.567,104.533,80.767,112.3,79.7z"/>
	<linearGradient id="SVGID_4_" gradientUnits="userSpaceOnUse" x1="75.4814" y1="104.2563" x2="78.8065" y2="6.8064">
		<stop  offset="0" style="stop-color:#BEDACF"/>
		<stop  offset="1" style="stop-color:#D7F1DB"/>
	</linearGradient>
	<path style="fill-rule:evenodd;clip-rule:evenodd;fill:url(#SVGID_4_);" d="M147.75,21.25l0.6,0.55
		c0.867,0.733,2.167,1.833,3.9,3.3c1.434,1.267,2.55,2.467,3.35,3.6c-0.3-0.2-0.733-0.417-1.3-0.65c-0.833-0.3-1.3-0.466-1.399-0.5
		c0.8,1.067,1.149,2.233,1.05,3.5c-0.367-0.4-0.634-0.683-0.8-0.85c-0.367-0.367-0.7-0.617-1-0.75c0.733,1.9,0.583,4.15-0.45,6.75
		c-0.934,2.367-2.267,4.333-4,5.9c-0.033,0.033-1.117,0.9-3.25,2.6c-1.382,1.06-2.332,1.952-2.851,2.675
		c0.373-0.557,0.623-1.249,0.75-2.075c0.134-1.033,0.25-1.8,0.351-2.3c-0.934,1.167-1.467,1.833-1.601,2
		c-0.533,0.833-0.85,1.6-0.949,2.3c0.066-0.867-0.067-1.816-0.4-2.85c-0.167-0.534-0.517-1.434-1.05-2.7
		c0.1,1.4,0.149,2.2,0.149,2.4c0,1-0.1,1.85-0.3,2.55c-0.2,0.633-0.7,1.55-1.5,2.75c-0.617,0.912-1.042,1.67-1.274,2.275
		c0.487-1.669,0.563-3.794,0.225-6.375c-0.434-3.2-1.384-5.217-2.85-6.05c-0.267,1.233-0.45,2.017-0.551,2.35
		c-0.267,0.867-0.6,1.633-1,2.3c-0.399-0.367-0.816-0.867-1.25-1.5c-0.666-1-1.033-1.55-1.1-1.65c-0.134,0.3-0.167,1-0.1,2.1
		c-1.482-1.283-2.466-2.299-2.95-3.05c0.916,1.685,1.249,3.369,1,5.05c-0.667-1.467-2.316-3.117-4.95-4.95
		c-2.767-1.934-4.517-3.534-5.25-4.8c0.167,0.867,0.5,1.767,1,2.7c0.267,0.5,0.8,1.333,1.6,2.5c-1.366-0.7-2.85-1.883-4.449-3.55
		c-0.233-0.267-1-0.917-2.301-1.95c-0.966-0.767-1.6-1.467-1.899-2.1c0,0.167-0.084,0.75-0.25,1.75c-0.133,0.927-0.133,1.46,0,1.6
		c-0.5-0.501-0.783-0.934-0.851-1.3c-0.366,0.534-0.6,1.2-0.699,2c-0.067,0.434-0.117,1.133-0.15,2.1
		c-0.566-0.833-1.017-1.45-1.35-1.85c-0.567-0.767-1.15-1.3-1.75-1.6c0.033,0.933-0.367,1.867-1.2,2.8
		c-0.5,0.567-1.367,1.3-2.601,2.2c-1.199,0.633-2.116,1.133-2.75,1.5c-1.166,0.6-1.866,1.25-2.1,1.95
		c0.134-0.367,0.233-0.933,0.3-1.7c-0.166,0.133-0.666,0.7-1.5,1.7c-0.066-0.6-0.1-1.533-0.1-2.8
		c-0.601,0.467-1.017,1.217-1.25,2.25c-0.134,0.566-0.283,1.4-0.45,2.5c-1.366-2.967-3.75-5.767-7.15-8.4
		c0.067,0.667,0.167,1.15,0.301,1.45c0.199,0.533,0.55,0.883,1.05,1.05c-2.967-0.867-5.8-2.867-8.5-6
		c0.066,0.233,0.267,0.683,0.6,1.35c0.267,0.534,0.434,0.967,0.5,1.3c-2.233-1-4.066-2.184-5.5-3.55c-0.533,0.9-1.617,1.7-3.25,2.4
		c-0.767,0.333-2.15,0.783-4.15,1.35c-0.8,0.233-2.083,0.434-3.85,0.6c-1.733,0.133-3.033,0.333-3.9,0.6
		c-0.833,0.233-1.767,0.617-2.8,1.15c-1.257,0.613-1.949,1.13-2.075,1.55c0.185-0.953,0.293-1.686,0.325-2.2
		c-1.233,0.467-2.3,1.25-3.2,2.35c-0.833,0.933-1.45,2-1.85,3.2c0.1-0.4,0.083-1.566-0.05-3.5c-0.1-1.333,0.283-2.433,1.15-3.3
		c-2.133,0.5-4.117,1.717-5.95,3.65c0.533-1.566,1.633-3.033,3.3-4.4c-4.067,0.667-7.567,2.1-10.5,4.3c-3.3,2.5-4.95,5.4-4.95,8.7
		c-0.5-1.233-0.733-2.333-0.7-3.3c-0.033,0.633-0.383,1.75-1.05,3.35c-0.633,1.534-0.95,2.684-0.95,3.45
		c-0.4-1.867-0.633-2.95-0.7-3.25c-0.233-1.3-0.3-2.417-0.2-3.35c-2.9,3.9-4.667,6.6-5.3,8.1c-1.367,3.033-1.35,6.017,0.05,8.95
		c-1.267-1.467-2.233-2.567-2.9-3.3c-1.133-1.3-1.9-2.5-2.3-3.6c-0.467,1.567-0.233,3.317,0.7,5.25c0.767,1.6,1.9,3.133,3.4,4.6
		c-1.934-1.6-3.417-2.95-4.45-4.05c-1.533-1.633-2.633-3.233-3.3-4.8c-1.1-2.566-2.083-4.433-2.95-5.6
		c-0.333-0.434-1.15-1.3-2.45-2.6c-1-0.967-1.7-1.917-2.1-2.85c-0.1,1.967-0.1,3.6,0,4.9c-1.233-1.9-2-3.117-2.3-3.65
		c-0.778-1.427-1.195-2.728-1.25-3.9c0.008,0.304,0.042,1.171,0.1,2.6c0.033,1.066,0.133,1.95,0.3,2.65
		C1.283,42.3,0.267,35.917,2.4,29.95c-0.633,0.667-1.117,1.55-1.45,2.65c-0.149,0.535-0.34,1.31-0.575,2.325
		C0.515,34.19,0.556,33.149,0.5,31.8c-0.067-1.633-0.017-2.816,0.15-3.55c0.267-1,0.717-2.05,1.35-3.15
		c0.833-1.233,1.467-2.184,1.9-2.85c1.2-1.833,2.583-3.533,4.15-5.1c1.3-1.3,3.017-2.8,5.15-4.5c5.333-4.133,10.767-7.333,16.3-9.6
		c6.733-2.7,15.117-3.617,25.15-2.75c2.333,0.2,6,0.684,11,1.45c4.333,0.333,7.85-0.233,10.55-1.7c-1,0.967-1.833,2.35-2.5,4.15
		c1.033-0.833,2.3-1.633,3.8-2.4c-0.767,0.6-1.217,1.284-1.35,2.05c3.2-0.7,5.617-1.167,7.25-1.4c2.699-0.367,5.183-0.434,7.449-0.2
		c-1.233,0.133-2.399,0.817-3.5,2.05c2.2-0.9,5.117-1.233,8.75-1c2.034,0.133,5.034,0.383,9,0.75c4.4,0.133,7.851,0.333,10.351,0.6
		c3.8,0.367,7.166,1,10.1,1.9c6.4,1.934,12.05,5,16.95,9.2c0.733,0.633,1.634,1.55,2.7,2.75
		C146.366,19.833,147.217,20.75,147.75,21.25z"/>
</g>
</svg>
