<?xml version="1.0" encoding="iso-8859-1"?>
<!-- Generator: Adobe Illustrator 15.1.0, SVG Export Plug-In . SVG Version: 6.00 Build 0)  -->
<!DOCTYPE svg PUBLIC "-//W3C//DTD SVG 1.1//EN" "http://www.w3.org/Graphics/SVG/1.1/DTD/svg11.dtd">
<svg version="1.1" id="Layer_3" xmlns="http://www.w3.org/2000/svg" xmlns:xlink="http://www.w3.org/1999/xlink" x="0px" y="0px"
	 width="77.55px" height="91.25px" viewBox="0 0 77.55 91.25" style="enable-background:new 0 0 77.55 91.25;" xml:space="preserve"
	>
<g>
	
		<linearGradient id="SVGID_1_" gradientUnits="userSpaceOnUse" x1="-4.5908" y1="-37.4775" x2="81.357" y2="-37.4775" gradientTransform="matrix(0.0477 0.9989 -0.9989 0.0477 -4.146844e-004 2.118200e-004)">
		<stop  offset="0" style="stop-color:#99BA89"/>
		<stop  offset="0.4235" style="stop-color:#8FB38D"/>
		<stop  offset="1" style="stop-color:#85AD91"/>
	</linearGradient>
	<path style="fill-rule:evenodd;clip-rule:evenodd;fill:url(#SVGID_1_);" d="M42.35,31.65c-0.666-0.9-1.1-1.933-1.3-3.1
		c-0.1,0.767-0.383,1.917-0.85,3.45c0.033-0.667-0.033-1.533-0.2-2.6c-0.194-1.166-0.319-1.95-0.375-2.35
		c0.035,0.492-0.123,1.075-0.475,1.75c-0.301,0.633-0.667,1.184-1.101,1.65c-0.033-0.733-0.033-1.267,0-1.6L37.3,30.5
		c0.067-0.467,0.1-1.15,0.1-2.05c-0.467,0.233-0.917,0.566-1.35,1c0.267,3.333,0.3,6.05,0.1,8.15
		c-0.165,1.549-0.656,4.007-1.475,7.375c0.096-0.275,0.404-0.717,0.925-1.325c0.667-0.767,1.066-1.267,1.2-1.5
		c0.267-0.433,0.867-1.267,1.8-2.5c0.801-1.066,1.367-1.9,1.7-2.5C41.233,35.383,41.917,33.55,42.35,31.65z M43.45,31.5
		c-0.334,1.767-0.851,3.517-1.55,5.25c-0.967,2.433-2.717,5.983-5.25,10.65c-1.566,3.699-1.333,6.183,0.7,7.449
		c1.466,0.934,3.3,1.534,5.5,1.801c3.167,0.366,5.284,0.699,6.351,1c-3.533-1.334-5.15-4.534-4.851-9.601
		c0.101-1.566,0.917-5.517,2.45-11.85c0.233-0.967,0.367-1.784,0.4-2.45l-0.05,0.05c0-1.167-0.217-2.2-0.65-3.1
		c-0.267,1.566-0.417,2.85-0.45,3.85c-0.333-1.1-0.6-1.95-0.8-2.55c-0.366-1.067-0.8-1.817-1.3-2.25
		c-0.066,0.367-0.233,0.967-0.5,1.8V31.5z M71.3,10.45c1.533,1.6,2.634,3.033,3.3,4.3c3.4,5.667,3.884,11.45,1.45,17.35
		c0.066-0.967,0.117-1.7,0.15-2.2c0.066-0.967-0.117-1.617-0.55-1.95c-0.767,0.7-1.167,1.767-1.2,3.2
		c-0.033,1.233,0.166,2.417,0.6,3.55c-1.133-2.267-1.684-4.35-1.649-6.25c-0.4,0.867-1.184,2.1-2.351,3.7
		c-1.166,1.633-1.967,2.917-2.399,3.85c0.033-0.667,0.166-1.833,0.399-3.5c0.2-1.533,0.3-2.683,0.3-3.45
		c-1,3.833-1.633,6.15-1.899,6.95c0.066-0.733,0.083-1.667,0.05-2.8c-0.065-1.247-0.115-2.189-0.15-2.825
		c0.023,0.716-0.326,2.224-1.05,4.525c-0.666,2.067-1.267,3.667-1.8,4.8c0.533-3.067,0.167-5.133-1.1-6.2
		c-0.134,3.767-0.601,7.25-1.4,10.45c0.033-2.833,0.017-4.784-0.05-5.85c-0.126-1.982-0.459-3.757-1-5.325
		c0.263,0.832,0.38,2.023,0.35,3.575c-0.033,1.867-0.3,3.183-0.8,3.95c0-1.8-0.15-3.183-0.45-4.15
		c-0.066-0.167-0.333-0.717-0.8-1.65c-0.291-0.529-0.449-1.004-0.475-1.425c-0.005,0.549,0.021,1.474,0.074,2.775
		c-0.6-1.667-0.966-2.767-1.1-3.3c0.1,1.333-0.684,3-2.35,5c-0.101-1.867-0.167-3.267-0.2-4.2l-0.4,2.1c-0.3-1-0.6-1.7-0.899-2.1
		L54.3,34.9c-1.3-1.5-2.149-2.6-2.55-3.3c0.1,1.033-0.116,2.4-0.65,4.1c-0.033-0.467-0.25-1.434-0.649-2.9l-0.4,2.2
		c0.033-0.4-0.017-0.967-0.149-1.7c-0.089-0.677-0.139-1.202-0.15-1.575c0.004,1.767-0.563,4.259-1.7,7.475
		c-1.133,3.333-1.7,5.883-1.7,7.649c0.034,2.233,0.851,4.301,2.45,6.2c1.2,1.434,2.95,2.851,5.25,4.25
		c2.767,1.7,4.934,3.75,6.5,6.15c1.233,1.934,2.4,4.7,3.5,8.3c0.601,1.866,1.384,5.15,2.351,9.85c1.066,5.101,1.55,8.317,1.449,9.65
		c-4.833-0.6-12.083-0.667-21.75-0.2c-0.1-0.866-0.05-1.95,0.15-3.25c0.167-1.1,0.4-2.066,0.7-2.899
		c2.267-6.167,3.3-11.117,3.1-14.851c-0.2-2.767-1.616-4.866-4.25-6.3c-0.733-0.4-1.934-0.9-3.6-1.5c-2.7-0.9-4.35-1.483-4.95-1.75
		c-1.8-0.8-3.167-1.816-4.1-3.05c-2-2.566-2.4-6.05-1.2-10.45c0.767-2.467,1.333-4.3,1.7-5.5c0.7-2.167,1.083-3.95,1.15-5.35
		c0.333-3.2-0.25-4.367-1.75-3.5l0.05-0.25l-0.55,0.7c0.034-0.5,0.067-0.85,0.1-1.05c-1.218,0.626-2.043,1.851-2.475,3.675
		c0.082-0.391,0.107-0.932,0.075-1.625c-0.067-0.8-0.117-1.383-0.15-1.75c-0.167,0.267-0.333,0.683-0.5,1.25
		c-0.2,0.633-0.35,1.05-0.45,1.25c-0.133-0.633-0.15-1.3-0.05-2l-0.5,1.3c-0.167,0.533-0.2,0.967-0.1,1.3
		c-0.333-1.034-0.317-2,0.05-2.9c-1.566,1.567-2.583,3.2-3.05,4.9c0.1-1.267,0.133-2.05,0.1-2.35c-0.7,1.733-1.033,3.15-1,4.25
		c-0.252-1.185-0.402-2.16-0.45-2.925c-0.026,0.361-0.109,0.753-0.25,1.175c-0.2,0.733-0.483,1.35-0.85,1.85
		c0.034-0.5-0.05-1.2-0.25-2.1c-0.225-0.962-0.341-1.663-0.35-2.1c-0.567,1.133-0.967,1.85-1.2,2.15c-0.333-0.566-0.5-1.2-0.5-1.9
		c-0.4,0.733-0.667,1.45-0.8,2.15c-0.467-1.2-0.684-2.267-0.65-3.2c-0.466,0.667-0.767,1.667-0.9,3
		c-0.566-1.367-0.733-2.467-0.5-3.3c-0.367,1.033-0.417,2.35-0.15,3.95c0.433,2.566,0.65,3.9,0.65,4
		c-0.167-0.567-0.816-1.55-1.95-2.95c-0.922-1.145-1.422-2.12-1.5-2.925c0.118,1.546,0.534,2.921,1.25,4.125
		c-1.067-0.7-2.034-1.783-2.9-3.25c-0.867-1.5-1.333-2.883-1.4-4.15c-0.167,0.533-0.583,1.35-1.25,2.45
		c-0.6,1.033-0.983,1.867-1.15,2.5c-0.3-1.467-0.433-2.483-0.4-3.05c-0.567,0.933-0.967,2-1.2,3.2c-0.2-0.633-0.3-1.566-0.3-2.8
		c0-1.4-0.033-2.333-0.1-2.8c-0.467,0.9-0.867,2.433-1.2,4.6C6.133,36.25,6.033,35.1,6,33.6c-0.033-1.6-0.1-2.733-0.2-3.4
		c-1.066,1.7-1.55,3.216-1.45,4.55c0.066,0.867,0.367,2.45,0.9,4.75c-1.133-2.6-1.8-4.25-2-4.95c-0.433-1.466-0.6-3.216-0.5-5.25
		c-0.367,1-0.567,2.184-0.6,3.55c0,0.8,0,2.017,0,3.65c-0.566-2.867-0.9-4.95-1-6.25c-0.233-2.633,0-4.733,0.7-6.3
		c-0.667,1.1-1.283,2.667-1.85,4.7c0.3-2.833,0.6-4.917,0.9-6.25c0.5-2.333,1.383-4.233,2.65-5.7c-0.867,0.4-1.566,0.917-2.1,1.55
		c1.2-2.267,3.417-4.683,6.65-7.25c2.467-1.933,4.8-3.467,7-4.6c5.6-2.8,12.383-4.767,20.35-5.9c4.333-0.6,8.7-0.633,13.1-0.1
		c3.934,0.467,7.7,1.367,11.3,2.7C64.35,4.8,68.167,7.25,71.3,10.45z"/>
</g>
</svg>
