<?xml version="1.0" encoding="iso-8859-1"?>
<!-- Generator: Adobe Illustrator 15.1.0, SVG Export Plug-In . SVG Version: 6.00 Build 0)  -->
<!DOCTYPE svg PUBLIC "-//W3C//DTD SVG 1.1//EN" "http://www.w3.org/Graphics/SVG/1.1/DTD/svg11.dtd">
<svg version="1.1" id="Layer_1" xmlns="http://www.w3.org/2000/svg" xmlns:xlink="http://www.w3.org/1999/xlink" x="0px" y="0px"
	 width="327px" height="412.2px" viewBox="0 0 327 412.2" style="enable-background:new 0 0 327 412.2;" xml:space="preserve">
<path style="fill-rule:evenodd;clip-rule:evenodd;fill:#CFE5DB;" d="M222.3,94.2c-1.833-2.534-3.983-3.733-6.45-3.6
	c-2.466,0.167-4.5,1.6-6.1,4.3c-1.634,2.7-2.384,5.883-2.25,9.55c0.167,3.7,1.167,6.8,3,9.3s3.983,3.683,6.45,3.55
	s4.517-1.566,6.149-4.3c1.634-2.7,2.367-5.883,2.2-9.55C225.167,99.783,224.167,96.7,222.3,94.2z M186.35,94.65
	c-2.199-2.7-4.866-4.05-8-4.05c-3.133,0-5.816,1.35-8.05,4.05c-2.2,2.7-3.3,5.967-3.3,9.8c0,3.8,1.1,7.05,3.3,9.75
	c2.233,2.7,4.917,4.05,8.05,4.05c3.134,0,5.801-1.35,8-4.05c2.2-2.7,3.301-5.95,3.301-9.75
	C189.65,100.617,188.55,97.35,186.35,94.65z M216.9,12.45c6.267,7.1,11.716,17.85,16.35,32.25c3.267,10.167,6.884,25.033,10.85,44.6
	c5.334,26.333,8.801,42.817,10.4,49.45c5.267,21.967,11.75,49.167,19.45,81.6c6.533,26.067,14.233,53.25,23.1,81.551
	c10.7,34.033,17.667,56.783,20.9,68.25c5.133,18.233,8.149,32.25,9.05,42.05H1.5c-2.8-15.667-1.733-34.351,3.2-56.05
	c4.033-17.9,11-38.917,20.9-63.051c6-14.666,15.55-35.983,28.65-63.949c12.833-27.467,21.65-47.101,26.45-58.9
	c11.533-29.633,19.966-51.183,25.3-64.65c9.233-23.4,17.2-41.5,23.9-54.3c8.8-16.733,17.684-29.2,26.65-37.4
	C166.783,4.633,177.967,0,190.1,0C200.7,0,209.634,4.15,216.9,12.45z"/>
</svg>
