<?xml version="1.0" encoding="iso-8859-1"?>
<!-- Generator: Adobe Illustrator 15.1.0, SVG Export Plug-In . SVG Version: 6.00 Build 0)  -->
<!DOCTYPE svg PUBLIC "-//W3C//DTD SVG 1.1//EN" "http://www.w3.org/Graphics/SVG/1.1/DTD/svg11.dtd">
<svg version="1.1" id="Layer_1" xmlns="http://www.w3.org/2000/svg" xmlns:xlink="http://www.w3.org/1999/xlink" x="0px" y="0px"
	 width="165.65px" height="177.55px" viewBox="0 0 165.65 177.55" style="enable-background:new 0 0 165.65 177.55;"
	 xml:space="preserve">
<symbol  id="flash0.ai_x2F_Layer_1_x2F__x3C_Clip_Group_0_x3E_" viewBox="0.013 -169.696 130.475 169.831">
	<g id="Layer_1_12_">
	</g>
	<g>
		<defs>
			<path id="SVGID_1_" d="M129.9-157.9c-0.7,1.4-1.9,3.1-3.6,5.1c-2.1,2.367-3.716,4.25-4.85,5.65
				c-4.467,5.4-7.65,11.217-9.55,17.45c-2.467,8.067-4.833,20.2-7.1,36.4c-2.3,16.667-3.617,31.566-3.95,44.7
				c-0.367,14.667-3.967,27.017-10.8,37.05c-7.466,11-16.083,14.233-25.85,9.7c-11-5.1-17.684-18.167-20.05-39.2
				c-2.4-21.6-4.417-37.35-6.05-47.25c-3.3-20.167-7.033-33.517-11.2-40.05c-3.933-6.133-8.117-11.6-12.55-16.4
				c-2.467-2.7-6.117-6.617-10.95-11.75c-3.566-4.233-4.316-6.817-2.25-7.75c1.833-0.833,5.567-0.317,11.2,1.55
				c5.333,1.767,10.7,2.85,16.1,3.25c5.466,0.434,7.017-0.2,4.65-1.9c-1.2-0.833-1.517-1.783-0.95-2.85c0.533-1,1.767-1.95,3.7-2.85
				c4.566-2.1,10.333-2.95,17.3-2.55c8.767,0.5,19.333,2.967,31.7,7.4c6.767,2.434,11,3.9,12.7,4.4c4.333,1.3,7.967,1.95,10.9,1.95
				c4.033,0,9.683-1.2,16.95-3.6c2.367-0.767,3.85-1.1,4.45-1C130.683-160.35,130.7-159.5,129.9-157.9z"/>
		</defs>
		<clipPath id="SVGID_2_">
			<use xlink:href="#SVGID_1_"  style="overflow:visible;"/>
		</clipPath>
		<g id="Layer_3_1_" style="clip-path:url(#SVGID_2_);">
			
				<use xlink:href="#flash0.ai_x2F_Layer_1_x2F__x3C_Path_x3E__x5F_5"  width="33.85" height="5.732" y="-5.732" transform="matrix(1 0 0 1 54.8999 -3.5498)" style="overflow:visible;opacity:0.4414;enable-background:new    ;"/>
			
				<use xlink:href="#flash0.ai_x2F_Layer_1_x2F__x3C_Path_x3E__x5F_4"  width="45.65" height="8.772" y="-8.772" transform="matrix(1 0 0 1 49 -12.1499)" style="overflow:visible;opacity:0.4414;enable-background:new    ;"/>
			
				<use xlink:href="#flash0.ai_x2F_Layer_1_x2F__x3C_Path_x3E__x5F_3"  width="72.25" height="10.444" y="-10.444" transform="matrix(1 0 0 1 35.8501 -85)" style="overflow:visible;opacity:0.4414;enable-background:new    ;"/>
			
				<use xlink:href="#flash0.ai_x2F_Layer_1_x2F__x3C_Path_x3E__x5F_2"  width="72.25" height="10.394" y="-10.394" transform="matrix(1 0 0 1 36.8999 -80.2002)" style="overflow:visible;opacity:0.4414;enable-background:new    ;"/>
			
				<use xlink:href="#flash0.ai_x2F_Layer_1_x2F__x3C_Path_x3E__x5F_1"  width="73.6" height="14.905" y="-14.905" transform="matrix(1 0 0 1 37.6001 -58.2002)" style="overflow:visible;opacity:0.4414;enable-background:new    ;"/>
			
				<use xlink:href="#flash0.ai_x2F_Layer_1_x2F__x3C_Path_x3E_"  width="52.9" height="7.331" y="-7.331" transform="matrix(1 0 0 1 45.5498 -22.4502)" style="overflow:visible;opacity:0.4414;enable-background:new    ;"/>
		</g>
	</g>
	<g id="Layer_4_1_">
	</g>
</symbol>
<symbol  id="flash0.ai_x2F_Layer_1_x2F__x3C_Path_x3E_" viewBox="0 -7.331 52.9 7.331">
	<g id="Layer_1_9_">
		<path style="fill-rule:evenodd;clip-rule:evenodd;fill:#8566C7;" d="M52.55-3.45c-4.333-1.5-9.767-2.6-16.3-3.3
			C23.183-8.183,11.1-6.967,0-3.1l1.05,2.4c3.967-1.733,9.117-3,15.45-3.8C29.1-6.1,41.233-4.6,52.9,0L52.55-3.45z"/>
	</g>
</symbol>
<symbol  id="flash0.ai_x2F_Layer_1_x2F__x3C_Path_x3E__x5F_1" viewBox="0 -14.905 73.6 14.905">
	<g id="Layer_1_8_">
		<path style="fill-rule:evenodd;clip-rule:evenodd;fill:#8566C7;" d="M59.1-11.1c-6.567-2.2-14.05-3.45-22.45-3.75
			c-8.267-0.267-15.717,0.434-22.35,2.1C7.233-10.983,2.467-8.383,0-4.95L1.05-0.5c2.467-3.3,7.133-5.783,14-7.45
			c6.2-1.5,13.317-2.133,21.35-1.9C44.2-9.65,51.217-8.7,57.45-7c6.6,1.833,10.933,4.167,13,7l3.15-1.5
			C71.1-5.5,66.267-8.7,59.1-11.1z"/>
	</g>
</symbol>
<symbol  id="flash0.ai_x2F_Layer_1_x2F__x3C_Path_x3E__x5F_2" viewBox="0 -10.394 72.25 10.394">
	<g id="Layer_1_7_">
		<path style="fill-rule:evenodd;clip-rule:evenodd;fill:#8566C7;" d="M58-7.75c-6.4-1.533-13.733-2.4-22-2.6
			c-8.1-0.2-15.417,0.283-21.95,1.45C7.117-7.667,2.433-5.85,0-3.45l1.05,3.1c1.4-2.533,5.534-4.467,12.4-5.8
			c6.167-1.2,13.466-1.75,21.9-1.65c8.3,0.133,15.566,0.867,21.8,2.2c6.767,1.434,10.767,3.3,12,5.6l3.1-1.05
			C69.783-3.85,65.033-6.083,58-7.75z"/>
	</g>
</symbol>
<symbol  id="flash0.ai_x2F_Layer_1_x2F__x3C_Path_x3E__x5F_3" viewBox="0 -10.444 72.25 10.444">
	<g id="Layer_1_6_">
		<path style="fill-rule:evenodd;clip-rule:evenodd;fill:#8566C7;" d="M58-7.75c-6.4-1.567-13.733-2.45-22-2.65
			c-8.133-0.2-15.45,0.283-21.95,1.45C7.117-7.683,2.433-5.85,0-3.45l1.05,3.1c1.4-2.533,5.534-4.467,12.4-5.8
			c6.2-1.233,13.5-1.783,21.9-1.65c8.3,0.1,15.566,0.816,21.8,2.15c6.767,1.467,10.767,3.35,12,5.65l3.1-1.05
			C69.783-3.85,65.033-6.083,58-7.75z"/>
	</g>
</symbol>
<symbol  id="flash0.ai_x2F_Layer_1_x2F__x3C_Path_x3E__x5F_4" viewBox="0 -8.772 45.65 8.772">
	<g id="Layer_1_5_">
		<path style="fill-rule:evenodd;clip-rule:evenodd;fill:#8566C7;" d="M45.65-4.15C42.883-5.75,38.9-7,33.7-7.9
			C23.333-9.667,12.1-8.75,0-5.15L2.75-0.7c3.967-1.2,8.6-2.066,13.9-2.6c10.6-1.1,19.217,0,25.85,3.3L45.65-4.15z"/>
	</g>
</symbol>
<symbol  id="flash0.ai_x2F_Layer_1_x2F__x3C_Path_x3E__x5F_4_x5F_0" viewBox="0 -15.95 13.3 15.95">
	<g id="Layer_1_11_">
		<path style="fill-rule:evenodd;clip-rule:evenodd;fill:#C3A331;" d="M13.3-7.95c0-2.233-0.65-4.117-1.95-5.65
			c-1.3-1.566-2.867-2.35-4.7-2.35c-1.833,0-3.4,0.784-4.7,2.35C0.65-12.067,0-10.183,0-7.95c0,2.2,0.65,4.067,1.95,5.6
			C3.25-0.783,4.817,0,6.65,0c1.833,0,3.4-0.783,4.7-2.35C12.65-3.883,13.3-5.75,13.3-7.95z"/>
	</g>
</symbol>
<symbol  id="flash0.ai_x2F_Layer_1_x2F__x3C_Path_x3E__x5F_5" viewBox="0 -5.732 33.85 5.732">
	<g id="Layer_1_4_">
		<path style="fill-rule:evenodd;clip-rule:evenodd;fill:#8566C7;" d="M4.15-0.35C6.283-0.917,8.933-1.333,12.1-1.6
			c6.3-0.533,12.05,0,17.25,1.6l4.5-3.45c-3-0.933-6.65-1.6-10.95-2C14.267-6.25,6.633-5.35,0-2.75L4.15-0.35z"/>
	</g>
</symbol>
<symbol  id="flash0.ai_x2F_Layer_1_x2F__x3C_Path_x3E__x5F_5_x5F_0" viewBox="0 -16 13.3 16">
	<g id="Layer_1_10_">
		<path style="fill-rule:evenodd;clip-rule:evenodd;fill:#C3A331;" d="M13.3-8c0-2.2-0.65-4.083-1.95-5.65
			C10.05-15.217,8.483-16,6.65-16c-1.833,0-3.4,0.783-4.7,2.35C0.65-12.083,0-10.2,0-8s0.65,4.083,1.95,5.65
			C3.25-0.783,4.817,0,6.65,0c1.833,0,3.4-0.783,4.7-2.35C12.65-3.917,13.3-5.8,13.3-8z"/>
	</g>
</symbol>
<symbol  id="flash0.ai_x2F_Layer_1_x2F__x3C_Path_x3E__x5F_7" viewBox="0.032 -39.301 150.947 39.308">
	<g id="Layer_1_3_">
		<path style="fill-rule:evenodd;clip-rule:evenodd;fill:#40454D;" d="M125.2-14.05c4.167-1.833,7.8-3.55,10.9-5.15
			c14.167-8.633,18.217-12.267,12.15-10.9c-1.333,0.3-4.917,1.2-10.75,2.7c-5.033,1.3-8.633,2.167-10.8,2.6
			c-4.034,0.733-8.65,0.583-13.85-0.45c-2.1-0.433-6.6-1.65-13.5-3.65c-1.5-0.434-6.467-2.033-14.9-4.8
			c-6.034-1.966-11.067-3.333-15.1-4.1c-5.533-1.034-10.533-1.534-15-1.5c-7.233,0.033-11.733,1.55-13.5,4.55
			c-0.3,0.533-0.283,1.333,0.05,2.4c0.367,1.233,0.5,2.1,0.4,2.6c-0.667,2.9-3.433,3.817-8.3,2.75
			c-5.467-1.833-8.933-2.967-10.4-3.4c-4-1.333-7.067-2.267-9.2-2.8c-3.733-0.9-6.883-1.017-9.45-0.35
			c-2.467,0.633-3.767,1.617-3.9,2.95c-0.167,1.367,0.833,2.767,3,4.2c8.833,5.767,17.45,10.217,25.85,13.35
			c9.333,3.466,20.333,6.066,33,7.8c1.267,0.167,3.4,1.117,6.4,2.85c2.767,1.566,4.934,2.367,6.5,2.4
			c11.267,0.167,24.367-2.933,39.3-9.3C120.467-12.033,124.167-13.617,125.2-14.05z"/>
	</g>
</symbol>
<symbol  id="flash0.ai_x2F_Layer_1_x2F__x3C_Path_x3E__x5F_8" viewBox="-0.001 -49.147 165.633 49.155">
	<g id="Layer_1_2_">
		<path style="fill-rule:evenodd;clip-rule:evenodd;fill:#717773;" d="M165.4-39.6c0.533-1.8,0.15-2.767-1.15-2.9
			c-1-0.1-3.1,0.333-6.3,1.3c-10.767,3.3-19.017,5.267-24.75,5.9c-3.534,0.367-7.85-0.05-12.95-1.25
			c-2.833-0.667-7.883-2.167-15.15-4.5c-15.233-4.867-27.817-7.534-37.75-8c-8.3-0.4-15.167,0.433-20.6,2.5
			c-2.3,0.9-3.767,1.867-4.4,2.9c-0.667,1.066-0.3,2.017,1.1,2.85c2.833,1.667,1,2.283-5.5,1.85c-6.434-0.4-12.817-1.483-19.15-3.25
			c-6.533-1.833-11.867-1.767-16,0.2c-1.9,0.9-2.833,2.05-2.8,3.45c0.033,1.566,1.25,3.267,3.65,5.1
			c9.633,7.333,19.033,12.983,28.2,16.95c10.2,4.4,22.217,7.7,36.05,9.9c1.4,0.2,3.733,1.367,7,3.5C77.933-1.067,80.3-0.033,82,0
			c12.367,0.2,26.683-3.717,42.95-11.75c12.133-6.033,20.05-10.167,23.75-12.4C158.5-30.017,164.067-35.167,165.4-39.6z"/>
	</g>
</symbol>
<g>
	
		<use xlink:href="#flash0.ai_x2F_Layer_1_x2F__x3C_Path_x3E__x5F_8"  width="165.633" height="49.155" x="-0.001" y="-49.147" transform="matrix(1 0 0 -1 0 128.4004)" style="overflow:visible;opacity:0.25;enable-background:new    ;"/>
	
		<use xlink:href="#flash0.ai_x2F_Layer_1_x2F__x3C_Path_x3E__x5F_7"  width="150.947" height="39.308" x="0.032" y="-39.301" transform="matrix(1 0 0 -1 6.5 135.0996)" style="overflow:visible;opacity:0.2305;enable-background:new    ;"/>
	
		<linearGradient id="SVGID_3_" gradientUnits="userSpaceOnUse" x1="-154.2036" y1="96.7539" x2="-8.1881" y2="96.7539" gradientTransform="matrix(0.0954 -0.9954 0.9954 0.0954 5.917251e-005 -4.707277e-004)">
		<stop  offset="0" style="stop-color:#471A54"/>
		<stop  offset="0.3765" style="stop-color:#633B7D"/>
		<stop  offset="1" style="stop-color:#AB94B5"/>
	</linearGradient>
	<path style="fill-rule:evenodd;clip-rule:evenodd;fill:url(#SVGID_3_);" d="M106.55,11.7c6.834,10.033,10.434,22.383,10.8,37.05
		c0.334,13.133,1.65,28.033,3.95,44.7c2.267,16.2,4.634,28.333,7.101,36.399c1.899,6.233,5.083,12.051,9.55,17.45
		c1.133,1.4,2.75,3.283,4.85,5.65c1.7,2,2.9,3.7,3.601,5.1c0.8,1.601,0.783,2.45-0.051,2.55c-0.6,0.101-2.083-0.233-4.449-1
		c-7.267-2.399-12.917-3.6-16.95-3.6c-2.934,0-6.566,0.65-10.9,1.95c-1.7,0.5-5.934,1.967-12.7,4.399
		c-12.366,4.434-22.933,6.9-31.7,7.4c-6.967,0.4-12.733-0.45-17.3-2.55c-1.934-0.9-3.167-1.851-3.7-2.851
		c-0.566-1.066-0.25-2.017,0.95-2.85c2.367-1.7,0.816-2.333-4.65-1.9c-5.4,0.4-10.767,1.483-16.1,3.25
		c-5.633,1.867-9.367,2.384-11.2,1.551c-2.066-0.934-1.316-3.517,2.25-7.75c4.833-5.134,8.483-9.051,10.95-11.75
		c4.433-4.801,8.617-10.267,12.55-16.4c4.167-6.533,7.9-19.884,11.2-40.05c1.633-9.9,3.65-25.65,6.05-47.25
		C63.017,20.167,69.7,7.1,80.7,2C90.467-2.533,99.083,0.7,106.55,11.7z"/>
	
		<use xlink:href="#flash0.ai_x2F_Layer_1_x2F__x3C_Clip_Group_0_x3E_"  width="130.475" height="169.831" x="0.013" y="-169.696" transform="matrix(1 0 0 -1 16.5 0.1499)" style="overflow:visible;"/>
	
		<use xlink:href="#flash0.ai_x2F_Layer_1_x2F__x3C_Path_x3E__x5F_5_x5F_0"  width="13.3" height="16" y="-16" transform="matrix(1 0 0 -1 72.0498 39.1001)" style="overflow:visible;opacity:0.4688;enable-background:new    ;"/>
	
		<use xlink:href="#flash0.ai_x2F_Layer_1_x2F__x3C_Path_x3E__x5F_4_x5F_0"  width="13.3" height="15.95" y="-15.95" transform="matrix(1 0 0 -1 91.4502 39.2998)" style="overflow:visible;opacity:0.4688;enable-background:new    ;"/>
	
		<linearGradient id="SVGID_4_" gradientUnits="userSpaceOnUse" x1="-48.3613" y1="81.6699" x2="-35.4583" y2="81.6699" gradientTransform="matrix(0.0659 -0.9978 0.9978 0.0659 1.076758e-004 4.815385e-004)">
		<stop  offset="0" style="stop-color:#CCE4E4"/>
		<stop  offset="1" style="stop-color:#B8D9BD"/>
	</linearGradient>
	<path style="fill-rule:evenodd;clip-rule:evenodd;fill:url(#SVGID_4_);" d="M84.5,47.3c0,1.9-0.55,3.534-1.65,4.9
		c-1.133,1.367-2.5,2.05-4.1,2.05s-2.967-0.683-4.1-2.05s-1.7-3-1.7-4.9c0-1.933,0.566-3.583,1.7-4.95s2.5-2.05,4.1-2.05
		s2.967,0.684,4.1,2.05C83.95,43.717,84.5,45.367,84.5,47.3z"/>
	
		<linearGradient id="SVGID_5_" gradientUnits="userSpaceOnUse" x1="-45.2632" y1="101.0332" x2="-33.3827" y2="101.0332" gradientTransform="matrix(0.0715 -0.9974 0.9974 0.0715 2.948940e-005 3.772378e-004)">
		<stop  offset="0" style="stop-color:#CCE4E4"/>
		<stop  offset="1" style="stop-color:#B8D9BD"/>
	</linearGradient>
	<path style="fill-rule:evenodd;clip-rule:evenodd;fill:url(#SVGID_5_);" d="M103.7,47.3c0,1.9-0.566,3.534-1.7,4.9
		s-2.5,2.05-4.1,2.05c-1.601,0-2.967-0.683-4.101-2.05c-1.133-1.367-1.7-3-1.7-4.9c0-1.933,0.567-3.583,1.7-4.95
		c1.134-1.367,2.5-2.05,4.101-2.05c1.6,0,2.966,0.684,4.1,2.05S103.7,45.367,103.7,47.3z"/>
	<linearGradient id="SVGID_6_" gradientUnits="userSpaceOnUse" x1="76.4751" y1="43.75" x2="80.625" y2="43.75">
		<stop  offset="0" style="stop-color:#242224"/>
		<stop  offset="0.2392" style="stop-color:#27252E"/>
		<stop  offset="0.6392" style="stop-color:#302E49"/>
		<stop  offset="1" style="stop-color:#3A3866"/>
	</linearGradient>
	<path style="fill-rule:evenodd;clip-rule:evenodd;fill:url(#SVGID_6_);" d="M80.65,43.75c0,0.867-0.2,1.6-0.6,2.2
		c-0.433,0.6-0.933,0.9-1.5,0.9c-0.566,0-1.05-0.3-1.45-0.9c-0.4-0.6-0.6-1.333-0.6-2.2s0.2-1.6,0.6-2.2c0.4-0.6,0.883-0.9,1.45-0.9
		c0.567,0,1.067,0.3,1.5,0.9C80.45,42.183,80.65,42.917,80.65,43.75z"/>
	<linearGradient id="SVGID_7_" gradientUnits="userSpaceOnUse" x1="95.1875" y1="44.2002" x2="99.3125" y2="44.2002">
		<stop  offset="0" style="stop-color:#242224"/>
		<stop  offset="0.2392" style="stop-color:#27252E"/>
		<stop  offset="0.6392" style="stop-color:#302E49"/>
		<stop  offset="1" style="stop-color:#3A3866"/>
	</linearGradient>
	<path style="fill-rule:evenodd;clip-rule:evenodd;fill:url(#SVGID_7_);" d="M99.3,44.2c0,0.867-0.2,1.6-0.6,2.2
		c-0.4,0.6-0.884,0.9-1.45,0.9s-1.066-0.3-1.5-0.9c-0.4-0.6-0.6-1.333-0.6-2.2c0-0.833,0.199-1.567,0.6-2.2
		c0.434-0.6,0.934-0.9,1.5-0.9s1.05,0.3,1.45,0.9C99.1,42.6,99.3,43.333,99.3,44.2z"/>
</g>
</svg>
