<?xml version="1.0" encoding="iso-8859-1"?>
<!-- Generator: Adobe Illustrator 15.1.0, SVG Export Plug-In . SVG Version: 6.00 Build 0)  -->
<!DOCTYPE svg PUBLIC "-//W3C//DTD SVG 1.1//EN" "http://www.w3.org/Graphics/SVG/1.1/DTD/svg11.dtd">
<svg version="1.1" id="Layer_3" xmlns="http://www.w3.org/2000/svg" xmlns:xlink="http://www.w3.org/1999/xlink" x="0px" y="0px"
	 width="183.35px" height="127px" viewBox="0 0 183.35 127" style="enable-background:new 0 0 183.35 127;" xml:space="preserve">
<symbol  id="flash0.ai_x2F_Layer_3_x2F__x3C_Path_x3E_" viewBox="-0.003 -9.174 5.915 9.194">
	<g id="Layer_1_28_">
		<path style="fill-rule:evenodd;clip-rule:evenodd;fill:#1F1A1C;" d="M4.25-0.25c0.867-0.267,1.383-0.567,1.55-0.9
			C5.9-1.283,5.933-2.233,5.9-4C5.867-5.733,5.8-6.733,5.7-7C5.533-7.433,4.917-7.933,3.85-8.5C2.817-9.033,2.133-9.25,1.8-9.15
			C1.533-9.117,1.167-8.467,0.7-7.2C0.2-5.933-0.033-5.05,0-4.55C0-4.083,0.383-3.267,1.15-2.1c0.667,1.033,1.167,1.7,1.5,2
			C2.85,0.1,3.383,0.05,4.25-0.25z"/>
	</g>
</symbol>
<symbol  id="flash0.ai_x2F_Layer_3_x2F__x3C_Path_x3E__x5F_0" viewBox="0 -2.756 2.95 2.811">
	<g id="Layer_1_34_">
		
			<radialGradient id="SVGID_1_" cx="-3307.625" cy="-9348.0156" r="1.2006" gradientTransform="matrix(0.6266 -0.7793 -1.0328 -0.8304 -7580.4766 -10341.6367)" gradientUnits="userSpaceOnUse">
			<stop  offset="0" style="stop-color:#FFFFFF"/>
			<stop  offset="0.0745" style="stop-color:#F8F8F8;stop-opacity:0.9686"/>
			<stop  offset="0.1843" style="stop-color:#E4E4E4;stop-opacity:0.8824"/>
			<stop  offset="0.3137" style="stop-color:#C4C3C4;stop-opacity:0.7412"/>
			<stop  offset="0.4588" style="stop-color:#979697;stop-opacity:0.549"/>
			<stop  offset="0.6196" style="stop-color:#5D5C5D;stop-opacity:0.298"/>
			<stop  offset="0.7922" style="stop-color:#181618;stop-opacity:0"/>
			<stop  offset="0.7922" style="stop-color:#171517;stop-opacity:0"/>
		</radialGradient>
		<path style="fill-rule:evenodd;clip-rule:evenodd;fill:url(#SVGID_1_);" d="M2.2-2.25c-0.333-0.3-0.7-0.467-1.1-0.5
			S0.4-2.667,0.2-2.4C0-2.167-0.05-1.85,0.05-1.45c0.133,0.4,0.367,0.733,0.7,1c0.333,0.3,0.7,0.467,1.1,0.5
			c0.4,0.034,0.7-0.083,0.9-0.35C2.95-0.567,3-0.9,2.9-1.3C2.8-1.667,2.567-1.983,2.2-2.25z"/>
	</g>
</symbol>
<symbol  id="flash0.ai_x2F_Layer_3_x2F__x3C_Path_x3E__x5F_1" viewBox="-0.02 -19.361 14.014 19.404">
	<g id="Layer_1_2_">
		
			<radialGradient id="SVGID_2_" cx="-1695.5918" cy="-2192.3159" r="13.1182" gradientTransform="matrix(0.9709 -0.2393 -0.3295 -1.3369 933.438 -3357.1299)" gradientUnits="userSpaceOnUse">
			<stop  offset="0" style="stop-color:#43485A"/>
			<stop  offset="0.4314" style="stop-color:#3D2940"/>
			<stop  offset="0.6" style="stop-color:#2D212F"/>
			<stop  offset="0.8314" style="stop-color:#1D181D"/>
			<stop  offset="1" style="stop-color:#171517"/>
		</radialGradient>
		<path style="fill-rule:evenodd;clip-rule:evenodd;fill:url(#SVGID_2_);" d="M13.55-11.25c-0.633-2.633-1.833-4.733-3.6-6.3
			c-1.733-1.567-3.5-2.117-5.3-1.65c-1.833,0.434-3.167,1.75-4,3.95c-0.8,2.167-0.883,4.567-0.25,7.2S2.233-3.317,4-1.75
			C5.733-0.217,7.517,0.333,9.35-0.1c1.8-0.467,3.117-1.783,3.95-3.95C14.133-6.217,14.217-8.617,13.55-11.25z"/>
	</g>
</symbol>
<symbol  id="flash0.ai_x2F_Layer_3_x2F__x3C_Path_x3E__x5F_10" viewBox="-0.019 -8.1 8.283 8.106">
	<g id="Layer_1_18_">
		<path style="fill-rule:evenodd;clip-rule:evenodd;fill:#1F1A1C;" d="M4.55-0.05c1.233-0.1,2.017-0.267,2.35-0.5
			c0.167-0.133,0.45-0.934,0.85-2.4c0.4-1.5,0.567-2.367,0.5-2.6c-0.1-0.4-0.783-0.934-2.05-1.6C5-7.783,4.167-8.1,3.7-8.1
			c-0.4,0-1.083,0.5-2.05,1.5C0.683-5.633,0.133-4.917,0-4.45c-0.1,0.4,0.2,1.167,0.9,2.3c0.6,0.967,1.1,1.633,1.5,2
			C2.633,0.017,3.35,0.05,4.55-0.05z"/>
	</g>
</symbol>
<symbol  id="flash0.ai_x2F_Layer_3_x2F__x3C_Path_x3E__x5F_11" viewBox="-0.018 -8.1 8.331 8.1">
	<g id="Layer_1_17_">
		<path style="fill-rule:evenodd;clip-rule:evenodd;fill:#1F1A1C;" d="M6.9-0.55C7.067-0.683,7.35-1.5,7.75-3
			C8.183-4.467,8.367-5.333,8.3-5.6C8.2-6,7.517-6.517,6.25-7.15C5.017-7.783,4.167-8.1,3.7-8.1c-0.4,0-1.083,0.5-2.05,1.5
			C0.683-5.633,0.133-4.917,0-4.45C-0.1-4.05,0.217-3.3,0.95-2.2c0.6,1,1.1,1.667,1.5,2C2.683,0,3.4,0.05,4.6-0.05
			C5.8-0.15,6.567-0.317,6.9-0.55z"/>
	</g>
</symbol>
<symbol  id="flash0.ai_x2F_Layer_3_x2F__x3C_Path_x3E__x5F_12" viewBox="-0.011 -6 6.179 5.983">
	<g id="Layer_1_16_">
		<path style="fill-rule:evenodd;clip-rule:evenodd;fill:#1F1A1C;" d="M5.1-0.4c0.133-0.1,0.367-0.7,0.7-1.8
			c0.3-1.1,0.417-1.75,0.35-1.95C6.083-4.417,5.567-4.8,4.6-5.3C3.7-5.767,3.083-6,2.75-6c-0.3,0-0.8,0.367-1.5,1.1
			C0.517-4.167,0.1-3.633,0-3.3C-0.067-3,0.167-2.433,0.7-1.6c0.466,0.733,0.833,1.217,1.1,1.45c0.167,0.133,0.7,0.167,1.6,0.1
			C4.267-0.117,4.833-0.233,5.1-0.4z"/>
	</g>
</symbol>
<symbol  id="flash0.ai_x2F_Layer_3_x2F__x3C_Path_x3E__x5F_13" viewBox="-0.05 -10.95 10.921 10.906">
	<g id="Layer_1_15_">
		<path style="fill-rule:evenodd;clip-rule:evenodd;fill:#1F1A1C;" d="M6-0.05c0.4,0.066,1.267-0.4,2.6-1.4
			c1.3-1.033,2.05-1.816,2.25-2.35c0.1-0.267-0.167-1.4-0.8-3.4s-1.083-3.117-1.35-3.35c-0.4-0.4-1.583-0.5-3.55-0.3
			c-1.867,0.2-3.05,0.467-3.55,0.8C1.133-9.75,0.717-8.667,0.35-6.8c-0.4,1.833-0.5,3.05-0.3,3.65C0.217-2.617,1.133-1.967,2.8-1.2
			C4.233-0.533,5.3-0.15,6-0.05z"/>
	</g>
</symbol>
<symbol  id="flash0.ai_x2F_Layer_3_x2F__x3C_Path_x3E__x5F_14" viewBox="-0.006 -9.783 9.728 9.785">
	<g id="Layer_1_14_">
		<path style="fill-rule:evenodd;clip-rule:evenodd;fill:#1F1A1C;" d="M7.7-1.3c1.167-0.9,1.833-1.583,2-2.05
			C9.8-3.583,9.567-4.6,9-6.4C8.433-8.2,8.033-9.217,7.8-9.45C7.467-9.783,6.417-9.867,4.65-9.7c-1.667,0.2-2.733,0.45-3.2,0.75
			c-0.4,0.233-0.767,1.184-1.1,2.85C-0.017-4.467-0.1-3.367,0.1-2.8c0.133,0.466,0.933,1.05,2.4,1.75C3.8-0.45,4.767-0.1,5.4,0
			C5.767,0.033,6.533-0.4,7.7-1.3z"/>
	</g>
</symbol>
<symbol  id="flash0.ai_x2F_Layer_3_x2F__x3C_Path_x3E__x5F_15" viewBox="0.025 -10.7 10.937 10.717">
	<g id="Layer_1_13_">
		<path style="fill-rule:evenodd;clip-rule:evenodd;fill:#1F1A1C;" d="M10.3-3.9c0.5-1.967,0.717-3.117,0.65-3.45
			c-0.1-0.533-1-1.233-2.7-2.1C6.617-10.283,5.5-10.7,4.9-10.7c-0.533,0-1.433,0.65-2.7,1.95C0.933-7.45,0.217-6.5,0.05-5.9
			c-0.133,0.533,0.267,1.55,1.2,3.05c0.8,1.3,1.45,2.167,1.95,2.6c0.3,0.267,1.25,0.333,2.85,0.2c1.6-0.133,2.633-0.367,3.1-0.7
			C9.383-0.883,9.767-1.933,10.3-3.9z"/>
	</g>
</symbol>
<symbol  id="flash0.ai_x2F_Layer_3_x2F__x3C_Path_x3E__x5F_16" viewBox="-0.028 -15 15.396 15.028">
	<g id="Layer_1_12_">
		<path style="fill-rule:evenodd;clip-rule:evenodd;fill:#1F1A1C;" d="M8.45-0.05c2.267-0.2,3.716-0.534,4.35-1
			c0.333-0.233,0.867-1.717,1.6-4.45s1.05-4.35,0.95-4.85c-0.167-0.733-1.434-1.717-3.8-2.95C9.283-14.433,7.717-15,6.85-15
			c-0.733,0-2,0.917-3.8,2.75c-1.8,1.8-2.816,3.133-3.05,4C-0.167-7.517,0.4-6.1,1.7-4c1.167,1.867,2.1,3.083,2.8,3.65
			C4.9,0.017,6.217,0.117,8.45-0.05z"/>
	</g>
</symbol>
<symbol  id="flash0.ai_x2F_Layer_3_x2F__x3C_Path_x3E__x5F_17" viewBox="0.021 -15.05 15.396 15.056">
	<g id="Layer_1_11_">
		<path style="fill-rule:evenodd;clip-rule:evenodd;fill:#1F1A1C;" d="M12.85-1.05c0.333-0.233,0.867-1.733,1.6-4.5
			c0.733-2.733,1.05-4.333,0.95-4.8c-0.167-0.733-1.45-1.717-3.85-2.95c-2.267-1.167-3.833-1.75-4.7-1.75c-0.733,0-2,0.933-3.8,2.8
			c-1.767,1.8-2.767,3.133-3,4c-0.167,0.7,0.4,2.1,1.7,4.2c1.167,1.833,2.1,3.066,2.8,3.7C4.95,0.017,6.267,0.1,8.5-0.1
			C10.767-0.267,12.217-0.583,12.85-1.05z"/>
	</g>
</symbol>
<symbol  id="flash0.ai_x2F_Layer_3_x2F__x3C_Path_x3E__x5F_18" viewBox="-0.016 -9.7 9.978 9.723">
	<g id="Layer_1_10_">
		<path style="fill-rule:evenodd;clip-rule:evenodd;fill:#1F1A1C;" d="M5.5-0.05c1.433-0.1,2.367-0.3,2.8-0.6
			c0.2-0.133,0.534-1.1,1-2.9c0.5-1.8,0.717-2.85,0.65-3.15c-0.1-0.466-0.934-1.1-2.5-1.9C5.983-9.333,4.967-9.7,4.4-9.7
			c-0.467,0-1.283,0.6-2.45,1.8C0.817-6.767,0.167-5.917,0-5.35C-0.1-4.883,0.267-3.967,1.1-2.6c0.733,1.2,1.333,2,1.8,2.4
			C3.167,0.033,4.033,0.083,5.5-0.05z"/>
	</g>
</symbol>
<symbol  id="flash0.ai_x2F_Layer_3_x2F__x3C_Path_x3E__x5F_19" viewBox="-0.027 -9.9 10.089 9.873">
	<g id="Layer_1_9_">
		<path style="fill-rule:evenodd;clip-rule:evenodd;fill:#1F1A1C;" d="M5.55-0.1C7.017-0.2,7.967-0.4,8.4-0.7
			c0.2-0.167,0.55-1.15,1.05-2.95c0.466-1.8,0.667-2.85,0.6-3.15c-0.1-0.5-0.933-1.15-2.5-1.95C6.05-9.517,5.017-9.9,4.45-9.9
			C3.983-9.9,3.167-9.283,2-8.05c-1.167,1.167-1.833,2.033-2,2.6C-0.133-4.983,0.233-4.067,1.1-2.7
			c0.767,1.233,1.383,2.05,1.85,2.45C3.217-0.017,4.083,0.033,5.55-0.1z"/>
	</g>
</symbol>
<symbol  id="flash0.ai_x2F_Layer_3_x2F__x3C_Path_x3E__x5F_1_x5F_0" viewBox="-0.006 -13.631 8.118 13.661">
	<g id="Layer_1_3_">
		
			<radialGradient id="SVGID_3_" cx="2.25" cy="-14.1001" r="7.6695" gradientTransform="matrix(-0.9877 -0.1566 0.2589 -1.6331 8.124 -36.7749)" gradientUnits="userSpaceOnUse">
			<stop  offset="0" style="stop-color:#43485A"/>
			<stop  offset="0.4314" style="stop-color:#3D2940"/>
			<stop  offset="0.6" style="stop-color:#2D212F"/>
			<stop  offset="0.8314" style="stop-color:#1D181D"/>
			<stop  offset="1" style="stop-color:#171517"/>
		</radialGradient>
		<path style="fill-rule:evenodd;clip-rule:evenodd;fill:url(#SVGID_3_);" d="M0.55-2.45C1.083-0.983,1.9-0.167,3,0
			c1.067,0.167,2.083-0.35,3.05-1.55c0.967-1.233,1.6-2.784,1.9-4.65c0.3-1.867,0.183-3.533-0.35-5
			c-0.567-1.466-1.383-2.267-2.45-2.4c-1.066-0.167-2.1,0.35-3.1,1.55c-0.966,1.2-1.6,2.733-1.9,4.6
			C-0.15-5.583-0.017-3.917,0.55-2.45z"/>
	</g>
</symbol>
<symbol  id="flash0.ai_x2F_Layer_3_x2F__x3C_Path_x3E__x5F_1_x5F_1" viewBox="-0.002 -8.2 6.755 8.202">
	<g id="Layer_1_4_">
		
			<radialGradient id="SVGID_4_" cx="99.8413" cy="84.3848" r="6.5754" gradientTransform="matrix(0.9999 0.0115 0.0132 -1.1482 -94.998 87.5928)" gradientUnits="userSpaceOnUse">
			<stop  offset="0" style="stop-color:#43485A"/>
			<stop  offset="0.4314" style="stop-color:#3D2940"/>
			<stop  offset="0.6" style="stop-color:#2D212F"/>
			<stop  offset="0.8314" style="stop-color:#1D181D"/>
			<stop  offset="1" style="stop-color:#171517"/>
		</radialGradient>
		<path style="fill-rule:evenodd;clip-rule:evenodd;fill:url(#SVGID_4_);" d="M6.75-4.05C6.783-5.217,6.467-6.2,5.8-7
			C5.167-7.8,4.367-8.2,3.4-8.2C2.467-8.2,1.667-7.8,1-7C0.333-6.233,0-5.283,0-4.15C-0.033-3.017,0.283-2.033,0.95-1.2
			C1.583-0.4,2.367,0,3.3,0c0.934,0.033,1.75-0.35,2.45-1.15C6.417-1.95,6.75-2.917,6.75-4.05z"/>
	</g>
</symbol>
<symbol  id="flash0.ai_x2F_Layer_3_x2F__x3C_Path_x3E__x5F_1_x5F_2" viewBox="0.012 -14.356 6.926 14.361">
	<g id="Layer_1_5_">
		
			<radialGradient id="SVGID_5_" cx="-1943.71" cy="-2605.6357" r="5.625" gradientTransform="matrix(0.96 -0.2799 -0.6803 -2.3333 96.9717 -6638.5566)" gradientUnits="userSpaceOnUse">
			<stop  offset="0" style="stop-color:#43485A"/>
			<stop  offset="0.4314" style="stop-color:#3D2940"/>
			<stop  offset="0.6" style="stop-color:#2D212F"/>
			<stop  offset="0.8314" style="stop-color:#1D181D"/>
			<stop  offset="1" style="stop-color:#171517"/>
		</radialGradient>
		<path style="fill-rule:evenodd;clip-rule:evenodd;fill:url(#SVGID_5_);" d="M6.25-7.95C5.683-9.917,4.933-11.533,4-12.8
			c-0.967-1.233-1.833-1.733-2.6-1.5c-0.767,0.233-1.217,1.117-1.35,2.65c-0.133,1.566,0.083,3.333,0.65,5.3
			C1.267-4.383,2.033-2.783,3-1.55c0.933,1.233,1.783,1.733,2.55,1.5C6.317-0.283,6.767-1.167,6.9-2.7
			C7.033-4.233,6.817-5.983,6.25-7.95z"/>
	</g>
</symbol>
<symbol  id="flash0.ai_x2F_Layer_3_x2F__x3C_Path_x3E__x5F_1_x5F_3" viewBox="-0.011 -15.834 15.716 15.846">
	<g id="Layer_1_27_">
		<path style="fill-rule:evenodd;clip-rule:evenodd;fill:#1F1A1C;" d="M10.1,0c0.566-0.067,1.617-1,3.15-2.8
			c1.5-1.833,2.317-3.167,2.45-4c0.066-0.434-0.667-1.95-2.2-4.55s-2.517-4.033-2.95-4.3c-0.7-0.4-2.383-0.15-5.05,0.75
			c-2.567,0.867-4.167,1.617-4.8,2.25C0.167-12.083-0.067-10.433,0-7.7C0.033-5,0.3-3.267,0.8-2.5c0.4,0.7,1.883,1.317,4.45,1.85
			C7.45-0.15,9.067,0.067,10.1,0z"/>
	</g>
</symbol>
<symbol  id="flash0.ai_x2F_Layer_3_x2F__x3C_Path_x3E__x5F_1_x5F_4" viewBox="0 -2.805 2.95 2.811">
	<g id="Layer_1_33_">
		
			<radialGradient id="SVGID_6_" cx="-3307.5859" cy="-9348.0469" r="1.2006" gradientTransform="matrix(0.6266 -0.7793 -1.0328 -0.8304 -7580.5322 -10341.6826)" gradientUnits="userSpaceOnUse">
			<stop  offset="0" style="stop-color:#FFFFFF"/>
			<stop  offset="0.0745" style="stop-color:#F8F8F8;stop-opacity:0.9686"/>
			<stop  offset="0.1843" style="stop-color:#E4E4E4;stop-opacity:0.8824"/>
			<stop  offset="0.3137" style="stop-color:#C4C3C4;stop-opacity:0.7412"/>
			<stop  offset="0.4588" style="stop-color:#979697;stop-opacity:0.549"/>
			<stop  offset="0.6196" style="stop-color:#5D5C5D;stop-opacity:0.298"/>
			<stop  offset="0.7922" style="stop-color:#181618;stop-opacity:0"/>
			<stop  offset="0.7922" style="stop-color:#171517;stop-opacity:0"/>
		</radialGradient>
		<path style="fill-rule:evenodd;clip-rule:evenodd;fill:url(#SVGID_6_);" d="M2.2-2.3C1.867-2.6,1.5-2.767,1.1-2.8
			C0.7-2.833,0.4-2.717,0.2-2.45C0-2.183-0.05-1.867,0.05-1.5c0.1,0.4,0.333,0.733,0.7,1c0.333,0.3,0.7,0.467,1.1,0.5
			s0.7-0.083,0.9-0.35S3-0.933,2.9-1.3C2.8-1.7,2.567-2.033,2.2-2.3z"/>
	</g>
</symbol>
<symbol  id="flash0.ai_x2F_Layer_3_x2F__x3C_Path_x3E__x5F_2" viewBox="-0.011 -7.85 7.775 7.874">
	<g id="Layer_1_26_">
		<path style="fill-rule:evenodd;clip-rule:evenodd;fill:#1F1A1C;" d="M5.75-0.65c1.067-0.533,1.717-0.967,1.95-1.3
			c0.1-0.167,0.083-1-0.05-2.5c-0.167-1.5-0.316-2.367-0.45-2.6c-0.233-0.333-1.05-0.567-2.45-0.7c-1.333-0.133-2.217-0.133-2.65,0
			c-0.367,0.133-0.817,0.833-1.35,2.1C0.183-4.417-0.067-3.567,0-3.1c0.033,0.4,0.583,0.983,1.65,1.75C2.517-0.65,3.2-0.2,3.7,0
			C3.967,0.1,4.65-0.117,5.75-0.65z"/>
	</g>
</symbol>
<symbol  id="flash0.ai_x2F_Layer_3_x2F__x3C_Path_x3E__x5F_20" viewBox="-0.012 -5.65 5.817 5.683">
	<g id="Layer_1_8_">
		<path style="fill-rule:evenodd;clip-rule:evenodd;fill:#1F1A1C;" d="M3.2,0c0.833-0.067,1.367-0.183,1.6-0.35
			c0.133-0.1,0.333-0.667,0.6-1.7C5.7-3.083,5.833-3.7,5.8-3.9C5.733-4.167,5.25-4.533,4.35-5c-0.867-0.433-1.467-0.65-1.8-0.65
			c-0.267,0-0.733,0.35-1.4,1.05C0.45-3.9,0.067-3.4,0-3.1c-0.067,0.267,0.15,0.8,0.65,1.6C1.083-0.8,1.433-0.333,1.7-0.1
			C1.867,0.033,2.367,0.067,3.2,0z"/>
	</g>
</symbol>
<symbol  id="flash0.ai_x2F_Layer_3_x2F__x3C_Path_x3E__x5F_21" viewBox="-0.012 -5.65 5.817 5.664">
	<g id="Layer_1_7_">
		<path style="fill-rule:evenodd;clip-rule:evenodd;fill:#1F1A1C;" d="M3.2-0.05C4.033-0.117,4.567-0.233,4.8-0.4
			c0.133-0.067,0.333-0.633,0.6-1.7c0.3-1,0.434-1.6,0.4-1.8C5.733-4.167,5.25-4.533,4.35-5c-0.867-0.433-1.467-0.65-1.8-0.65
			c-0.267,0-0.733,0.35-1.4,1.05C0.45-3.9,0.067-3.4,0-3.1c-0.067,0.267,0.15,0.8,0.65,1.6C1.083-0.8,1.433-0.333,1.7-0.1
			C1.867,0.033,2.367,0.05,3.2-0.05z"/>
	</g>
</symbol>
<symbol  id="flash0.ai_x2F_Layer_3_x2F__x3C_Path_x3E__x5F_22" viewBox="-0.021 -6.7 6.838 6.706">
	<g id="Layer_1_6_">
		<path style="fill-rule:evenodd;clip-rule:evenodd;fill:#1F1A1C;" d="M3.75-0.05c1-0.067,1.65-0.2,1.95-0.4
			c0.133-0.133,0.367-0.8,0.7-2C6.733-3.683,6.867-4.4,6.8-4.6C6.733-4.933,6.167-5.367,5.1-5.9c-1-0.533-1.684-0.8-2.05-0.8
			c-0.333,0-0.9,0.417-1.7,1.25C0.55-4.65,0.1-4.067,0-3.7c-0.1,0.333,0.15,0.967,0.75,1.9C1.25-0.967,1.667-0.417,2-0.15
			C2.167,0.017,2.75,0.05,3.75-0.05z"/>
	</g>
</symbol>
<symbol  id="flash0.ai_x2F_Layer_3_x2F__x3C_Path_x3E__x5F_2_x5F_0" viewBox="0 -2.35 2.3 2.35">
	<g id="Layer_1_32_">
		<path style="fill-rule:evenodd;clip-rule:evenodd;fill:#615824;" d="M2.3-1.2c0-0.333-0.117-0.6-0.35-0.8
			c-0.2-0.233-0.467-0.35-0.8-0.35c-0.333,0-0.6,0.117-0.8,0.35C0.117-1.8,0-1.533,0-1.2c0,0.333,0.117,0.617,0.35,0.85
			C0.55-0.117,0.817,0,1.15,0c0.333,0,0.6-0.117,0.8-0.35C2.183-0.583,2.3-0.867,2.3-1.2z"/>
	</g>
</symbol>
<symbol  id="flash0.ai_x2F_Layer_3_x2F__x3C_Path_x3E__x5F_3" viewBox="-0.004 -5.575 5.544 5.591">
	<g id="Layer_1_25_">
		<path style="fill-rule:evenodd;clip-rule:evenodd;fill:#1F1A1C;" d="M4.1-0.45c0.767-0.367,1.233-0.667,1.4-0.9
			c0.067-0.133,0.05-0.733-0.05-1.8c-0.1-1.1-0.2-1.717-0.3-1.85C4.983-5.233,4.4-5.4,3.4-5.5c-0.967-0.1-1.6-0.1-1.9,0
			C1.267-5.4,0.95-4.9,0.55-4C0.15-3.133-0.033-2.533,0-2.2c0.033,0.3,0.433,0.717,1.2,1.25C1.833-0.45,2.317-0.133,2.65,0
			C2.85,0.067,3.333-0.083,4.1-0.45z"/>
	</g>
</symbol>
<symbol  id="flash0.ai_x2F_Layer_3_x2F__x3C_Path_x3E__x5F_3_x5F_0" viewBox="0 -2.35 2.35 2.35">
	<g id="Layer_1_31_">
		<path style="fill-rule:evenodd;clip-rule:evenodd;fill:#615824;" d="M2.35-1.2C2.35-1.533,2.233-1.8,2-2
			C1.767-2.233,1.483-2.35,1.15-2.35c-0.3,0-0.566,0.117-0.8,0.35C0.117-1.8,0-1.533,0-1.2c0,0.333,0.117,0.617,0.35,0.85
			S0.85,0,1.15,0C1.483,0,1.767-0.117,2-0.35S2.35-0.867,2.35-1.2z"/>
	</g>
</symbol>
<symbol  id="flash0.ai_x2F_Layer_3_x2F__x3C_Path_x3E__x5F_4" viewBox="-0.004 -5.575 5.544 5.591">
	<g id="Layer_1_24_">
		<path style="fill-rule:evenodd;clip-rule:evenodd;fill:#1F1A1C;" d="M4.1-0.45c0.767-0.367,1.233-0.667,1.4-0.9
			c0.067-0.133,0.05-0.733-0.05-1.8c-0.1-1.1-0.2-1.717-0.3-1.85C4.983-5.233,4.4-5.4,3.4-5.5c-0.967-0.1-1.6-0.1-1.9,0
			C1.233-5.4,0.917-4.9,0.55-4C0.15-3.133-0.033-2.533,0-2.2c0.033,0.3,0.417,0.717,1.15,1.25C1.783-0.45,2.283-0.133,2.65,0
			C2.85,0.067,3.333-0.083,4.1-0.45z"/>
	</g>
</symbol>
<symbol  id="flash0.ai_x2F_Layer_3_x2F__x3C_Path_x3E__x5F_4_x5F_0" viewBox="0 -4 3.8 4">
	<g id="Layer_1_30_">
		<path style="fill-rule:evenodd;clip-rule:evenodd;fill:#453B17;" d="M3.8-2c0-0.567-0.183-1.033-0.55-1.4C2.883-3.8,2.433-4,1.9-4
			S0.917-3.8,0.55-3.4C0.183-3.033,0-2.567,0-2c0,0.533,0.183,1,0.55,1.4S1.367,0,1.9,0s0.983-0.2,1.35-0.6S3.8-1.467,3.8-2z"/>
	</g>
</symbol>
<symbol  id="flash0.ai_x2F_Layer_3_x2F__x3C_Path_x3E__x5F_5" viewBox="-0.014 -5.575 5.554 5.591">
	<g id="Layer_1_23_">
		<path style="fill-rule:evenodd;clip-rule:evenodd;fill:#1F1A1C;" d="M4.1-0.45c0.767-0.367,1.233-0.667,1.4-0.9
			c0.067-0.133,0.05-0.733-0.05-1.8c-0.1-1.1-0.2-1.717-0.3-1.85C4.983-5.233,4.4-5.4,3.4-5.5c-0.967-0.1-1.6-0.1-1.9,0
			C1.233-5.4,0.9-4.9,0.5-4C0.1-3.133-0.067-2.533,0-2.2c0.033,0.3,0.417,0.717,1.15,1.25C1.783-0.45,2.283-0.133,2.65,0
			C2.817,0.067,3.3-0.083,4.1-0.45z"/>
	</g>
</symbol>
<symbol  id="flash0.ai_x2F_Layer_3_x2F__x3C_Path_x3E__x5F_5_x5F_0" viewBox="0 -4.2 3.8 4.2">
	<g id="Layer_1_29_">
		<path style="fill-rule:evenodd;clip-rule:evenodd;fill:#453B17;" d="M3.8-2.1c0-0.566-0.183-1.066-0.55-1.5
			C2.883-4,2.433-4.2,1.9-4.2S0.917-4,0.55-3.6C0.183-3.167,0-2.667,0-2.1c0,0.567,0.183,1.067,0.55,1.5C0.917-0.2,1.367,0,1.9,0
			s0.983-0.2,1.35-0.6C3.617-1.033,3.8-1.533,3.8-2.1z"/>
	</g>
</symbol>
<symbol  id="flash0.ai_x2F_Layer_3_x2F__x3C_Path_x3E__x5F_6" viewBox="-0.006 -3.75 3.746 3.756">
	<g id="Layer_1_22_">
		<path style="fill-rule:evenodd;clip-rule:evenodd;fill:#1F1A1C;" d="M2.75-0.3c0.5-0.233,0.817-0.434,0.95-0.6
			c0.066-0.067,0.05-0.467-0.05-1.2c-0.066-0.733-0.133-1.15-0.2-1.25c-0.1-0.167-0.5-0.283-1.2-0.35C1.617-3.767,1.2-3.767,1-3.7
			c-0.167,0.067-0.383,0.4-0.65,1C0.083-2.1-0.033-1.683,0-1.45C0.033-1.283,0.3-1,0.8-0.6C1.233-0.267,1.55-0.067,1.75,0
			C1.917,0.033,2.25-0.067,2.75-0.3z"/>
	</g>
</symbol>
<symbol  id="flash0.ai_x2F_Layer_3_x2F__x3C_Path_x3E__x5F_7" viewBox="0 -3.8 3.75 3.77">
	<g id="Layer_1_21_">
		<path style="fill-rule:evenodd;clip-rule:evenodd;fill:#1F1A1C;" d="M2.75-0.35C3.283-0.583,3.6-0.783,3.7-0.95
			c0.066-0.066,0.066-0.466,0-1.2C3.633-2.883,3.567-3.3,3.5-3.4C3.4-3.567,3-3.683,2.3-3.75c-0.633-0.067-1.05-0.067-1.25,0
			c-0.167,0.067-0.383,0.4-0.65,1S0-1.733,0-1.5c0.033,0.167,0.3,0.45,0.8,0.85c0.467,0.333,0.8,0.533,1,0.6
			C1.933,0.017,2.25-0.083,2.75-0.35z"/>
	</g>
</symbol>
<symbol  id="flash0.ai_x2F_Layer_3_x2F__x3C_Path_x3E__x5F_8" viewBox="-0.006 -3.8 3.746 3.806">
	<g id="Layer_1_20_">
		<path style="fill-rule:evenodd;clip-rule:evenodd;fill:#1F1A1C;" d="M2.75-0.35c0.5-0.233,0.817-0.433,0.95-0.6
			c0.066-0.066,0.05-0.466-0.05-1.2C3.583-2.883,3.517-3.3,3.45-3.4c-0.1-0.167-0.5-0.283-1.2-0.35C1.617-3.817,1.2-3.817,1-3.75
			c-0.167,0.067-0.383,0.4-0.65,1S-0.033-1.733,0-1.5c0.033,0.167,0.3,0.45,0.8,0.85C1.2-0.35,1.517-0.133,1.75,0
			C1.917,0.033,2.25-0.083,2.75-0.35z"/>
	</g>
</symbol>
<symbol  id="flash0.ai_x2F_Layer_3_x2F__x3C_Path_x3E__x5F_9" viewBox="-0.007 -11.938 7.848 11.944">
	<g id="Layer_1_19_">
		<path style="fill-rule:evenodd;clip-rule:evenodd;fill:#1F1A1C;" d="M6.05-1.05c1-0.867,1.583-1.55,1.75-2.05
			c0.1-0.2,0.017-1.033-0.25-2.5C7.383-6.433,7.133-7.717,6.8-9.45c-0.1-0.566-0.95-1.167-2.55-1.8c-1.5-0.567-2.467-0.783-2.9-0.65
			c-0.333,0.133-0.667,1.05-1,2.75c-0.333,1.7-0.434,2.9-0.3,3.6c0.1,0.566,0.717,1.566,1.85,3c1,1.267,1.75,2.1,2.25,2.5
			C4.417,0.15,5.05-0.183,6.05-1.05z"/>
	</g>
</symbol>
<g>
	<g>
		<linearGradient id="SVGID_7_" gradientUnits="userSpaceOnUse" x1="7.5586" y1="75.0752" x2="169.1504" y2="75.0752">
			<stop  offset="0" style="stop-color:#3D2940"/>
			<stop  offset="0.3098" style="stop-color:#211F21"/>
			<stop  offset="0.4275" style="stop-color:#272127"/>
			<stop  offset="0.5843" style="stop-color:#372739"/>
			<stop  offset="0.6353" style="stop-color:#3D2940"/>
			<stop  offset="1" style="stop-color:#3A4066"/>
		</linearGradient>
		<path style="fill-rule:evenodd;clip-rule:evenodd;fill:url(#SVGID_7_);" d="M169.15,27.85c-0.967,9-3.084,18.7-6.351,29.1
			c-3.566,11.3-5.633,18.783-6.2,22.45c-1.066,6.833-1.8,16.816-2.199,29.949c-0.2,6.567-0.284,12.45-0.25,17.65H23.05
			c0-5.066-0.117-10.7-0.35-16.9c-0.4-12.366-1.083-21.333-2.05-26.899c-1.133-6.566-2.633-12.5-4.5-17.8
			c-0.467-1.334-2-5.15-4.6-11.45c-1.633-3.934-2.733-7.467-3.3-10.6C7.517,39.05,7.367,33.9,7.8,27.9l98.2-4.75L169.15,27.85z"/>
		<path style="fill-rule:evenodd;clip-rule:evenodd;fill:#281C23;" d="M174.65,34.55c-1.013-1.012-1.563-1.678-1.65-2
			c0.464,2.417,0.464,4.917,0,7.5c-0.434,2.467-1.366,5.4-2.8,8.8c0.467-2.033,0.649-3.667,0.55-4.9c-0.233-1.2-0.366-2.25-0.4-3.15
			c-0.3,0.5-0.767,1.367-1.399,2.6c-0.566,1.2-1.05,2.083-1.45,2.65c0-1.6,0.184-3.167,0.55-4.7c-1.333,1.566-2.333,2.75-3,3.55
			c-1.233,1.434-2.149,2.667-2.75,3.7l0.7-4.4c-0.667,1.167-1.884,2.65-3.65,4.45c-1.966,1.967-3.283,3.45-3.949,4.45
			c1.267-2.067,1.166-5.117-0.301-9.15c-0.166,1.3-0.633,2.767-1.399,4.4c-0.033-0.667-0.283-2.15-0.75-4.45
			c-0.267,0.833-1.101,1.6-2.5,2.3c-1.634,0.7-2.733,1.183-3.3,1.45c0.199-0.9,0.466-1.55,0.8-1.95c-1.134,0.533-2.3,1.383-3.5,2.55
			s-2.101,2.317-2.7,3.45c0.167-1.6,0.316-2.8,0.45-3.6c0.267-1.467,0.666-2.5,1.2-3.1c-1.301,0.567-2.483,1.417-3.551,2.55
			c-0.466,0.5-1.35,1.633-2.649,3.4c0.333-1.2,0.6-2.417,0.8-3.65c-1.866,1.4-3.483,3.117-4.85,5.15
			c-1.502,2.187-2.36,4.312-2.575,6.375c-0.604-1.302-1.396-3.21-2.375-5.725c-1.033-2.7-1.834-4.667-2.4-5.9
			c-0.434,1.4-0.583,2.816-0.45,4.25c-1.1-1.7-1.949-2.95-2.55-3.75c-1-1.467-1.967-2.633-2.899-3.5
			c0.126,0.823,0.251,2.04,0.375,3.65c-0.242-2.368-2.134-3.102-5.676-2.2c-1.366,0.333-2.583,0.833-3.649,1.5
			c-1.066,0.667-1.517,1.184-1.351,1.55c-0.133-0.233-0.433-0.684-0.899-1.35c-0.434-0.533-0.7-0.983-0.8-1.35
			c0.066,0.4,0.066,0.967,0,1.7c-0.067,0.767-0.084,1.316-0.051,1.65c-1.466-1.133-2.5-2.934-3.1-5.4
			c-0.467,1.733-1.083,3.3-1.85,4.7c-0.434-1.667-0.551-3.417-0.351-5.25c-0.434,0.467-2.616,1.6-6.55,3.4
			c-3.369,1.538-5.119,2.863-5.25,3.975c0.024-0.289-0.026-0.697-0.15-1.225c-0.1-0.566-0.15-1.017-0.15-1.35
			c-0.7,0.9-2.3,2.2-4.8,3.9c-2.233,1.5-3.683,2.883-4.35,4.15c0.133-0.267,0.284-0.767,0.45-1.5c0.167-0.767,0.3-1.267,0.4-1.5
			c-1.133,0.1-2.2,0.7-3.2,1.8c-0.5,0.534-1.233,1.567-2.2,3.1c0.233-1.5,0.617-3.15,1.15-4.95c-1.833,1.6-3.217,2.966-4.15,4.1
			c-1.4,1.7-2.3,3.367-2.7,5c-0.367-1.5-0.383-3.783-0.05-6.85c-0.567,0.767-2.117,2.633-4.65,5.6
			c-1.967,2.267-3.417,4.184-4.35,5.75c-0.6-0.967-0.967-1.85-1.1-2.649V64.1c-0.1,0.5-0.267,1.184-0.5,2.051
			c-0.167,0.767-0.217,1.5-0.15,2.199c-0.733-0.767-1.517-1.816-2.35-3.149c-0.867-1.5-1.55-2.617-2.05-3.35
			c-0.167,1.667,0.033,3.5,0.6,5.5c-2.034-1.733-4.067-4.2-6.1-7.399c-2.167-3.7-3.833-6.45-5-8.25c0.033,0.7,0.167,1.683,0.4,2.95
			c0.267,1.333,0.417,2.317,0.45,2.95c-0.967-1.333-2.534-3.033-4.7-5.1c-2.333-2.167-3.933-3.817-4.8-4.95
			c-0.567,2.733-0.333,5.633,0.7,8.7c-3.733-3.667-6.183-6.867-7.35-9.6c-0.4,0.967-0.65,1.65-0.75,2.05
			c-0.133,0.7-0.117,1.45,0.05,2.25c-1.7-1.633-2.55-3.534-2.55-5.7c-1.933,1.133-3.4,2.317-4.4,3.55
			c-0.633,0.8-1.083,1.717-1.35,2.75c-0.333-0.833-0.583-1.466-0.75-1.9c-0.267-0.8-0.433-1.517-0.5-2.15
			c-1.167,1.5-1.7,3.283-1.6,5.35c-1.167-1.367-1.9-2.25-2.2-2.65c-0.833-1.067-1.45-2.05-1.85-2.95
			c-0.066,1.633,0.15,3.567,0.65,5.8c0.833,3.8,1.25,5.717,1.25,5.75c-0.267-0.367-1.917-2.367-4.95-6
			c-2.033-2.466-3.467-4.633-4.3-6.5c0.3,3.167,1.017,5.8,2.15,7.9C4.783,47.667,2.367,42.017,1.7,37.25
			C0.733,30.483,3.1,25.267,8.8,21.6c3.333-2.133,7.7-3.55,13.1-4.25c2.6-0.333,7.217-0.583,13.85-0.75
			c2.633-0.033,6.367-0.167,11.2-0.4c4.533-0.2,8.267-0.317,11.2-0.35c2.067-0.033,9.2-0.483,21.4-1.35
			c8.633-0.633,15.783-0.617,21.45,0.05c10.934,1.267,17.267,1.967,19,2.1c7.233,0.667,13.6,0.917,19.1,0.75
			c6.567-0.233,10.684-0.283,12.351-0.15c4.333,0.333,8.267,1.5,11.8,3.5c3.2,1.8,5.767,3.717,7.7,5.75
			C173.517,29.167,174.75,31.85,174.65,34.55z"/>
		<path style="fill-rule:evenodd;clip-rule:evenodd;fill:#60B5B1;" d="M173.9,31.6c-0.634-0.867-1.051-1.434-1.25-1.7
			c-0.301-0.4-0.733-0.6-1.301-0.6c0.301,1.5,0.067,3.434-0.699,5.8c-0.789,2.523-1.205,4.39-1.25,5.6
			c-0.092-0.434-0.208-1.134-0.351-2.1c-0.133-0.967-0.3-1.7-0.5-2.2c-0.666,2.033-1.383,3.45-2.149,4.25
			c0-0.267-0.084-0.65-0.25-1.15c-0.167-0.5-0.267-0.867-0.301-1.1c-0.333,1.434-0.916,3.184-1.75,5.25
			c-0.866,2.033-1.716,3.733-2.55,5.1c0.066-4.433-0.633-7.75-2.1-9.95c-0.533,2.7-1.5,4.934-2.9,6.7
			c0.134-1.933-0.083-3.517-0.649-4.75c-0.367,0.8-0.784,2.033-1.25,3.7c-0.2-0.767-0.301-2-0.301-3.7
			c-0.866,0.833-2.783,1.65-5.75,2.45c-2.733,0.767-4.517,1.75-5.35,2.95c0.066-0.933,0.15-1.633,0.25-2.1
			c0.134-0.833,0.366-1.5,0.7-2c-0.267,0.367-0.9,1.083-1.9,2.15c-0.833,0.833-1.416,1.566-1.75,2.2c0.2-0.533,0.4-1.316,0.601-2.35
			c0.233-1.033,0.433-1.783,0.6-2.25c-0.467,0.8-2.35,2.733-5.65,5.8c-2.333,2.2-3.449,4.583-3.35,7.15
			c-0.3-1.133-0.384-2.683-0.25-4.65c0.134-2.5,0.184-4.067,0.15-4.7c-0.4,0.6-0.75,1.483-1.051,2.65
			c-0.366,1.5-0.633,2.467-0.8,2.9c-0.533-2-0.866-3.167-1-3.5c-0.467-1.3-1.066-2.4-1.8-3.3c0.134,0.567,0.184,1.45,0.15,2.65
			c-0.567-0.7-1.351-1.483-2.351-2.35c-1.666-1.467-2.517-2.217-2.55-2.25c-0.033,0.133-0.2,0.85-0.5,2.15
			c-0.233,0.867-0.333,1.6-0.3,2.2c-1.733-2.367-3.384-3.816-4.95-4.35l1.1,1.55c-1.3-0.867-2.916-1.833-4.85-2.9
			c0.2,0.267,0.5,0.75,0.9,1.45c0.366,0.633,0.666,1.1,0.899,1.4c-0.467-0.567-1.45-1.233-2.95-2c-1.6-0.8-2.649-1.483-3.149-2.05
			c-0.066,0.3-0.267,0.9-0.601,1.8c-0.3,0.767-0.466,1.35-0.5,1.75c-0.466-0.9-0.767-1.583-0.899-2.05c-0.2-0.7-0.267-1.45-0.2-2.25
			c-1.6,0.967-2.767,2.1-3.5,3.4c0.333-1.267,0.55-2.05,0.65-2.35c0.256-0.736,0.631-1.394,1.125-1.975
			c-0.5,0.548-1.675,1.173-3.525,1.875c-1.9,0.7-3.167,1.483-3.8,2.35c-0.066-0.7-0.084-1.233-0.05-1.6
			c-0.5,1.566-1.384,2.867-2.65,3.9l0.5-3.85c-0.667,0.733-1.566,1.533-2.7,2.4c-1.245,0.95-2.187,1.675-2.825,2.175
			c0.851-1.954,1.327-3.062,1.425-3.325c-4,2.967-6.2,6.15-6.601,9.55c-0.333-1.1-0.433-2.383-0.3-3.85
			c0.133-1.533,0.483-2.767,1.05-3.7c-3.333,2.167-5.5,4.517-6.5,7.05l-0.7-3.9c-0.833,1.434-1.233,2.983-1.2,4.65
			c-0.3-0.633-0.533-1.1-0.7-1.4c-0.233-0.533-0.417-1-0.55-1.4c-0.333,0.967-1.017,2.6-2.05,4.9c0-1.733,0.05-2.867,0.15-3.4
			c-2.633,2.767-4.283,5.133-4.95,7.1c-0.3-1.167-0.483-2.05-0.55-2.65c-0.267,0.633-0.833,1.7-1.7,3.2
			c-0.656,1.378-0.889,2.512-0.7,3.4c-0.299-1.251-0.382-2.651-0.25-4.2c0.066-0.933,0.267-2.317,0.6-4.15
			c-1.434,0.733-2.4,2.45-2.9,5.15c-0.424,2.25-0.432,4.309-0.025,6.175c-0.306-1.266-0.814-2.657-1.525-4.175
			c-0.9-1.8-1.583-3.183-2.05-4.15c-0.167,2.167-0.25,3.417-0.25,3.75c-1.167-2.167-1.767-3.283-1.8-3.35
			c-0.633-1.433-0.883-2.667-0.75-3.7c-0.1,0.333-0.25,0.767-0.45,1.3c-0.167,0.467-0.267,0.933-0.3,1.4
			c-0.533-0.967-0.767-2-0.7-3.1c0.033-1.066,0.333-2.066,0.9-3c-1.567,1.167-2.684,2.55-3.35,4.15c-1.033-2.1-1.5-3.883-1.4-5.35
			c-0.067,0.133-0.267,0.417-0.6,0.85c-0.3,0.333-0.5,0.65-0.6,0.95c-1.167-1.2-2.033-2.1-2.6-2.7c0.2,0.733,0.267,1.9,0.2,3.5
			c-1.333-1.8-2.4-3.05-3.2-3.75c-0.267,0.534-0.466,1.133-0.6,1.8c-0.19,0.856-0.199,1.49-0.025,1.9
			c-0.688-1.51-1.23-2.644-1.625-3.4c-0.667-1.267-1.383-2.317-2.15-3.15c0.1,1.233,0.434,2.45,1,3.65
			c-1.6-1.133-2.816-2.117-3.65-2.95c-1.3-1.267-2.167-2.533-2.6-3.8c-0.066,1-0.1,1.566-0.1,1.7c0,0.6,0.117,1.167,0.35,1.7
			c-1.566-0.833-2.617-2.3-3.15-4.4c-1.3,0.333-2.3,1.183-3,2.55c0-0.533-0.083-1.05-0.25-1.55c-0.2-0.6-0.367-1.083-0.5-1.45
			c-0.1,0.4-0.3,0.934-0.6,1.6c-0.3,0.7-0.5,1.233-0.6,1.6c-0.533-1.167-1.466-2.117-2.8-2.85c-0.133-0.1-0.867-0.45-2.2-1.05
			c0.1,0.267,0.217,0.716,0.35,1.35c0.133,0.6,0.267,1.05,0.4,1.35c-1.367-0.633-2.316-1.467-2.85-2.5
			c-0.067,0.467-0.25,1.217-0.55,2.25c-0.233,0.9-0.383,1.617-0.45,2.15c-0.333-0.333-0.667-0.733-1-1.2
			c-0.467-0.7-0.617-1.15-0.45-1.35c-0.267,0.333-0.717,0.833-1.35,1.5c0-0.767,0.017-1.233,0.05-1.4
			c-1.034,1.667-1.467,3.566-1.3,5.7c-1.167-2.233-1.85-3.583-2.05-4.05c-0.667-1.633-0.867-3.033-0.6-4.2
			c-0.367,0.633-0.783,1.583-1.25,2.85c-0.5,1.333-0.9,2.283-1.2,2.85c-1.837-2.494-2.612-4.536-2.325-6.125
			c-0.838,4.014-0.279,8.489,1.675,13.425C8.383,49.083,7,46.433,6,43.6c-1.067-3-1.583-5.917-1.55-8.75
			c-1.067,2.367-1.067,5.85,0,10.45C1.583,38.5,0.1,33.45,0,30.15c-0.1-5.733,2.917-9.6,9.05-11.6
			c7.233-2.367,14.583-3.633,22.05-3.8c3.267-0.1,9.483,0.2,18.65,0.9c6.333,0.5,13.567,0.483,21.7-0.05
			c3.033-0.2,10.25-0.85,21.649-1.95c18.367-1.733,32.851-1.7,43.45,0.1c2.5,0.433,6.517,1.067,12.05,1.9
			c4.9,0.833,8.884,1.75,11.95,2.75C169.116,21.167,173.566,25.567,173.9,31.6z"/>
		<path style="fill-rule:evenodd;clip-rule:evenodd;fill:#3E9A9D;" d="M169.4,0c5.633-0.1,9.517,0.667,11.649,2.3
			c3.8,3.034,2.884,5.1-2.75,6.2c-7.399,0.667-12.1,1.15-14.1,1.45c-3.367,0.533-5.867,1.1-7.5,1.7c-2,0.767-3.316,1.783-3.95,3.05
			c-0.566,1.133,0.233,1.983,2.4,2.55c3.933,1.067,6.316,1.817,7.149,2.25c3.066,1.533,5.15,3.217,6.25,5.05
			c1,1.733,1.033,3.434,0.101,5.1c-2.301,4.1-7.301,6.717-15,7.85c-7.2,1.033-14.384,0.533-21.551-1.5
			c-9.3-2.6-17.949-3.7-25.949-3.3c-7.034,0.367-16.083,2.1-27.15,5.2c-8.533,2.4-16.3,3.65-23.3,3.75
			c-9.167,0.1-14.967-1.983-17.4-6.25c-1.133-2.033-0.633-3.933,1.5-5.7c1.733-1.4,3.967-2.383,6.7-2.95
			c-1.467-0.267-3.183-0.317-5.15-0.15c-2.533,0.167-4.95,0.667-7.25,1.5c-12.367,4.467-21.45,5.833-27.25,4.1
			c-2.733-0.833-4.533-2.133-5.4-3.9C0.35,26.133,1.2,23.833,4,21.4c2.867-2.533,7.317-4.233,13.35-5.1
			c1.467-0.233,3.333-0.5,5.6-0.8c1.6-0.333,2.483-0.8,2.65-1.4c0.667-1.633-0.883-3-4.65-4.1C15.783,8.9,11.933,8.033,9.4,7.4
			c-4-1.3-5.533-2.717-4.6-4.25c0.867-1.4,3.034-2.267,6.5-2.6c4.434-0.4,10.35-0.517,17.75-0.35
			C40.317,0.433,46.333,0.55,47.1,0.55c8.4,0,21-0.05,37.8-0.15c14.8-0.033,27.383,0.017,37.75,0.15
			c3.566,0.034,9.216,0.034,16.949,0c7.367-0.066,13-0.066,16.9,0C158.767,0.617,163.066,0.433,169.4,0z"/>
		<path style="fill-rule:evenodd;clip-rule:evenodd;fill:#3E9A9D;" d="M66.2,42.7c4.3-0.733,6.55-0.117,6.75,1.85
			c0.2,1.967-1.983,3.3-6.55,4c-4.6,0.733-6.933,0.133-7-1.8C59.367,44.85,61.633,43.5,66.2,42.7z"/>
		<path style="fill-rule:evenodd;clip-rule:evenodd;fill:#3E9A9D;" d="M80,43.85c-2.467,0.467-3.717,0.083-3.75-1.15
			c-0.033-1.233,1.167-2.1,3.6-2.6c2.3-0.467,3.5-0.083,3.6,1.15C83.583,42.517,82.433,43.383,80,43.85z"/>
		<path style="fill-rule:evenodd;clip-rule:evenodd;fill:#3E9A9D;" d="M29.45,32.2c2.3,0.066,3.367,0.733,3.2,2
			c-0.2,1.267-1.533,1.833-4,1.7c-2.5-0.133-3.617-0.8-3.35-2C25.6,32.7,26.983,32.133,29.45,32.2z"/>
	</g>
	<g>
		
			<use xlink:href="#flash0.ai_x2F_Layer_3_x2F__x3C_Path_x3E__x5F_1"  width="14.014" height="19.404" x="-0.02" y="-19.361" transform="matrix(1 0 0 -1 118.1504 79.4004)" style="overflow:visible;opacity:0.2891;enable-background:new    ;"/>
		
			<radialGradient id="SVGID_8_" cx="146.7012" cy="65.21" r="11.9207" gradientTransform="matrix(0.971 0.2391 0.3365 -1.3663 -37.5383 152.4175)" gradientUnits="userSpaceOnUse">
			<stop  offset="0" style="stop-color:#43485A"/>
			<stop  offset="0.4314" style="stop-color:#3D2940"/>
			<stop  offset="0.6" style="stop-color:#2D212F"/>
			<stop  offset="0.8314" style="stop-color:#1D181D"/>
			<stop  offset="1" style="stop-color:#171517"/>
		</radialGradient>
		<path style="fill-rule:evenodd;clip-rule:evenodd;fill:url(#SVGID_8_);" d="M118.65,87c0.6-2.434,1.699-4.384,3.3-5.85
			c1.566-1.434,3.184-1.95,4.85-1.551c1.667,0.434,2.867,1.65,3.601,3.65c0.733,2.033,0.8,4.267,0.199,6.7
			c-0.6,2.434-1.699,4.366-3.3,5.8c-1.566,1.434-3.184,1.95-4.85,1.55c-1.634-0.399-2.834-1.6-3.601-3.6
			C118.116,91.7,118.05,89.467,118.65,87z"/>
	</g>
	<g>
		
			<use xlink:href="#flash0.ai_x2F_Layer_3_x2F__x3C_Path_x3E__x5F_1_x5F_0"  width="8.118" height="13.661" x="-0.006" y="-13.631" transform="matrix(1 0 0 -1 19.2998 57.6001)" style="overflow:visible;opacity:0.2891;enable-background:new    ;"/>
		
			<radialGradient id="SVGID_9_" cx="22.5" cy="70.0498" r="6.3275" gradientTransform="matrix(-0.9877 0.1564 -0.2759 -1.7425 64.0532 188.5911)" gradientUnits="userSpaceOnUse">
			<stop  offset="0" style="stop-color:#43485A"/>
			<stop  offset="0.4314" style="stop-color:#3D2940"/>
			<stop  offset="0.6" style="stop-color:#2D212F"/>
			<stop  offset="0.8314" style="stop-color:#1D181D"/>
			<stop  offset="1" style="stop-color:#171517"/>
		</radialGradient>
		<path style="fill-rule:evenodd;clip-rule:evenodd;fill:url(#SVGID_9_);" d="M20.7,64.2c-0.233-1.667-0.133-3.133,0.3-4.4
			c0.433-1.267,1.1-1.983,2-2.15c0.9-0.133,1.75,0.333,2.55,1.4c0.833,1.067,1.383,2.434,1.65,4.1c0.267,1.667,0.167,3.133-0.3,4.4
			c-0.433,1.267-1.1,1.967-2,2.101c-0.9,0.166-1.75-0.284-2.55-1.351C21.517,67.233,20.967,65.866,20.7,64.2z"/>
	</g>
	<g>
		
			<use xlink:href="#flash0.ai_x2F_Layer_3_x2F__x3C_Path_x3E__x5F_1_x5F_1"  width="6.755" height="8.202" x="-0.002" y="-8.2" transform="matrix(1 0 0 -1 131.0996 71.2002)" style="overflow:visible;opacity:0.2891;enable-background:new    ;"/>
		
			<radialGradient id="SVGID_10_" cx="135.4102" cy="79.9512" r="5.9755" gradientTransform="matrix(0.9999 -0.0125 -0.0147 -1.1735 2.1747 173.7713)" gradientUnits="userSpaceOnUse">
			<stop  offset="0" style="stop-color:#43485A"/>
			<stop  offset="0.4314" style="stop-color:#3D2940"/>
			<stop  offset="0.6" style="stop-color:#2D212F"/>
			<stop  offset="0.8314" style="stop-color:#1D181D"/>
			<stop  offset="1" style="stop-color:#171517"/>
		</radialGradient>
		<path style="fill-rule:evenodd;clip-rule:evenodd;fill:url(#SVGID_10_);" d="M137.25,75.1c0,1.067-0.3,1.967-0.9,2.7
			c-0.6,0.733-1.316,1.101-2.149,1.101c-0.834,0.033-1.566-0.317-2.2-1.051c-0.6-0.733-0.917-1.633-0.95-2.699
			c0-1.067,0.3-1.967,0.9-2.7c0.6-0.767,1.316-1.15,2.149-1.15c0.867,0,1.601,0.367,2.2,1.101
			C136.9,73.134,137.217,74.033,137.25,75.1z"/>
	</g>
	<g>
		
			<use xlink:href="#flash0.ai_x2F_Layer_3_x2F__x3C_Path_x3E__x5F_1_x5F_2"  width="6.926" height="14.361" x="0.012" y="-14.356" transform="matrix(1 0 0 -1 151.9004 57.3501)" style="overflow:visible;opacity:0.2891;enable-background:new    ;"/>
		
			<radialGradient id="SVGID_11_" cx="169.4951" cy="22.9385" r="5.103" gradientTransform="matrix(0.9602 0.2792 0.8746 -3.008 -26.4667 91.0252)" gradientUnits="userSpaceOnUse">
			<stop  offset="0" style="stop-color:#43485A"/>
			<stop  offset="0.4314" style="stop-color:#382966"/>
			<stop  offset="0.5608" style="stop-color:#2D224C"/>
			<stop  offset="0.7373" style="stop-color:#211B2F"/>
			<stop  offset="0.8902" style="stop-color:#1A171D"/>
			<stop  offset="1" style="stop-color:#171517"/>
		</radialGradient>
		<path style="fill-rule:evenodd;clip-rule:evenodd;fill:url(#SVGID_11_);" d="M157.75,64.85c-0.566,1.834-1.283,3.317-2.15,4.45
			c-0.866,1.167-1.633,1.634-2.3,1.4c-0.7-0.2-1.116-1.017-1.25-2.45c-0.133-1.434,0.066-3.066,0.601-4.9
			c0.566-1.833,1.283-3.317,2.149-4.45c0.867-1.133,1.65-1.6,2.351-1.4c0.699,0.2,1.1,1.017,1.199,2.45
			C158.483,61.383,158.283,63.017,157.75,64.85z"/>
	</g>
	
		<use xlink:href="#flash0.ai_x2F_Layer_3_x2F__x3C_Path_x3E__x5F_22"  width="6.838" height="6.706" x="-0.021" y="-6.7" transform="matrix(1 0 0 -1 28.5498 55.5)" style="overflow:visible;opacity:0.6289;enable-background:new    ;"/>
	
		<use xlink:href="#flash0.ai_x2F_Layer_3_x2F__x3C_Path_x3E__x5F_21"  width="5.817" height="5.664" x="-0.012" y="-5.65" transform="matrix(1 0 0 -1 109 59.1001)" style="overflow:visible;opacity:0.6289;enable-background:new    ;"/>
	
		<use xlink:href="#flash0.ai_x2F_Layer_3_x2F__x3C_Path_x3E__x5F_20"  width="5.817" height="5.683" x="-0.012" y="-5.65" transform="matrix(1 0 0 -1 119.2998 110.9502)" style="overflow:visible;opacity:0.6289;enable-background:new    ;"/>
	
		<use xlink:href="#flash0.ai_x2F_Layer_3_x2F__x3C_Path_x3E__x5F_19"  width="10.089" height="9.873" x="-0.027" y="-9.9" transform="matrix(1 0 0 -1 78.3501 67.5)" style="overflow:visible;opacity:0.6289;enable-background:new    ;"/>
	
		<use xlink:href="#flash0.ai_x2F_Layer_3_x2F__x3C_Path_x3E__x5F_18"  width="9.978" height="9.723" x="-0.016" y="-9.7" transform="matrix(1 0 0 -1 54.2998 87.3496)" style="overflow:visible;opacity:0.6289;enable-background:new    ;"/>
	
		<use xlink:href="#flash0.ai_x2F_Layer_3_x2F__x3C_Path_x3E__x5F_17"  width="15.396" height="15.056" x="0.021" y="-15.05" transform="matrix(1 0 0 -1 31.8501 74.6504)" style="overflow:visible;opacity:0.6289;enable-background:new    ;"/>
	
		<use xlink:href="#flash0.ai_x2F_Layer_3_x2F__x3C_Path_x3E__x5F_16"  width="15.396" height="15.028" x="-0.028" y="-15" transform="matrix(1 0 0 -1 78.75 105.25)" style="overflow:visible;opacity:0.6289;enable-background:new    ;"/>
	
		<use xlink:href="#flash0.ai_x2F_Layer_3_x2F__x3C_Path_x3E__x5F_15"  width="10.937" height="10.717" x="0.025" y="-10.7" transform="matrix(1 0 0 -1 82.4502 79.5996)" style="overflow:visible;opacity:0.6289;enable-background:new    ;"/>
	
		<use xlink:href="#flash0.ai_x2F_Layer_3_x2F__x3C_Path_x3E__x5F_14"  width="9.728" height="9.785" x="-0.006" y="-9.783" transform="matrix(1 0 0 -1 32.1001 61.8999)" style="overflow:visible;opacity:0.6289;enable-background:new    ;"/>
	
		<use xlink:href="#flash0.ai_x2F_Layer_3_x2F__x3C_Path_x3E__x5F_13"  width="10.921" height="10.906" x="-0.05" y="-10.95" transform="matrix(1 0 0 -1 50.3501 109.2998)" style="overflow:visible;opacity:0.6289;enable-background:new    ;"/>
	
		<use xlink:href="#flash0.ai_x2F_Layer_3_x2F__x3C_Path_x3E__x5F_12"  width="6.179" height="5.983" x="-0.011" y="-6" transform="matrix(1 0 0 -1 137.9502 89.0498)" style="overflow:visible;opacity:0.6289;enable-background:new    ;"/>
	
		<use xlink:href="#flash0.ai_x2F_Layer_3_x2F__x3C_Path_x3E__x5F_11"  width="8.331" height="8.1" x="-0.018" y="-8.1" transform="matrix(1 0 0 -1 113.25 67.8496)" style="overflow:visible;opacity:0.6289;enable-background:new    ;"/>
	
		<use xlink:href="#flash0.ai_x2F_Layer_3_x2F__x3C_Path_x3E__x5F_10"  width="8.283" height="8.106" x="-0.019" y="-8.1" transform="matrix(1 0 0 -1 96.6504 110.4004)" style="overflow:visible;opacity:0.6289;enable-background:new    ;"/>
	
		<use xlink:href="#flash0.ai_x2F_Layer_3_x2F__x3C_Path_x3E__x5F_9"  width="7.848" height="11.944" x="-0.007" y="-11.938" transform="matrix(1 0 0 -1 146.7998 76.9004)" style="overflow:visible;opacity:0.6289;enable-background:new    ;"/>
	
		<use xlink:href="#flash0.ai_x2F_Layer_3_x2F__x3C_Path_x3E__x5F_8"  width="3.746" height="3.806" x="-0.006" y="-3.8" transform="matrix(1 0 0 -1 72.1499 74.5996)" style="overflow:visible;opacity:0.6289;enable-background:new    ;"/>
	
		<use xlink:href="#flash0.ai_x2F_Layer_3_x2F__x3C_Path_x3E__x5F_7"  width="3.75" height="3.77" y="-3.8" transform="matrix(1 0 0 -1 28.25 115.7998)" style="overflow:visible;opacity:0.6289;enable-background:new    ;"/>
	
		<use xlink:href="#flash0.ai_x2F_Layer_3_x2F__x3C_Path_x3E__x5F_6"  width="3.746" height="3.756" x="-0.006" y="-3.75" transform="matrix(1 0 0 -1 94.75 104.5498)" style="overflow:visible;opacity:0.6289;enable-background:new    ;"/>
	
		<use xlink:href="#flash0.ai_x2F_Layer_3_x2F__x3C_Path_x3E__x5F_5"  width="5.554" height="5.591" x="-0.014" y="-5.575" transform="matrix(1 0 0 -1 44.75 68.5)" style="overflow:visible;opacity:0.6289;enable-background:new    ;"/>
	
		<use xlink:href="#flash0.ai_x2F_Layer_3_x2F__x3C_Path_x3E__x5F_4"  width="5.544" height="5.591" x="-0.004" y="-5.575" transform="matrix(1 0 0 -1 29.4502 107.4004)" style="overflow:visible;opacity:0.6289;enable-background:new    ;"/>
	
		<use xlink:href="#flash0.ai_x2F_Layer_3_x2F__x3C_Path_x3E__x5F_3"  width="5.544" height="5.591" x="-0.004" y="-5.575" transform="matrix(1 0 0 -1 24.7002 73.9502)" style="overflow:visible;opacity:0.6289;enable-background:new    ;"/>
	
		<use xlink:href="#flash0.ai_x2F_Layer_3_x2F__x3C_Path_x3E__x5F_2"  width="7.775" height="7.874" x="-0.011" y="-7.85" transform="matrix(1 0 0 -1 36.0498 115.0498)" style="overflow:visible;opacity:0.6289;enable-background:new    ;"/>
	
		<use xlink:href="#flash0.ai_x2F_Layer_3_x2F__x3C_Path_x3E__x5F_1_x5F_3"  width="15.716" height="15.846" x="-0.011" y="-15.834" transform="matrix(1 0 0 -1 93.4004 66.5498)" style="overflow:visible;opacity:0.6289;enable-background:new    ;"/>
	
		<use xlink:href="#flash0.ai_x2F_Layer_3_x2F__x3C_Path_x3E_"  width="5.915" height="9.194" x="-0.003" y="-9.174" transform="matrix(1 0 0 -1 148.1504 91.7998)" style="overflow:visible;opacity:0.6289;enable-background:new    ;"/>
	<g>
		
			<use xlink:href="#flash0.ai_x2F_Layer_3_x2F__x3C_Path_x3E__x5F_5_x5F_0"  width="3.8" height="4.2" y="-4.2" transform="matrix(1 0 0 -1 119.9502 84.25)" style="overflow:visible;opacity:0.6289;enable-background:new    ;"/>
		
			<use xlink:href="#flash0.ai_x2F_Layer_3_x2F__x3C_Path_x3E__x5F_4_x5F_0"  width="3.8" height="4" y="-4" transform="matrix(1 0 0 -1 124.5996 84.3496)" style="overflow:visible;opacity:0.3516;enable-background:new    ;"/>
		
			<use xlink:href="#flash0.ai_x2F_Layer_3_x2F__x3C_Path_x3E__x5F_3_x5F_0"  width="2.35" height="2.35" y="-2.35" transform="matrix(1 0 0 -1 121 85.4502)" style="overflow:visible;opacity:0.3789;enable-background:new    ;"/>
		
			<use xlink:href="#flash0.ai_x2F_Layer_3_x2F__x3C_Path_x3E__x5F_2_x5F_0"  width="2.3" height="2.35" y="-2.35" transform="matrix(1 0 0 -1 125.5996 85.4502)" style="overflow:visible;opacity:0.3789;enable-background:new    ;"/>
		
			<use xlink:href="#flash0.ai_x2F_Layer_3_x2F__x3C_Path_x3E__x5F_1_x5F_4"  width="2.95" height="2.811" x="0" y="-2.805" transform="matrix(1 0 0 -1 125.75 85.7998)" style="overflow:visible;opacity:0.0898;enable-background:new    ;"/>
		
			<use xlink:href="#flash0.ai_x2F_Layer_3_x2F__x3C_Path_x3E__x5F_0"  width="2.95" height="2.811" x="0" y="-2.756" transform="matrix(1 0 0 -1 121.0498 85.75)" style="overflow:visible;opacity:0.0898;enable-background:new    ;"/>
	</g>
</g>
</svg>
