<?xml version="1.0" encoding="iso-8859-1"?>
<!-- Generator: Adobe Illustrator 15.1.0, SVG Export Plug-In . SVG Version: 6.00 Build 0)  -->
<!DOCTYPE svg PUBLIC "-//W3C//DTD SVG 1.1//EN" "http://www.w3.org/Graphics/SVG/1.1/DTD/svg11.dtd">
<svg version="1.1" id="Layer_1" xmlns="http://www.w3.org/2000/svg" xmlns:xlink="http://www.w3.org/1999/xlink" x="0px" y="0px"
	 width="58.85px" height="86.55px" viewBox="0 0 58.85 86.55" style="enable-background:new 0 0 58.85 86.55;" xml:space="preserve"
	>
<g>
	<g>
		
			<radialGradient id="SVGID_1_" cx="48.0996" cy="77.7998" r="39.7119" gradientTransform="matrix(0.9991 0.0431 -0.04 0.9251 3.1531 3.7518)" gradientUnits="userSpaceOnUse">
			<stop  offset="0" style="stop-color:#88CAB2"/>
			<stop  offset="0.2235" style="stop-color:#7EC3AD"/>
			<stop  offset="0.6" style="stop-color:#64AFA0"/>
			<stop  offset="1" style="stop-color:#42958F"/>
		</radialGradient>
		<path style="fill-rule:evenodd;clip-rule:evenodd;fill:url(#SVGID_1_);" d="M44.05,40.85c4.367,1.467,7.667,3.917,9.9,7.35
			c1.7,2.566,3.033,6.2,4,10.899c0.7,3.367,1,7.217,0.899,11.551c-0.033,2.166-0.133,4-0.3,5.5c-0.467-3.4-2.066-6.184-4.8-8.351
			c-1.733-1.333-5.384-3.316-10.95-5.95c-4.566-2.166-7.7-5.25-9.399-9.25c-1.334-3.1-1.684-6.333-1.051-9.7l3-2
			C37.95,39.8,40.85,39.783,44.05,40.85z"/>
		
			<radialGradient id="SVGID_2_" cx="46.75" cy="64.2998" r="31.2417" gradientTransform="matrix(0.9991 0.0432 -0.04 0.925 2.6163 2.7994)" gradientUnits="userSpaceOnUse">
			<stop  offset="0" style="stop-color:#88CAB2"/>
			<stop  offset="0.2784" style="stop-color:#80C0AD"/>
			<stop  offset="0.7412" style="stop-color:#6AA6A1"/>
			<stop  offset="1" style="stop-color:#5B9599"/>
		</radialGradient>
		<path style="fill-rule:evenodd;clip-rule:evenodd;fill:url(#SVGID_2_);" d="M45.15,43.4c1.6,0.767,3.033,1.784,4.3,3.05
			c1.5,1.467,2.95,3.934,4.35,7.399c1.167,2.967,1.851,5.301,2.05,7c0.233,1.801,0.917,5.034,2.051,9.7
			c-0.334-0.6-0.784-1.283-1.351-2.05c-1.133-1.5-2.316-2.65-3.55-3.45c-0.533-0.333-2.5-1.3-5.9-2.899
			c-3-1.4-5.383-2.784-7.149-4.15c-1.434-1.134-2.7-2.6-3.8-4.4c-1.167-2-1.733-3.85-1.7-5.55c0-0.566,0.1-1.133,0.3-1.7
			c0.833,1.7,2.017,3.467,3.55,5.301c1.101,1.233,3.084,2.866,5.95,4.899c0.934,0.634,1.783,1.134,2.55,1.5
			c-2.5-2.467-4.3-4.366-5.399-5.7c-1.934-2.3-3.284-4.466-4.051-6.5c0.434,0.2,0.934,0.584,1.5,1.15
			c0.193,0.193,0.368,0.368,0.525,0.525c-0.622-0.713-1.031-1.555-1.225-2.525c-0.301-1.467,0.283-2.333,1.75-2.6
			C41.467,42.133,43.217,42.467,45.15,43.4z"/>
	</g>
	<g>
		
			<radialGradient id="SVGID_3_" cx="-32.772" cy="-79.3789" r="27.2076" gradientTransform="matrix(-0.9496 -0.3133 -0.3133 0.9496 -49.7437 150.763)" gradientUnits="userSpaceOnUse">
			<stop  offset="0" style="stop-color:#88CAB2"/>
			<stop  offset="0.2235" style="stop-color:#7EC3AD"/>
			<stop  offset="0.6" style="stop-color:#64AFA0"/>
			<stop  offset="1" style="stop-color:#42958F"/>
		</radialGradient>
		<path style="fill-rule:evenodd;clip-rule:evenodd;fill:url(#SVGID_3_);" d="M25.4,65.3c-0.467,2.5-1.517,4.667-3.15,6.5
			c-2.133,2.334-4.95,3.684-8.45,4.05c-4.233,0.467-7.083,0.95-8.55,1.45C2.917,78.134,1.167,79.667,0,81.9
			c0.267-1.067,0.667-2.351,1.2-3.851c1.1-3.033,2.3-5.633,3.6-7.8c1.867-3.033,3.667-5.233,5.4-6.6
			c2.333-1.801,5.083-2.684,8.25-2.65c2.333,0.033,4.2,0.767,5.6,2.2C24.717,63.9,25.167,64.6,25.4,65.3z"/>
		
			<radialGradient id="SVGID_4_" cx="-34.083" cy="-69.4214" r="21.4127" gradientTransform="matrix(-0.9498 -0.3129 -0.3129 0.9498 -43.4435 131.8712)" gradientUnits="userSpaceOnUse">
			<stop  offset="0" style="stop-color:#88CAB2"/>
			<stop  offset="0.2784" style="stop-color:#80C0AD"/>
			<stop  offset="0.7412" style="stop-color:#6AA6A1"/>
			<stop  offset="1" style="stop-color:#5B9599"/>
		</radialGradient>
		<path style="fill-rule:evenodd;clip-rule:evenodd;fill:url(#SVGID_4_);" d="M22.7,68.35c-0.4,1.167-1.233,2.301-2.5,3.4
			c-1.167,1-2.367,1.717-3.6,2.15c-1.467,0.5-3.333,0.866-5.6,1.1c-2.6,0.267-4.133,0.467-4.6,0.6C4.833,76,3.317,76.866,1.85,78.2
			c1.967-2.967,3.25-5.05,3.85-6.25c0.6-1.134,1.65-2.566,3.15-4.3c1.8-2.101,3.35-3.467,4.65-4.101
			c1.133-0.566,2.333-0.916,3.6-1.05c1.5-0.167,2.7,0.033,3.6,0.6c0.867,0.534,1.017,1.284,0.45,2.25
			c-0.377,0.63-0.877,1.113-1.5,1.45c0.156-0.066,0.34-0.15,0.55-0.25c0.5-0.267,0.917-0.416,1.25-0.45
			c-1,1.233-2.434,2.417-4.3,3.551c-1.066,0.633-2.717,1.5-4.95,2.6c0.5-0.033,1.183-0.184,2.05-0.45
			c2.233-0.6,3.917-1.233,5.05-1.899c1.467-0.867,2.684-1.801,3.65-2.801C22.95,67.5,22.867,67.917,22.7,68.35z"/>
	</g>
	<path style="fill-rule:evenodd;clip-rule:evenodd;fill:#706359;" d="M28.65,0c-0.633,6.467-0.533,13.967,0.3,22.5
		c0.533,5.733,1.05,9.733,1.55,12c0.134,0.6,0.434,1.533,0.9,2.8c0.466,1.2,0.767,2.133,0.899,2.8c0.134,0.7,0.117,1.667-0.05,2.9
		c-0.16,1.247-0.193,2.139-0.1,2.675c-0.474-2.454-1.091-3.912-1.851-4.375c0.4,1.233,0.566,2.8,0.5,4.7
		c-0.1,2.5-0.116,4.05-0.05,4.65c0.434,4.866,0.6,8.05,0.5,9.55c-0.167,3.533-1.116,6.533-2.85,9c-1.967,2.8-2.983,4.233-3.05,4.3
		c-1.133,1.767-1.9,3.384-2.3,4.85c-0.333,1.233-0.183,2.467,0.45,3.7c0.6,1.101,1.4,1.9,2.4,2.4c1.067,0.5,1.983,0.45,2.75-0.15
		c0.867-0.666,1.333-1.95,1.4-3.85c1,1.767,0.851,3.35-0.45,4.75c-1.333,1.434-3.016,1.733-5.05,0.899
		c-1.767-0.733-2.983-2.033-3.65-3.899c-0.533-1.533-0.683-3.3-0.45-5.3c0.267-2.134,0.917-4.217,1.95-6.25
		c1.434-2.4,2.55-4.317,3.35-5.75c1.167-1.967,1.717-4.767,1.65-8.4c-0.267-4.1-0.367-7.066-0.3-8.9c0.066-2.033-0.267-5.1-1-9.2
		c-0.767-4.133-1.1-7.267-1-9.4c0.1-1.867,0.1-3.433,0-4.7c-0.1-1.4-0.383-2.966-0.85-4.7c-1.067-2.934-1.883-5.267-2.45-7
		c-1.1-3.2-1.433-5.55-1-7.05c0.3-1,1.684-1.966,4.15-2.9C27.35,1.75,28.583,0.867,28.65,0z"/>
</g>
</svg>
