<?xml version="1.0" encoding="iso-8859-1"?>
<!-- Generator: Adobe Illustrator 15.1.0, SVG Export Plug-In . SVG Version: 6.00 Build 0)  -->
<!DOCTYPE svg PUBLIC "-//W3C//DTD SVG 1.1//EN" "http://www.w3.org/Graphics/SVG/1.1/DTD/svg11.dtd">
<svg version="1.1" id="Layer_1" xmlns="http://www.w3.org/2000/svg" xmlns:xlink="http://www.w3.org/1999/xlink" x="0px" y="0px"
	 width="190px" height="250px" viewBox="0 0 190 250" style="enable-background:new 0 0 190 250;" xml:space="preserve">
<symbol  id="Symbol_5" viewBox="0.018 -13.857 6.968 13.851">
	<g id="Layer_1_2_">
		<path style="fill-rule:evenodd;clip-rule:evenodd;fill:#FFFFFF;" d="M5.3-0.05C6.133-0.283,6.667-1.133,6.9-2.6
			c0.2-1.5,0.05-3.2-0.45-5.1c-0.534-1.9-1.267-3.45-2.2-4.65c-0.9-1.2-1.767-1.683-2.6-1.45c-0.8,0.2-1.316,1.05-1.55,2.55
			c-0.2,1.5-0.033,3.2,0.5,5.1C1.1-4.25,1.817-2.7,2.75-1.5C3.65-0.333,4.5,0.15,5.3-0.05z"/>
	</g>
</symbol>
</svg>
